Jackknife	Query_ID	pHMM_Call	Atree_Call	Forced_Atree_Call	FT_Call	Forced_FT_Call
k1_as_query	Q93TX2/14210837_A1(8)_ala	ala_8	no_confident_result	ala	ala	no_force_needed
k1_as_query	Q2XNF8_A1(2)_ala	ser_2	no_confident_result	ala	no_confident_result	ala
k1_as_query	BGC0000419_AIG79243.1_26_mod1_hpg	hpg-hpg2cl_5	no_confident_result	hpg	no_confident_result	hpg
k1_as_query	Q50E73_A5(10)_gly	gly_6	no_confident_result	gly	gly	no_force_needed
k1_as_query	BGC0000425_AFH75320.1_5859_mod6_d-gln	ser_2	no_confident_result	d-leu	no_confident_result	d-leu
k1_as_query	BGC0000400_AGM16412.1_456_mod1_orn	orn_3	orn	no_force_needed	orn	no_force_needed
k1_as_query	AHZ20784.1_1992_mod2_gln|tyr	leu_1	glu|tyr	no_force_needed	glu|tyr	no_force_needed
k1_as_query	P39847_A1_glu	glu_7	no_confident_result	glu	no_confident_result	glu
k1_as_query	BGC0000456_BAO73252.1_7854_mod6_val	gln_2	no_confident_result	ala	no_confident_result	ala
k1_as_query	AFZ61525.1_3733_mod4_ser	ser_4	ser	no_force_needed	ser	no_force_needed
k1_as_query	Q9C1G0v2_A1_aad	aad_1	aad	no_force_needed	aad	no_force_needed
k1_as_query	O87313_A2_b-ala	ser_2	no_confident_result	phe|tyr	no_confident_result	glycolic-acid
k1_as_query	Q83VS1_A3_val	val_9	val	no_force_needed	val	no_force_needed
k1_as_query	Q9Z4X6_A5_asp	asp_3	asp	no_force_needed	asp	no_force_needed
k1_as_query	Q83VS0_A8(18)_dhab|dht	dhab-dht_1	no_confident_result	dhab|dht	no_confident_result	dhab|dht
k1_as_query	AGC65514.1_4147_mod3_val	val_1	no_confident_result	val	no_confident_result	val
k1_as_query	EPE34341.1_5024_mod5_3oh-glu	gln_2	thr	no_force_needed	thr	no_force_needed
k1_as_query	CBG75492_4248_mod4_orn	orn_6	orn	no_force_needed	orn	no_force_needed
k1_as_query	Q70KJ6_A2(5)_asp	asp_1	asp	no_force_needed	asp	no_force_needed
k1_as_query	AHH53507.1_5197_mod5_gly	gly_6	gly	no_force_needed	gly	no_force_needed
k1_as_query	BGC0000449_AHF21228.1_2025_mod2_dab	dab_1	dab	no_force_needed	dab	no_force_needed
k1_as_query	AHH53508.1_1559_mod2_kyn	gly_9	kyn	no_force_needed	kyn	no_force_needed
k1_as_query	Q54959_A2_abu|iva	hpg-hpg2cl_4	no_confident_result	gly-ph	no_confident_result	gly-ph
k1_as_query	BGC0001178_AGS77309.1_471_mod1_4hpg	hpg-hpg2cl_4	hpg|hpg2cl	no_force_needed	hpg|hpg2cl	no_force_needed
k1_as_query	Q83VS0_A1(11)_val	val_9	no_confident_result	val	val	no_force_needed
k1_as_query	AHZ20774.1_477_mod1_thr	thr_7	thr	no_force_needed	thr	no_force_needed
k1_as_query	BGC0001125_AIW82283.1_1622_mod2_asn|gln	asn_1	asn	no_force_needed	asn	no_force_needed
k1_as_query	removed_A2(3)_val	val_12	val	no_force_needed	val	no_force_needed
k1_as_query	Q9KID8v1_A1_pip	pip_1	pip	no_force_needed	pip	no_force_needed
k1_as_query	BGC0000463_AGM14934.1_2646_mod3_gln	gln_3	gln	no_force_needed	gln	no_force_needed
k1_as_query	BGC0000463_AGM14933.1_2676_mod3_val	leu_9	no_confident_result	val	no_confident_result	val
k1_as_query	BGC0000439_AHH53506.1_4093_mod4_thr	thr_13	thr	no_force_needed	thr	no_force_needed
k1_as_query	BGC0000419_AIG79242.1_473_mod1_dhpg	dpg-dhpg_1	no_confident_result	dpg	no_confident_result	dpg
k1_as_query	Q9RLP6v1_A3_ala	phe_5	ala	no_force_needed	ala	no_force_needed
k1_as_query	P0A398_A1_ala	ala_1	ala	no_force_needed	ala	no_force_needed
k1_as_query	O68008_A2(9)_phe	phe_2	no_confident_result	leu	no_confident_result	phe
k1_as_query	BGC0001132_xnc1_2022_1149_mod2_leu	leu_13	no_confident_result	ala	no_confident_result	arg
k1_as_query	O07944_A2_phe	trp_5	no_confident_result	phe	no_confident_result	phe
k1_as_query	BGC0000414_BAO84861.1_508_mod1_ala	ala_8	no_confident_result	ala|gly	no_confident_result	ala
k1_as_query	BGC0000376_BAP16689.1_223_mod1_6cl-4hydroxyindole-3-carboxylic	leu_1	no_confident_result	b-ala	no_confident_result	leu
k1_as_query	Q70AZ7_A3(6)_bht	bht_1	bht	no_force_needed	bht	no_force_needed
k1_as_query	NP_216895.1_486_mod1_lys	lys_2	lys	no_force_needed	lys	no_force_needed
k1_as_query	YP_631961.1_3708_mod3_goh-val	val_5	no_confident_result	leu	no_confident_result	leu
k1_as_query	BGC0001045_AFR69334.1_3500_mod3_ile|val	thr_3	no_confident_result	thr	no_confident_result	cysa
k1_as_query	Q9R9J0_A3_gln	glu_3	no_confident_result	gln	no_confident_result	gln
k1_as_query	Q9Z4X5_A3_asn	asp_2	asn	no_force_needed	asn	no_force_needed
k1_as_query	Q09164_A6_abu	leu_6	no_confident_result	leu	no_confident_result	ala
k1_as_query	Q9RK14_A2_athr	thr_13	no_confident_result	thr	no_confident_result	athr|thr
k1_as_query	BGC0001125_AIW82283.1_552_mod1_deoxy-thr	thr_6	no_confident_result	deoxy-thr	no_confident_result	deoxy-thr
k1_as_query	BGC0000400_AGM16414.1_277_mod1_val	val_5	val	no_force_needed	val	no_force_needed
k1_as_query	XP_754329.2_55_mod1_trp	asn_1	no_confident_result	ser	ser	no_force_needed
k1_as_query	CCA29202.1_1497_mod2_cys	cys_2	cys	no_force_needed	cys	no_force_needed
k1_as_query	BGC0000416_CBJ90289.1_562_mod1_val	val_4	val	no_force_needed	val	no_force_needed
k1_as_query	Q45R83_A1(8)_lys	orn_6	no_confident_result	lys	no_confident_result	lys
k1_as_query	Q7WZ65_A1_dpg|dhpg	dpg-dhpg_1	no_confident_result	dpg|dhpg	no_confident_result	dpg|dhpg
k1_as_query	P71717_A1_ser|thr	thr_15	thr	no_force_needed	thr	no_force_needed
k1_as_query	O76858_A1_b-ala	ser_2	no_confident_result	ala	no_confident_result	b-ala
k1_as_query	Q9C1G0v1_A3_val	val_14	val	no_force_needed	val	no_force_needed
k1_as_query	AEU11006.1_4186_mod2_gly	gly_3	no_confident_result	gly	no_confident_result	gly
k1_as_query	P0C062_A1(1)_phe	phe_2	phe	no_force_needed	phe	no_force_needed
k1_as_query	Q8GGP3_A1(2)_cys	cys_2	no_confident_result	cys	cys	no_force_needed
k1_as_query	P35854_A1_ala	ala_1	no_confident_result	ala	no_confident_result	ala
k1_as_query	Q9Z4X5_A1(7)_asp	asp_3	asp	no_force_needed	asp	no_force_needed
k1_as_query	AEA30272.1_1550_mod2_ala	ala_6	no_confident_result	ala	no_confident_result	ala
k1_as_query	BGC0001035_EPE34341.1_3930_mod4_4-5-dihydroxyornithine	gln_2	4oh-5oh-hty	no_force_needed	4oh-5oh-hty	no_force_needed
k1_as_query	Q9R9J0_A1_tyr	tyr_2	no_confident_result	tyr	no_confident_result	tyr
k1_as_query	O85739_A1_cys	cys_2	no_confident_result	cys	no_confident_result	thr
k1_as_query	BGC0000400_AGM16412.1_5576_mod5_ser	ser_1	ser	no_force_needed	ser	no_force_needed
k1_as_query	BGC0000425_AFH75321.1_4831_mod5_d-val	d-leu_1	no_confident_result	leu	no_confident_result	leu
k1_as_query	BGC0001036_AGZ15455.1_29_mod1_ala|leu|val	asn_1	no_confident_result	trp	no_confident_result	pro-4p
k1_as_query	BGC0001132_xnc1_2022_2204_mod3_val	val_10	val	no_force_needed	val	no_force_needed
k1_as_query	CCJ67640.1_3780_mod4_hse	ser_4	no_confident_result	hse	no_confident_result	hse
k1_as_query	BGC0000464_CDG17982.1_1657_mod2_b-ala	leu_13	no_confident_result	ala	no_confident_result	ala
k1_as_query	BGC0000425_AFH75320.1_4799_mod5_d-val	d-val_1	no_confident_result	d-val	no_confident_result	d-val
k1_as_query	Q9FDB3_A3(3)_val	val_9	no_confident_result	val	val	no_force_needed
k1_as_query	Q83VS1_A5(10)_ala	ala_7	ala	no_force_needed	ala	no_force_needed
k1_as_query	Q70JZ9_A4_glu	glu_3	no_confident_result	glu	no_confident_result	glu
k1_as_query	Q51338_A1_thr	thr_8	thr	no_force_needed	thr	no_force_needed
k1_as_query	BGC0000464_CDG17981.1_1643_mod2_leu	leu_11	leu	no_force_needed	leu	no_force_needed
k1_as_query	AFZ61525.1_2683_mod3_leu	leu_7	no_confident_result	leu	no_confident_result	leu
k1_as_query	Q01886v1_A2_ala	ala_4	ala	no_force_needed	ala	no_force_needed
k1_as_query	CCJ67640.1_2746_mod3_leu	d-leu_2	no_confident_result	d-leu	d-leu	no_force_needed
k1_as_query	BGC0000314_WP_010369430.1_544_mod1_asn	asn_2	d-asn	no_force_needed	d-asn	no_force_needed
k1_as_query	Q70AZ7_A1_hpg|hpg2cl	hpg-hpg2cl_4	hpg|hpg2cl	no_force_needed	hpg|hpg2cl	no_force_needed
k1_as_query	BGC0000456_BAO73252.1_5226_mod4_gln	gln_2	no_confident_result	pro	no_confident_result	pro
k1_as_query	Q08787_A1(7)_leu	ile_2	ile	no_force_needed	ile	no_force_needed
k1_as_query	P39845_A1_glu	glu_7	no_confident_result	glu	no_confident_result	glu
k1_as_query	simA_mod8_leu	abu-iva_1	no_confident_result	abu|iva	abu|iva	no_force_needed
k1_as_query	EWS95122_2421_mod2_ala	ala_6	no_confident_result	ala|gly	no_confident_result	ala|gly
k1_as_query	BGC0000464_CDG17980.1_4858_mod5_ile	leu_12	leu	no_force_needed	leu	no_force_needed
k1_as_query	ZP_10287804.1_544_mod1_d-val	val_11	val	no_force_needed	val	no_force_needed
k1_as_query	BGC0000439_AHH53506.1_475_mod1_trp	trp_4	trp	no_force_needed	trp	no_force_needed
k1_as_query	AHH53506.1_1527_mod2_asp	asp_2	asp	no_force_needed	asp	no_force_needed
k10_as_query	AHF21228.1_9291_mod7_dab	dab_3	dab	no_force_needed	dab	no_force_needed
k10_as_query	AGM16412.1_1974_mod2_val	val_7	val	no_force_needed	val	no_force_needed
k10_as_query	BGC0000463_AGM14934.1_3713_mod4_ile|val	ile_5	no_confident_result	ile	no_confident_result	ile
k10_as_query	Q70K00_A2_thr	thr_3	thr	no_force_needed	thr	no_force_needed
k10_as_query	AHF21228.1_2025_mod2_dab	dab_3	dab	no_force_needed	dab	no_force_needed
k10_as_query	AFZ61526.1_575_mod1_leu	leu_4	leu	no_force_needed	leu	no_force_needed
k10_as_query	BGC0001019_AHB82069.1_1590_mod1_asn	asn_7	no_confident_result	4-5-dehydro-arg|me-tyr-as-complex	no_confident_result	4-5-dehydro-arg|me-tyr-as-complex
k10_as_query	Q9F638/11127897_A_dhb	dhb-sal_1	dhb|sal	no_force_needed	dhb|sal	no_force_needed
k10_as_query	Q8CV01_A1_dhb|sal	dhb-sal_1	dhb|sal	no_force_needed	dhb|sal	no_force_needed
k10_as_query	Q70LM7_A1_val	leu_14	no_confident_result	phe	no_confident_result	leu
k10_as_query	Q70LM5_A1(7)_val	val_7	val	no_force_needed	val	no_force_needed
k10_as_query	BGC0000439_AHH53507.1_2589_mod3_ala	ala_5	ala	no_force_needed	ala	no_force_needed
k10_as_query	BGC0000419_AIG79241.1_1929_mod2_4hpg	hpg-hpg2cl_6	no_confident_result	hpg	no_confident_result	hpg
k10_as_query	Q2VQ15_A4(7)_lys	phe_4	no_confident_result	his	no_confident_result	trp
k10_as_query	Q54298_A1_pip	pip_1	no_confident_result	pip	no_confident_result	pip
k10_as_query	AGC65514.1_1579_mod2_ser	ser_11	ser	no_force_needed	ser	no_force_needed
k10_as_query	BGC0001168_509516289_4_mod1_arg	arg_2	no_confident_result	arg	no_confident_result	arg
k10_as_query	Q9RLP6v1_A2_thr	ala_7	thr	no_force_needed	thr	no_force_needed
k10_as_query	BGC0001166_AGQ43600.1_4142_mod4_aeo	gln_7	no_confident_result	gln	no_confident_result	ala
k10_as_query	P0C063_A4_leu	leu_13	leu	no_force_needed	leu	no_force_needed
k10_as_query	Q93N89_A2_trp	bht_1	trp	no_force_needed	trp	no_force_needed
k10_as_query	Q9R9J0_A2_asn	asn_6	no_confident_result	asn	asn	no_force_needed
k10_as_query	BGC0001178_AGS77307.1_26_mod1_4hpg	hpg-hpg2cl_2	no_confident_result	hpg|hpg2cl	hpg|hpg2cl	no_force_needed
k10_as_query	Q45R85_A1_trp	tyr_1	no_confident_result	trp	no_confident_result	trp
k10_as_query	Q9I157_A1(2)_glu	ser_7	no_confident_result	ser	no_confident_result	ser
k10_as_query	BGC0000425_AFH75320.1_474_mod1_dhabu	dhab-dht_1	no_confident_result	dhabu	no_confident_result	delta-but
k10_as_query	O85168_A3_dab	dab_2	dab	no_force_needed	dab	no_force_needed
k10_as_query	Q84BQ4_A2(8)_ser	ser_3	ser	no_force_needed	ser	no_force_needed
k10_as_query	Q5DIP3_A3_orn	orn-fn5h_1	no_confident_result	lys	no_confident_result	lys
k10_as_query	Q9Z5F4_A1_gly	gly_4	gly	no_force_needed	gly	no_force_needed
k10_as_query	Q8NJX1_A18_val-vol	gln_7	no_confident_result	leu	no_confident_result	leu
k10_as_query	O86329_A1_lys	lys_1	lys	no_force_needed	lys	no_force_needed
k10_as_query	BGC0001166_AGQ43600.1_2990_mod3_d-ala	ala_9	no_confident_result	ala	no_confident_result	ala
k10_as_query	BGC0000449_AHF21228.1_6670_mod5_trp	phe_2	trp	no_force_needed	trp	no_force_needed
k10_as_query	Q56950b_A1_dhb|sal	dhb-sal_1	dhb|sal	no_force_needed	dhb|sal	no_force_needed
k10_as_query	BGC0000398_AFH75328.1_1544_mod2_glu	glu_2	no_confident_result	glu	no_confident_result	glu
k10_as_query	O33743_A4(8)_val	val_6	no_confident_result	val	no_confident_result	val
k10_as_query	AHZ20773.1_478_mod1_thr	thr_7	thr	no_force_needed	thr	no_force_needed
k10_as_query	Q70K00_A1_ser	ser_15	ser	no_force_needed	ser	no_force_needed
k10_as_query	BGC0000431_EFE73308.1_231_mod1_cysa	ser_7	dab|dpr	no_force_needed	dab|dpr	no_force_needed
k10_as_query	BGC0001133_XBJ1_0774_2057_mod2_leu	leu_16	leu	no_force_needed	leu	no_force_needed
k10_as_query	AHZ20781.1_481_mod1_thr	thr_7	thr	no_force_needed	thr	no_force_needed
k10_as_query	O85168_A2_ser	ser_5	no_confident_result	ser	ser	no_force_needed
k10_as_query	O52819_A2_bht|tyr	tyr_2	no_confident_result	bht	no_confident_result	bht
k10_as_query	AGC65515.1_442_mod1_tyr	glu_7	no_confident_result	val	no_confident_result	tyr
k10_as_query	AEC14349.1_24_mod1_val	val_7	no_confident_result	phe	no_confident_result	leu
k10_as_query	CCJ67636.1_1568_mod2_d-pro	pro_6	no_confident_result	d-pro	no_confident_result	d-pro
k10_as_query	P94459_A1_pro	pro_7	no_confident_result	pro	pro	no_force_needed
k10_as_query	Q45R85_A2_glu	asp_3	no_confident_result	asp	no_confident_result	asp
k10_as_query	EPE34341.1_2860_mod3_4oh-pro	gln_7	3oh-pro|3oh-4me-pro	no_force_needed	3oh-pro|3oh-4me-pro	no_force_needed
k10_as_query	Q84BQ5_A1(3)_thr	dhab-dht_1	no_confident_result	thr	no_confident_result	thr
k10_as_query	BGC0000423_CBG75492.1_1712_mod2_ser	ser_8	ser	no_force_needed	ser	no_force_needed
k10_as_query	BGC0000449_AHF21228.1_11933_mod9_phe	phe_2	phe	no_force_needed	phe	no_force_needed
k10_as_query	YP_003712465.1_557_mod1_val	val_8	val	no_force_needed	val	no_force_needed
k10_as_query	BGC0000369_AHZ20774.1_1541_mod2_gln	gln_3	gln	no_force_needed	gln	no_force_needed
k10_as_query	Q70LM4_A3(15)_trp	trp_3	no_confident_result	trp	no_confident_result	trp
k10_as_query	P27206_A1_glu	glu_7	no_confident_result	glu	no_confident_result	glu
k10_as_query	Q84BQ6v2_A2_asp	asp_5	asp	no_force_needed	asp	no_force_needed
k10_as_query	Q01886_A4_aeo	gln_7	no_confident_result	leu	no_confident_result	d-ala
k10_as_query	O85168_A5_arg	dab_2	no_confident_result	hse	no_confident_result	leu
k10_as_query	AFZ61525.1_1627_mod2_val	val_10	no_confident_result	d-val	no_confident_result	val
k10_as_query	BGC0000398_AFH75330.1_584_mod1_leu	leu_6	leu	no_force_needed	leu	no_force_needed
k10_as_query	Q5DIP4_A1(4)_gly	gly_4	gly	no_force_needed	gly	no_force_needed
k10_as_query	BGC0000414_BAO84868.1_386_mod1_me-tyr-as-complex	ser_7	no_confident_result	4-5-dehydro-arg|me-tyr-as-complex	no_confident_result	4-5-dehydro-arg|me-tyr-as-complex
k10_as_query	Q83VS0_A11(21)_dab	dab_2	dab	no_force_needed	dab	no_force_needed
k10_as_query	EWS95122_476_mod1_ser	ser_8	no_confident_result	ser	no_confident_result	ser
k10_as_query	Q93N87_A2_hpg|hpg2cl	hpg-hpg2cl_8	hpg|hpg2cl	no_force_needed	hpg|hpg2cl	no_force_needed
k10_as_query	CCJ67637.1_2717_mod3_d-ser	d-ser_1	d-ser	no_force_needed	d-ser	no_force_needed
k10_as_query	P11454_A1(2)_ser	ser_7	ser	no_force_needed	ser	no_force_needed
k10_as_query	AHH53506.1_3045_mod3_asp	asp_3	asp	no_force_needed	asp	no_force_needed
k10_as_query	CCA29203.1_3604_mod3_gly	gly_4	no_confident_result	ile|d-leu	no_confident_result	no_confident_result
k10_as_query	CCJ67637.1_576_mod1_d-leu	leu_4	no_confident_result	d-val	no_confident_result	d-val
k10_as_query	O68006_A2_cys	cys_2	no_confident_result	cys	no_confident_result	cys
k10_as_query	Q5DIP3_A1_ser	ser_7	ser	no_force_needed	ser	no_force_needed
k10_as_query	XP_002568558.1_227_mod1_trp	gln_7	no_confident_result	his	no_confident_result	his
k10_as_query	BGC0000464_CDG17980.1_2686_mod3_val	leu_10	leu	no_force_needed	leu	no_force_needed
k10_as_query	Q9RBY6_A1_thr	thr_7	no_confident_result	ala|leu|val	no_confident_result	thr
k10_as_query	O87606_A1_glu	glu_3	glu	no_force_needed	glu	no_force_needed
k10_as_query	Q8NJX1_A15_abu|iva	gln_7	abu|iva	no_force_needed	abu|iva	no_force_needed
k10_as_query	BGC0000431_EFE73312.1_5470_mod5_thr	thr_11	val	no_force_needed	val	no_force_needed
k10_as_query	Q6YK40_A2_asn	asn_6	no_confident_result	asn	asn	no_force_needed
k10_as_query	Q09164_A1_ala	leu_17	no_confident_result	leu	no_confident_result	gly|sar
k10_as_query	O33743_A1(5)_asn	asn_6	asn	no_force_needed	asn	no_force_needed
k10_as_query	Q70AZ7_A3_bht	bht_1	bht	no_force_needed	bht	no_force_needed
k10_as_query	BGC0001019_AHB82071.1_3517_mod3_gly	gly_4	gly	no_force_needed	no_confident_result	gly
k10_as_query	AHZ20781.1_1540_mod2_thr	thr_7	thr	no_force_needed	thr	no_force_needed
k10_as_query	simA_mod11_ala	gln_7	no_confident_result	abu	no_confident_result	abu
k10_as_query	CCJ67639.1_2757_mod3_d-val	d-val_2	no_confident_result	d-val	no_confident_result	d-val
k10_as_query	BGC0000464_CDG17982.1_523_mod1_ala	ala_3	no_confident_result	ala	no_confident_result	ala
k10_as_query	Q8KLL5_A1_hpg|hpg2cl	hpg-hpg2cl_4	hpg|hpg2cl	no_force_needed	hpg|hpg2cl	no_force_needed
k10_as_query	Q9Z4X6_A2_athr|thr	thr_12	no_confident_result	thr	thr	no_force_needed
k10_as_query	Q9RAH4_A4_leu	leu_14	leu	no_force_needed	leu	no_force_needed
k2_as_query	BGC0000419_AIG79241.1_3410_mod3_boh-tyr	bht_1	bht	no_force_needed	bht	no_force_needed
k2_as_query	BGC0001149_CDF96614.1_480_mod1_ser	ser_4	no_confident_result	ser	no_confident_result	ser
k2_as_query	O30980_A1_pro	pro_1	pro	no_force_needed	pro	no_force_needed
k2_as_query	P26046_A3_val	val_10	val	no_force_needed	val	no_force_needed
k2_as_query	CCJ67638.1_2717_mod3_d-val	d-val_2	d-val	no_force_needed	d-val	no_force_needed
k2_as_query	Q83VS0/81321400_A9(19)_ala	ala_5	no_confident_result	ala	ala	no_force_needed
k2_as_query	Q9S1A7_A1(10)_arg	arg_1	arg	no_force_needed	arg	no_force_needed
k2_as_query	BGC0001133_XBJ1_0775_477_mod1_thr	ser_17	no_confident_result	leu	no_confident_result	ser
k2_as_query	simA_mod10_leu	abu-iva_1	no_confident_result	abu|iva	no_confident_result	abu|iva
k2_as_query	BGC0000456_BAO73252.1_2551_mod2_ala	gln_7	no_confident_result	athr|ser	no_confident_result	athr|ser
k2_as_query	BGC0000299_ERG36783.1_544_mod1_val	val_8	d-val	no_force_needed	d-val	no_force_needed
k2_as_query	Q70LM4_A2(14)_leu	leu_7	no_confident_result	leu	no_confident_result	leu
k2_as_query	Q8NJX1_A2_gly	abu-iva_1	abu|iva	no_force_needed	abu|iva	no_force_needed
k2_as_query	BGC0000463_AGM14933.1_561_mod1_gln	gln_1	no_confident_result	glu	no_confident_result	gln
k2_as_query	O87704_A2(4)_thr	thr_9	thr	no_force_needed	no_confident_result	thr
k2_as_query	Q9FDT8_ALod_phe-ac	phe-ac_1	phe-ac	no_force_needed	phe-ac	no_force_needed
k2_as_query	O33743_A6(10)_leu	leu_9	no_confident_result	leu	no_confident_result	leu
k2_as_query	BGC0000418_AHF20585.1_481_mod1_dpg	dpg-dhpg_2	no_confident_result	dpg|dhpg	dpg|dhpg	no_force_needed
k2_as_query	Q50857_A1_ala	phe-ac_1	no_confident_result	phe-ac	no_confident_result	phe-ac
k2_as_query	Q2XNF8_A2(3)_ala	ser_2	no_confident_result	ala	no_confident_result	ala
k2_as_query	BGC0000449_AHF21228.1_5129_mod4_ser	ser_16	ser	no_force_needed	ser	no_force_needed
k2_as_query	Q45295_A2_leu	leu_11	leu	no_force_needed	leu	no_force_needed
k2_as_query	O68008_A4(11)_asp	asp_2	no_confident_result	asp	no_confident_result	asp
k2_as_query	Q93N87_A1(4)_hpg|hpg2cl	hpg-hpg2cl_5	hpg|hpg2cl	no_force_needed	hpg|hpg2cl	no_force_needed
k2_as_query	Q8KLL5_A1(4)_hpg|hpg2cl	hpg-hpg2cl_2	hpg|hpg2cl	no_force_needed	hpg|hpg2cl	no_force_needed
k2_as_query	Q847C7_A1(6)_thr	thr_3	no_confident_result	thr	no_confident_result	deoxy-thr
k2_as_query	Q9RFK9_A1_cys	cys_4	no_confident_result	cys	no_confident_result	cys
k2_as_query	Q9L8H4_A3(6)_val	val_11	no_confident_result	val	val	no_force_needed
k2_as_query	AGZ15458.1_478_mod1_pip	ala_4	piperazic	no_force_needed	piperazic	no_force_needed
k2_as_query	BGC0000463_AGM14933.1_3718_mod4_leu	gln_1	no_confident_result	gln	no_confident_result	gln
k2_as_query	Q83VS1_A2_val	val_5	val	no_force_needed	val	no_force_needed
k2_as_query	Q70LM7_A2_gly	ser_16	no_confident_result	ala	no_confident_result	ala
k2_as_query	BGC0000376_BAP16684.1_33_mod1_trp|6cl-trp	gly_4	no_confident_result	no_confident_result	no_confident_result	phe|tyr
k2_as_query	Q93I54_A1_asn	asn_5	asn	no_force_needed	asn	no_force_needed
k2_as_query	Q9C1G0v1_A1_aad	aad_1	aad	no_force_needed	aad	no_force_needed
k2_as_query	AHZ34232.1_2599_mod3_gln	gln_1	no_confident_result	gln	no_confident_result	gln
k2_as_query	Q9RLP6v2_A3_ala	phe_5	ala	no_force_needed	ala	no_force_needed
k2_as_query	AGM16412.1_3015_mod3_thr	thr_8	thr	no_force_needed	thr	no_force_needed
k2_as_query	Q9K5M1_A4(6)_tyr	phe_1	phe	no_force_needed	phe	no_force_needed
k2_as_query	P26046_A2_cys	cys_1	cys	no_force_needed	cys	no_force_needed
k2_as_query	O30980_A1(7)_pro	pro_1	pro	no_force_needed	pro	no_force_needed
k2_as_query	EWS95124_9_mod1_gly	gly_1	no_confident_result	gly	no_confident_result	aoh-gly
k2_as_query	Q9I157_A3(4)_dab	ser_6	no_confident_result	dab	no_confident_result	dab
k2_as_query	Q7WRQ4_A2(9)_me-asp	me-asp_1	me-asp	no_force_needed	me-asp	no_force_needed
k2_as_query	P94873_A2_cys	cys_1	cys	no_force_needed	cys	no_force_needed
k2_as_query	Q70AZ9a_A1_hpg|hpg2cl	leu_14	no_confident_result	4hpg	no_confident_result	4hpg
k2_as_query	AHH53507.1_4147_mod4_asp	asp_5	asp	no_force_needed	asp	no_force_needed
k2_as_query	BGC0000463_AGM14933.1_7925_mod8_leu	gln_1	no_confident_result	gln	no_confident_result	gln
k2_as_query	O33743_A_b-lys	ser_12	no_confident_result	b-lys	no_confident_result	b-lys
k2_as_query	AHF21229.1_474_mod2_ile	val_4	no_confident_result	val	val	no_force_needed
k2_as_query	AGC65514.1_530_mod1_val	val_7	val	no_force_needed	val	no_force_needed
k2_as_query	CCJ67640.1_4826_mod5_d-dab	dab_1	dab	no_force_needed	dab	no_force_needed
k2_as_query	BGC0000369_AHZ20773.1_2017_mod2_tyr	trp_2	tyr	no_force_needed	tyr	no_force_needed
k2_as_query	Q9FDB3_A2(2)_pro	d-pro_1	no_confident_result	d-pro	no_confident_result	d-pro
k2_as_query	ChaP_mod2_ser	gly_4	no_confident_result	trp	no_confident_result	trp
k2_as_query	BGC0000464_CDG17980.1_7025_mod7_leu	leu_5	no_confident_result	val	no_confident_result	val
k2_as_query	EFE73313.1_1569_mod2_met	ser_8	lys	no_force_needed	lys	no_force_needed
k2_as_query	BGC0000426_AGZ03651.1_480_mod1_ala	ser_16	no_confident_result	ser	no_confident_result	ala
k2_as_query	O07944_A1_pro	pro_2	no_confident_result	pip	no_confident_result	pip
k2_as_query	Q83VS1_A1(6)_ala	ala_5	ala	no_force_needed	ala	no_force_needed
k2_as_query	Q9RAH4_A3_pro|me-pro	pro_4	no_confident_result	pro|me-pro	no_confident_result	pro|me-pro
k2_as_query	Q70AZ9b_A1_hpg|hpg2cl	leu_14	no_confident_result	4hpg	no_confident_result	4hpg
k2_as_query	BGC0000419_AIG79240.1_481_mod1_dhpg	dpg-dhpg_2	no_confident_result	dpg|dhpg	dpg|dhpg	no_force_needed
k2_as_query	AEI70245.1_1510_mod2_thr	thr_15	no_confident_result	athr|thr	athr|thr	no_force_needed
k2_as_query	BGC0001036_AGZ15458.1_2022_mod2_noh-ala	noh-val_1	noh-d-ala|oh-d-ala	no_force_needed	noh-d-ala|oh-d-ala	no_force_needed
k2_as_query	Q70JZ9_A3_pro	pro_1	pro	no_force_needed	pro	no_force_needed
k2_as_query	YP_003712464.1_561_mod1_leu	val_1	leu	no_force_needed	leu	no_force_needed
k2_as_query	Q50E73_A3(8)_ala	ala_4	no_confident_result	ser	ser	no_force_needed
k2_as_query	AGM16414.1_2358_mod3_ile	ile_2	ile	no_force_needed	ile	no_force_needed
k2_as_query	Q70AZ7_A2(5)_hpg|hpg2cl	hpg-hpg2cl_4	hpg|hpg2cl	no_force_needed	hpg|hpg2cl	no_force_needed
k2_as_query	CCJ67638.1_1653_mod2_d-val	d-val_2	d-val	no_force_needed	d-val	no_force_needed
k2_as_query	O30980_A2(8)_gln	glu_2	glu	no_force_needed	glu	no_force_needed
k2_as_query	Q8NJX1_A13_pro	gln_7	no_confident_result	leu	no_confident_result	leu
k2_as_query	BGC0000398_AFH75329.1_566_mod1_thr	d-athr_1	no_confident_result	thr	no_confident_result	thr
k2_as_query	simA_mod2_leu	gln_7	no_confident_result	val-vol	no_confident_result	val-vol
k2_as_query	AGM16413.1_2831_mod3_ser	ser_16	ser	no_force_needed	ser	no_force_needed
k2_as_query	BGC0000425_AFH75322.1_565_mod1_dhabu	d-athr_1	no_confident_result	d-athr	no_confident_result	d-athr
k2_as_query	AHZ34233.1_3643_mod4_leu	leu_2	leu	no_force_needed	leu	no_force_needed
k2_as_query	Q939Y9_A1(7)_dpg|dhpg	dpg-dhpg_2	dpg|dhpg	no_force_needed	dpg|dhpg	no_force_needed
k2_as_query	BGC0000398_AFH75329.1_1652_mod2_val	ile_5	val	no_force_needed	no_confident_result	val
k2_as_query	Q9S1A8_A2(9)_me-asp	me-asp_1	no_confident_result	me-asp	no_confident_result	me-asp
k2_as_query	BGC0000431_EFE73313.1_2638_mod3_gly	gly_3	gly	no_force_needed	gly	no_force_needed
k2_as_query	AHF21228.1_11933_mod9_phe	trp_3	phe	no_force_needed	phe	no_force_needed
k2_as_query	Q45R83_A3(10)_gly	gly_1	no_confident_result	gly	no_confident_result	gly
k2_as_query	Q8KLL4v2_A1_dpg|dhpg	dpg-dhpg_1	dpg|dhpg	no_force_needed	dpg|dhpg	no_force_needed
k2_as_query	O30981_A2(6)_ala|val	val_3	val	no_force_needed	val	no_force_needed
k2_as_query	Q5DIV7_A4_orn-fn5h	orn-fn5h_1	orn-fn5h	no_force_needed	orn-fn5h	no_force_needed
k2_as_query	P39845_A2_orn	orn_4	orn	no_force_needed	orn	no_force_needed
k2_as_query	BGC0000463_AGM14933.1_6881_mod7_val	leu_3	no_confident_result	val	no_confident_result	val
k2_as_query	BGC0000974_AIR74926.1_511_mod1_gly	gly_4	gly	no_force_needed	gly	no_force_needed
k2_as_query	Q5DIV7_A3_ser	ser_6	no_confident_result	ser	ser	no_force_needed
k2_as_query	Q2VQ15_A3(6)_val	ile_3	no_confident_result	val	no_confident_result	val
k2_as_query	Q70LM6_A4(6)_val	val_8	no_confident_result	val	val	no_force_needed
k3_as_query	P10378/2506183_A1_dhb|sal	dhb_1	no_confident_result	dhb|sal	no_confident_result	dhb|sal
k3_as_query	P59591_A1_ala	ala_7	ala	no_force_needed	ala	no_force_needed
k3_as_query	AHZ20773.1_2017_mod2_tyr	trp_4	tyr	no_force_needed	tyr	no_force_needed
k3_as_query	Q45R85_A5_gly|sar	gly_3	gly	no_force_needed	gly	no_force_needed
k3_as_query	Q09164/440169_A11_ala	leu_18	no_confident_result	leu	no_confident_result	val
k3_as_query	Q70JZ9_A1_tyr	tyr_3	tyr	no_force_needed	tyr	no_force_needed
k3_as_query	Q84BQ6v1_A1_leu	leu_4	leu	no_force_needed	leu	no_force_needed
k3_as_query	Q5DIV8_A2(6)_orn-fn5h	orn-fn5h_1	orn-fn5h	no_force_needed	orn-fn5h	no_force_needed
k3_as_query	BGC0000439_AHH53506.1_5177_mod5_gly	gly_3	gly	no_force_needed	gly	no_force_needed
k3_as_query	Q847C7_A2(7)_me-asp	me-asp_1	me-asp	no_force_needed	me-asp	no_force_needed
k3_as_query	Q8NJX1_A3_ala	abu-iva_1	no_confident_result	ser	no_confident_result	ser
k3_as_query	BGC0001133_XBJ1_0774_563_mod1_leu	leu_16	no_confident_result	leu	no_confident_result	leu
k3_as_query	O85740_A1(3)_cys	cys_1	no_confident_result	cys	no_confident_result	cys
k3_as_query	BGC0001178_AGS77308.1_476_mod1_dhpg	dpg-dhpg_1	dpg|dhpg	no_force_needed	dpg|dhpg	no_force_needed
k3_as_query	Q9L8H4_A1(4)_pro	pro_1	no_confident_result	athr|thr	no_confident_result	pro
k3_as_query	Q65NK5_A3_leu	leu_10	leu	no_force_needed	leu	no_force_needed
k3_as_query	AHZ34233.1_4704_mod5_leu	leu_6	no_confident_result	leu	no_confident_result	leu
k3_as_query	Q01757_A1_aad	aad_2	aad	no_force_needed	aad	no_force_needed
k3_as_query	Q2XNF8_A3(4)_arg	ala_8	no_confident_result	ala	no_confident_result	ala
k3_as_query	BGC0001045_AFR69334.1_2032_mod2_d-cys	cys_1	no_confident_result	cys	no_confident_result	thr
k3_as_query	BGC0000439_AHH53506.1_1527_mod2_asp	asp_2	asp	no_force_needed	asp	no_force_needed
k3_as_query	P27743_A3_val	val_7	val	no_force_needed	val	no_force_needed
k3_as_query	P0C063_A1_pro	pro_6	pro	no_force_needed	pro	no_force_needed
k3_as_query	Q9Z4X6_A3_trp	gly_3	no_confident_result	trp	no_confident_result	trp
k3_as_query	BGC0000371_BAH31686.1_483_mod1_fhorn	ser_10	no_confident_result	orn	no_confident_result	orn
k3_as_query	O52820_A2(5)_hpg|hpg2cl	hpg-hpg2cl_6	no_confident_result	hpg|hpg2cl	no_confident_result	hpg|hpg2cl
k3_as_query	Q939Z0_A3(6)_bht	bht_1	no_confident_result	bht|tyr	no_confident_result	bht|tyr
k3_as_query	Q56950a_A1_dhb|sal	dhb_1	dhb|sal	no_force_needed	dhb|sal	no_force_needed
k3_as_query	BGC0000419_AIG79241.1_462_mod1_4hpg	hpg-hpg2cl_3	no_confident_result	hpg	no_confident_result	hpg
k3_as_query	Q70JZ8_A1_asn	asn_8	asn	no_force_needed	asn	no_force_needed
k3_as_query	BGC0000463_AGM14934.1_568_mod1_leu	leu_7	no_confident_result	leu	leu	no_force_needed
k3_as_query	Q50858_A1_gly	gly_4	no_confident_result	gly	no_confident_result	gly
k3_as_query	P09095_A1_phe	phe_3	phe	no_force_needed	phe	no_force_needed
k3_as_query	ZP_10287805.1_2041_mod2_ile|d-leu	val_3	ile	no_force_needed	ile	no_force_needed
k3_as_query	AFZ61526.1_1614_mod2_ser	ser_2	ser	no_force_needed	ser	no_force_needed
k3_as_query	BGC0000335_AID65225.1_1648_mod1_tyr	gly_4	no_confident_result	phe	no_confident_result	phe
k3_as_query	AEA30272.1_3675_mod4_gly	gly_3	no_confident_result	aoh-gly	no_confident_result	aoh-gly
k3_as_query	Q9FDB3_A5(5)_ala	ala_9	no_confident_result	ala	ala	no_force_needed
k3_as_query	Q9Z4X5_A2_gly	gly_3	gly	no_force_needed	gly	no_force_needed
k3_as_query	BGC0000423_CBG75492.1_2792_mod3_horn	orn_2	nme-fhorn	no_force_needed	nme-fhorn	no_force_needed
k3_as_query	BGC0000439_AHH53507.1_475_mod1_orn	orn_2	orn	no_force_needed	orn	no_force_needed
k3_as_query	Q8CJX2_A1(10)_glu|3-me-glu	asp_2	no_confident_result	asn	no_confident_result	asp
k3_as_query	O52821_A1(7)_dpg|dhpg	dpg-dhpg_2	no_confident_result	dpg|dhpg	no_confident_result	dpg|dhpg
k3_as_query	O68008_A5(12)_asn	asn_8	asn	no_force_needed	asn	no_force_needed
k3_as_query	Q8NJX1_A4_val	abu-iva_1	no_confident_result	leu	no_confident_result	leu
k3_as_query	O68006_A5_ile	ile_5	ile	no_force_needed	ile	no_force_needed
k3_as_query	AHH53507.1_2589_mod3_ala	ala_3	ala	no_force_needed	ala	no_force_needed
k3_as_query	YP_631961.1_4764_mod4_ser	ser_4	no_confident_result	ser	ser	no_force_needed
k3_as_query	BGC0000449_AHF21229.1_2929_mod3_ala	val_5	no_confident_result	ile	no_confident_result	val
k3_as_query	CCJ67640.1_1654_mod2_d-athr	delta-but_1	delta-but	no_force_needed	delta-but	no_force_needed
k3_as_query	Q2N3S9_A1(9)_ser	ser_5	no_confident_result	ser	no_confident_result	ser
k3_as_query	BGC0000423_CBG75492.1_240_mod1_fhorn	phe_2	nme-fhorn	no_force_needed	nme-fhorn	no_force_needed
k3_as_query	P0C064_A3(4)_orn	orn_5	orn	no_force_needed	orn	no_force_needed
k3_as_query	O07944_A3_pip	pro_1	pro	no_force_needed	pro	no_force_needed
k3_as_query	BGC0001045_AFR69334.1_544_mod1_d-ala	val_12	no_confident_result	val	no_confident_result	val
k3_as_query	BGC0000456_BAO73252.1_6319_mod5_tyr	pro_5	no_confident_result	athr|ser	no_confident_result	athr|ser
k3_as_query	BGC0000376_BAP16697.1_524_mod1_d-ala	gly_4	no_confident_result	asn	no_confident_result	gly
k3_as_query	P25464_A1_aad	aad_2	no_confident_result	aad	aad	no_force_needed
k3_as_query	AEA30273.1_2593_mod3_boh-ome-tyr	gly_3	no_confident_result	phe	no_confident_result	d-trp
k3_as_query	simA_mod1_d-ala	abu-iva_1	no_confident_result	leu|val	no_confident_result	val
k3_as_query	Q9Z4X6_A4_asp	asp_1	asp	no_force_needed	asp	no_force_needed
k3_as_query	BGC0000449_AHF21228.1_10396_mod8_dab	dab_3	dab	no_force_needed	dab	no_force_needed
k3_as_query	YP_631961.1_11304_mod8_blys	gly_4	no_confident_result	lys	no_confident_result	asn
k3_as_query	Q04747_A1(4)_val	val_3	val	no_force_needed	val	no_force_needed
k3_as_query	Q6YK39_A2_thr	thr_11	thr	no_force_needed	thr	no_force_needed
k3_as_query	Q83VS0_A6(16)_ser	ser_3	ser	no_force_needed	ser	no_force_needed
k3_as_query	Q70LM6_A1(3)_ala	ser_13	gly	no_force_needed	no_confident_result	gly
k3_as_query	Q7WRJ0/31616733_ALod_phe-ac	phe-ac_1	no_confident_result	phe-ac	no_confident_result	phe-ac
k3_as_query	Q83VS0_A12(22)_tyr	ile_2	no_confident_result	phe	no_confident_result	phe
k3_as_query	AEC14346.1_1080_mod2_leu	leu_13	no_confident_result	phe	no_confident_result	phe
k3_as_query	BGC0001035_EPE34341.1_2860_mod3_3oh-pro|3oh-4me-pro	pro_5	4oh-pro	no_force_needed	4oh-pro	no_force_needed
k3_as_query	BGC0001035_EPE34341.1_1766_mod2_3oh-gln	pro_5	thr	no_force_needed	thr	no_force_needed
k3_as_query	BGC0000400_AGM16414.1_2358_mod3_ile	ile_4	ile	no_force_needed	ile	no_force_needed
k3_as_query	simA_mod5_bmt	abu-iva_1	no_confident_result	leu	no_confident_result	leu
k3_as_query	BGC0000425_AFH75322.1_1653_mod2_d-athr	delta-but_1	no_confident_result	dhabu	no_confident_result	dhabu
k3_as_query	AGC65517.1_453_mod1_tyr	glu_7	val	no_force_needed	no_confident_result	tyr
k3_as_query	Q884E5_A1_asp	gly_4	no_confident_result	asp	no_confident_result	asp
k3_as_query	Q84BQ6v1_A2_asp	asp_4	asp	no_force_needed	asp	no_force_needed
k3_as_query	AHF21228.1_12993_mod10_glu	glu_6	glu	no_force_needed	glu	no_force_needed
k3_as_query	O69246_A3(6)_leu	leu_10	leu	no_force_needed	leu	no_force_needed
k3_as_query	EFE73312.1_2615_mod3_ser	ser_9	dpr	no_force_needed	dpr	no_force_needed
k3_as_query	Q70LM6_A3(5)_ala	ala_1	no_confident_result	gly	no_confident_result	gly
k3_as_query	Q79JZ1_A1_cys	cys_2	cys	no_force_needed	cys	no_force_needed
k3_as_query	Q8NJX1_A9_abu|iva	abu-iva_1	no_confident_result	abu|iva	no_confident_result	abu|iva
k3_as_query	NP_216899.1_570_mod1_thr	cys_3	ser|thr	no_force_needed	ser|thr	no_force_needed
k3_as_query	BGC0001113_AIC32693.1_544_mod1_thr	thr_5	no_confident_result	thr	no_confident_result	thr
k3_as_query	Q6VT93_A1(16)_arg	gly_4	no_confident_result	arg	no_confident_result	arg
k3_as_query	BGC0000414_BAO84866.1_500_mod1_4-5-dehydro-arg|me-tyr-as-complex	gly_4	no_confident_result	me-tyr-as-complex	no_confident_result	me-tyr-as-complex
k3_as_query	AHF21228.1_8208_mod6_ser	ser_13	ser	no_force_needed	ser	no_force_needed
k3_as_query	YP_631961.1_12373_mod9_ala	gly_4	no_confident_result	tyr	no_confident_result	tyr
k3_as_query	AHZ34233.1_2589_mod3_val	ile_2	no_confident_result	ile	no_confident_result	ile|val
k3_as_query	P94459_A2_glu	glu_8	no_confident_result	glu	no_confident_result	glu
k3_as_query	O68006_A1_ile	ile_5	ile	no_force_needed	ile	no_force_needed
k4_as_query	O68008_A1(8)_ile	ile_2	ile	no_force_needed	ile	no_force_needed
k4_as_query	BGC0000425_AFH75322.1_5909_mod6_lys	leu_8	no_confident_result	lys	no_confident_result	lys
k4_as_query	Q84BQ4_A3(9)_ile	ile_3	ile	no_force_needed	ile	no_force_needed
k4_as_query	BGC0000425_AFH75322.1_2740_mod3_ile	ile_3	no_confident_result	ile	ile	no_force_needed
k4_as_query	BGC0000463_AGM14933.1_5818_mod6_ser	val_7	no_confident_result	gln	no_confident_result	gln
k4_as_query	Q939Y2_A1(8)_bht|tyr	phe_4	no_confident_result	33p-l-ala	no_confident_result	trp
k4_as_query	BGC0000418_AHF20583.1_473_mod1_dpg	dpg-dhpg_1	no_confident_result	dhpg	no_confident_result	dhpg
k4_as_query	O33743_A5(9)_orn	orn_4	no_confident_result	orn	no_confident_result	orn
k4_as_query	BGC0000464_CDG17982.1_3820_mod4_leu	leu_7	leu	no_force_needed	leu	no_force_needed
k4_as_query	Q8NJX1_A17_gln	abu-iva_1	no_confident_result	gln	no_confident_result	gln
k4_as_query	YP_116977.1_584_mod1_thr	cys_3	no_confident_result	thr	no_confident_result	thr
k4_as_query	Q7WRQ4_A1(8)_leu	arg_1	no_confident_result	leu	no_confident_result	arg
k4_as_query	Q9Z4X5_A2(8)_gly	gly_1	gly	no_force_needed	gly	no_force_needed
k4_as_query	AGM16413.1_5398_mod5_pro	pro_1	pro	no_force_needed	pro	no_force_needed
k4_as_query	O33743_A2(6)_gln	ser_14	no_confident_result	gln	no_confident_result	ser
k4_as_query	P40976_A1_aad	gly_4	no_confident_result	gln	no_confident_result	me-asp
k4_as_query	AHZ34232.1_1547_mod2_leu	leu_3	no_confident_result	val	no_confident_result	val
k4_as_query	Q93N87_A3(6)_tyr	bht_1	tyr	no_force_needed	tyr	no_force_needed
k4_as_query	Q93N89_A1_hpg|hpg2cl	hpg-hpg2cl_9	hpg|hpg2cl	no_force_needed	hpg|hpg2cl	no_force_needed
k4_as_query	BGC0000335_AID65224.1_1515_mod2_phe	phe_1	no_confident_result	tyr	no_confident_result	tyr
k4_as_query	Q83VS0_A2(12)_ala	ala_6	no_confident_result	ala	ala	no_force_needed
k4_as_query	Q93I54v2_A2_ser	ser_14	ser	no_force_needed	ser	no_force_needed
k4_as_query	BGC0001178_AGS77307.1_1045_mod2_tyr	bht_1	no_confident_result	bht|tyr	no_confident_result	bht|tyr
k4_as_query	Q70C44_A1_asn	asn_3	no_confident_result	asn	asn	no_force_needed
k4_as_query	ZP_10287805.1_544_mod1_d-asn	asn_7	asn	no_force_needed	asn	no_force_needed
k4_as_query	Q8J0L6_A1_lys-erg	ala_8	no_confident_result	pro	no_confident_result	pro
k4_as_query	AHF21228.1_6670_mod5_trp	phe_2	trp	no_force_needed	trp	no_force_needed
k4_as_query	P48633_A1_cys	cys_3	cys	no_force_needed	cys	no_force_needed
k4_as_query	AEA30274.1_3073_mod3_boh-d-leu	trp_2	no_confident_result	d-leu	no_confident_result	d-leu
k4_as_query	Q01886_A3_ala	ala_9	no_confident_result	ala	no_confident_result	ala
k4_as_query	Q8KLL3_A2_tyr	bht_1	no_confident_result	bht|tyr	no_confident_result	bht|tyr
k4_as_query	BGC0001036_AGZ15458.1_478_mod1_piperazic	pip_1	pip	no_force_needed	pip	no_force_needed
k4_as_query	Q939Z1_A2_bht	bht_1	no_confident_result	bht|tyr	no_confident_result	bht|tyr
k4_as_query	BGC0000369_AHZ20781.1_481_mod1_thr	thr_6	thr	no_force_needed	thr	no_force_needed
k4_as_query	BGC0001036_AGZ15459.1_2235_mod2_3oh-3me-pro	pip_1	3oh-3me-pro	no_force_needed	3oh-3me-pro	no_force_needed
k4_as_query	O69246_A2(5)_asp	asp_7	no_confident_result	asp	asp	no_force_needed
k4_as_query	Q9KID8v2_A1_pip	pip_2	pip	no_force_needed	pip	no_force_needed
k4_as_query	P39581_A1_ala	ala_9	no_confident_result	ala	ala	no_force_needed
k4_as_query	AGM16413.1_4358_mod4_ile	ile_1	ile	no_force_needed	ile	no_force_needed
k4_as_query	Q9Z4X5_A3(9)_asn	asp_5	asn	no_force_needed	asn	no_force_needed
k4_as_query	O87313_A1_orn	ser_9	no_confident_result	fhorn	no_confident_result	fhorn
k4_as_query	O68008_A3(10)_his	leu_10	no_confident_result	phe	no_confident_result	trp
k4_as_query	P0C064_A2(3)_val	val_13	val	no_force_needed	val	no_force_needed
k4_as_query	simA_mod7_sar	abu-iva_1	no_confident_result	ala	no_confident_result	gln
k4_as_query	P0C063_A3_orn	orn_4	no_confident_result	orn	no_confident_result	orn
k4_as_query	AHH53507.1_1547_mod2_asp	asp_4	asp	no_force_needed	asp	no_force_needed
k4_as_query	Q9S1A9_A1(6)_ser	ser_12	no_confident_result	ser	ser	no_force_needed
k4_as_query	BGC0000425_AFH75322.1_3790_mod4_hse	ser_2	no_confident_result	hse	no_confident_result	hse
k4_as_query	BGC0000416_CBJ90288.1_557_mod1_val	val_5	val	no_force_needed	val	no_force_needed
k4_as_query	BGC0001166_AGQ43600.1_228_mod1_pro	pro_2	no_confident_result	pro	no_confident_result	pro
k4_as_query	CCJ67637.1_1654_mod2_d-val	d-val_2	d-val	no_force_needed	d-val	no_force_needed
k4_as_query	BGC0000431_EFE73313.1_1569_mod2_lys	ser_9	met	no_force_needed	met	no_force_needed
k4_as_query	Q9S1A8_A1(8)_leu	leu_15	no_confident_result	arg	no_confident_result	leu
k4_as_query	CCJ67639.1_619_mod1_d-gln	glu_5	no_confident_result	d-leu	no_confident_result	d-gln
k4_as_query	BGC0000425_AFH75320.1_3727_mod4_d-leu	leu_3	no_confident_result	leu	no_confident_result	leu
k4_as_query	BGC0000423_CBG75492.1_4248_mod4_orn	orn_1	orn	no_force_needed	orn	no_force_needed
k4_as_query	P07702_A1_aad	gly_4	no_confident_result	me-asp	no_confident_result	me-asp
k4_as_query	AHH53507.1_475_mod1_orn	orn_1	orn	no_force_needed	orn	no_force_needed
k4_as_query	Q83VS1_A4_dhab|dht	dhab-dht_1	dhab|dht	no_force_needed	dhab|dht	no_force_needed
k4_as_query	Q6YK40_A4_glu	glu_7	no_confident_result	glu	no_confident_result	glu
k4_as_query	Q9FB18_A2_cys	cys_2	no_confident_result	alpha-me-ser	no_confident_result	alpha-me-ser
k4_as_query	BGC0001125_AIW82284.1_295_mod1_deoxy-thr	thr_5	no_confident_result	deoxy-thr	no_confident_result	deoxy-thr
k4_as_query	Q70AZ9_A2_tyr	bht_1	no_confident_result	bht|tyr	no_confident_result	bht|tyr
k4_as_query	BGC0000451_CP001614.2_15150-22349_mod2_ser	ser_11	no_confident_result	ser	ser	no_force_needed
k4_as_query	BGC0001133_XBJ1_0775_1543_mod2_ser	leu_14	ser	no_force_needed	ser	no_force_needed
k4_as_query	BGC0000439_AHH53506.1_3045_mod3_asp	asp_5	asp	no_force_needed	asp	no_force_needed
k4_as_query	Q884E4_A1_thr	thr_7	no_confident_result	thr	thr	no_force_needed
k4_as_query	YP_631961.1_5832_mod5_val	val_15	no_confident_result	goh-val	no_confident_result	goh-val
k4_as_query	Q83VS0_A4(14)_dhab|dht	dhab-dht_1	no_confident_result	dhab|dht	dhab|dht	no_force_needed
k4_as_query	Q84BC7_A1(4)_ile	ser_12	no_confident_result	ile	no_confident_result	aile
k4_as_query	Q70AZ6_A1(7)_dpg|dhpg	dpg-dhpg_2	dpg|dhpg	no_force_needed	dpg|dhpg	no_force_needed
k4_as_query	AGZ15476.1_490_mod1_3oh-leu	hpg-hpg2cl_9	3oh-leu	no_force_needed	3oh-leu	no_force_needed
k4_as_query	AHZ20774.1_1541_mod2_gln	gln_1	gln	no_force_needed	gln	no_force_needed
k4_as_query	AGM16413.1_273_mod1_val	val_15	val	no_force_needed	val	no_force_needed
k4_as_query	Q9FDB2_A_dhb	dhb-sal_2	no_confident_result	dhb	no_confident_result	dhb
k4_as_query	BGC0000398_AFH75330.1_1625_mod2_leu	leu_4	leu	no_force_needed	leu	no_force_needed
k4_as_query	Q50JA3_A1_thr	thr_5	no_confident_result	thr	no_confident_result	no_confident_result
k4_as_query	BGC0000464_CDG17981.1_533_mod1_leu	leu_7	no_confident_result	ile	no_confident_result	ile
k4_as_query	Q9RLP6/5869932_A1_phe	ala_7	phe	no_force_needed	phe	no_force_needed
k4_as_query	EPE34341.1_3930_mod4_4oh-5oh-hty	aeo_1	4-5-dihydroxyornithine	no_force_needed	4-5-dihydroxyornithine	no_force_needed
k4_as_query	Q5MD35_A1_cys	cys_2	cys	no_force_needed	cys	no_force_needed
k4_as_query	YP_631961.1_1173_mod1_ser	ser_5	ser	no_force_needed	ser	no_force_needed
k4_as_query	Q939Z1_A1_leu	hpg-hpg2cl_2	no_confident_result	leu	no_confident_result	leu
k4_as_query	BGC0001019_AHB82071.1_523_mod1_gly	gly_4	no_confident_result	gly	gly	no_force_needed
k4_as_query	Q70JX1_A2_orn	orn_4	no_confident_result	orn	no_confident_result	orn
k4_as_query	BGC0001035_EPE34341.1_6121_mod6_4oh-pro	aeo_1	3oh-pro|3oh-4me-pro	no_force_needed	3oh-pro|3oh-4me-pro	no_force_needed
k4_as_query	YP_003712466.1_562_mod1_val	val_5	val	no_force_needed	val	no_force_needed
k4_as_query	BGC0000371_BAH31686.1_1984_mod2_ser	ser_11	no_confident_result	ser	no_confident_result	ser
k4_as_query	Q884E3_A2_ser	ser_7	ser	no_force_needed	ser	no_force_needed
k4_as_query	Q5DIS7_A1_ser	ser_7	no_confident_result	ser	ser	no_force_needed
k4_as_query	Q9F636_A1_lys	gly_4	no_confident_result	b-lys	no_confident_result	b-ala
k4_as_query	AEA30273.1_471_mod1_boh-phe	trp_2	no_confident_result	phe	no_confident_result	phe
k4_as_query	BGC0000418_AHF20584.1_460_mod1_hpg	hpg-hpg2cl_4	no_confident_result	4hpg	no_confident_result	4hpg
k5_as_query	Q01886v2_A2_ala	gln_5	ala	no_force_needed	ala	no_force_needed
k5_as_query	Q9R9J0_A4_pro	pro_4	no_confident_result	pro	no_confident_result	pro
k5_as_query	BGC0000425_AFH75320.1_2651_mod3_d-ser	d-ser_1	no_confident_result	d-ser	no_confident_result	d-ser
k5_as_query	P27742_A2_cys	cys_1	no_confident_result	cys	cys	no_force_needed
k5_as_query	Q9RAH2_A2_gly	leu_12	no_confident_result	gly	no_confident_result	gly
k5_as_query	AFZ61501.1_498_mod1_leu	leu_4	no_confident_result	leu	leu	no_force_needed
k5_as_query	Q9ZGA6_A1(11)_pip	pip_1	no_confident_result	pip	pip	no_force_needed
k5_as_query	Q45R83_A4(11)_asn	asp_3	no_confident_result	glu	no_confident_result	glu
k5_as_query	O85168_A4_dab	dab_1	dab	no_force_needed	dab	no_force_needed
k5_as_query	Q8NJX1_A8_ala	abu-iva_1	no_confident_result	d-ala	no_confident_result	d-ala
k5_as_query	BGC0000431_EFE73312.1_1526_mod2_ser	thr_11	thr	no_force_needed	thr	no_force_needed
k5_as_query	O85168_A6_phe	ile_1	no_confident_result	tyr	no_confident_result	tyr
k5_as_query	AHZ34232.1_480_mod1_leu	leu_4	no_confident_result	leu	no_confident_result	leu
k5_as_query	Q70KJ6_A1(4)_val	val_9	val	no_force_needed	val	no_force_needed
k5_as_query	BGC0001125_AIW82284.1_1365_mod2_asn	asn_3	no_confident_result	asn|gln	no_confident_result	asn|gln
k5_as_query	AGM16412.1_4054_mod4_orn	orn_3	orn	no_force_needed	orn	no_force_needed
k5_as_query	O07944_A4_gly-ph	hpg-hpg2cl_7	no_confident_result	abu|iva	no_confident_result	abu|iva
k5_as_query	P25464_A2_cys	cys_1	no_confident_result	cys	cys	no_force_needed
k5_as_query	simA_mod9_val	abu-iva_1	abu|iva	no_force_needed	abu|iva	no_force_needed
k5_as_query	Q83VS1_A1_ala	ala_1	ala	no_force_needed	ala	no_force_needed
k5_as_query	BGC0000314_WP_010369428.1_2037_mod2_asn	asn_5	asn	no_force_needed	asn	no_force_needed
k5_as_query	Q09164_A5_bmt	leu_1	no_confident_result	gly|sar	no_confident_result	leu
k5_as_query	ZP_10287804.1_2037_mod2_asn	asn_5	asn	no_force_needed	asn	no_force_needed
k5_as_query	Q6WZ98_A1_b-lys	asn_7	no_confident_result	b-lys	no_confident_result	b-lys
k5_as_query	AFZ61525.1_558_mod1_athr	dhabu_1	no_confident_result	dhabu	no_confident_result	d-athr
k5_as_query	Q6WZB2_A1(2)_ser	ser_12	no_confident_result	ser	ser	no_force_needed
k5_as_query	BGC0000292_XP_001212648.1_529_mod1_phe	gly_6	no_confident_result	trp	trp	no_force_needed
k5_as_query	BGC0000398_AFH75329.1_2729_mod3_leu	leu_6	no_confident_result	leu	leu	no_force_needed
k5_as_query	Q939Y9_A1_dpg|dhpg	dpg-dhpg_2	dpg|dhpg	no_force_needed	dpg|dhpg	no_force_needed
k5_as_query	Q09164_A3_leu	leu_1	leu	no_force_needed	leu	no_force_needed
k5_as_query	AGZ15459.1_694_mod1_pip	piperazic_1	piperazic	no_force_needed	piperazic	no_force_needed
k5_as_query	Q01886v2_A1_pro	pro_5	pro	no_force_needed	pro	no_force_needed
k5_as_query	BGC0001149_CDF96614.1_1540_mod2_pro	d-pro_1	no_confident_result	pip	no_confident_result	pip
k5_as_query	BGC0000449_AHF21228.1_12993_mod10_glu	glu_7	glu	no_force_needed	glu	no_force_needed
k5_as_query	Q50E73_A6(11)_ser	ser_12	no_confident_result	ala	no_confident_result	ala
k5_as_query	Q70LM4_A4(16)_gly	ala_2	ala	no_force_needed	ala	no_force_needed
k5_as_query	Q83VS1_A2(7)_val	val_3	val	no_force_needed	val	no_force_needed
k5_as_query	Q93N86_A1(7)_hpg|hpg2cl	hpg-hpg2cl_7	no_confident_result	hpg|hpg2cl	no_confident_result	4hpg
k5_as_query	BGC0000439_AHH53507.1_1547_mod2_asp	asp_3	asp	no_force_needed	asp	no_force_needed
k5_as_query	Q83VS0_A7(17)_ala	ala_1	ala	no_force_needed	ala	no_force_needed
k5_as_query	BGC0000463_AGM14933.1_1613_mod2_gln	val_3	no_confident_result	ser	no_confident_result	ser
k5_as_query	Q70KJ7_A3_leu	leu_14	leu	no_force_needed	leu	no_force_needed
k5_as_query	Q5V8A8_A2_trp	phe_3	no_confident_result	val	no_confident_result	33p-l-ala
k5_as_query	BGC0000456_BAO73252.1_996_mod1_athr|ser	gln_5	no_confident_result	tyr	no_confident_result	tyr
k5_as_query	BGC0000400_AGM16413.1_2831_mod3_ser	ser_1	ser	no_force_needed	ser	no_force_needed
k5_as_query	BGC0000314_WP_010369430.1_2041_mod2_ile	leu_14	ile|d-leu	no_force_needed	ile|d-leu	no_force_needed
k5_as_query	BGC0000425_AFH75321.1_2723_mod3_d-val	d-val_1	no_confident_result	d-val	no_confident_result	leu
k5_as_query	BGC0001147_AIS24862.1_37_mod1_glycy	gly_1	no_confident_result	pip	no_confident_result	gln|tyr
k5_as_query	Q8G982_A2(9)_me-asp	me-asp_1	no_confident_result	me-asp	me-asp	no_force_needed
k5_as_query	P94873_A1_aad	aad_1	no_confident_result	aad	aad	no_force_needed
k5_as_query	AEU11003.1_2671_mod3_aile	ile_5	ile	no_force_needed	ile	no_force_needed
k5_as_query	simA_mod4_val	abu-iva_1	no_confident_result	leu|val	no_confident_result	d-ala
k5_as_query	P27742_A1_aad	aad_1	no_confident_result	aad	aad	no_force_needed
k5_as_query	Q93N87_A2(5)_hpg|hpg2cl	hpg-hpg2cl_7	hpg|hpg2cl	no_force_needed	hpg|hpg2cl	no_force_needed
k5_as_query	P25464_A3_val	val_14	no_confident_result	val	val	no_force_needed
k5_as_query	Q70KJ7_A2_leu	leu_10	leu	no_force_needed	leu	no_force_needed
k5_as_query	BGC0001133_XBJ1_0774_3102_mod3_ser	leu_15	ser	no_force_needed	ser	no_force_needed
k5_as_query	Q8G982_A1(8)_leu	arg_2	no_confident_result	leu	no_confident_result	arg
k5_as_query	BGC0000439_AHH53508.1_1559_mod2_kyn	gly_1	kyn	no_force_needed	kyn	no_force_needed
k5_as_query	O87314_A1_orn	orn_2	orn	no_force_needed	orn	no_force_needed
k5_as_query	Q9Z4X5_A1_asp	asp_1	asp	no_force_needed	asp	no_force_needed
k5_as_query	BGC0001125_AIW82282.1_2490_mod1_val	val_7	no_confident_result	val	no_confident_result	val
k5_as_query	BGC0000439_AHH53507.1_6245_mod6_ala	ala_3	ala	no_force_needed	ala	no_force_needed
k5_as_query	Q70LM5_A5(11)_trp	trp_4	no_confident_result	trp	trp	no_force_needed
k5_as_query	YP_116975.1_508_mod1_lys	lys_1	no_confident_result	lys	no_confident_result	lys
k5_as_query	AEF33078.1_463_mod1_thr	thr_10	no_confident_result	athr|thr	thr	no_force_needed
k5_as_query	BGC0000439_AHH53507.1_5197_mod5_gly	gly_1	gly	no_force_needed	gly	no_force_needed
k5_as_query	Q70LM5_A6(12)_leu	leu_14	leu	no_force_needed	leu	no_force_needed
k5_as_query	BGC0000426_AGZ03650.1_37_mod1_phe	phe_1	no_confident_result	phe	phe	no_force_needed
k5_as_query	EFE73313.1_484_mod1_ser	ser_12	ser	no_force_needed	ser	no_force_needed
k5_as_query	BGC0001166_AGQ43600.1_1838_mod2_ala	gln_5	no_confident_result	ala	no_confident_result	ala
k5_as_query	Q01886/62867029_A3_ala	abu-iva_1	no_confident_result	ala	no_confident_result	ala
k5_as_query	CCJ67636.1_476_mod1_delta-but	dhabu_1	no_confident_result	d-athr	no_confident_result	dhabu
k5_as_query	BGC0000436_EJK79842.1_762_mod1_ile|val	val_7	val	no_force_needed	val	no_force_needed
k5_as_query	Q93I55_A4_pro	pro_4	no_confident_result	pro	no_confident_result	pro
k5_as_query	Q84BC7_A2(5)_ser	ser_13	no_confident_result	ser	no_confident_result	ser
k5_as_query	XP_754329.2_1103_mod2_ala	leu_14	no_confident_result	trp	no_confident_result	trp
k5_as_query	AGM16413.1_1312_mod2_lys	lys_4	lys	no_force_needed	lys	no_force_needed
k5_as_query	Q70JX1_A1_glu	glu_2	no_confident_result	glu	no_confident_result	glu
k5_as_query	EFE73313.1_2638_mod3_gly	gly_5	gly	no_force_needed	gly	no_force_needed
k5_as_query	BGC0000451_CP001614.2_15150-22349_mod1_orn	orn_2	no_confident_result	no_confident_result	no_confident_result	asp
k5_as_query	BGC0001125_AIW82285.1_488_mod1_thr	deoxy-thr_1	no_confident_result	deoxy-thr	no_confident_result	deoxy-thr
k5_as_query	Q8CJX2_A2(11)_trp	gly_1	no_confident_result	trp	no_confident_result	trp
k5_as_query	P19787_A3_val	val_14	val	no_force_needed	val	no_force_needed
k5_as_query	AHZ20774.1_3047_mod3_gly	gly_6	gly	no_force_needed	gly	no_force_needed
k5_as_query	Q5DIV7_A1_ser	ser_8	ser	no_force_needed	ser	no_force_needed
k5_as_query	BGC0001125_AIW82277.1_2006_mod2_pro	pro-me-pro_1	no_confident_result	pro	no_confident_result	pip
k5_as_query	Q00869_A2_val-hyphaa	leu_1	no_confident_result	abu	no_confident_result	leu
k5_as_query	AGC24265.1_37_mod1_pro	ser_12	no_confident_result	pro-4p	no_confident_result	pro-4p
k5_as_query	AHH53506.1_5177_mod5_gly	gly_1	gly	no_force_needed	gly	no_force_needed
k5_as_query	AHH53506.1_475_mod1_trp	trp_2	trp	no_force_needed	trp	no_force_needed
k5_as_query	AEU11003.1_4205_mod4_pro	pro-me-pro_1	no_confident_result	pro	no_confident_result	pro
k5_as_query	BGC0000398_AFH75329.1_3793_mod4_ser	ser_4	ser	no_force_needed	ser	no_force_needed
k6_as_query	Q8NJX1_A11_leu	abu-iva_1	no_confident_result	val	no_confident_result	abu|iva
k6_as_query	O52819_A1_leu	hpg-hpg2cl_1	no_confident_result	leu	no_confident_result	leu
k6_as_query	O68006_A4_glu	glu_5	no_confident_result	glu	no_confident_result	glu
k6_as_query	CCJ67639.1_1691_mod2_leu	leu_3	no_confident_result	d-val	no_confident_result	d-val
k6_as_query	BGC0000423_CBG75492.1_5304_mod5_horn	gly_4	d-cyclo-horn	no_force_needed	d-cyclo-horn	no_force_needed
k6_as_query	BGC0000376_BAP16693.1_511_mod1_alpha-me-ser	cys_2	cys	no_force_needed	no_confident_result	cys
k6_as_query	P45745_A1_gly	gly_6	gly	no_force_needed	gly	no_force_needed
k6_as_query	O68006_A3_leu	leu_12	no_confident_result	phe	no_confident_result	val
k6_as_query	BGC0000398_AFH75330.1_3756_mod4_val	val_8	val	no_force_needed	no_confident_result	val
k6_as_query	Q9FDB3_A1(1)_dhab|dht	dhab-dht_1	dhab|dht	no_force_needed	dhab|dht	no_force_needed
k6_as_query	BGC0000449_AHF21228.1_474_mod1_val	ile_5	ile	no_force_needed	no_confident_result	ile
k6_as_query	EPE34341.1_6121_mod6_3oh-pro|3oh-4me-pro	4oh-pro_1	4oh-pro	no_force_needed	4oh-pro	no_force_needed
k6_as_query	Q8KLL3_A1_hpg|hpg2cl	hpg-hpg2cl_1	no_confident_result	4hpg	no_confident_result	4hpg
k6_as_query	Q51338_A2_thr	thr_4	thr	no_force_needed	thr	no_force_needed
k6_as_query	BGC0001035_EPE34341.1_5024_mod5_thr	4oh-pro_1	3oh-glu	no_force_needed	3oh-glu	no_force_needed
k6_as_query	BGC0000371_BAH31686.1_4563_mod4_haorn	gly_5	no_confident_result	trp	no_confident_result	no_confident_result
k6_as_query	Q83Y49_A1_val	val_5	no_confident_result	ile|val	no_confident_result	ile|val
k6_as_query	Q84BQ6v2_A1_leu	leu_3	leu	no_force_needed	leu	no_force_needed
k6_as_query	Q9RLP6_A4_alaninol	ala_9	no_confident_result	ala	no_confident_result	ala
k6_as_query	YP_631961.1_10241_mod7_tyr	gly_5	no_confident_result	ala	no_confident_result	ala
k6_as_query	CCJ67640.1_5904_mod6_lys	leu_8	no_confident_result	lys	no_confident_result	lys
k6_as_query	BGC0000369_AHZ20784.1_509_mod1_nme-thr	thr_5	thr	no_force_needed	thr	no_force_needed
k6_as_query	AEA30272.1_474_mod1_thr	thr_9	no_confident_result	thr	no_confident_result	thr
k6_as_query	BGC0000425_AFH75320.1_1563_mod2_d-pro	pro_6	no_confident_result	d-pro	no_confident_result	d-pro
k6_as_query	Q8G983/24744797_A2(7)_ala	ala_1	ala	no_force_needed	ala	no_force_needed
k6_as_query	Q8G983_A1(6)_ser	ser_8	no_confident_result	ser	ser	no_force_needed
k6_as_query	BGC0000464_CDG17982.1_2738_mod3_pro	leu_8	no_confident_result	pro	no_confident_result	pro
k6_as_query	Q9RFM9_A1_dhb|sal	dhb_1	dhb	no_force_needed	no_confident_result	dhb|sal
k6_as_query	Q884E5_A2_thr	thr_4	no_confident_result	thr	no_confident_result	thr
k6_as_query	BGC0001035_EPE34341.1_685_mod1_4-5-dihydroxyhomotyrosine	4oh-pro_1	no_confident_result	no_confident_result	no_confident_result	no_confident_result
k6_as_query	Q9R9I9_A1_ser	ser_2	no_confident_result	ser	ser	no_force_needed
k6_as_query	Q09164_A9_val	leu_16	no_confident_result	gly|sar	ala	no_force_needed
k6_as_query	Q93I55_A1_tyr	tyr_1	tyr	no_force_needed	tyr	no_force_needed
k6_as_query	YP_116976.1_488_mod1_lys	lys_3	no_confident_result	lys	no_confident_result	lys
k6_as_query	Q9K5L9_A1(7)_ile	leu_12	no_confident_result	aile	no_confident_result	aile
k6_as_query	Q04747_A2(5)_asp	asp_2	asp	no_force_needed	asp	no_force_needed
k6_as_query	ChaP_mod1_trp	gly_5	no_confident_result	ala	no_confident_result	ala
k6_as_query	BGC0001114_AGN11881.1_528_mod1_thr	thr_7	thr	no_force_needed	thr	no_force_needed
k6_as_query	BGC0000369_AHZ20774.1_3047_mod3_gly	gly_5	gly	no_force_needed	gly	no_force_needed
k6_as_query	EFE73312.1_5470_mod5_val	thr_9	thr	no_force_needed	thr	no_force_needed
k6_as_query	Q9R9J1_A1_asn	asn_4	asn	no_force_needed	asn	no_force_needed
k6_as_query	Q5DIS9_A2(6)_orn-fn5h	orn-fn5h_1	no_confident_result	orn-fn5h	no_confident_result	orn-fn5h
k6_as_query	Q939Z1_A3_asn	asp_5	no_confident_result	asn	no_confident_result	asn
k6_as_query	AGM16412.1_456_mod1_orn	orn_1	orn	no_force_needed	orn	no_force_needed
k6_as_query	Q04747_A3(6)_leu	leu_9	no_confident_result	leu	leu	no_force_needed
k6_as_query	EFE73308.1_231_mod1_dab|dpr	gly_5	cysa	no_force_needed	cysa	no_force_needed
k6_as_query	Q70LM6_A2(4)_leu	leu_12	no_confident_result	leu	leu	no_force_needed
k6_as_query	Q8NJX1_A6_gln	abu-iva_1	no_confident_result	gln	no_confident_result	gln
k6_as_query	AHF21228.1_474_mod1_val	ile_5	no_confident_result	ile	no_confident_result	ile
k6_as_query	Q333U7_A2(4)_cys	val_15	no_confident_result	abu|iva	no_confident_result	hpg
k6_as_query	Q70LM5_A3(9)_trp	trp_2	trp	no_force_needed	trp	no_force_needed
k6_as_query	Q93I56_A1_asn	asn_4	asn	no_force_needed	asn	no_force_needed
k6_as_query	BGC0000371_BAH33409.1_2360_mod2_gly	gly_4	no_confident_result	gly	no_confident_result	gly
k6_as_query	Q9Z4X6_A6_hpg|hpg2cl	hpg-hpg2cl_7	no_confident_result	abu|iva	no_confident_result	hpg
k6_as_query	Q6YK41_A1_asn	asn_4	asn	no_force_needed	asn	no_force_needed
k6_as_query	Q01886v1_A1_pro	pro_2	pro	no_force_needed	pro	no_force_needed
k6_as_query	BGC0000463_AGM14934.1_1604_mod2_leu	leu_4	no_confident_result	leu	leu	no_force_needed
k6_as_query	Q8NJX1_A1_abu|iva	abu-iva_1	no_confident_result	val	no_confident_result	val
k6_as_query	Q9FB24_A1_thr	thr_9	no_confident_result	ser	no_confident_result	ser
k6_as_query	EPE34341.1_685_mod1_4oh-5oh-orn	4oh-pro_1	no_confident_result	no_confident_result	no_confident_result	no_confident_result
k6_as_query	Q939Z0_A2(5)_hpg|hpg2cl	hpg-hpg2cl_6	no_confident_result	hpg|hpg2cl	no_confident_result	hpg|hpg2cl
k6_as_query	BGC0001036_AGZ15476.1_490_mod1_3oh-leu	val_15	3oh-leu	no_force_needed	3oh-leu	no_force_needed
k6_as_query	AGZ15459.1_2235_mod2_3oh-3me-pro	ala_8	3oh-3me-pro	no_force_needed	3oh-3me-pro	no_force_needed
k6_as_query	P26046_A1_aad	aad_1	aad	no_force_needed	aad	no_force_needed
k6_as_query	P94459_A3_tyr	tyr_2	no_confident_result	tyr	tyr	no_force_needed
k6_as_query	O94205_A3_pro	4oh-pro_1	no_confident_result	lys-erg	no_confident_result	lys-erg
k6_as_query	XP_001220460.1_3743_mod1_trp	gly_5	no_confident_result	gln	no_confident_result	ala|leu|val
k6_as_query	Q6WZB2_A2(3)_ser	ser_14	no_confident_result	ser	no_confident_result	ser
k6_as_query	BGC0000398_AFH75330.1_2671_mod3_ser	ser_4	ser	no_force_needed	ser	no_force_needed
k6_as_query	O30980_A2_glu	glu_6	gln	no_force_needed	gln	no_force_needed
k6_as_query	Q5DIV7_A2_arg	gly_5	no_confident_result	orn-fn5h	no_confident_result	glycy
k6_as_query	BGC0000371_BAH31686.1_3493_mod3_horn	orn_7	no_confident_result	no_confident_result	no_confident_result	no_confident_result
k6_as_query	BGC0000425_AFH75321.1_1645_mod2_leu	d-val_1	no_confident_result	d-val	d-val	no_force_needed
k6_as_query	P40871_A1_dhb|sal	dhb_1	no_confident_result	dhb	no_confident_result	dhb|sal
k6_as_query	Q9FDB3_A4(4)_val	val_7	no_confident_result	val	no_confident_result	val
k6_as_query	EWS95124_3485_mod4_tyr	trp_3	phe	no_force_needed	no_confident_result	tyr
k6_as_query	simA_mod6_abu	abu-iva_1	no_confident_result	ala	no_confident_result	gln
k6_as_query	P27206_A3_leu	leu_9	no_confident_result	leu	leu	no_force_needed
k6_as_query	BGC0000418_AHF20584.1_3410_mod3_bht	bht_1	no_confident_result	boh-tyr	no_confident_result	boh-tyr
k6_as_query	Q70LM4_A1(13)_trp	trp_2	trp	no_force_needed	trp	no_force_needed
k6_as_query	Q5DIS7_A3_orn-fn5h	orn-fn5h_1	no_confident_result	orn-fn5h	no_confident_result	orn-fn5h
k6_as_query	Q83Y48_A1_lys	orn_4	no_confident_result	pro	no_confident_result	phe
k6_as_query	YP_702283.1_1525_mod2_fhorn	trp_3	no_confident_result	no_confident_result	no_confident_result	no_confident_result
k6_as_query	BGC0000425_AFH75322.1_4831_mod5_dab	dab_1	no_confident_result	d-dab	no_confident_result	d-dab
k6_as_query	O85168_A8_asp	gly_5	no_confident_result	leu	no_confident_result	d-pro
k6_as_query	Q50E73_A1(6)_orn	orn_6	no_confident_result	orn	no_confident_result	orn
k6_as_query	BGC0000400_AGM16412.1_3015_mod3_thr	thr_11	thr	no_force_needed	thr	no_force_needed
k6_as_query	ADL64235_1458_mod2_phe	val_4	no_confident_result	val	no_confident_result	val
k6_as_query	Q9RK14_A1_orn|orn-fn5h	gly_5	no_confident_result	fhorn	no_confident_result	fhorn
k6_as_query	XP_002568558.1_1292_mod2_his	4oh-pro_1	no_confident_result	ala	no_confident_result	trp
k6_as_query	Q09164_A4_val	leu_16	no_confident_result	bmt	no_confident_result	gly|sar
k6_as_query	Q9FB23_A1_ser	ser_14	no_confident_result	b-lys	no_confident_result	b-lys
k6_as_query	CCJ67636.1_2656_mod3_d-ser	d-ser_1	d-ser	no_force_needed	d-ser	no_force_needed
k7_as_query	Q6YK39_A1_ser	ser_15	ser	no_force_needed	ser	no_force_needed
k7_as_query	Q70P97_A1_cys	cys_1	cys	no_force_needed	cys	no_force_needed
k7_as_query	BGC0000456_BAO73252.1_4122_mod3_pro	gln_1	no_confident_result	gln	no_confident_result	gln
k7_as_query	Q45295_A1_gln	gln_4	gln	no_force_needed	gln	no_force_needed
k7_as_query	BGC0000431_EFE73313.1_484_mod1_ser	ser_11	ser	no_force_needed	ser	no_force_needed
k7_as_query	AEI70245.1_445_mod1_ala	gly_1	no_confident_result	gly	no_confident_result	gly
k7_as_query	AGC65516.1_1081_mod1_val	val_6	val	no_force_needed	val	no_force_needed
k7_as_query	BGC0000449_AHF21228.1_9291_mod7_dab	dab_2	dab	no_force_needed	dab	no_force_needed
k7_as_query	Q93N89_A1(1)_hpg|hpg2cl	hpg-hpg2cl_7	hpg|hpg2cl	no_force_needed	hpg|hpg2cl	no_force_needed
k7_as_query	BGC0000449_AHF21229.1_280_mod1_val	val_8	glycolic-acid	no_force_needed	val	no_force_needed
k7_as_query	P29698_A1(2)_ser	ser_13	ser	no_force_needed	ser	no_force_needed
k7_as_query	Q9FB27_A1_asn	asn_2	no_confident_result	d-ala	no_confident_result	asn
k7_as_query	Q939Z0_A1(4)_hpg|hpg2cl	hpg-hpg2cl_2	no_confident_result	hpg|hpg2cl	no_confident_result	hpg|hpg2cl
k7_as_query	CBG75492_240_mod1_nme-fhorn	phe_1	fhorn	no_force_needed	fhorn	no_force_needed
k7_as_query	BGC0000335_AID65224.1_469_mod1_asn	asn_5	no_confident_result	asn	asn	no_force_needed
k7_as_query	Q45563_A1(10)_ile	val_7	ile	no_force_needed	no_confident_result	ile
k7_as_query	BGC0000314_WP_010369428.1_544_mod1_val	val_10	val	no_force_needed	d-val	no_force_needed
k7_as_query	Q84BQ4_A5(11)_asp	asp_6	no_confident_result	asp	no_confident_result	asp
k7_as_query	AHH53506.1_4093_mod4_thr	thr_9	thr	no_force_needed	thr	no_force_needed
k7_as_query	CCA29202.1_393_mod1_gly	gly_3	no_confident_result	gly	no_confident_result	gly
k7_as_query	Q5J1Q7_A1_hpg|hpg2cl	ser_14	no_confident_result	thr	no_confident_result	b-ala
k7_as_query	AFZ61526.1_2645_mod3_ile	ile_1	ile	no_force_needed	ile	no_force_needed
k7_as_query	O30980_A3_tyr	tyr_5	tyr	no_force_needed	tyr	no_force_needed
k7_as_query	BGC0000974_AIR74925.1_516_mod1_gly	gly_3	gly	no_force_needed	gly	no_force_needed
k7_as_query	P68876_A1_ala	ala_8	ala	no_force_needed	ala	no_force_needed
k7_as_query	Q09164_A7_gly|sar	val_9	no_confident_result	val	no_confident_result	bmt
k7_as_query	O52819_A3_asn	gly_1	no_confident_result	asn	no_confident_result	asn
k7_as_query	AGZ15458.1_2022_mod2_noh-d-ala|oh-d-ala	ser_9	noh-ala	no_force_needed	noh-ala	no_force_needed
k7_as_query	Q8RTG4_A1_arg	arg_1	no_confident_result	arg	no_confident_result	arg
k7_as_query	AHF21229.1_1387_mod3_ala	val_8	no_confident_result	ile	no_confident_result	val
k7_as_query	AHZ34233.1_1522_mod2_gln	gln_2	gln	no_force_needed	gln	no_force_needed
k7_as_query	Q6VT95_A1(5)_gly	gly_3	no_confident_result	gly	gly	no_force_needed
k7_as_query	BGC0000371_BAH33409.1_494_mod1_arg	gly_1	no_confident_result	no_confident_result	no_confident_result	no_confident_result
k7_as_query	AEA30273.1_3652_mod4_d-trp	trp_2	no_confident_result	boh-ome-tyr	no_confident_result	boh-ome-tyr
k7_as_query	BGC0001125_AIW82277.1_525_mod1_asn	asn_2	no_confident_result	asn	no_confident_result	asn
k7_as_query	BGC0000431_EFE73312.1_441_mod1_thr	ser_9	asp	no_force_needed	asp	no_force_needed
k7_as_query	BGC0000464_CDG17980.1_525_mod1_pro	d-pro_1	no_confident_result	pro	no_confident_result	pro
k7_as_query	BGC0001036_AGZ15460.1_476_mod1_noh-val	ser_10	no_confident_result	noh-ala	no_confident_result	noh-ala
k7_as_query	BGC0000400_AGM16412.1_4054_mod4_orn	orn_4	orn	no_force_needed	orn	no_force_needed
k7_as_query	AGZ15460.1_476_mod1_noh-val	ser_10	no_confident_result	noh-ala	no_confident_result	noh-ala
k7_as_query	Q8KLL4v1_A1_dpg|dhpg	dpg-dhpg_1	dpg|dhpg	no_force_needed	dpg|dhpg	no_force_needed
k7_as_query	O94205_A1_ala	gln_1	no_confident_result	aeo	no_confident_result	aeo
k7_as_query	BGC0001019_AHB82071.1_2004_mod2_trp	gly_3	no_confident_result	tyr	no_confident_result	tyr
k7_as_query	Q83VS0_A3(13)_ala	ala_10	no_confident_result	ala	ala	no_force_needed
k7_as_query	BGC0000439_AHH53507.1_4147_mod4_asp	asp_3	asp	no_force_needed	asp	no_force_needed
k7_as_query	AGC65513.1_491_mod1_phe|tyr	gly_3	no_confident_result	b-ala	no_confident_result	b-ala
k7_as_query	Q8KLL5_A2_hpg|hpg2cl	hpg-hpg2cl_6	hpg|hpg2cl	no_force_needed	hpg|hpg2cl	no_force_needed
k7_as_query	AHZ34233.1_483_mod1_leu	leu_8	leu	no_force_needed	leu	no_force_needed
k7_as_query	Q9L8H4_A2(5)_gly	gly_1	no_confident_result	gly|sar	no_confident_result	gly|sar
k7_as_query	Q5ZPB0_A1_pip	pro_4	no_confident_result	val	no_confident_result	leu
k7_as_query	P19787_A2_cys	cys_4	cys	no_force_needed	cys	no_force_needed
k7_as_query	Q8GAQ3_A1(3)_phe	trp_4	no_confident_result	tyr	no_confident_result	tyr
k7_as_query	Q65NK5_A2_leu	leu_10	leu	no_force_needed	leu	no_force_needed
k7_as_query	O87606_A2_orn	orn_7	orn	no_force_needed	orn	no_force_needed
k7_as_query	BGC0000425_AFH75321.1_3778_mod4_d-leu	d-gln_1	d-gln	no_force_needed	d-gln	no_force_needed
k7_as_query	BGC0000449_AHF21229.1_1387_mod2_ile	val_8	no_confident_result	ile	no_confident_result	val
k7_as_query	BGC0000382_AIT38302.1_845_mod1_leu	asn_5	no_confident_result	b-lys	no_confident_result	his
k7_as_query	Q9FDB0_A1_thr	cys_1	no_confident_result	dhb	no_confident_result	d-cys
k7_as_query	BGC0000463_AGM14925.1_482_mod1_leu	leu_6	no_confident_result	leu	leu	no_force_needed
k7_as_query	Q70JZ9_A2_asn	asn_5	asn	no_force_needed	asn	no_force_needed
k7_as_query	P94873_A3_val	val_14	val	no_force_needed	val	no_force_needed
k7_as_query	Q884E4_A2_ser	ser_8	ser	no_force_needed	ser	no_force_needed
k7_as_query	Q5DIP4_A3(6)_ser	ser_8	no_confident_result	ser	ser	no_force_needed
k7_as_query	BGC0001125_AIW82284.1_2452_mod3_ala	ala_2	ala	no_force_needed	ala	no_force_needed
k7_as_query	Q09164_A8_leu	leu_3	no_confident_result	leu	no_confident_result	leu
k7_as_query	BGC0000464_CDG17980.1_3751_mod4_leu	leu_5	no_confident_result	leu	no_confident_result	leu
k7_as_query	Q70KJ6_A3(6)_leu	leu_12	leu	no_force_needed	leu	no_force_needed
k7_as_query	AEU11003.1_555_mod1_pro	pro_4	no_confident_result	pro	no_confident_result	pro
k7_as_query	O30981_A1(5)_glu	glu_8	glu	no_force_needed	glu	no_force_needed
k7_as_query	BGC0000335_AID65222.1_2687_mod1_asn	asn_5	no_confident_result	asn	asn	no_force_needed
k7_as_query	Q5DIS7_A2_dab	gln_5	no_confident_result	dab	no_confident_result	dab
k7_as_query	Q5J1Q7_A3_hpg|hpg2cl	ser_14	no_confident_result	fhorn	no_confident_result	cysa
k7_as_query	O87314_A2_thr	thr_10	no_confident_result	thr	no_confident_result	no_confident_result
k7_as_query	BGC0001133_XBJ1_0775_3649_mod4_leu	leu_15	leu	no_force_needed	leu	no_force_needed
k7_as_query	O05819_A1_lys	lys_2	lys	no_force_needed	lys	no_force_needed
k7_as_query	AEA30274.1_484_mod1_aoh-gly	gly_1	gly	no_force_needed	gly	no_force_needed
k7_as_query	Q8NJX1_A7_abu|iva	abu-iva_1	no_confident_result	abu|iva	no_confident_result	gly
k7_as_query	AEU11003.1_1620_mod2_phe	leu_9	no_confident_result	tyr	no_confident_result	tyr
k7_as_query	O30980_A3(9)_tyr	tyr_5	tyr	no_force_needed	tyr	no_force_needed
k7_as_query	Q9RLP6_A1_phe	ala_9	phe	no_force_needed	phe	no_force_needed
k7_as_query	BGC0000400_AGM16412.1_1974_mod2_val	val_10	val	no_force_needed	val	no_force_needed
k7_as_query	BGC0000369_AHZ20774.1_477_mod1_thr	thr_3	thr	no_force_needed	thr	no_force_needed
k7_as_query	BGC0000426_AGZ03651.1_1997_mod2_trp	tyr_4	no_confident_result	tyr	no_confident_result	tyr
k7_as_query	O52820_A3(6)_bht|tyr	bht_2	bht	no_force_needed	bht	no_force_needed
k7_as_query	Q9FB18_A1_b-ala	ser_14	no_confident_result	3oh-3me-pro	no_confident_result	b-ala
k7_as_query	AEC14347.1_567_mod1_phe	pro_6	no_confident_result	phe	no_confident_result	phe
k7_as_query	Q8NJX1_A16_abu|iva	abu-iva_2	no_confident_result	abu|iva	no_confident_result	abu|iva
k7_as_query	Q84BQ4_A1(7)_leu	leu_6	leu	no_force_needed	leu	no_force_needed
k7_as_query	P45745_A2(3)_athr|thr	thr_10	thr	no_force_needed	no_confident_result	thr
k7_as_query	Q09164_A2_leu	leu_3	leu	no_force_needed	leu	no_force_needed
k7_as_query	NP_216896.3_457_mod1_lys	lys_1	lys	no_force_needed	lys	no_force_needed
k7_as_query	AEF33078.1_1540_mod2_33p-l-ala	trp_2	no_confident_result	phe	no_confident_result	kyn
k7_as_query	Q70AZ8_A1(3)_dpg|dhpg	dpg-dhpg_1	no_confident_result	dhpg	no_confident_result	dhpg
k8_as_query	Q8NJX1_A14_leu|val	abu-iva_1	no_confident_result	d-ala	no_confident_result	ala
k8_as_query	Q84BC7_A3(6)_pro|me-pro	pro_2	no_confident_result	pro|me-pro	no_confident_result	pro|me-pro
k8_as_query	O30408_A1(2)_pro	pro_8	pro	no_force_needed	pro	no_force_needed
k8_as_query	BGC0000314_WP_010369425.1_467_mod1_thr	thr_1	thr	no_force_needed	d-thr	no_force_needed
k8_as_query	P0C064/68845359_A1(2)_pro	pro_8	pro	no_force_needed	pro	no_force_needed
k8_as_query	O05647_A1_pro	ser_11	no_confident_result	pro	no_confident_result	pro
k8_as_query	Q5DIS9_A3(7)_gly	gly_4	gly	no_force_needed	gly	no_force_needed
k8_as_query	BGC0000464_CDG17980.1_5930_mod6_thr	leu_9	no_confident_result	pro	no_confident_result	dhab|dht
k8_as_query	simA_mod3_leu	gln_3	no_confident_result	pro	no_confident_result	pro
k8_as_query	Q8NJX1_A10_ser	abu-iva_1	no_confident_result	ala	no_confident_result	ala
k8_as_query	CBG75492_2792_mod3_nme-fhorn	horn_1	horn	no_force_needed	horn	no_force_needed
k8_as_query	BGC0000425_AFH75321.1_5900_mod6_val	d-val_2	no_confident_result	d-val	no_confident_result	d-val
k8_as_query	O33743_A3(7)_tyr	leu_15	no_confident_result	phe	no_confident_result	phe
k8_as_query	Q9RAH2_A1_leu	leu_1	leu	no_force_needed	no_confident_result	leu
k8_as_query	AGC65516.1_2153_mod2_ser	ser_12	ser	no_force_needed	ser	no_force_needed
k8_as_query	EFE73312.1_4373_mod4_thr	ser_18	ser	no_force_needed	no_confident_result	ser
k8_as_query	BGC0001132_xnc1_2022_77_mod1_val	val_5	no_confident_result	val	no_confident_result	val
k8_as_query	AHF21228.1_3575_mod3_gly	ser_19	gly	no_force_needed	gly	no_force_needed
k8_as_query	AHF21228.1_10396_mod8_dab	dab_2	dab	no_force_needed	dab	no_force_needed
k8_as_query	Q6YK40_A3_pro	pro_8	pro	no_force_needed	pro	no_force_needed
k8_as_query	Q9FB23_A2_asn	asn_7	no_confident_result	hpg|hpg2cl	no_confident_result	leu
k8_as_query	O85168_A1_ser	ser_4	ser	no_force_needed	ser	no_force_needed
k8_as_query	CBG75492_1712_mod2_ser	ser_7	ser	no_force_needed	ser	no_force_needed
k8_as_query	P19787_A1_aad	aad_1	aad	no_force_needed	aad	no_force_needed
k8_as_query	AHF21228.1_5129_mod4_ser	ser_19	ser	no_force_needed	ser	no_force_needed
k8_as_query	O66069_A1_gln	gln_4	gln	no_force_needed	gln	no_force_needed
k8_as_query	O87314_A3_orn	horn_1	orn	no_force_needed	orn	no_force_needed
k8_as_query	Q93I55_A3_gln	glu_3	no_confident_result	gln	no_confident_result	gln
k8_as_query	CBG75492_5304_mod5_d-cyclo-horn	orn_2	horn	no_force_needed	horn	no_force_needed
k8_as_query	Q70KJ7_A1_glu	gln_4	no_confident_result	glu	no_confident_result	glu
k8_as_query	AEA30273.1_1527_mod2_pro	ser_9	no_confident_result	pro	pro	no_force_needed
k8_as_query	Q9C1G0v2_A3_val	val_10	val	no_force_needed	val	no_force_needed
k8_as_query	AGM16414.1_1316_mod2_lys	lys_4	lys	no_force_needed	lys	no_force_needed
k8_as_query	Q84BQ4_A4(10)_ile	ile_2	ile	no_force_needed	ile	no_force_needed
k8_as_query	Q70AZ7_A1(4)_hpg|hpg2cl	hpg-hpg2cl_2	hpg|hpg2cl	no_force_needed	hpg|hpg2cl	no_force_needed
k8_as_query	Q84BQ5_A3(5)_leu	leu_4	leu	no_force_needed	leu	no_force_needed
k8_as_query	BGC0000418_AHF20582.1_26_mod1_hpg	hpg-hpg2cl_1	no_confident_result	hpg	no_confident_result	hpg
k8_as_query	Q53526_A1_ala	ala_9	no_confident_result	ala	ala	no_force_needed
k8_as_query	CCJ67638.1_582_mod1_d-leu	leu_4	no_confident_result	d-val	no_confident_result	d-val
k8_as_query	Q70LM5_A2(8)_val	val_8	val	no_force_needed	val	no_force_needed
k8_as_query	BGC0000369_AHZ20773.1_478_mod1_thr	thr_4	thr	no_force_needed	thr	no_force_needed
k8_as_query	EFE73312.1_441_mod1_asp	ser_7	thr	no_force_needed	thr	no_force_needed
k8_as_query	BGC0000400_AGM16413.1_273_mod1_val	val_8	val	no_force_needed	val	no_force_needed
k8_as_query	Q93I55_A2_asn	asn_6	asn	no_force_needed	asn	no_force_needed
k8_as_query	removed_A1(2)_athr|thr	thr_9	pro	no_force_needed	no_confident_result	thr
k8_as_query	BGC0000425_AFH75321.1_581_mod1_d-gln	leu_4	no_confident_result	d-val	no_confident_result	d-val
k8_as_query	Q9FB27_A2_his	ser_11	no_confident_result	me-tyr-as-complex	no_confident_result	4-5-dehydro-arg|me-tyr-as-complex
k8_as_query	Q70LM5_A4(10)_leu	leu_1	leu	no_force_needed	leu	no_force_needed
k8_as_query	Q83VS1_A5_ala	ala_4	ala	no_force_needed	ala	no_force_needed
k8_as_query	BGC0000371_BAH33409.1_3340_mod3_horn	horn_1	no_confident_result	horn	no_confident_result	horn
k8_as_query	BAH22763.1_488_mod1_thr	thr_3	no_confident_result	thr	no_confident_result	deoxy-thr
k8_as_query	BGC0000449_AHF21228.1_8208_mod6_ser	ser_19	ser	no_force_needed	ser	no_force_needed
k8_as_query	Q70AZ7_A2_hpg|hpg2cl	hpg-hpg2cl_4	hpg|hpg2cl	no_force_needed	hpg|hpg2cl	no_force_needed
k8_as_query	BGC0000400_AGM16413.1_4358_mod4_ile	ile_4	ile	no_force_needed	ile	no_force_needed
k8_as_query	P27742_A3_val	val_10	no_confident_result	val	val	no_force_needed
k8_as_query	EFE73312.1_1526_mod2_thr	ser_18	ser	no_force_needed	ser	no_force_needed
k8_as_query	O68007_A2(7)_orn	orn_5	no_confident_result	orn	no_confident_result	dab
k8_as_query	BGC0000439_AHH53508.1_483_mod1_glu	asp_5	no_confident_result	asn	no_confident_result	asp|bme-asp
k8_as_query	Q8KLL5_A3(6)_bht	bht_1	bht	no_force_needed	bht	no_force_needed
k8_as_query	Q5MP00_A1(5)_gly	gly_4	gly	no_force_needed	gly	no_force_needed
k8_as_query	P27206_A2_leu	leu_14	leu	no_force_needed	leu	no_force_needed
k8_as_query	Q9S1A9_A2(7)_ala	ala_2	ala	no_force_needed	ala	no_force_needed
k8_as_query	O85168_A7_dhab|dht|thr	thr_2	no_confident_result	dhabu	no_confident_result	dhab|dht
k8_as_query	Q5V8A8_A1_val	val_3	no_confident_result	val	no_confident_result	val
k8_as_query	O30408_A3(4)_phe	phe_5	no_confident_result	phe	no_confident_result	phe
k8_as_query	BGC0000369_AHZ20781.1_1540_mod2_thr	thr_4	thr	no_force_needed	thr	no_force_needed
k8_as_query	BGC0000398_AFH75328.1_482_mod1_leu	leu_4	leu	no_force_needed	leu	no_force_needed
k8_as_query	EWS95124_2422_mod3_ala|gly	ala_6	ala	no_force_needed	ala	no_force_needed
k8_as_query	P27743_A1_aad	aad_1	aad	no_force_needed	aad	no_force_needed
k8_as_query	BGC0000400_AGM16413.1_1312_mod2_lys	lys_4	lys	no_force_needed	lys	no_force_needed
k8_as_query	AHH53508.1_483_mod1_glu	asp_5	no_confident_result	asn	no_confident_result	asp|bme-asp
k8_as_query	BGC0000419_AIG79243.1_1041_mod2_boh-tyr	bht_2	bht	no_force_needed	no_confident_result	bht
k8_as_query	AHZ20784.1_509_mod1_thr	thr_4	nme-thr	no_force_needed	nme-thr	no_force_needed
k8_as_query	YP_631961.1_2650_mod2_leu	val_8	no_confident_result	goh-val	no_confident_result	goh-val
k8_as_query	CCA29203.1_2085_mod2_cys	cys_2	cys	no_force_needed	cys	no_force_needed
k8_as_query	Q83VS0_A5(15)_athr|thr	thr_2	no_confident_result	dhabu	no_confident_result	d-athr
k8_as_query	BGC0000369_AHZ20784.1_1992_mod2_glu|tyr	leu_1	gln|tyr	no_force_needed	gln|tyr	no_force_needed
k8_as_query	Q45R85_A4_thr	thr_8	no_confident_result	thr	no_confident_result	thr
k8_as_query	ADL64235_433_mod1_val	val_14	no_confident_result	phe	no_confident_result	ile
k8_as_query	Q83VS1_A4(9)_dhab|dht	dhab-dht_1	dhab|dht	no_force_needed	dhab|dht	no_force_needed
k8_as_query	AEC14348.1_1108_mod1_phe	phe_1	no_confident_result	phe	no_confident_result	phe
k8_as_query	P0C063_A2_val	val_14	val	no_force_needed	val	no_force_needed
k8_as_query	O66071_A1(7)_ile	leu_14	no_confident_result	leu	no_confident_result	leu
k8_as_query	Q9C1G0v2_A2_cys	cys_1	cys	no_force_needed	cys	no_force_needed
k8_as_query	Q6DNE7_A1(4)_cys	cys_2	cys	no_force_needed	cys	no_force_needed
k8_as_query	AFZ61501.1_1515_mod2_glu	glu_1	no_confident_result	glu	no_confident_result	glu
k8_as_query	Q70AZ6_A1_dpg|dhpg	dpg-dhpg_2	dpg|dhpg	no_force_needed	dpg|dhpg	no_force_needed
k8_as_query	Q9K5M1_A3(5)_thr	thr_3	no_confident_result	thr	no_confident_result	thr
k8_as_query	AGM16414.1_277_mod1_val	val_8	val	no_force_needed	val	no_force_needed
k8_as_query	Q50JA3_A2_leu	phe_1	no_confident_result	val	no_confident_result	leu
k8_as_query	P0C064_A4(5)_leu	leu_15	leu	no_force_needed	leu	no_force_needed
k8_as_query	O68007_A1(6)_lys	val_14	no_confident_result	phe	no_confident_result	his
k8_as_query	Q83VS0_A10(20)_dab	dab_1	dab	no_force_needed	dab	no_force_needed
k9_as_query	Q5DIS9_A1(5)_gln	ser_6	no_confident_result	orn-fn5h	no_confident_result	orn-fn5h
k9_as_query	P39846_A2_thr	thr_10	thr	no_force_needed	thr	no_force_needed
k9_as_query	YP_702283.1_471_mod1_fhr	thr_13	no_confident_result	thr	no_confident_result	thr
k9_as_query	Q5DIP3_A2_orn-fn5h	orn-fn5h_1	no_confident_result	orn-fn5h	orn-fn5h	no_force_needed
k9_as_query	P39847_A2_val	val_11	no_confident_result	ala|val	no_confident_result	ala|val
k9_as_query	BGC0001019_AHB82072.1_552_mod1_gly	gly_4	gly	no_force_needed	gly	no_force_needed
k9_as_query	O94205_A2_phe	pro_7	no_confident_result	ala	no_confident_result	ala
k9_as_query	P45745_A1(2)_gly	gly_3	gly	no_force_needed	gly	no_force_needed
k9_as_query	Q00869_A1_hyv	ala_6	no_confident_result	trp	no_confident_result	ala
k9_as_query	O87704_A1(3)_tyr	tyr_4	no_confident_result	tyr	no_confident_result	tyr
k9_as_query	BGC0000400_AGM16414.1_1316_mod2_lys	lys_4	lys	no_force_needed	lys	no_force_needed
k9_as_query	Q5DIV8_A1(5)_lys	thr_7	no_confident_result	orn	no_confident_result	orn
k9_as_query	BGC0000299_ERG36782.1_467_mod1_thr	thr_1	thr	no_force_needed	thr	no_force_needed
k9_as_query	BGC0000414_BAO84864.1_768_mod1_glycolic-acid	gly_4	val	no_force_needed	no_confident_result	hpg|hpg2cl
k9_as_query	BGC0000449_AHF21228.1_3575_mod3_gly	ser_13	gly	no_force_needed	gly	no_force_needed
k9_as_query	Q54356_A1_pro-4p	ser_8	no_confident_result	pro	no_confident_result	pro
k9_as_query	BGC0000463_AGM14933.1_4773_mod5_gln	ser_3	no_confident_result	ser	no_confident_result	ser
k9_as_query	Q45295_A3_leu	leu_12	leu	no_force_needed	leu	no_force_needed
k9_as_query	Q93N89_A2(2)_trp	bht_1	trp	no_force_needed	trp	no_force_needed
k9_as_query	Q9KIZ9_A1_cys	cys_2	cys	no_force_needed	cys	no_force_needed
k9_as_query	Q5DIP4_A2(5)_athr	thr_7	no_confident_result	thr	thr	no_force_needed
k9_as_query	Q93I54v1_A2_ser	ser_13	ser	no_force_needed	ser	no_force_needed
k9_as_query	EPE34341.1_1766_mod2_thr	pro_7	3oh-gln	no_force_needed	3oh-gln	no_force_needed
k9_as_query	Q5DIP4_A4(7)_orn-fn5h	orn-fn5h_1	no_confident_result	orn-fn5h	no_confident_result	orn-fn5h
k9_as_query	AHH53507.1_6245_mod6_ala	ala_3	ala	no_force_needed	ala	no_force_needed
k9_as_query	Q09164_A10_leu	leu_15	no_confident_result	leu	leu	no_force_needed
k9_as_query	Q83VS1_A3(8)_val	val_2	val	no_force_needed	val	no_force_needed
k9_as_query	Q8GAQ3_A2(4)_cys	cys_2	cys	no_force_needed	cys	no_force_needed
k9_as_query	BGC0000416_CBJ90287.1_561_mod1_leu	val_15	leu	no_force_needed	leu	no_force_needed
k9_as_query	AGM16412.1_5576_mod5_ser	ser_13	ser	no_force_needed	ser	no_force_needed
k9_as_query	BGC0000464_CDG17980.1_1601_mod2_ala	ala_5	no_confident_result	ala	no_confident_result	ala
k9_as_query	P68878_A1_ala	ala_8	ala	no_force_needed	ala	no_force_needed
k9_as_query	Q9R9I9_A2_asn	asn_6	asn	no_force_needed	asn	no_force_needed
k9_as_query	O30408_A2(3)_phe	leu_13	no_confident_result	tyr	no_confident_result	tyr
k9_as_query	Q54959_A1_athr|thr	thr_12	thr	no_force_needed	no_confident_result	thr
k9_as_query	Q8NJX1_A12_abu|iva	val_14	no_confident_result	abu|iva	abu|iva	no_force_needed
k9_as_query	YP_631961.1_9179_mod6_ser	ser_5	ser	no_force_needed	ser	no_force_needed
k9_as_query	Q8NJX1_A5_abu|iva	val_14	no_confident_result	leu	no_confident_result	abu|iva
k9_as_query	Q2VQ15_A1(4)_ile	ile_4	no_confident_result	val	no_confident_result	val
k9_as_query	Q9FDB3_A1_dhab|dht	dhab-dht_1	dhab|dht	no_force_needed	dhab|dht	no_force_needed
k9_as_query	Q9RAH4_A2_ser	ser_7	ser	no_force_needed	no_confident_result	ser
k9_as_query	Q6E7J5_A1_ala	ala_1	ala	no_force_needed	ala	no_force_needed
k9_as_query	P94460_A1_ile	val_11	no_confident_result	ile	no_confident_result	ile
k9_as_query	BGC0001036_AGZ15459.1_694_mod1_piperazic	pip_1	pip	no_force_needed	pip	no_force_needed
k9_as_query	CCJ67640.1_566_mod1_delta-but	d-athr_1	no_confident_result	d-athr	no_confident_result	d-athr
k9_as_query	BGC0000431_EFE73312.1_2615_mod3_dpr	ser_9	ser	no_force_needed	ser	no_force_needed
k9_as_query	ZP_10287803.1_467_mod1_d-thr	thr_1	thr	no_force_needed	thr	no_force_needed
k9_as_query	CCA29203.1_542_mod1_ser	ser_8	no_confident_result	ser	no_confident_result	ser
k9_as_query	Q333U7_A1(3)_cys	cys_2	cys	no_force_needed	cys	no_force_needed
k9_as_query	Q93N87_A1_hpg|hpg2cl	hpg-hpg2cl_7	hpg|hpg2cl	no_force_needed	hpg|hpg2cl	no_force_needed
k9_as_query	Q6YK40_A1_tyr	tyr_3	no_confident_result	tyr	tyr	no_force_needed
k9_as_query	Q93N87_A3_tyr	tyr_2	tyr	no_force_needed	tyr	no_force_needed
k9_as_query	BGC0000376_BAP16699.1_1300_mod1_ser	thr_10	no_confident_result	thr	no_confident_result	thr
k9_as_query	Q84BQ5_A2(4)_leu	leu_4	leu	no_force_needed	leu	no_force_needed
k9_as_query	AHF21229.1_280_mod1_val	val_12	tyr	no_force_needed	val	no_force_needed
k9_as_query	Q8Z8L1_A1_dhb|sal	dhb_1	no_confident_result	dhb|sal	no_confident_result	dhb|sal
k9_as_query	Q65NK5_A1_gln	gln_4	no_confident_result	gln	no_confident_result	gln
k9_as_query	Q9Z4X6_A1_ser	ser_9	no_confident_result	ser	no_confident_result	ser
k9_as_query	Q2VQ17_A1_bmt	thr_10	no_confident_result	thr	thr	no_force_needed
k9_as_query	O69246_A1(4)_val	val_11	no_confident_result	val	no_confident_result	val
k9_as_query	BGC0001178_AGS77309.1_1972_mod2_tyr	hpg-hpg2cl_6	no_confident_result	hpg|hpg2cl	no_confident_result	hpg|hpg2cl
k9_as_query	Q50E73_A2(7)_asp	asp_3	no_confident_result	asp	no_confident_result	asp
k9_as_query	Q8GGN5_ADiscrete_ala	ser_8	no_confident_result	pro	no_confident_result	pro
k9_as_query	Q9RNA9_A1_arg	arg_1	arg	no_force_needed	arg	no_force_needed
k9_as_query	Q45R82_A2(13)_ile|val	trp_1	no_confident_result	boh-d-leu	no_confident_result	boh-d-leu
k9_as_query	Q8KLL5_A2(5)_hpg|hpg2cl	hpg-hpg2cl_6	hpg|hpg2cl	no_force_needed	hpg|hpg2cl	no_force_needed
k9_as_query	BGC0000400_AGM16413.1_5398_mod5_pro	pro_6	pro	no_force_needed	pro	no_force_needed
k9_as_query	P27743_A2_cys	cys_1	cys	no_force_needed	cys	no_force_needed
k9_as_query	Q2VQ15_A2(5)_val	ile_4	no_confident_result	val	no_confident_result	val
k9_as_query	BGC0001178_AGS77310.1_492_mod1_dhpg	dpg-dhpg_3	no_confident_result	dpg|dhpg	no_confident_result	dpg|dhpg
k9_as_query	Q884E3_A1_asp	gly_4	no_confident_result	asp	no_confident_result	asp
k9_as_query	Q9RLP6v2_A2_thr	ala_9	thr	no_force_needed	thr	no_force_needed
k9_as_query	Q50E73_A4(9)_asp	asp_3	no_confident_result	asp	no_confident_result	asp
k9_as_query	O52820_A1(4)_hpg|hpg2cl	hpg-hpg2cl_2	no_confident_result	hpg|hpg2cl	no_confident_result	hpg|hpg2cl
k9_as_query	Q9C1G0v1_A2_cys	cys_1	cys	no_force_needed	cys	no_force_needed
k9_as_query	Q8G985/24744795_ALod_phe-ac	phe-ac_1	phe-ac	no_force_needed	phe-ac	no_force_needed
k9_as_query	Q8KLL5_A3_bht	bht_1	bht	no_force_needed	bht	no_force_needed
k9_as_query	BGC0001132_xnc1_2022_3284_mod4_val	val_4	val	no_force_needed	val	no_force_needed
k9_as_query	AEA30272.1_2611_mod3_asp|bme-asp	asp_3	no_confident_result	asn	no_confident_result	asn
k9_as_query	Q93N88_A1(3)_hpg|hpg2cl	hpg-hpg2cl_7	no_confident_result	hpg|hpg2cl	hpg|hpg2cl	no_force_needed
k9_as_query	EWS95124_960_mod2_hpg	val_1	no_confident_result	cys	no_confident_result	abu|iva
k9_as_query	BGC0000418_AHF20582.1_1038_mod2_bht	tyr_1	no_confident_result	boh-tyr	no_confident_result	boh-tyr
k9_as_query	O05647_A2_phe	trp_1	no_confident_result	boh-phe	no_confident_result	boh-phe
k9_as_query	BGC0000463_AGM14925.1_1531_mod2_glu	gln_2	no_confident_result	glu	no_confident_result	asp
k9_as_query	AEA30274.1_1533_mod2_d-leu	trp_1	no_confident_result	boh-d-leu	no_confident_result	boh-d-leu
k9_as_query	BGC0000299_ERG36783.1_2037_mod2_asn	asn_3	asn	no_force_needed	asn	no_force_needed
k9_as_query	Q9RAH2_A3_asn	asn_6	no_confident_result	asn	no_confident_result	asn
k9_as_query	BGC0000418_AHF20584.1_1929_mod2_hpg	hpg-hpg2cl_4	no_confident_result	4hpg	no_confident_result	4hpg
k9_as_query	P39846_A1_tyr	tyr_4	no_confident_result	tyr	no_confident_result	tyr
k9_as_query	AEC14346.1_19_mod1_thr	thr_10	no_confident_result	leu	no_confident_result	val
k9_as_query	Q84BQ5_A4(6)_ser	ser_2	ser	no_force_needed	ser	no_force_needed
k9_as_query	AEU11006.1_2653_mod1_gln	ser_7	ser	no_force_needed	no_confident_result	ser
