Query,BR_result,Parsed_result
BGC0001147_AIS24862.1_37_mod1_glycy,NO HIT,no_hit
AGZ15459.1_2235_mod2_3oh-3me-pro,NO HIT,no_hit
BGC0000463_AGM14934.1_1604_mod2_leu,McyB-M1-Leu,leu
EPE34341.1_2860_mod3_4oh-pro,NO HIT,no_hit
BGC0000314_WP_010369425.1_467_mod1_thr,CchH-M2-Thr,thr
BGC0001036_AGZ15458.1_478_mod1_piperazic,NO HIT,no_hit
YP_003712466.1_562_mod1_val,NO HIT,no_hit
CCJ67639.1_619_mod1_d-gln,TycC-M2-Gln,gln
YP_116976.1_488_mod1_lys,SrfAC-M1-Leu/Ile/Val,leu|ile|val
BGC0000449_AHF21228.1_6670_mod5_trp,Pps3-M1-Glu,glu
BGC0000425_AFH75322.1_1653_mod2_d-athr,CchH-M2-Thr,thr
AHZ20781.1_481_mod1_thr,CchH-M2-Thr,thr
AHZ34233.1_483_mod1_leu,McyB-M1-Leu,leu
BGC0000449_AHF21228.1_11933_mod9_phe,TycB-M3-D-/L-Phe/Trp,d-phe|phe|trp
EWS95124_2422_mod3_ala|gly,NO HIT,no_hit
AHF21228.1_474_mod1_val,TycC-M4-Val,val
BGC0000463_AGM14925.1_482_mod1_leu,McyB-M1-Leu,leu
AHZ34233.1_3643_mod4_leu,McyB-M1-Leu,leu
BGC0000451_CP001614.2_15150-22349_mod1_orn,NO HIT,no_hit
CBG75492_5304_mod5_d-cyclo-horn,TycC-M2-Gln,gln
BGC0000464_CDG17982.1_3820_mod4_leu,TycC-M4-Val,val
BGC0000423_CBG75492.1_4248_mod4_orn,NO HIT,no_hit
BGC0000423_CBG75492.1_1712_mod2_ser,SyrE-M2-Ser,ser
YP_702283.1_471_mod1_fhr,SyrE-M7-Thr,thr
AHF21228.1_8208_mod6_ser,Cda1-M1-Ser,ser
AHH53506.1_5177_mod5_gly,NosC-M2-Gly,gly
BGC0000463_AGM14933.1_2676_mod3_val,McyB-M1-Leu,leu
ZP_10287805.1_544_mod1_d-asn,CepA-M3-Asn,asn
AHH53507.1_2589_mod3_ala,NO HIT,no_hit
BGC0000974_AIR74925.1_516_mod1_gly,NO HIT,no_hit
BGC0000369_AHZ20773.1_2017_mod2_tyr,NosD-M1-Tyr,tyr
EFE73313.1_2638_mod3_gly,SafA-M1-3h4mPhe,4me-phe
BGC0001019_AHB82072.1_552_mod1_gly,NosC-M2-Gly,gly
AHF21228.1_9291_mod7_dab,NO HIT,no_hit
BGC0000419_AIG79243.1_26_mod1_hpg,NO HIT,no_hit
AEA30273.1_3652_mod4_d-trp,NO HIT,no_hit
BGC0000425_AFH75321.1_3778_mod4_d-leu,TycC-M2-Gln,gln
BGC0000463_AGM14934.1_568_mod1_leu,McyB-M1-Leu,leu
BGC0000414_BAO84866.1_500_mod1_4-5-dehydro-arg|me-tyr-as-complex,NO HIT,no_hit
AGC24265.1_37_mod1_pro,NO HIT,no_hit
BGC0000414_BAO84868.1_386_mod1_me-tyr-as-complex,TycC-M6-Leu,leu
BGC0000456_BAO73252.1_2551_mod2_ala,NO HIT,no_hit
BGC0000463_AGM14933.1_3718_mod4_leu,SyrE-M7-Thr,thr
BGC0001045_AFR69334.1_544_mod1_d-ala,Pps3-M2-Val,val
CCJ67640.1_1654_mod2_d-athr,CchH-M2-Thr,thr
AHH53507.1_5197_mod5_gly,NosC-M2-Gly,gly
AFZ61525.1_1627_mod2_val,NO HIT,no_hit
BGC0000425_AFH75321.1_2723_mod3_d-val,TycC-M4-Val,val
BGC0000439_AHH53506.1_1527_mod2_asp,CepA-M3-Asn,asn
AEU11003.1_1620_mod2_phe,TycA-M1-D-/L-Phe,d-phe|phe
AGC65514.1_1579_mod2_ser,Cda1-M1-Ser,ser
BGC0000423_CBG75492.1_2792_mod3_horn,SyrB-M1-Thr,thr
EPE34341.1_1766_mod2_thr,NO HIT,no_hit
BGC0000456_BAO73252.1_6319_mod5_tyr,NO HIT,no_hit
EPE34341.1_6121_mod6_3oh-pro|3oh-4me-pro,NO HIT,no_hit
BGC0001133_XBJ1_0774_3102_mod3_ser,PhsB-M1-Ser,ser
AHF21228.1_11933_mod9_phe,TycB-M3-D-/L-Phe/Trp,d-phe|phe|trp
BGC0000426_AGZ03651.1_1997_mod2_trp,MycB-M1-Tyr/Trp,trp|tyr
BGC0000425_AFH75320.1_2651_mod3_d-ser,SyrE-M2-Ser,ser
BGC0000398_AFH75329.1_566_mod1_thr,CchH-M2-Thr,thr
EWS95122_476_mod1_ser,SyrE-M2-Ser,ser
YP_631961.1_3708_mod3_goh-val,NO HIT,no_hit
CBG75492_4248_mod4_orn,NO HIT,no_hit
AHF21228.1_5129_mod4_ser,Cda1-M1-Ser,ser
EFE73312.1_4373_mod4_thr,SyrE-M7-Thr,thr
BGC0000439_AHH53507.1_6245_mod6_ala,NO HIT,no_hit
BGC0000419_AIG79241.1_3410_mod3_boh-tyr,CepB-M3-3hTyr,3h-tyr
BGC0000439_AHH53507.1_1547_mod2_asp,Cda1-M5-Asp,asp
AHZ34233.1_4704_mod5_leu,McyB-M1-Leu,leu
BGC0000416_CBJ90288.1_557_mod1_val,NO HIT,no_hit
BGC0000369_AHZ20774.1_1541_mod2_gln,TycC-M2-Gln,gln
ADL64235_433_mod1_val,TycC-M4-Val,val
BGC0000439_AHH53508.1_1559_mod2_kyn,NO HIT,no_hit
BGC0000418_AHF20582.1_26_mod1_hpg,NO HIT,no_hit
BGC0000314_WP_010369428.1_2037_mod2_asn,CepA-M3-Asn,asn
BGC0000449_AHF21229.1_280_mod1_val,ERROR,no_domain_found
BGC0001132_xnc1_2022_77_mod1_val,TycC-M4-Val,val
BGC0001133_XBJ1_0775_3649_mod4_leu,NO HIT,no_hit
BGC0000425_AFH75322.1_3790_mod4_hse,NO HIT,no_hit
AHZ34232.1_1547_mod2_leu,McyB-M1-Leu,leu
AEU11006.1_4186_mod2_gly,NosC-M2-Gly,gln
BGC0000426_AGZ03650.1_37_mod1_phe,TycA-M1-D-/L-Phe,d-phe|phe
YP_631961.1_10241_mod7_tyr,NO HIT,no_hit
CCA29203.1_542_mod1_ser,PhsB-M1-Ser,ser
EFE73313.1_1569_mod2_met,Pps3-M2-Val,val
AEU11003.1_2671_mod3_aile,AdpD-M1-Ile,ile
BGC0001125_AIW82277.1_2006_mod2_pro,MycB-M4-Pro,pro
BGC0000425_AFH75321.1_4831_mod5_d-val,McyB-M1-Leu,leu
CCJ67640.1_566_mod1_delta-but,CchH-M2-Thr,thr
BGC0000464_CDG17980.1_525_mod1_pro,NosA-M3-mePro,me-pro
BGC0001133_XBJ1_0774_563_mod1_leu,NO HIT,no_hit
EWS95122_2421_mod2_ala,NO HIT,no_hit
AGM16412.1_5576_mod5_ser,Cda1-M1-Ser,ser
BGC0000335_AID65222.1_2687_mod1_asn,NO HIT,no_hit
BGC0001132_xnc1_2022_1149_mod2_leu,Cda1-M3-Trp,trp
BGC0000335_AID65224.1_469_mod1_asn,MycC-M2-Asx,asp|asn
BGC0000425_AFH75321.1_581_mod1_d-gln,McyB-M1-Leu,leu
AFZ61525.1_3733_mod4_ser,SyrE-M2-Ser,ser
BGC0001133_XBJ1_0774_2057_mod2_leu,Pps5-M1-Ile,ile
AGM16413.1_4358_mod4_ile,LchAC-M1-Leu,leu
BGC0000398_AFH75330.1_584_mod1_leu,McyB-M1-Leu,leu
BGC0001036_AGZ15459.1_2235_mod2_3oh-3me-pro,NO HIT,no_hit
AHF21229.1_474_mod2_ile,TycC-M4-Val,val
EFE73312.1_2615_mod3_ser,PvdD-M3-Ser,ser
AEF33078.1_1540_mod2_33p-l-ala,TycB-M3-D-/L-Phe/Trp,d-phe|phe|trp
AGM16413.1_273_mod1_val,TycC-M4-Val,val
EWS95124_960_mod2_hpg,Cda1-M6-HPG,hpg
AGC65516.1_1081_mod1_val,NO HIT,no_hit
ZP_10287804.1_2037_mod2_asn,CepA-M3-Asn,asn
CCJ67637.1_576_mod1_d-leu,McyB-M1-Leu,leu
BGC0000398_AFH75329.1_3793_mod4_ser,SyrE-M2-Ser,ser
BGC0000463_AGM14934.1_2646_mod3_gln,SyrE-M7-Thr,thr
CCJ67640.1_5904_mod6_lys,BacB-M1-Lys,lys
BGC0000371_BAH33409.1_3340_mod3_horn,NO HIT,no_hit
BGC0000425_AFH75320.1_3727_mod4_d-leu,McyB-M1-Leu,leu
YP_631961.1_4764_mod4_ser,PvdD-M3-Ser,ser
AHH53507.1_4147_mod4_asp,Cda1-M5-Asp,asp
AGM16414.1_277_mod1_val,TycC-M4-Val,val
AEC14346.1_1080_mod2_leu,McyB-M1-Leu,leu
AGM16413.1_1312_mod2_lys,NO HIT,no_hit
BGC0000369_AHZ20784.1_509_mod1_nme-thr,CchH-M2-Thr,thr
BGC0000449_AHF21228.1_3575_mod3_gly,SafA-M1-3h4mPhe,4me-phe
BGC0000398_AFH75330.1_2671_mod3_ser,SyrE-M2-Ser,ser
simA_mod5_bmt,NO HIT,no_hit
BGC0000431_EFE73313.1_1569_mod2_lys,Pps3-M2-Val,val
BGC0000449_AHF21229.1_2929_mod3_ala,Pps3-M2-Val,val
AHZ20773.1_478_mod1_thr,CchH-M2-Thr,thr
BGC0001036_AGZ15460.1_476_mod1_noh-val,NO HIT,no_hit
BGC0001035_EPE34341.1_2860_mod3_3oh-pro|3oh-4me-pro,NO HIT,no_hit
BGC0000400_AGM16413.1_2831_mod3_ser,Cda1-M1-Ser,ser
BGC0000431_EFE73312.1_2615_mod3_dpr,PvdD-M3-Ser,ser
BGC0001132_xnc1_2022_2204_mod3_val,TycC-M4-Val,val
BGC0000398_AFH75330.1_3756_mod4_val,NO HIT,no_hit
AGM16412.1_456_mod1_orn,NO HIT,no_hit
BGC0001178_AGS77309.1_1972_mod2_tyr,CepB-M2-HPG,hpg
BGC0000431_EFE73313.1_2638_mod3_gly,SafA-M1-3h4mPhe,4me-phe
BGC0000418_AHF20584.1_1929_mod2_hpg,CepB-M2-HPG,hpg
BGC0001149_CDF96614.1_1540_mod2_pro,SnbDE-M1-Pro,pro
BGC0000400_AGM16412.1_4054_mod4_orn,GrsB-M3-Orn,orn
BGC0001178_AGS77310.1_492_mod1_dhpg,CepC-M1-DHPG,dhpg
BGC0000456_BAO73252.1_7854_mod6_val,AdpD-M1-Ile,ile
AFZ61501.1_1515_mod2_glu,Esyn1-M2-Val,val
BGC0000299_ERG36783.1_544_mod1_val,TycC-M4-Val,val
AEI70245.1_445_mod1_ala,NosC-M2-Gly,gly
CBG75492_1712_mod2_ser,SyrE-M2-Ser,ser
BGC0000398_AFH75329.1_1652_mod2_val,NO HIT,no_hit
XP_002568558.1_227_mod1_trp,NO HIT,no_hit
AFZ61501.1_498_mod1_leu,McyB-M1-Leu,leu
BGC0000425_AFH75320.1_4799_mod5_d-val,TycC-M4-Val,val
BGC0000425_AFH75321.1_5900_mod6_val,TycC-M4-Val,val
BGC0000425_AFH75320.1_5859_mod6_d-gln,TycC-M2-Gln,gln
AHZ20773.1_2017_mod2_tyr,NosD-M1-Tyr,tyr
BGC0001125_AIW82285.1_488_mod1_thr,CchH-M2-Thr,thr
BGC0000463_AGM14934.1_3713_mod4_ile|val,NO HIT,no_hit
AGM16413.1_2831_mod3_ser,Cda1-M1-Ser,ser
AGZ15458.1_478_mod1_pip,NO HIT,no_hit
AFZ61525.1_558_mod1_athr,CchH-M2-Thr,thr
BGC0000371_BAH33409.1_2360_mod2_gly,SafA-M1-3h4mPhe,4me-phe
BGC0001178_AGS77307.1_1045_mod2_tyr,NosD-M1-Tyr,tyr
BGC0001035_EPE34341.1_685_mod1_4-5-dihydroxyhomotyrosine,NO HIT,no_hit
BGC0000439_AHH53506.1_3045_mod3_asp,Cda1-M5-Asp,asp
AGC65514.1_530_mod1_val,NO HIT,no_hit
BGC0000449_AHF21228.1_474_mod1_val,TycC-M4-Val,val
BGC0000425_AFH75322.1_5909_mod6_lys,BacB-M1-Lys,lys
simA_mod4_val,CepB-M3-3hTyr,3h-tyr
BGC0001019_AHB82071.1_523_mod1_gly,NosC-M2-Gly,gly
CCJ67636.1_2656_mod3_d-ser,SyrE-M2-Ser,ser
BGC0000371_BAH31686.1_1984_mod2_ser,NO HIT,no_hit
NP_216899.1_570_mod1_thr,MbtB-M1-Ser/Thr,ser|thr
BGC0001019_AHB82071.1_3517_mod3_gly,NosC-M2-Gly,gly
BGC0000425_AFH75320.1_474_mod1_dhabu,CchH-M2-Thr,thr
BGC0000376_BAP16684.1_33_mod1_trp|6cl-trp,NO HIT,no_hit
BGC0001036_AGZ15476.1_490_mod1_3oh-leu,NO HIT,no_hit
BGC0000416_CBJ90289.1_562_mod1_val,NO HIT,no_hit
BGC0000439_AHH53507.1_475_mod1_orn,NO HIT,no_hit
BGC0000464_CDG17982.1_523_mod1_ala,McyA-M2-Gly,gly
CCJ67639.1_1691_mod2_leu,McyB-M1-Leu,leu
XP_001220460.1_3743_mod1_trp,NO HIT,no_hit
BGC0001166_AGQ43600.1_2990_mod3_d-ala,Hts1-M3-D-Ala,d-ala
AHH53506.1_4093_mod4_thr,CchH-M2-Thr,thr
BGC0000371_BAH31686.1_483_mod1_fhorn,CchH-M1-5hfOrn,fhorn
AHF21228.1_6670_mod5_trp,Pps3-M1-Glu,glu
CCJ67639.1_2757_mod3_d-val,TycC-M4-Val,val
BGC0001125_AIW82284.1_1365_mod2_asn,NosC-M3-Asp/Asn?,asp|asn
BGC0001114_AGN11881.1_528_mod1_thr,SyrE-M7-Thr,thr
simA_mod9_val,NO HIT,no_hit
AGM16413.1_5398_mod5_pro,MycB-M4-Pro,pro
AHH53507.1_6245_mod6_ala,NO HIT,no_hit
AEC14346.1_19_mod1_thr,CchH-M2-Thr,thr
BGC0000431_EFE73312.1_5470_mod5_thr,CchH-M2-Thr,thr
EPE34341.1_5024_mod5_3oh-glu,NO HIT,no_hit
BGC0000464_CDG17981.1_1643_mod2_leu,TycC-M4-Val,val
BGC0001166_AGQ43600.1_228_mod1_pro,Hts1-M1-Pro,pro
BGC0000418_AHF20584.1_460_mod1_hpg,SnbDE-M4-Pgly,pgly
BGC0000369_AHZ20773.1_478_mod1_thr,CchH-M2-Thr,thr
AHZ20774.1_477_mod1_thr,CchH-M2-Thr,thr
AEC14349.1_24_mod1_val,TycC-M4-Val,val
AHF21229.1_1387_mod3_ala,AdpD-M1-Ile,ile
YP_631961.1_9179_mod6_ser,PvdD-M3-Ser,ser
BGC0000425_AFH75322.1_4831_mod5_dab,SyrE-M4-Dab,dab
BGC0001125_AIW82282.1_2490_mod1_val,TycC-M4-Val,val
YP_003712465.1_557_mod1_val,NO HIT,no_hit
AEI70245.1_1510_mod2_thr,SyrE-M7-Thr,thr
BGC0000439_AHH53506.1_5177_mod5_gly,NosC-M2-Gly,gly
BGC0001166_AGQ43600.1_1838_mod2_ala,Hts1-M2-Ala,ala
BGC0000464_CDG17980.1_7025_mod7_leu,TycC-M4-Val,val
BGC0000400_AGM16414.1_2358_mod3_ile,LchAC-M1-Leu,leu
EPE34341.1_3930_mod4_4oh-5oh-hty,NO HIT,no_hit
CBG75492_2792_mod3_nme-fhorn,SyrB-M1-Thr,thr
BGC0000419_AIG79240.1_481_mod1_dhpg,CepC-M1-DHPG,dhpg
simA_mod2_leu,NO HIT,no_hit
AHF21228.1_3575_mod3_gly,SafA-M1-3h4mPhe,4me-phe
CCA29203.1_3604_mod3_gly,NosC-M2-Gly,gly
ZP_10287803.1_467_mod1_d-thr,CchH-M2-Thr,thr
AGZ15459.1_694_mod1_pip,BacC-M2-Phe,phe
BGC0001035_EPE34341.1_1766_mod2_3oh-gln,NO HIT,no_hit
BGC0001125_AIW82283.1_1622_mod2_asn|gln,NosC-M3-Asp/Asn?,asp|asn
BGC0000464_CDG17980.1_5930_mod6_thr,NO HIT,no_hit
BGC0000371_BAH31686.1_4563_mod4_haorn,NO HIT,no_hit
BGC0000425_AFH75322.1_565_mod1_dhabu,CchH-M2-Thr,thr
BGC0000369_AHZ20784.1_1992_mod2_glu|tyr,BacB-M1-Lys,lys
AEA30274.1_484_mod1_aoh-gly,SafA-M1-3h4mPhe,4me-phe
BGC0001125_AIW82284.1_295_mod1_deoxy-thr,SyrE-M7-Thr,thr
EFE73312.1_5470_mod5_val,CchH-M2-Thr,thr
BGC0000418_AHF20585.1_481_mod1_dpg,CepC-M1-DHPG,dhpg
BGC0001019_AHB82071.1_2004_mod2_trp,NO HIT,no_hit
BGC0001125_AIW82277.1_525_mod1_asn,NosC-M3-Asp/Asn?,asp|asn
BGC0000431_EFE73313.1_484_mod1_ser,PvdD-M3-Ser,ser
BGC0000464_CDG17980.1_2686_mod3_val,TycC-M4-Val,val
BGC0000314_WP_010369428.1_544_mod1_val,TycC-M4-Val,val
BGC0000369_AHZ20781.1_1540_mod2_thr,CchH-M2-Thr,thr
BGC0001168_509516289_4_mod1_arg,PvdD-M2-Arg,arg
AGZ15458.1_2022_mod2_noh-d-ala|oh-d-ala,NO HIT,no_hit
BGC0000464_CDG17981.1_533_mod1_leu,McyB-M1-Leu,leu
EFE73308.1_231_mod1_dab|dpr,NO HIT,no_hit
BGC0000400_AGM16412.1_456_mod1_orn,NO HIT,no_hit
BGC0001133_XBJ1_0775_477_mod1_thr,CchH-M2-Thr,thr
BGC0000425_AFH75322.1_2740_mod3_ile,NO HIT,no_hit
BAH22763.1_488_mod1_thr,CchH-M2-Thr,thr
AHF21229.1_280_mod1_val,ERROR,no_domain_found
BGC0001125_AIW82284.1_2452_mod3_ala,McyA-M2-Gly,gly
BGC0000414_BAO84864.1_768_mod1_glycolic-acid,ERROR,no_domain_found
BGC0000400_AGM16413.1_4358_mod4_ile,LchAC-M1-Leu,leu
BGC0001019_AHB82069.1_1590_mod1_asn,NosC-M3-Asp/Asn?,asp|asn
AGM16412.1_3015_mod3_thr,CchH-M2-Thr,thr
BGC0000400_AGM16414.1_1316_mod2_lys,NO HIT,no_hit
BGC0000439_AHH53508.1_483_mod1_glu,NO HIT,no_hit
CCJ67637.1_1654_mod2_d-val,TycC-M4-Val,val
BGC0000464_CDG17980.1_4858_mod5_ile,McyB-M1-Leu,leu
AGM16414.1_2358_mod3_ile,LchAC-M1-Leu,leu
BGC0001133_XBJ1_0775_1543_mod2_ser,PhsB-M1-Ser,ser
AHF21228.1_2025_mod2_dab,NO HIT,no_hit
AHZ20784.1_1992_mod2_gln|tyr,BacB-M1-Lys,lys
AEA30273.1_471_mod1_boh-phe,TycA-M1-D-/L-Phe,d-phe|phe
AGZ15476.1_490_mod1_3oh-leu,NO HIT,no_hit
ChaP_mod1_trp,NO HIT,no_hit
BGC0000400_AGM16413.1_273_mod1_val,TycC-M4-Val,val
BGC0000431_EFE73312.1_441_mod1_thr,NosC-M3-Asp/Asn?,asp|asn
AHZ20774.1_3047_mod3_gly,NosC-M2-Gly,gly
AGC65516.1_2153_mod2_ser,Cda1-M1-Ser,ser
AEA30274.1_1533_mod2_d-leu,TycB-M2-L-Phe/L-Trp,phe|trp
EPE34341.1_685_mod1_4oh-5oh-orn,NO HIT,no_hit
AEA30272.1_2611_mod3_asp|bme-asp,Cda1-M5-Asp,asp
AEA30272.1_474_mod1_thr,SyrE-M7-Thr,thr
BGC0000418_AHF20583.1_473_mod1_dpg,CepC-M1-DHPG,dhpg
simA_mod11_ala,NO HIT,no_hit
BGC0000299_ERG36783.1_2037_mod2_asn,CepA-M3-Asn,asn
BGC0000292_XP_001212648.1_529_mod1_phe,NO HIT,no_hit
BGC0000449_AHF21229.1_1387_mod2_ile,AdpD-M1-Ile,ile
AGC65514.1_4147_mod3_val,TycC-M4-Val,val
YP_631961.1_1173_mod1_ser,PvdD-M3-Ser,ser
BGC0000376_BAP16697.1_524_mod1_d-ala,LchAC-M1-Leu,leu
BGC0000431_EFE73312.1_1526_mod2_ser,SyrE-M7-Thr,thr
EFE73313.1_484_mod1_ser,PvdD-M3-Ser,ser
BGC0000425_AFH75321.1_1645_mod2_leu,TycC-M4-Val,val
BGC0000398_AFH75330.1_1625_mod2_leu,McyB-M1-Leu,leu
AGC65517.1_453_mod1_tyr,TycB-M2-L-Phe/L-Trp,phe|trp
EFE73312.1_1526_mod2_thr,SyrE-M7-Thr,thr
AHH53507.1_475_mod1_orn,NO HIT,no_hit
YP_702283.1_1525_mod2_fhorn,SafA-M2-3h4mPhe,4me-phe
simA_mod8_leu,NO HIT,no_hit
BGC0000376_BAP16699.1_1300_mod1_ser,SyrE-M7-Thr,thr
BGC0000463_AGM14933.1_7925_mod8_leu,SyrE-M7-Thr,thr
BGC0000299_ERG36782.1_467_mod1_thr,CchH-M2-Thr,thr
YP_003712464.1_561_mod1_leu,NO HIT,no_hit
BGC0000464_CDG17980.1_3751_mod4_leu,CssA-M8-Leu,leu
BGC0000463_AGM14933.1_4773_mod5_gln,SyrE-M2-Ser,ser
BGC0000376_BAP16689.1_223_mod1_6cl-4hydroxyindole-3-carboxylic,NO HIT,no_hit
BGC0000371_BAH33409.1_494_mod1_arg,NO HIT,no_hit
CCA29202.1_1497_mod2_cys,MtaD-M1-Cys,cys
BGC0000464_CDG17982.1_1657_mod2_b-ala,NO HIT,no_hit
BGC0001149_CDF96614.1_480_mod1_ser,SyrE-M2-Ser,ser
YP_631961.1_12373_mod9_ala,NO HIT,no_hit
BGC0000369_AHZ20774.1_477_mod1_thr,CchH-M2-Thr,thr
BGC0001045_AFR69334.1_2032_mod2_d-cys,PchE-M1-Cys,cys
BGC0000314_WP_010369430.1_2041_mod2_ile,CssA-M8-Leu,leu
CCJ67638.1_582_mod1_d-leu,McyB-M1-Leu,leu
ChaP_mod2_ser,NO HIT,no_hit
BGC0000463_AGM14933.1_6881_mod7_val,McyB-M1-Leu,leu
BGC0000418_AHF20582.1_1038_mod2_bht,CepA-M2-3hTyr,3h-tyr
BGC0000463_AGM14925.1_1531_mod2_glu,TycC-M2-Gln,gln
BGC0000400_AGM16414.1_277_mod1_val,TycC-M4-Val,val
AHH53508.1_1559_mod2_kyn,NO HIT,no_hit
AHH53507.1_1547_mod2_asp,Cda1-M5-Asp,asp
BGC0000449_AHF21228.1_12993_mod10_glu,SrfAA-M1-Glu/Asp,asp|glu
XP_754329.2_1103_mod2_ala,NO HIT,no_hit
CCJ67638.1_1653_mod2_d-val,TycC-M4-Val,val
YP_631961.1_2650_mod2_leu,NO HIT,no_hit
simA_mod7_sar,NO HIT,no_hit
BGC0000456_BAO73252.1_996_mod1_athr|ser,NO HIT,no_hit
BGC0001036_AGZ15459.1_694_mod1_piperazic,BacC-M2-Phe,phe
AGZ15460.1_476_mod1_noh-val,NO HIT,no_hit
BGC0000449_AHF21228.1_9291_mod7_dab,NO HIT,no_hit
BGC0000418_AHF20584.1_3410_mod3_bht,CepB-M3-3hTyr,3h-tyr
AGC65513.1_491_mod1_phe|tyr,NO HIT,no_hit
BGC0001035_EPE34341.1_3930_mod4_4-5-dihydroxyornithine,NO HIT,no_hit
YP_631961.1_11304_mod8_blys,AdpB-M2-Ahp,ahp
AHZ20774.1_1541_mod2_gln,TycC-M2-Gln,gln
CCJ67638.1_2717_mod3_d-val,TycC-M4-Val,val
AFZ61526.1_575_mod1_leu,McyB-M1-Leu,leu
BGC0000439_AHH53506.1_4093_mod4_thr,CchH-M2-Thr,thr
BGC0001178_AGS77308.1_476_mod1_dhpg,Cda1-M3-Trp,trp
simA_mod3_leu,NO HIT,no_hit
BGC0000463_AGM14933.1_5818_mod6_ser,TycC-M4-Val,val
BGC0000449_AHF21228.1_8208_mod6_ser,Cda1-M1-Ser,ser
BGC0001178_AGS77307.1_26_mod1_4hpg,CepA-M1-Leu,leu
BGC0000419_AIG79242.1_473_mod1_dhpg,CepC-M1-DHPG,dhpg
BGC0001113_AIC32693.1_544_mod1_thr,SyrE-M7-Thr,thr
BGC0000419_AIG79243.1_1041_mod2_boh-tyr,CepA-M2-3hTyr,3h-tyr
BGC0001036_AGZ15455.1_29_mod1_ala|leu|val,NO HIT,no_hit
AHZ20781.1_1540_mod2_thr,CchH-M2-Thr,thr
AFZ61526.1_2645_mod3_ile,NO HIT,no_hit
CCA29203.1_2085_mod2_cys,Irp2-M1-Cys,cys
BGC0000419_AIG79241.1_462_mod1_4hpg,SnbDE-M4-Pgly,pgly
BGC0000439_AHH53507.1_2589_mod3_ala,NO HIT,no_hit
BGC0000456_BAO73252.1_5226_mod4_gln,NO HIT,no_hit
BGC0000400_AGM16412.1_1974_mod2_val,TycC-M4-Val,val
BGC0000425_AFH75320.1_1563_mod2_d-pro,MycB-M4-Pro,pro
AGM16412.1_4054_mod4_orn,GrsB-M3-Orn,orn
BGC0000369_AHZ20781.1_481_mod1_thr,CchH-M2-Thr,thr
CBG75492_240_mod1_nme-fhorn,Pps3-M2-Val,val
YP_631961.1_5832_mod5_val,NO HIT,no_hit
BGC0001125_AIW82283.1_552_mod1_deoxy-thr,SyrE-M7-Thr,thr
BGC0000400_AGM16412.1_3015_mod3_thr,CchH-M2-Thr,thr
BGC0001035_EPE34341.1_5024_mod5_thr,NO HIT,no_hit
AGC65515.1_442_mod1_tyr,NO HIT,no_hit
BGC0001045_AFR69334.1_3500_mod3_ile|val,NO HIT,no_hit
CCJ67640.1_4826_mod5_d-dab,SyrE-M4-Dab,dab
BGC0000439_AHH53507.1_4147_mod4_asp,Cda1-M5-Asp,asp
CCJ67640.1_2746_mod3_leu,McyB-M1-Leu,leu
BGC0000426_AGZ03651.1_480_mod1_ala,NO HIT,no_hit
BGC0000335_AID65224.1_1515_mod2_phe,NO HIT,no_hit
AEA30273.1_1527_mod2_pro,SnbDE-M1-Pro,pro
BGC0000449_AHF21228.1_10396_mod8_dab,NO HIT,no_hit
ADL64235_1458_mod2_phe,MycB-M1-Tyr/Trp,trp|tyr
AHZ34233.1_1522_mod2_gln,SyrE-M7-Thr,thr
AGM16412.1_1974_mod2_val,TycC-M4-Val,val
BGC0000419_AIG79241.1_1929_mod2_4hpg,CepB-M2-HPG,hpg
AFZ61525.1_2683_mod3_leu,McyB-M1-Leu,leu
BGC0001178_AGS77309.1_471_mod1_4hpg,CepB-M1-HPG,hpg
BGC0000400_AGM16413.1_1312_mod2_lys,NO HIT,no_hit
BGC0001132_xnc1_2022_3284_mod4_val,TycC-M4-Val,val
BGC0000369_AHZ20774.1_3047_mod3_gly,NosC-M2-Gly,gly
AEA30272.1_3675_mod4_gly,SafA-M1-3h4mPhe,4me-phe
AHH53506.1_3045_mod3_asp,Cda1-M5-Asp,asp
BGC0000423_CBG75492.1_5304_mod5_horn,TycC-M2-Gln,gln
BGC0000400_AGM16413.1_5398_mod5_pro,MycB-M4-Pro,pro
BGC0000456_BAO73252.1_4122_mod3_pro,Hts1-M1-Pro,pro
AEU11006.1_2653_mod1_gln,TycC-M2-Gln,gln
AHF21228.1_10396_mod8_dab,NO HIT,no_hit
BGC0000436_EJK79842.1_762_mod1_ile|val,TycC-M4-Val,val
NP_216895.1_486_mod1_lys,SrfAC-M1-Leu/Ile/Val,leu|ile|val
BGC0000414_BAO84861.1_508_mod1_ala,McyA-M2-Gly,gly
BGC0000439_AHH53506.1_475_mod1_trp,NO HIT,no_hit
BGC0000416_CBJ90287.1_561_mod1_leu,NO HIT,no_hit
BGC0000314_WP_010369430.1_544_mod1_asn,CepA-M3-Asn,asn
AEC14348.1_1108_mod1_phe,NO HIT,no_hit
YP_116975.1_508_mod1_lys,CepB-M2-HPG,hpg
AHF21228.1_12993_mod10_glu,SrfAA-M1-Glu/Asp,asp|glu
CCJ67637.1_2717_mod3_d-ser,SyrE-M2-Ser,ser
CCJ67636.1_1568_mod2_d-pro,MycB-M4-Pro,pro
BGC0000451_CP001614.2_15150-22349_mod2_ser,Cda1-M1-Ser,ser
ZP_10287804.1_544_mod1_d-val,TycC-M4-Val,val
BGC0000439_AHH53507.1_5197_mod5_gly,NosC-M2-Gly,gly
BGC0001036_AGZ15458.1_2022_mod2_noh-ala,NO HIT,no_hit
CCJ67640.1_3780_mod4_hse,NO HIT,no_hit
BGC0000398_AFH75328.1_1544_mod2_glu,TycC-M2-Gln,gln
YP_116977.1_584_mod1_thr,TycC-M2-Gln,thr
simA_mod6_abu,NO HIT,no_hit
AEA30274.1_3073_mod3_boh-d-leu,TycB-M2-L-Phe/L-Trp,phe|trp
AEF33078.1_463_mod1_thr,SyrE-M7-Thr,thr
AHZ34233.1_2589_mod3_val,TycB-M2-L-Phe/L-Trp,phe|trp
AEU11003.1_4205_mod4_pro,GrsB-M1-Pro,pro
AEA30273.1_2593_mod3_boh-ome-tyr,TycA-M1-D-/L-Phe,d-phe|phe
BGC0001166_AGQ43600.1_4142_mod4_aeo,NO HIT,no_hit
AFZ61526.1_1614_mod2_ser,SyrE-M2-Ser,ser
BGC0000398_AFH75328.1_482_mod1_leu,McyB-M1-Leu,leu
BGC0000463_AGM14933.1_1613_mod2_gln,TycC-M4-Val,val
BGC0000398_AFH75329.1_2729_mod3_leu,McyB-M1-Leu,leu
BGC0000974_AIR74926.1_511_mod1_gly,NosC-M2-Gly,gly
AEC14347.1_567_mod1_phe,NO HIT,no_hit
BGC0000464_CDG17980.1_1601_mod2_ala,McyA-M2-Gly,gly
BGC0000463_AGM14933.1_561_mod1_gln,SyrE-M7-Thr,thr
AEU11003.1_555_mod1_pro,MycB-M4-Pro,pro
CCJ67636.1_476_mod1_delta-but,CchH-M2-Thr,thr
BGC0000376_BAP16693.1_511_mod1_alpha-me-ser,PchF-M1-Cys,cys
AGM16414.1_1316_mod2_lys,NO HIT,no_hit
simA_mod10_leu,NO HIT,no_hit
EWS95124_9_mod1_gly,NosC-M2-Gly,gly
CCA29202.1_393_mod1_gly,NO HIT,no_hit
ZP_10287805.1_2041_mod2_ile|d-leu,CssA-M8-Leu,leu
BGC0000431_EFE73308.1_231_mod1_cysa,NO HIT,no_hit
AHH53506.1_475_mod1_trp,NO HIT,no_hit
AHZ20784.1_509_mod1_thr,CchH-M2-Thr,thr
EWS95124_3485_mod4_tyr,NosD-M1-Tyr,tyr
BGC0000449_AHF21228.1_5129_mod4_ser,Cda1-M1-Ser,ser
AHH53506.1_1527_mod2_asp,CepA-M3-Asn,asn
XP_754329.2_55_mod1_trp,NO HIT,no_hit
AHH53508.1_483_mod1_glu,NO HIT,no_hit
BGC0000335_AID65225.1_1648_mod1_tyr,NosD-M1-Tyr,tyr
BGC0000449_AHF21228.1_2025_mod2_dab,NO HIT,no_hit
BGC0000371_BAH31686.1_3493_mod3_horn,SyrB-M1-Thr,thr
EFE73312.1_441_mod1_asp,NosC-M3-Asp/Asn?,asp|asn
AHZ34232.1_2599_mod3_gln,SyrE-M7-Thr,thr
BGC0000400_AGM16412.1_5576_mod5_ser,Cda1-M1-Ser,ser
BGC0000464_CDG17982.1_2738_mod3_pro,NosA-M3-mePro,me-pro
AHZ34232.1_480_mod1_leu,McyB-M1-Leu,leu
BGC0000382_AIT38302.1_845_mod1_leu,Pps3-M2-Val,val
AEA30272.1_1550_mod2_ala,NO HIT,no_hit
NP_216896.3_457_mod1_lys,MbtE-M1-6hLys,6h-lys
BGC0001035_EPE34341.1_6121_mod6_4oh-pro,NO HIT,no_hit
simA_mod1_d-ala,CepB-M3-3hTyr,3h-tyr
XP_002568558.1_1292_mod2_his,NO HIT,no_hit
BGC0000423_CBG75492.1_240_mod1_fhorn,Pps3-M2-Val,val
