Query_ID	minowa_call
BGC0001147_AIS24862.1_37_mod1_glycy	Ahp
AGZ15459.1_2235_mod2_3oh-3me-pro	no_call
BGC0000463_AGM14934.1_1604_mod2_leu	Leu
EPE34341.1_2860_mod3_4oh-pro	no_call
BGC0000314_WP_010369425.1_467_mod1_thr	Bmt
BGC0001036_AGZ15458.1_478_mod1_piperazic	bOHTyr
YP_003712466.1_562_mod1_val	no_call
CCJ67639.1_619_mod1_d-gln	Gln
YP_116976.1_488_mod1_lys	no_call
BGC0000449_AHF21228.1_6670_mod5_trp	Glu
BGC0000425_AFH75322.1_1653_mod2_d-athr	Thr
AHZ20781.1_481_mod1_thr	Thr
AHZ34233.1_483_mod1_leu	Phe
BGC0000449_AHF21228.1_11933_mod9_phe	Glu
EWS95124_2422_mod3_ala|gly	Asp
AHF21228.1_474_mod1_val	Val
BGC0000463_AGM14925.1_482_mod1_leu	Leu
AHZ34233.1_3643_mod4_leu	Phe
BGC0000451_CP001614.2_15150-22349_mod1_orn	Phe
CBG75492_5304_mod5_d-cyclo-horn	Asp
BGC0000464_CDG17982.1_3820_mod4_leu	Phe
BGC0000423_CBG75492.1_4248_mod4_orn	no_call
BGC0000423_CBG75492.1_1712_mod2_ser	Ser
YP_702283.1_471_mod1_fhr	Thr
AHF21228.1_8208_mod6_ser	Ser
AHH53506.1_5177_mod5_gly	Gly
BGC0000463_AGM14933.1_2676_mod3_val	Leu
ZP_10287805.1_544_mod1_d-asn	no_call
AHH53507.1_2589_mod3_ala	Gly
BGC0000974_AIR74925.1_516_mod1_gly	Gly
BGC0000369_AHZ20773.1_2017_mod2_tyr	bOHTyr
EFE73313.1_2638_mod3_gly	Gly
BGC0001019_AHB82072.1_552_mod1_gly	Gly
AHF21228.1_9291_mod7_dab	Orn
BGC0000419_AIG79243.1_26_mod1_hpg	DHpg
AEA30273.1_3652_mod4_d-trp	bOHTyr
BGC0000425_AFH75321.1_3778_mod4_d-leu	Ser
BGC0000463_AGM14934.1_568_mod1_leu	Leu
BGC0000414_BAO84866.1_500_mod1_4-5-dehydro-arg|me-tyr-as-complex	Glu
AGC24265.1_37_mod1_pro	no_call
BGC0000414_BAO84868.1_386_mod1_me-tyr-as-complex	bOHTyr
BGC0000456_BAO73252.1_2551_mod2_ala	no_call
BGC0000463_AGM14933.1_3718_mod4_leu	Gln
BGC0001045_AFR69334.1_544_mod1_d-ala	no_call
CCJ67640.1_1654_mod2_d-athr	Thr
AHH53507.1_5197_mod5_gly	Gly
AFZ61525.1_1627_mod2_val	Val
BGC0000425_AFH75321.1_2723_mod3_d-val	Val
BGC0000439_AHH53506.1_1527_mod2_asp	Asn
AEU11003.1_1620_mod2_phe	Phe
AGC65514.1_1579_mod2_ser	Ser
BGC0000423_CBG75492.1_2792_mod3_horn	OHOrn
EPE34341.1_1766_mod2_thr	no_call
BGC0000456_BAO73252.1_6319_mod5_tyr	no_call
EPE34341.1_6121_mod6_3oh-pro|3oh-4me-pro	no_call
BGC0001133_XBJ1_0774_3102_mod3_ser	Ser
AHF21228.1_11933_mod9_phe	Glu
BGC0000426_AGZ03651.1_1997_mod2_trp	Tyr
BGC0000425_AFH75320.1_2651_mod3_d-ser	Ser
BGC0000398_AFH75329.1_566_mod1_thr	Thr
EWS95122_476_mod1_ser	Ser
YP_631961.1_3708_mod3_goh-val	Val
CBG75492_4248_mod4_orn	no_call
AHF21228.1_5129_mod4_ser	Ser
EFE73312.1_4373_mod4_thr	Thr
BGC0000439_AHH53507.1_6245_mod6_ala	Gly
BGC0000419_AIG79241.1_3410_mod3_boh-tyr	bOHTyr
BGC0000439_AHH53507.1_1547_mod2_asp	Asn
AHZ34233.1_4704_mod5_leu	Leu
BGC0000416_CBJ90288.1_557_mod1_val	no_call
BGC0000369_AHZ20774.1_1541_mod2_gln	Ser
ADL64235_433_mod1_val	Val
BGC0000439_AHH53508.1_1559_mod2_kyn	Kyn
BGC0000418_AHF20582.1_26_mod1_hpg	DHpg
BGC0000314_WP_010369428.1_2037_mod2_asn	no_call
BGC0000449_AHF21229.1_280_mod1_val	no_call
BGC0001132_xnc1_2022_77_mod1_val	Leu
BGC0001133_XBJ1_0775_3649_mod4_leu	no_call
BGC0000425_AFH75322.1_3790_mod4_hse	no_call
AHZ34232.1_1547_mod2_leu	Leu
AEU11006.1_4186_mod2_gly	Gly
BGC0000426_AGZ03650.1_37_mod1_phe	Phe
YP_631961.1_10241_mod7_tyr	Asp
CCA29203.1_542_mod1_ser	Ser
EFE73313.1_1569_mod2_met	Trp
AEU11003.1_2671_mod3_aile	Ile
BGC0001125_AIW82277.1_2006_mod2_pro	mPro
BGC0000425_AFH75321.1_4831_mod5_d-val	Leu
CCJ67640.1_566_mod1_delta-but	Thr
BGC0000464_CDG17980.1_525_mod1_pro	mPro
BGC0001133_XBJ1_0774_563_mod1_leu	no_call
EWS95122_2421_mod2_ala	Ala
AGM16412.1_5576_mod5_ser	Ser
BGC0000335_AID65222.1_2687_mod1_asn	Trp
BGC0001132_xnc1_2022_1149_mod2_leu	Trp
BGC0000335_AID65224.1_469_mod1_asn	Asn
BGC0000425_AFH75321.1_581_mod1_d-gln	Leu
AFZ61525.1_3733_mod4_ser	Ser
BGC0001133_XBJ1_0774_2057_mod2_leu	no_call
AGM16413.1_4358_mod4_ile	Ile
BGC0000398_AFH75330.1_584_mod1_leu	Leu
BGC0001036_AGZ15459.1_2235_mod2_3oh-3me-pro	no_call
AHF21229.1_474_mod2_ile	Val
EFE73312.1_2615_mod3_ser	Ser
AEF33078.1_1540_mod2_33p-l-ala	Kyn
AGM16413.1_273_mod1_val	Val
EWS95124_960_mod2_hpg	Hpg2Cl
AGC65516.1_1081_mod1_val	Asn
ZP_10287804.1_2037_mod2_asn	no_call
CCJ67637.1_576_mod1_d-leu	Leu
BGC0000398_AFH75329.1_3793_mod4_ser	Ser
BGC0000463_AGM14934.1_2646_mod3_gln	Ser
CCJ67640.1_5904_mod6_lys	Ser
BGC0000371_BAH33409.1_3340_mod3_horn	OHOrn
BGC0000425_AFH75320.1_3727_mod4_d-leu	Leu
YP_631961.1_4764_mod4_ser	Ser
AHH53507.1_4147_mod4_asp	OmAsp
AGM16414.1_277_mod1_val	Val
AEC14346.1_1080_mod2_leu	Leu
AGM16413.1_1312_mod2_lys	Orn
BGC0000369_AHZ20784.1_509_mod1_nme-thr	Thr
BGC0000449_AHF21228.1_3575_mod3_gly	Pro
BGC0000398_AFH75330.1_2671_mod3_ser	Ser
simA_mod5_bmt	no_call
BGC0000431_EFE73313.1_1569_mod2_lys	Trp
BGC0000449_AHF21229.1_2929_mod3_ala	Abu
AHZ20773.1_478_mod1_thr	Thr
BGC0001036_AGZ15460.1_476_mod1_noh-val	Ser
BGC0001035_EPE34341.1_2860_mod3_3oh-pro|3oh-4me-pro	no_call
BGC0000400_AGM16413.1_2831_mod3_ser	Ser
BGC0000431_EFE73312.1_2615_mod3_dpr	Ser
BGC0001132_xnc1_2022_2204_mod3_val	Phe
BGC0000398_AFH75330.1_3756_mod4_val	Ile
AGM16412.1_456_mod1_orn	Orn
BGC0001178_AGS77309.1_1972_mod2_tyr	DHpg
BGC0000431_EFE73313.1_2638_mod3_gly	Gly
BGC0000418_AHF20584.1_1929_mod2_hpg	DHpg
BGC0001149_CDF96614.1_1540_mod2_pro	mPro
BGC0000400_AGM16412.1_4054_mod4_orn	Orn
BGC0001178_AGS77310.1_492_mod1_dhpg	DHpg
BGC0000456_BAO73252.1_7854_mod6_val	no_call
AFZ61501.1_1515_mod2_glu	Ser
BGC0000299_ERG36783.1_544_mod1_val	no_call
AEI70245.1_445_mod1_ala	Gly
CBG75492_1712_mod2_ser	Ser
BGC0000398_AFH75329.1_1652_mod2_val	Ile
XP_002568558.1_227_mod1_trp	no_call
AFZ61501.1_498_mod1_leu	Leu
BGC0000425_AFH75320.1_4799_mod5_d-val	Val
BGC0000425_AFH75321.1_5900_mod6_val	Val
BGC0000425_AFH75320.1_5859_mod6_d-gln	Gln
AHZ20773.1_2017_mod2_tyr	bOHTyr
BGC0001125_AIW82285.1_488_mod1_thr	Thr
BGC0000463_AGM14934.1_3713_mod4_ile|val	Ile
AGM16413.1_2831_mod3_ser	Ser
AGZ15458.1_478_mod1_pip	bOHTyr
AFZ61525.1_558_mod1_athr	Thr
BGC0000371_BAH33409.1_2360_mod2_gly	Gly
BGC0001178_AGS77307.1_1045_mod2_tyr	bOHTyr
BGC0001035_EPE34341.1_685_mod1_4-5-dihydroxyhomotyrosine	no_call
BGC0000439_AHH53506.1_3045_mod3_asp	Asn
AGC65514.1_530_mod1_val	Val
BGC0000449_AHF21228.1_474_mod1_val	Val
BGC0000425_AFH75322.1_5909_mod6_lys	Ser
simA_mod4_val	no_call
BGC0001019_AHB82071.1_523_mod1_gly	Gly
CCJ67636.1_2656_mod3_d-ser	Ser
BGC0000371_BAH31686.1_1984_mod2_ser	Ser
NP_216899.1_570_mod1_thr	no_call
BGC0001019_AHB82071.1_3517_mod3_gly	Gly
BGC0000425_AFH75320.1_474_mod1_dhabu	Thr
BGC0000376_BAP16684.1_33_mod1_trp|6cl-trp	no_call
BGC0001036_AGZ15476.1_490_mod1_3oh-leu	no_call
BGC0000416_CBJ90289.1_562_mod1_val	no_call
BGC0000439_AHH53507.1_475_mod1_orn	Asp
BGC0000464_CDG17982.1_523_mod1_ala	Phe
CCJ67639.1_1691_mod2_leu	Leu
XP_001220460.1_3743_mod1_trp	no_call
BGC0001166_AGQ43600.1_2990_mod3_d-ala	no_call
AHH53506.1_4093_mod4_thr	Thr
BGC0000371_BAH31686.1_483_mod1_fhorn	3mGlu
AHF21228.1_6670_mod5_trp	Glu
CCJ67639.1_2757_mod3_d-val	Val
BGC0001125_AIW82284.1_1365_mod2_asn	Asn
BGC0001114_AGN11881.1_528_mod1_thr	Thr
simA_mod9_val	no_call
AGM16413.1_5398_mod5_pro	Pro
AHH53507.1_6245_mod6_ala	Gly
AEC14346.1_19_mod1_thr	Thr
BGC0000431_EFE73312.1_5470_mod5_thr	Thr
EPE34341.1_5024_mod5_3oh-glu	no_call
BGC0000464_CDG17981.1_1643_mod2_leu	Phe
BGC0001166_AGQ43600.1_228_mod1_pro	no_call
BGC0000418_AHF20584.1_460_mod1_hpg	Hpg
BGC0000369_AHZ20773.1_478_mod1_thr	Thr
AHZ20774.1_477_mod1_thr	Thr
AEC14349.1_24_mod1_val	no_call
AHF21229.1_1387_mod3_ala	Val
YP_631961.1_9179_mod6_ser	Ser
BGC0000425_AFH75322.1_4831_mod5_dab	Dab
BGC0001125_AIW82282.1_2490_mod1_val	Val
YP_003712465.1_557_mod1_val	no_call
AEI70245.1_1510_mod2_thr	Thr
BGC0000439_AHH53506.1_5177_mod5_gly	Gly
BGC0001166_AGQ43600.1_1838_mod2_ala	no_call
BGC0000464_CDG17980.1_7025_mod7_leu	Val
BGC0000400_AGM16414.1_2358_mod3_ile	Ile
EPE34341.1_3930_mod4_4oh-5oh-hty	no_call
CBG75492_2792_mod3_nme-fhorn	OHOrn
BGC0000419_AIG79240.1_481_mod1_dhpg	DHpg
simA_mod2_leu	no_call
AHF21228.1_3575_mod3_gly	Pro
CCA29203.1_3604_mod3_gly	no_call
ZP_10287803.1_467_mod1_d-thr	Bmt
AGZ15459.1_694_mod1_pip	no_call
BGC0001035_EPE34341.1_1766_mod2_3oh-gln	no_call
BGC0001125_AIW82283.1_1622_mod2_asn|gln	Asn
BGC0000464_CDG17980.1_5930_mod6_thr	Thr
BGC0000371_BAH31686.1_4563_mod4_haorn	Trp
BGC0000425_AFH75322.1_565_mod1_dhabu	Thr
BGC0000369_AHZ20784.1_1992_mod2_glu|tyr	no_call
AEA30274.1_484_mod1_aoh-gly	Sar
BGC0001125_AIW82284.1_295_mod1_deoxy-thr	Thr
EFE73312.1_5470_mod5_val	Thr
BGC0000418_AHF20585.1_481_mod1_dpg	DHpg
BGC0001019_AHB82071.1_2004_mod2_trp	Phe
BGC0001125_AIW82277.1_525_mod1_asn	Asn
BGC0000431_EFE73313.1_484_mod1_ser	Ser
BGC0000464_CDG17980.1_2686_mod3_val	Phe
BGC0000314_WP_010369428.1_544_mod1_val	no_call
BGC0000369_AHZ20781.1_1540_mod2_thr	Thr
BGC0001168_509516289_4_mod1_arg	no_call
AGZ15458.1_2022_mod2_noh-d-ala|oh-d-ala	Ser
BGC0000464_CDG17981.1_533_mod1_leu	Ile
EFE73308.1_231_mod1_dab|dpr	no_call
BGC0000400_AGM16412.1_456_mod1_orn	Orn
BGC0001133_XBJ1_0775_477_mod1_thr	Thr
BGC0000425_AFH75322.1_2740_mod3_ile	Ile
BAH22763.1_488_mod1_thr	Thr
AHF21229.1_280_mod1_val	no_call
BGC0001125_AIW82284.1_2452_mod3_ala	Ala
BGC0000414_BAO84864.1_768_mod1_glycolic-acid	no_call
BGC0000400_AGM16413.1_4358_mod4_ile	Ile
BGC0001019_AHB82069.1_1590_mod1_asn	Asn
AGM16412.1_3015_mod3_thr	Thr
BGC0000400_AGM16414.1_1316_mod2_lys	Orn
BGC0000439_AHH53508.1_483_mod1_glu	3mGlu
CCJ67637.1_1654_mod2_d-val	Val
BGC0000464_CDG17980.1_4858_mod5_ile	Ile
AGM16414.1_2358_mod3_ile	Ile
BGC0001133_XBJ1_0775_1543_mod2_ser	Ser
AHF21228.1_2025_mod2_dab	Orn
AHZ20784.1_1992_mod2_gln|tyr	no_call
AEA30273.1_471_mod1_boh-phe	bOHTyr
AGZ15476.1_490_mod1_3oh-leu	no_call
ChaP_mod1_trp	bOHTyr
BGC0000400_AGM16413.1_273_mod1_val	Val
BGC0000431_EFE73312.1_441_mod1_thr	Asp
AHZ20774.1_3047_mod3_gly	Gly
AGC65516.1_2153_mod2_ser	Ser
AEA30274.1_1533_mod2_d-leu	bOHTyr
EPE34341.1_685_mod1_4oh-5oh-orn	no_call
AEA30272.1_2611_mod3_asp|bme-asp	Asn
AEA30272.1_474_mod1_thr	Thr
BGC0000418_AHF20583.1_473_mod1_dpg	DHpg
simA_mod11_ala	no_call
BGC0000299_ERG36783.1_2037_mod2_asn	no_call
BGC0000292_XP_001212648.1_529_mod1_phe	no_call
BGC0000449_AHF21229.1_1387_mod2_ile	Val
AGC65514.1_4147_mod3_val	no_call
YP_631961.1_1173_mod1_ser	Ser
BGC0000376_BAP16697.1_524_mod1_d-ala	Gly
BGC0000431_EFE73312.1_1526_mod2_ser	Thr
EFE73313.1_484_mod1_ser	Ser
BGC0000425_AFH75321.1_1645_mod2_leu	Val
BGC0000398_AFH75330.1_1625_mod2_leu	Leu
AGC65517.1_453_mod1_tyr	no_call
EFE73312.1_1526_mod2_thr	Thr
AHH53507.1_475_mod1_orn	Asp
YP_702283.1_1525_mod2_fhorn	no_call
simA_mod8_leu	no_call
BGC0000376_BAP16699.1_1300_mod1_ser	Thr
BGC0000463_AGM14933.1_7925_mod8_leu	Ser
BGC0000299_ERG36782.1_467_mod1_thr	Bmt
YP_003712464.1_561_mod1_leu	no_call
BGC0000464_CDG17980.1_3751_mod4_leu	bOHTyr
BGC0000463_AGM14933.1_4773_mod5_gln	Ser
BGC0000376_BAP16689.1_223_mod1_6cl-4hydroxyindole-3-carboxylic	Trp
BGC0000371_BAH33409.1_494_mod1_arg	no_call
CCA29202.1_1497_mod2_cys	Cys
BGC0000464_CDG17982.1_1657_mod2_b-ala	Leu
BGC0001149_CDF96614.1_480_mod1_ser	Ser
YP_631961.1_12373_mod9_ala	Leu
BGC0000369_AHZ20774.1_477_mod1_thr	Thr
BGC0001045_AFR69334.1_2032_mod2_d-cys	Cys
BGC0000314_WP_010369430.1_2041_mod2_ile	Ile
CCJ67638.1_582_mod1_d-leu	Leu
ChaP_mod2_ser	no_call
BGC0000463_AGM14933.1_6881_mod7_val	Leu
BGC0000418_AHF20582.1_1038_mod2_bht	bOHTyr
BGC0000463_AGM14925.1_1531_mod2_glu	Ser
BGC0000400_AGM16414.1_277_mod1_val	Val
AHH53508.1_1559_mod2_kyn	Kyn
AHH53507.1_1547_mod2_asp	Asn
BGC0000449_AHF21228.1_12993_mod10_glu	Asn
XP_754329.2_1103_mod2_ala	no_call
CCJ67638.1_1653_mod2_d-val	Val
YP_631961.1_2650_mod2_leu	no_call
simA_mod7_sar	no_call
BGC0000456_BAO73252.1_996_mod1_athr|ser	no_call
BGC0001036_AGZ15459.1_694_mod1_piperazic	no_call
AGZ15460.1_476_mod1_noh-val	Ser
BGC0000449_AHF21228.1_9291_mod7_dab	Orn
BGC0000418_AHF20584.1_3410_mod3_bht	bOHTyr
AGC65513.1_491_mod1_phe|tyr	no_call
BGC0001035_EPE34341.1_3930_mod4_4-5-dihydroxyornithine	no_call
YP_631961.1_11304_mod8_blys	no_call
AHZ20774.1_1541_mod2_gln	Ser
CCJ67638.1_2717_mod3_d-val	Val
AFZ61526.1_575_mod1_leu	Leu
BGC0000439_AHH53506.1_4093_mod4_thr	Thr
BGC0001178_AGS77308.1_476_mod1_dhpg	DHpg
simA_mod3_leu	no_call
BGC0000463_AGM14933.1_5818_mod6_ser	Val
BGC0000449_AHF21228.1_8208_mod6_ser	Ser
BGC0001178_AGS77307.1_26_mod1_4hpg	Hpg
BGC0000419_AIG79242.1_473_mod1_dhpg	DHpg
BGC0001113_AIC32693.1_544_mod1_thr	Thr
BGC0000419_AIG79243.1_1041_mod2_boh-tyr	bOHTyr
BGC0001036_AGZ15455.1_29_mod1_ala|leu|val	no_call
AHZ20781.1_1540_mod2_thr	Thr
AFZ61526.1_2645_mod3_ile	Ile
CCA29203.1_2085_mod2_cys	Cys
BGC0000419_AIG79241.1_462_mod1_4hpg	Hpg
BGC0000439_AHH53507.1_2589_mod3_ala	Gly
BGC0000456_BAO73252.1_5226_mod4_gln	no_call
BGC0000400_AGM16412.1_1974_mod2_val	Val
BGC0000425_AFH75320.1_1563_mod2_d-pro	pipecolate
AGM16412.1_4054_mod4_orn	Orn
BGC0000369_AHZ20781.1_481_mod1_thr	Thr
CBG75492_240_mod1_nme-fhorn	Trp
YP_631961.1_5832_mod5_val	Orn
BGC0001125_AIW82283.1_552_mod1_deoxy-thr	Thr
BGC0000400_AGM16412.1_3015_mod3_thr	Thr
BGC0001035_EPE34341.1_5024_mod5_thr	no_call
AGC65515.1_442_mod1_tyr	no_call
BGC0001045_AFR69334.1_3500_mod3_ile|val	Thr
CCJ67640.1_4826_mod5_d-dab	Dab
BGC0000439_AHH53507.1_4147_mod4_asp	OmAsp
CCJ67640.1_2746_mod3_leu	Leu
BGC0000426_AGZ03651.1_480_mod1_ala	Ser
BGC0000335_AID65224.1_1515_mod2_phe	no_call
AEA30273.1_1527_mod2_pro	Pro
BGC0000449_AHF21228.1_10396_mod8_dab	Orn
ADL64235_1458_mod2_phe	no_call
AHZ34233.1_1522_mod2_gln	Gln
AGM16412.1_1974_mod2_val	Val
BGC0000419_AIG79241.1_1929_mod2_4hpg	DHpg
AFZ61525.1_2683_mod3_leu	Leu
BGC0001178_AGS77309.1_471_mod1_4hpg	Hpg
BGC0000400_AGM16413.1_1312_mod2_lys	Orn
BGC0001132_xnc1_2022_3284_mod4_val	Asn
BGC0000369_AHZ20774.1_3047_mod3_gly	Gly
AEA30272.1_3675_mod4_gly	Sar
AHH53506.1_3045_mod3_asp	Asn
BGC0000423_CBG75492.1_5304_mod5_horn	Asp
BGC0000400_AGM16413.1_5398_mod5_pro	Pro
BGC0000456_BAO73252.1_4122_mod3_pro	no_call
AEU11006.1_2653_mod1_gln	Gln
AHF21228.1_10396_mod8_dab	Orn
BGC0000436_EJK79842.1_762_mod1_ile|val	no_call
NP_216895.1_486_mod1_lys	no_call
BGC0000414_BAO84861.1_508_mod1_ala	Abu
BGC0000439_AHH53506.1_475_mod1_trp	Trp
BGC0000416_CBJ90287.1_561_mod1_leu	no_call
BGC0000314_WP_010369430.1_544_mod1_asn	no_call
AEC14348.1_1108_mod1_phe	no_call
YP_116975.1_508_mod1_lys	Ser
AHF21228.1_12993_mod10_glu	Asn
CCJ67637.1_2717_mod3_d-ser	Ser
CCJ67636.1_1568_mod2_d-pro	pipecolate
BGC0000451_CP001614.2_15150-22349_mod2_ser	Ser
ZP_10287804.1_544_mod1_d-val	no_call
BGC0000439_AHH53507.1_5197_mod5_gly	Gly
BGC0001036_AGZ15458.1_2022_mod2_noh-ala	Ser
CCJ67640.1_3780_mod4_hse	no_call
BGC0000398_AFH75328.1_1544_mod2_glu	Ser
YP_116977.1_584_mod1_thr	no_call
simA_mod6_abu	no_call
AEA30274.1_3073_mod3_boh-d-leu	bOHTyr
AEF33078.1_463_mod1_thr	Thr
AHZ34233.1_2589_mod3_val	Ile
AEU11003.1_4205_mod4_pro	mPro
AEA30273.1_2593_mod3_boh-ome-tyr	bOHTyr
BGC0001166_AGQ43600.1_4142_mod4_aeo	Aeo
AFZ61526.1_1614_mod2_ser	Ser
BGC0000398_AFH75328.1_482_mod1_leu	Leu
BGC0000463_AGM14933.1_1613_mod2_gln	Val
BGC0000398_AFH75329.1_2729_mod3_leu	Leu
BGC0000974_AIR74926.1_511_mod1_gly	Gly
AEC14347.1_567_mod1_phe	no_call
BGC0000464_CDG17980.1_1601_mod2_ala	Phe
BGC0000463_AGM14933.1_561_mod1_gln	Ser
AEU11003.1_555_mod1_pro	mPro
CCJ67636.1_476_mod1_delta-but	Thr
BGC0000376_BAP16693.1_511_mod1_alpha-me-ser	Cys
AGM16414.1_1316_mod2_lys	Orn
simA_mod10_leu	no_call
EWS95124_9_mod1_gly	Gly
CCA29202.1_393_mod1_gly	Gly
ZP_10287805.1_2041_mod2_ile|d-leu	Ile
BGC0000431_EFE73308.1_231_mod1_cysa	no_call
AHH53506.1_475_mod1_trp	Trp
AHZ20784.1_509_mod1_thr	Thr
EWS95124_3485_mod4_tyr	bOHTyr
BGC0000449_AHF21228.1_5129_mod4_ser	Ser
AHH53506.1_1527_mod2_asp	Asn
XP_754329.2_55_mod1_trp	no_call
AHH53508.1_483_mod1_glu	3mGlu
BGC0000335_AID65225.1_1648_mod1_tyr	Trp
BGC0000449_AHF21228.1_2025_mod2_dab	Orn
BGC0000371_BAH31686.1_3493_mod3_horn	OHOrn
EFE73312.1_441_mod1_asp	Asp
AHZ34232.1_2599_mod3_gln	Ser
BGC0000400_AGM16412.1_5576_mod5_ser	Ser
BGC0000464_CDG17982.1_2738_mod3_pro	mPro
AHZ34232.1_480_mod1_leu	Leu
BGC0000382_AIT38302.1_845_mod1_leu	3mGlu
AEA30272.1_1550_mod2_ala	Ala
NP_216896.3_457_mod1_lys	Ser
BGC0001035_EPE34341.1_6121_mod6_4oh-pro	no_call
simA_mod1_d-ala	no_call
XP_002568558.1_1292_mod2_his	no_call
BGC0000423_CBG75492.1_240_mod1_fhorn	Trp
