#seqid	nearest_stachelhaus	singe_AA
BGC0001147_AIS24862.1_37_mod1_glycy_m1	trp	N/A
AGZ15459.1_2235_mod2_3oh-3me-pro_m1	dab	ala
BGC0000463_AGM14934.1_1604_mod2_leu_m1	leu	leu
EPE34341.1_2860_mod3_4oh-pro_m1	trp	N/A
BGC0000314_WP_010369425.1_467_mod1_thr_m1	thr	thr
BGC0001036_AGZ15458.1_478_mod1_piperazic_m1	d-lyserg	N/A
YP_003712466.1_562_mod1_val_m1	LDAP	N/A
CCJ67639.1_619_mod1_d-gln_m1	gln	N/A
YP_116976.1_488_mod1_lys_m1	lys	lys
BGC0000449_AHF21228.1_6670_mod5_trp_m1	phe	N/A
BGC0000425_AFH75322.1_1653_mod2_d-athr_m1	thr	thr
AHZ20781.1_481_mod1_thr_m1	thr	thr
AHZ34233.1_483_mod1_leu_m1	leu	leu
BGC0000449_AHF21228.1_11933_mod9_phe_m1	phe	N/A
EWS95124_2422_mod3_ala|gly_m1	d-lyserg	ala
AHF21228.1_474_mod1_val_m1	val	val
BGC0000463_AGM14925.1_482_mod1_leu_m1	leu	leu
AHZ34233.1_3643_mod4_leu_m1	leu	leu
BGC0000451_CP001614.2_15150-22349_mod1_orn_m1	arg	N/A
CBG75492_5304_mod5_d-cyclo-horn_m1	gln	N/A
BGC0000464_CDG17982.1_3820_mod4_leu_m1	val	val
BGC0000423_CBG75492.1_4248_mod4_orn_m1	arg	N/A
BGC0000423_CBG75492.1_1712_mod2_ser_m1	ser	ser
YP_702283.1_471_mod1_fhr_m1	thr	thr
AHF21228.1_8208_mod6_ser_m1	ser	ser
AHH53506.1_5177_mod5_gly_m1	gly	gly
BGC0000463_AGM14933.1_2676_mod3_val_m1	leu	leu
ZP_10287805.1_544_mod1_d-asn_m1	asn	asp
AHH53507.1_2589_mod3_ala_m1	d-lyserg	ala
BGC0000974_AIR74925.1_516_mod1_gly_m1	gly	gly
BGC0000369_AHZ20773.1_2017_mod2_tyr_m1	tyr	tyr
EFE73313.1_2638_mod3_gly_m1	gly	gly
BGC0001019_AHB82072.1_552_mod1_gly_m1	gly	gly
AHF21228.1_9291_mod7_dab_m1	dab	orn
BGC0000419_AIG79243.1_26_mod1_hpg_m1	hpg	hpg
AEA30273.1_3652_mod4_d-trp_m1	gly	N/A
BGC0000425_AFH75321.1_3778_mod4_d-leu_m1	gln	N/A
BGC0000463_AGM14934.1_568_mod1_leu_m1	leu	leu
BGC0000414_BAO84866.1_500_mod1_4-5-dehydro-arg|me-tyr-as-comple_m1	phe	N/A
AGC24265.1_37_mod1_pro_m1	phe	N/A
BGC0000414_BAO84868.1_386_mod1_me-tyr-as-complex_m1	glu	N/A
BGC0000456_BAO73252.1_2551_mod2_ala_m1	arg	N/A
BGC0000463_AGM14933.1_3718_mod4_leu_m1	gln	N/A
BGC0001045_AFR69334.1_544_mod1_d-ala_m1	val	val
CCJ67640.1_1654_mod2_d-athr_m1	thr	thr
AHH53507.1_5197_mod5_gly_m1	gly	gly
AFZ61525.1_1627_mod2_val_m1	val	val
BGC0000425_AFH75321.1_2723_mod3_d-val_m1	val	val
BGC0000439_AHH53506.1_1527_mod2_asp_m1	asp	N/A
AEU11003.1_1620_mod2_phe_m1	phe	phe
AGC65514.1_1579_mod2_ser_m1	ser	ser
BGC0000423_CBG75492.1_2792_mod3_horn_m1	orn	orn
EPE34341.1_1766_mod2_thr_m1	phe	N/A
BGC0000456_BAO73252.1_6319_mod5_tyr_m1	phe	N/A
EPE34341.1_6121_mod6_3oh-pro|3oh-4me-pro_m1	asp	N/A
BGC0001133_XBJ1_0774_3102_mod3_ser_m1	ser	ser
AHF21228.1_11933_mod9_phe_m1	phe	N/A
BGC0000426_AGZ03651.1_1997_mod2_trp_m1	tyr	tyr
BGC0000425_AFH75320.1_2651_mod3_d-ser_m1	ser	ser
BGC0000398_AFH75329.1_566_mod1_thr_m1	thr	thr
EWS95122_476_mod1_ser_m1	ser	ser
YP_631961.1_3708_mod3_goh-val_m1	val	val
CBG75492_4248_mod4_orn_m1	arg	N/A
AHF21228.1_5129_mod4_ser_m1	ser	ser
EFE73312.1_4373_mod4_thr_m1	thr	thr
BGC0000439_AHH53507.1_6245_mod6_ala_m1	d-lyserg	ala
BGC0000419_AIG79241.1_3410_mod3_boh-tyr_m1	bht	bht
BGC0000439_AHH53507.1_1547_mod2_asp_m1	asp	N/A
AHZ34233.1_4704_mod5_leu_m1	leu	leu
BGC0000416_CBJ90288.1_557_mod1_val_m1	LDAP	N/A
BGC0000369_AHZ20774.1_1541_mod2_gln_m1	gln	gln
ADL64235_433_mod1_val_m1	val	val
BGC0000439_AHH53508.1_1559_mod2_kyn_m1	phe	N/A
BGC0000418_AHF20582.1_26_mod1_hpg_m1	hpg	hpg
BGC0001132_xnc1_2022_77_mod1_val_m1	val	val
BGC0001133_XBJ1_0775_3649_mod4_leu_m1	leu	leu
BGC0000425_AFH75322.1_3790_mod4_hse_m1	lys-b	N/A
AHZ34232.1_1547_mod2_leu_m1	leu	leu
AEU11006.1_4186_mod2_gly_m1	gly	gly
BGC0000426_AGZ03650.1_37_mod1_phe_m1	phe	phe
YP_631961.1_10241_mod7_tyr_m1	phe	N/A
CCA29203.1_542_mod1_ser_m1	ser	ser
EFE73313.1_1569_mod2_met_m1	N-(1,1-dimethyl-1-allyl)Trp	N/A
AEU11003.1_2671_mod3_aile_m1	ile	ile
BGC0001125_AIW82277.1_2006_mod2_pro_m1	pro	pro
BGC0000425_AFH75321.1_4831_mod5_d-val_m1	leu	leu
CCJ67640.1_566_mod1_delta-but_m1	thr	thr
BGC0000464_CDG17980.1_525_mod1_pro_m1	pro	pro
BGC0001133_XBJ1_0774_563_mod1_leu_m1	leu	leu
EWS95122_2421_mod2_ala_m1	d-lyserg	ala
AGM16412.1_5576_mod5_ser_m1	ser	ser
BGC0000335_AID65222.1_2687_mod1_asn_m1	asn	asn
BGC0001132_xnc1_2022_1149_mod2_leu_m1	phe	N/A
BGC0000335_AID65224.1_469_mod1_asn_m1	asn	asn
BGC0000425_AFH75321.1_581_mod1_d-gln_m1	leu	leu
AFZ61525.1_3733_mod4_ser_m1	ser	ser
BGC0001133_XBJ1_0774_2057_mod2_leu_m1	leu	leu
AGM16413.1_4358_mod4_ile_m1	ile	N/A
BGC0000398_AFH75330.1_584_mod1_leu_m1	leu	leu
BGC0001036_AGZ15459.1_2235_mod2_3oh-3me-pro_m1	dab	ala
AHF21229.1_474_mod2_ile_m1	val	val
EFE73312.1_2615_mod3_ser_m1	ser	ser
AEF33078.1_1540_mod2_33p-l-ala_m1	phe	N/A
AGM16413.1_273_mod1_val_m1	val	val
EWS95124_960_mod2_hpg_m1	hpg	hpg
AGC65516.1_1081_mod1_val_m1	val	N/A
ZP_10287804.1_2037_mod2_asn_m1	asn	asp
CCJ67637.1_576_mod1_d-leu_m1	leu	leu
BGC0000398_AFH75329.1_3793_mod4_ser_m1	ser	ser
BGC0000463_AGM14934.1_2646_mod3_gln_m1	gln	N/A
CCJ67640.1_5904_mod6_lys_m1	lys-b	N/A
BGC0000371_BAH33409.1_3340_mod3_horn_m1	orn	orn
BGC0000425_AFH75320.1_3727_mod4_d-leu_m1	leu	leu
YP_631961.1_4764_mod4_ser_m1	ser	ser
AHH53507.1_4147_mod4_asp_m1	asp	asn
AGM16414.1_277_mod1_val_m1	val	val
AEC14346.1_1080_mod2_leu_m1	leu	leu
AGM16413.1_1312_mod2_lys_m1	orn	orn
BGC0000369_AHZ20784.1_509_mod1_nme-thr_m1	thr	thr
BGC0000449_AHF21228.1_3575_mod3_gly_m1	gly	gly
BGC0000398_AFH75330.1_2671_mod3_ser_m1	ser	ser
simA_mod5_bmt_m1	iva	iva
BGC0000431_EFE73313.1_1569_mod2_lys_m1	N-(1,1-dimethyl-1-allyl)Trp	N/A
BGC0000449_AHF21229.1_2929_mod3_ala_m1	val	val
AHZ20773.1_478_mod1_thr_m1	thr	thr
BGC0001036_AGZ15460.1_476_mod1_noh-val_m1	tyr	ser
BGC0001035_EPE34341.1_2860_mod3_3oh-pro|3oh-4me-pro_m1	trp	N/A
BGC0000400_AGM16413.1_2831_mod3_ser_m1	ser	ser
BGC0000431_EFE73312.1_2615_mod3_dpr_m1	ser	ser
BGC0001132_xnc1_2022_2204_mod3_val_m1	val	val
BGC0000398_AFH75330.1_3756_mod4_val_m1	val	ile
AGM16412.1_456_mod1_orn_m1	orn	orn
BGC0001178_AGS77309.1_1972_mod2_tyr_m1	hpg	hpg
BGC0000431_EFE73313.1_2638_mod3_gly_m1	gly	gly
BGC0000418_AHF20584.1_1929_mod2_hpg_m1	hpg	hpg
BGC0001149_CDF96614.1_1540_mod2_pro_m1	pro	pro
BGC0000400_AGM16412.1_4054_mod4_orn_m1	orn	orn
BGC0001178_AGS77310.1_492_mod1_dhpg_m1	dhpg	dhpg
BGC0000456_BAO73252.1_7854_mod6_val_m1	ile	N/A
AFZ61501.1_1515_mod2_glu_m1	asp	asp
BGC0000299_ERG36783.1_544_mod1_val_m1	val/ile	val
AEI70245.1_445_mod1_ala_m1	gly	gly
CBG75492_1712_mod2_ser_m1	ser	ser
BGC0000398_AFH75329.1_1652_mod2_val_m1	val	ile
XP_002568558.1_227_mod1_trp_m1	phe	N/A
AFZ61501.1_498_mod1_leu_m1	leu	leu
BGC0000425_AFH75320.1_4799_mod5_d-val_m1	val	val
BGC0000425_AFH75321.1_5900_mod6_val_m1	val	val
BGC0000425_AFH75320.1_5859_mod6_d-gln_m1	gln	N/A
AHZ20773.1_2017_mod2_tyr_m1	tyr	tyr
BGC0001125_AIW82285.1_488_mod1_thr_m1	thr	thr
BGC0000463_AGM14934.1_3713_mod4_ile|val_m1	leu	ile
AGM16413.1_2831_mod3_ser_m1	ser	ser
AGZ15458.1_478_mod1_pip_m1	d-lyserg	N/A
AFZ61525.1_558_mod1_athr_m1	thr	thr
BGC0000371_BAH33409.1_2360_mod2_gly_m1	gly	gly
BGC0001178_AGS77307.1_1045_mod2_tyr_m1	tyr	tyr
BGC0001035_EPE34341.1_685_mod1_4-5-dihydroxyhomotyrosine_m1	dab	N/A
BGC0000439_AHH53506.1_3045_mod3_asp_m1	asp	N/A
AGC65514.1_530_mod1_val_m1	val	N/A
BGC0000449_AHF21228.1_474_mod1_val_m1	val	val
BGC0000425_AFH75322.1_5909_mod6_lys_m1	lys-b	N/A
simA_mod4_val_m1	val	leu
BGC0001019_AHB82071.1_523_mod1_gly_m1	gly	gly
CCJ67636.1_2656_mod3_d-ser_m1	ser	ser
BGC0000371_BAH31686.1_1984_mod2_ser_m1	ser	ser
NP_216899.1_570_mod1_thr_m1	ser-thr	N/A
BGC0001019_AHB82071.1_3517_mod3_gly_m1	gly	gly
BGC0000425_AFH75320.1_474_mod1_dhabu_m1	thr	thr
BGC0000376_BAP16684.1_33_mod1_trp|6cl-trp_m1	trp	N/A
BGC0001036_AGZ15476.1_490_mod1_3oh-leu_m1	abu	val
BGC0000416_CBJ90289.1_562_mod1_val_m1	LDAP	N/A
BGC0000439_AHH53507.1_475_mod1_orn_m1	gln	N/A
BGC0000464_CDG17982.1_523_mod1_ala_m1	ala	ala
CCJ67639.1_1691_mod2_leu_m1	leu	leu
XP_001220460.1_3743_mod1_trp_m1	hpg	N/A
BGC0001166_AGQ43600.1_2990_mod3_d-ala_m1	ala	ala
AHH53506.1_4093_mod4_thr_m1	thr	thr
BGC0000371_BAH31686.1_483_mod1_fhorn_m1	orn	orn
AHF21228.1_6670_mod5_trp_m1	phe	N/A
CCJ67639.1_2757_mod3_d-val_m1	val	val
BGC0001125_AIW82284.1_1365_mod2_asn_m1	asn	asn
BGC0001114_AGN11881.1_528_mod1_thr_m1	thr	thr
simA_mod9_val_m1	iva	iva
AGM16413.1_5398_mod5_pro_m1	pro	pro
AHH53507.1_6245_mod6_ala_m1	d-lyserg	ala
AEC14346.1_19_mod1_thr_m1	thr	thr
BGC0000431_EFE73312.1_5470_mod5_thr_m1	thr	N/A
EPE34341.1_5024_mod5_3oh-glu_m1	phe	N/A
BGC0000464_CDG17981.1_1643_mod2_leu_m1	val	val
BGC0001166_AGQ43600.1_228_mod1_pro_m1	pro	pro
BGC0000418_AHF20584.1_460_mod1_hpg_m1	hpg	hpg
BGC0000369_AHZ20773.1_478_mod1_thr_m1	thr	thr
AHZ20774.1_477_mod1_thr_m1	thr	thr
AEC14349.1_24_mod1_val_m1	val	val
AHF21229.1_1387_mod3_ala_m1	ile	ile
YP_631961.1_9179_mod6_ser_m1	ser	ser
BGC0000425_AFH75322.1_4831_mod5_dab_m1	dab	N/A
BGC0001125_AIW82282.1_2490_mod1_val_m1	val	val
YP_003712465.1_557_mod1_val_m1	LDAP	N/A
AEI70245.1_1510_mod2_thr_m1	thr	thr
BGC0000439_AHH53506.1_5177_mod5_gly_m1	gly	gly
BGC0001166_AGQ43600.1_1838_mod2_ala_m1	ala	ala
BGC0000464_CDG17980.1_7025_mod7_leu_m1	val	val
BGC0000400_AGM16414.1_2358_mod3_ile_m1	ile	ile
EPE34341.1_3930_mod4_4oh-5oh-hty_m1	lys-b	N/A
CBG75492_2792_mod3_nme-fhorn_m1	orn	orn
BGC0000419_AIG79240.1_481_mod1_dhpg_m1	dhpg	dhpg
simA_mod2_leu_m1	phe	gln
AHF21228.1_3575_mod3_gly_m1	gly	gly
CCA29203.1_3604_mod3_gly_m1	gly	gly
ZP_10287803.1_467_mod1_d-thr_m1	thr	thr
AGZ15459.1_694_mod1_pip_m1	pro	ala
BGC0001035_EPE34341.1_1766_mod2_3oh-gln_m1	phe	N/A
BGC0001125_AIW82283.1_1622_mod2_asn|gln_m1	asn	asn
BGC0000464_CDG17980.1_5930_mod6_thr_m1	thr	thr
BGC0000371_BAH31686.1_4563_mod4_haorn_m1	haorn	N/A
BGC0000425_AFH75322.1_565_mod1_dhabu_m1	thr	thr
BGC0000369_AHZ20784.1_1992_mod2_glu|tyr_m1	tyr	N/A
AEA30274.1_484_mod1_aoh-gly_m1	gly	gly
BGC0001125_AIW82284.1_295_mod1_deoxy-thr_m1	thr	thr
EFE73312.1_5470_mod5_val_m1	thr	N/A
BGC0000418_AHF20585.1_481_mod1_dpg_m1	dhpg	dhpg
BGC0001019_AHB82071.1_2004_mod2_trp_m1	trp	N/A
BGC0001125_AIW82277.1_525_mod1_asn_m1	asn	asn
BGC0000431_EFE73313.1_484_mod1_ser_m1	ser	ser
BGC0000464_CDG17980.1_2686_mod3_val_m1	val	val
BGC0000314_WP_010369428.1_544_mod1_val_m1	val/ile	val
BGC0000369_AHZ20781.1_1540_mod2_thr_m1	thr	thr
BGC0001168_509516289_4_mod1_arg_m1	arg	N/A
AGZ15458.1_2022_mod2_noh-d-ala|oh-d-ala_m1	pro	ser
BGC0000464_CDG17981.1_533_mod1_leu_m1	ile	N/A
EFE73308.1_231_mod1_dab|dpr_m1	gln	N/A
BGC0000400_AGM16412.1_456_mod1_orn_m1	orn	orn
BGC0001133_XBJ1_0775_477_mod1_thr_m1	thr	thr
BGC0000425_AFH75322.1_2740_mod3_ile_m1	ile	ile
BGC0001125_AIW82284.1_2452_mod3_ala_m1	ala	ala
BGC0000400_AGM16413.1_4358_mod4_ile_m1	ile	N/A
BGC0001019_AHB82069.1_1590_mod1_asn_m1	asn	asn
AGM16412.1_3015_mod3_thr_m1	thr	thr
BGC0000400_AGM16414.1_1316_mod2_lys_m1	orn	orn
BGC0000439_AHH53508.1_483_mod1_glu_m1	3-me-glu	N/A
CCJ67637.1_1654_mod2_d-val_m1	val	val
BGC0000464_CDG17980.1_4858_mod5_ile_m1	ile	N/A
AGM16414.1_2358_mod3_ile_m1	ile	ile
BGC0001133_XBJ1_0775_1543_mod2_ser_m1	ser	ser
AHF21228.1_2025_mod2_dab_m1	dab	orn
AHZ20784.1_1992_mod2_gln|tyr_m1	tyr	N/A
AEA30273.1_471_mod1_boh-phe_m1	phe	phe
AGZ15476.1_490_mod1_3oh-leu_m1	abu	val
ChaP_mod1_trp_m1	bht	N/A
BGC0000400_AGM16413.1_273_mod1_val_m1	val	val
BGC0000431_EFE73312.1_441_mod1_thr_m1	asp	asn
AHZ20774.1_3047_mod3_gly_m1	gly	gly
AGC65516.1_2153_mod2_ser_m1	ser	ser
AEA30274.1_1533_mod2_d-leu_m1	phe	N/A
EPE34341.1_685_mod1_4oh-5oh-orn_m1	dab	N/A
AEA30272.1_2611_mod3_asp|bme-asp_m1	asp	asn
AEA30272.1_474_mod1_thr_m1	thr	thr
BGC0000418_AHF20583.1_473_mod1_dpg_m1	dhpg	dhpg
simA_mod11_ala_m1	gln	gln
BGC0000299_ERG36783.1_2037_mod2_asn_m1	asn	asp
BGC0000292_XP_001212648.1_529_mod1_phe_m1	tyr	N/A
BGC0000449_AHF21229.1_1387_mod2_ile_m1	ile	ile
AGC65514.1_4147_mod3_val_m1	val	val
YP_631961.1_1173_mod1_ser_m1	ser	ser
BGC0000376_BAP16697.1_524_mod1_d-ala_m1	ile	N/A
BGC0000431_EFE73312.1_1526_mod2_ser_m1	thr	thr
EFE73313.1_484_mod1_ser_m1	ser	ser
BGC0000425_AFH75321.1_1645_mod2_leu_m1	val	val
BGC0000398_AFH75330.1_1625_mod2_leu_m1	leu	leu
AGC65517.1_453_mod1_tyr_m1	asn	glu
EFE73312.1_1526_mod2_thr_m1	thr	thr
AHH53507.1_475_mod1_orn_m1	gln	N/A
YP_702283.1_1525_mod2_fhorn_m1	phe	N/A
simA_mod8_leu_m1	iva	iva
BGC0000376_BAP16699.1_1300_mod1_ser_m1	ser-thr	thr
BGC0000463_AGM14933.1_7925_mod8_leu_m1	gln	N/A
BGC0000299_ERG36782.1_467_mod1_thr_m1	thr	thr
YP_003712464.1_561_mod1_leu_m1	LDAP	N/A
BGC0000464_CDG17980.1_3751_mod4_leu_m1	phe	N/A
BGC0000463_AGM14933.1_4773_mod5_gln_m1	ser	ser
BGC0000376_BAP16689.1_223_mod1_6cl-4hydroxyindole-3-carboxylic_m1	ala	N/A
BGC0000371_BAH33409.1_494_mod1_arg_m1	arg	N/A
CCA29202.1_1497_mod2_cys_m1	cys	cys
BGC0000464_CDG17982.1_1657_mod2_b-ala_m1	ala-b	N/A
BGC0001149_CDF96614.1_480_mod1_ser_m1	ser	ser
YP_631961.1_12373_mod9_ala_m1	ile	N/A
BGC0000369_AHZ20774.1_477_mod1_thr_m1	thr	thr
BGC0001045_AFR69334.1_2032_mod2_d-cys_m1	cys	cys
BGC0000314_WP_010369430.1_2041_mod2_ile_m1	ile	leu
CCJ67638.1_582_mod1_d-leu_m1	leu	leu
ChaP_mod2_ser_m1	phe	N/A
BGC0000463_AGM14933.1_6881_mod7_val_m1	leu	leu
BGC0000418_AHF20582.1_1038_mod2_bht_m1	bht	bht
BGC0000463_AGM14925.1_1531_mod2_glu_m1	asp	asp
BGC0000400_AGM16414.1_277_mod1_val_m1	val	val
AHH53508.1_1559_mod2_kyn_m1	phe	N/A
AHH53507.1_1547_mod2_asp_m1	asp	N/A
BGC0000449_AHF21228.1_12993_mod10_glu_m1	glu	N/A
XP_754329.2_1103_mod2_ala_m1	pro	N/A
CCJ67638.1_1653_mod2_d-val_m1	val	val
YP_631961.1_2650_mod2_leu_m1	phe	N/A
simA_mod7_sar_m1	ala-b	N/A
BGC0000456_BAO73252.1_996_mod1_athr|ser_m1	phe	N/A
BGC0001036_AGZ15459.1_694_mod1_piperazic_m1	pro	ala
AGZ15460.1_476_mod1_noh-val_m1	tyr	ser
BGC0000449_AHF21228.1_9291_mod7_dab_m1	dab	orn
BGC0000418_AHF20584.1_3410_mod3_bht_m1	bht	bht
AGC65513.1_491_mod1_phe|tyr_m1	orn	leu
BGC0001035_EPE34341.1_3930_mod4_4-5-dihydroxyornithine_m1	lys-b	N/A
YP_631961.1_11304_mod8_blys_m1	lys-b	N/A
AHZ20774.1_1541_mod2_gln_m1	gln	gln
CCJ67638.1_2717_mod3_d-val_m1	val	val
AFZ61526.1_575_mod1_leu_m1	leu	leu
BGC0000439_AHH53506.1_4093_mod4_thr_m1	thr	thr
BGC0001178_AGS77308.1_476_mod1_dhpg_m1	dpg	dhpg
simA_mod3_leu_m1	pro	pro
BGC0000463_AGM14933.1_5818_mod6_ser_m1	val	val
BGC0000449_AHF21228.1_8208_mod6_ser_m1	ser	ser
BGC0001178_AGS77307.1_26_mod1_4hpg_m1	hpg	hpg
BGC0000419_AIG79242.1_473_mod1_dhpg_m1	dhpg	dhpg
BGC0001113_AIC32693.1_544_mod1_thr_m1	thr	thr
BGC0000419_AIG79243.1_1041_mod2_boh-tyr_m1	bht	bht
BGC0001036_AGZ15455.1_29_mod1_ala|leu|val_m1	pip	N/A
AHZ20781.1_1540_mod2_thr_m1	thr	thr
AFZ61526.1_2645_mod3_ile_m1	ile	ile
CCA29203.1_2085_mod2_cys_m1	cys	cys
BGC0000419_AIG79241.1_462_mod1_4hpg_m1	hpg	hpg
BGC0000439_AHH53507.1_2589_mod3_ala_m1	d-lyserg	ala
BGC0000456_BAO73252.1_5226_mod4_gln_m1	arg	N/A
BGC0000400_AGM16412.1_1974_mod2_val_m1	val	val
BGC0000425_AFH75320.1_1563_mod2_d-pro_m1	pro	pro
AGM16412.1_4054_mod4_orn_m1	orn	orn
BGC0000369_AHZ20781.1_481_mod1_thr_m1	thr	thr
CBG75492_240_mod1_nme-fhorn_m1	haorn	N/A
YP_631961.1_5832_mod5_val_m1	cys	N/A
BGC0001125_AIW82283.1_552_mod1_deoxy-thr_m1	thr	thr
BGC0000400_AGM16412.1_3015_mod3_thr_m1	thr	thr
BGC0001035_EPE34341.1_5024_mod5_thr_m1	phe	N/A
AGC65515.1_442_mod1_tyr_m1	arg	N/A
BGC0001045_AFR69334.1_3500_mod3_ile|val_m1	pip	N/A
CCJ67640.1_4826_mod5_d-dab_m1	dab	N/A
BGC0000439_AHH53507.1_4147_mod4_asp_m1	asp	asn
CCJ67640.1_2746_mod3_leu_m1	leu	leu
BGC0000426_AGZ03651.1_480_mod1_ala_m1	ala	N/A
BGC0000335_AID65224.1_1515_mod2_phe_m1	phe	phe
AEA30273.1_1527_mod2_pro_m1	pro	pro
BGC0000449_AHF21228.1_10396_mod8_dab_m1	dab	orn
ADL64235_1458_mod2_phe_m1	lys	N/A
AHZ34233.1_1522_mod2_gln_m1	gln	N/A
AGM16412.1_1974_mod2_val_m1	val	val
BGC0000419_AIG79241.1_1929_mod2_4hpg_m1	hpg	hpg
AFZ61525.1_2683_mod3_leu_m1	leu	leu
BGC0001178_AGS77309.1_471_mod1_4hpg_m1	hpg	hpg
BGC0000400_AGM16413.1_1312_mod2_lys_m1	orn	orn
BGC0001132_xnc1_2022_3284_mod4_val_m1	val	val
BGC0000369_AHZ20774.1_3047_mod3_gly_m1	gly	gly
AEA30272.1_3675_mod4_gly_m1	gly	gly
AHH53506.1_3045_mod3_asp_m1	asp	N/A
BGC0000423_CBG75492.1_5304_mod5_horn_m1	gln	N/A
BGC0000400_AGM16413.1_5398_mod5_pro_m1	pro	pro
BGC0000456_BAO73252.1_4122_mod3_pro_m1	bht	N/A
AEU11006.1_2653_mod1_gln_m1	gln	gln
AHF21228.1_10396_mod8_dab_m1	dab	orn
BGC0000436_EJK79842.1_762_mod1_ile|val_m1	val	val
NP_216895.1_486_mod1_lys_m1	lys	lys
BGC0000414_BAO84861.1_508_mod1_ala_m1	ala	ala
BGC0000439_AHH53506.1_475_mod1_trp_m1	trp	N/A
BGC0000416_CBJ90287.1_561_mod1_leu_m1	LDAP	N/A
BGC0000314_WP_010369430.1_544_mod1_asn_m1	asn	asp
AEC14348.1_1108_mod1_phe_m1	phe	tyr
YP_116975.1_508_mod1_lys_m1	hpg	leu
AHF21228.1_12993_mod10_glu_m1	glu	N/A
CCJ67637.1_2717_mod3_d-ser_m1	ser	ser
CCJ67636.1_1568_mod2_d-pro_m1	pro	pro
BGC0000451_CP001614.2_15150-22349_mod2_ser_m1	ser	ser
ZP_10287804.1_544_mod1_d-val_m1	val/ile	val
BGC0000439_AHH53507.1_5197_mod5_gly_m1	gly	gly
BGC0001036_AGZ15458.1_2022_mod2_noh-ala_m1	pro	ser
CCJ67640.1_3780_mod4_hse_m1	lys-b	N/A
BGC0000398_AFH75328.1_1544_mod2_glu_m1	asp	asp
YP_116977.1_584_mod1_thr_m1	gln	cys
simA_mod6_abu_m1	gln	gln
AEA30274.1_3073_mod3_boh-d-leu_m1	phe	N/A
AEF33078.1_463_mod1_thr_m1	thr	thr
AHZ34233.1_2589_mod3_val_m1	val	val
AEU11003.1_4205_mod4_pro_m1	pro	pro
AEA30273.1_2593_mod3_boh-ome-tyr_m1	phe	N/A
BGC0001166_AGQ43600.1_4142_mod4_aeo_m1	aeo	N/A
AFZ61526.1_1614_mod2_ser_m1	ser	ser
BGC0000398_AFH75328.1_482_mod1_leu_m1	leu	leu
BGC0000463_AGM14933.1_1613_mod2_gln_m1	val	val
BGC0000398_AFH75329.1_2729_mod3_leu_m1	leu	leu
BGC0000974_AIR74926.1_511_mod1_gly_m1	gly	gly
AEC14347.1_567_mod1_phe_m1	phe	N/A
BGC0000464_CDG17980.1_1601_mod2_ala_m1	ala	ala
BGC0000463_AGM14933.1_561_mod1_gln_m1	gln	N/A
AEU11003.1_555_mod1_pro_m1	pro	pro
CCJ67636.1_476_mod1_delta-but_m1	thr	thr
BGC0000376_BAP16693.1_511_mod1_alpha-me-ser_m1	cys	cys
AGM16414.1_1316_mod2_lys_m1	orn	orn
simA_mod10_leu_m1	iva	iva
EWS95124_9_mod1_gly_m1	gly	gly
CCA29202.1_393_mod1_gly_m1	gly	gly
ZP_10287805.1_2041_mod2_ile|d-leu_m1	ile	leu
BGC0000431_EFE73308.1_231_mod1_cysa_m1	gln	N/A
AHH53506.1_475_mod1_trp_m1	trp	N/A
AHZ20784.1_509_mod1_thr_m1	thr	thr
EWS95124_3485_mod4_tyr_m1	tyr	N/A
BGC0000449_AHF21228.1_5129_mod4_ser_m1	ser	ser
AHH53506.1_1527_mod2_asp_m1	asp	N/A
XP_754329.2_55_mod1_trp_m1	orn	N/A
AHH53508.1_483_mod1_glu_m1	3-me-glu	N/A
BGC0000335_AID65225.1_1648_mod1_tyr_m1	tyr	tyr
BGC0000449_AHF21228.1_2025_mod2_dab_m1	dab	orn
BGC0000371_BAH31686.1_3493_mod3_horn_m1	orn	orn
EFE73312.1_441_mod1_asp_m1	asp	asn
AHZ34232.1_2599_mod3_gln_m1	gln	N/A
BGC0000400_AGM16412.1_5576_mod5_ser_m1	ser	ser
BGC0000464_CDG17982.1_2738_mod3_pro_m1	pro	pro
AHZ34232.1_480_mod1_leu_m1	leu	leu
BGC0000382_AIT38302.1_845_mod1_leu_m1	leu	N/A
AEA30272.1_1550_mod2_ala_m1	d-lyserg	ala
NP_216896.3_457_mod1_lys_m1	lys	lys
BGC0001035_EPE34341.1_6121_mod6_4oh-pro_m1	asp	N/A
simA_mod1_d-ala_m1	val	N/A
XP_002568558.1_1292_mod2_his_m1	orn	pro
BGC0000423_CBG75492.1_240_mod1_fhorn_m1	haorn	N/A
