#Acc	A_dom_num	Spec
BAH22763.1	1	thr
AEA30272.1	1	thr
AEA30272.1	2	ala
AEA30272.1	3	asp|bme-asp
AEA30272.1	4	gly
AEA30273.1	1	boh-phe
AEA30273.1	2	pro
AEA30273.1	3	boh-ome-tyr
AEA30273.1	4	d-trp
AEA30274.1	1	aoh-gly
AEA30274.1	2	d-leu
AEA30274.1	3	boh-d-leu
AEF33078.1	1	thr
AEF33078.1	2	33p-l-ala
CCA29202.1	1	gly
CCA29202.1	2	cys
CCA29203.1	1	ser
CCA29203.1	2	cys
CCA29203.1	3	gly
AEC14346.1	1	thr
AEC14346.1	2	leu
AEC14347.1	1	phe
AEC14348.1	1	phe
AEC14349.1	1	val
AEU11006.1	1	gln
AEU11006.1	2	gly
AEU11003.1	1	pro
AEU11003.1	2	phe
AEU11003.1	3	aile
AEU11003.1	4	pro
EWS95122	1	ser
EWS95122	2	ala
EWS95124	1	gly
EWS95124	2	hpg
EWS95124	3	ala|gly
EWS95124	4	tyr
YP_631961.1	1	ser
YP_631961.1	2	leu
YP_631961.1	3	goh-val
YP_631961.1	4	ser
YP_631961.1	5	val
YP_631961.1	6	ser
YP_631961.1	7	tyr
YP_631961.1	8	blys
YP_631961.1	9	ala
YP_702283.1	1	fhr
YP_702283.1	2	fhorn
YP_116975.1	1	lys
YP_116976.1	1	lys
YP_116977.1	1	thr
AEI70243.1	1	dhb-al
AEI70245.1	1	ala
AEI70245.1	2	thr
NP_216900.1	1	sal-al
NP_216899.1	1	thr
NP_216896.3	1	lys
NP_216895.1	1	lys
AHH53506.1	1	trp
AHH53506.1	2	asp
AHH53506.1	3	asp
AHH53506.1	4	thr
AHH53506.1	5	gly
AHH53507.1	1	orn
AHH53507.1	2	asp
AHH53507.1	3	ala
AHH53507.1	4	asp
AHH53507.1	5	gly
AHH53507.1	6	ala
AHH53508.1	1	glu
AHH53508.1	2	kyn
AGZ15458.1	1	pip
AGZ15458.1	2	noh-d-alan-hydroxil-d-alanine
AGZ15459.1	1	pip
AGZ15459.1	2	3oh-3me-pro
AGZ15460.1	1	noh-val
AGZ15476.1	1	3oh-leu
ZP_10287803.1	1	d-thr
ZP_10287804.1	1	d-val
ZP_10287804.1	2	asn
ZP_10287805.1	1	d-asn
ZP_10287805.1	2	d-leu|ile
EPE34341.1	1	4oh5oh-orn
EPE34341.1	2	thr
EPE34341.1	3	4oh-pro
EPE34341.1	4	4oh5oh-hty
EPE34341.1	5	3oh-glu
EPE34341.1	6	3oh-pro|3oh-4me-pro
AHZ20781.1	1	thr
AHZ20781.1	2	thr
AHZ20773.1	1	thr
AHZ20773.1	2	tyr
AHZ20774.1	1	thr
AHZ20774.1	2	gln
AHZ20774.1	3	gly
AHZ20784.1	1	thr
AHZ20784.1	2	gln|tyr
EFE73312.1	1	asp
EFE73312.1	2	thr
EFE73312.1	3	ser
EFE73308.1	1	dab|dpr
EFE73312.1	4	thr
EFE73312.1	5	val
EFE73313.1	1	ser
EFE73313.1	2	met
EFE73313.1	3	gly
AHF21228.1	1	val
AHF21228.1	2	dab
AHF21228.1	3	gly
AHF21228.1	4	ser
AHF21228.1	5	trp
AHF21228.1	6	ser
AHF21228.1	7	dab
AHF21228.1	8	dab
AHF21228.1	9	phe
AHF21228.1	10	glu
AHF21229.1	1	val
AHF21229.1	2	ile
AHF21229.1	3	ala
XP_754329.2	1	trp
XP_754329.2	2	ala
CCJ67636.1	1	delta-but
CCJ67636.1	2	d-pro
CCJ67636.1	3	d-ser
CCJ67637.1	1	d-leu
CCJ67637.1	2	d-val
CCJ67637.1	3	d-ser
CCJ67638.1	1	d-leu
CCJ67638.1	2	d-val
CCJ67638.1	3	d-val
CCJ67639.1	1	d-gln
CCJ67639.1	2	leu
CCJ67639.1	3	d-val
CCJ67640.1	1	delta-but
CCJ67640.1	2	d-athr
CCJ67640.1	3	leu
CCJ67640.1	4	hse
CCJ67640.1	5	d-dab
CCJ67640.1	6	lys
CBG75492	1	nme-fhorn
CBG75492	2	ser
CBG75492	3	nme-fhorn
CBG75492	4	orn
CBG75492	5	d-cyclo-horn
AGC65516.1	1	val
AGC65516.1	2	ser
AGC65517.1	1	tyr
AGC65513.1	1	phe|tyr
AGC65514.1	1	val
AGC65514.1	2	ser
AGC65514.1	3	val
AGC65515.1	1	tyr
XP_002568558.1	1	trp
XP_002568558.1	2	his
AGM16412.1	1	orn
AGM16412.1	2	val
AGM16412.1	3	thr
AGM16412.1	4	orn
AGM16412.1	5	ser
AGM16413.1	1	val
AGM16413.1	2	lys
AGM16413.1	3	ser
AGM16413.1	4	ile
AGM16413.1	5	pro
AGM16414.1	1	val
AGM16414.1	2	lys
AGM16414.1	3	ile
XP_001220460.1	1	trp
AGC24265.1	1	pro
#KF318360.1	1	d-phe
#KF318360.1	1	d-ala
#KF318360.1	2	trp
ADL64235	1	val
ADL64235	2	phe
AFZ61501.1	1	leu
AFZ61501.1	2	glu
AFZ61525.1	1	athr
AFZ61525.1	2	val
AFZ61525.1	3	leu
AFZ61525.1	4	ser
AFZ61526.1	1	leu
AFZ61526.1	2	ser
AFZ61526.1	3	ile
YP_003712464.1	1	leu
YP_003712465.1	1	val
YP_003712466.1	1	val
AHZ34232.1	1	leu
AHZ34232.1	2	leu
AHZ34232.1	3	gln
AHZ34233.1	1	leu
AHZ34233.1	2	gln
AHZ34233.1	3	val
AHZ34233.1	4	leu
AHZ34233.1	5	leu
