query	pid	spec	method	call_made	call	cov_all	cov_top3	cov_top4
XP_001220460.1_3743_mod1_trp_TEST	34.01	no_confident_result	atree	N	N	0	0	0
XP_001220460.1_3743_mod1_trp_TEST	34.01	glu|phe	nrpssp	Y	N	0	0	0
XP_001220460.1_3743_mod1_trp_TEST	34.01	N/A	nrpspred2_singaa	N	N	0	0	0
XP_001220460.1_3743_mod1_trp_TEST	34.01	no_hit	bachmann_ravel	N	N	0	0	0
XP_001220460.1_3743_mod1_trp_TEST	34.01	hpg	nrpspred2_stach	Y	N	0	0	0
XP_001220460.1_3743_mod1_trp_TEST	34.01	gly_3	khayatt_hmm	Y	N	0	0	0
CCA29203.1_2085_mod2_cys_TEST	46.77	cys	nrpspred2_stach	Y	Y	0	1	0
CCA29203.1_2085_mod2_cys_TEST	46.77	cys_3	khayatt_hmm	Y	Y	0	1	0
CCA29203.1_2085_mod2_cys_TEST	46.77	cys	nrpssp	Y	Y	0	1	0
CCA29203.1_2085_mod2_cys_TEST	46.77	no_confident_result	atree	N	N	0	1	0
CCA29203.1_2085_mod2_cys_TEST	46.77	cys	nrpspred2_singaa	Y	Y	0	1	0
CCA29203.1_2085_mod2_cys_TEST	46.77	cys	bachmann_ravel	Y	Y	0	1	0
BGC0000369_AHZ20774.1_3047_mod3_gly_TEST	47.48	gly	nrpspred2_stach	Y	Y	0	1	0
BGC0000369_AHZ20774.1_3047_mod3_gly_TEST	47.48	gly_3	khayatt_hmm	Y	Y	0	1	0
BGC0000369_AHZ20774.1_3047_mod3_gly_TEST	47.48	gly	bachmann_ravel	Y	Y	0	1	0
BGC0000369_AHZ20774.1_3047_mod3_gly_TEST	47.48	gly	nrpspred2_singaa	Y	Y	0	1	0
BGC0000369_AHZ20774.1_3047_mod3_gly_TEST	47.48	no_confident_result	atree	N	N	0	1	0
BGC0000369_AHZ20774.1_3047_mod3_gly_TEST	47.48	gly	nrpssp	Y	Y	0	1	0
AGC65515.1_442_mod1_tyr_TEST	42.06	arg	nrpspred2_stach	Y	N	0	0	0
AGC65515.1_442_mod1_tyr_TEST	42.06	glu_3	khayatt_hmm	Y	N	0	0	0
AGC65515.1_442_mod1_tyr_TEST	42.06	no_hit	bachmann_ravel	N	N	0	0	0
AGC65515.1_442_mod1_tyr_TEST	42.06	N/A	nrpspred2_singaa	N	N	0	0	0
AGC65515.1_442_mod1_tyr_TEST	42.06	phe	nrpssp	Y	N	0	0	0
AGC65515.1_442_mod1_tyr_TEST	42.06	no_confident_result	atree	N	N	0	0	0
AHF21228.1_3575_mod3_gly_TEST	50.1	gly	nrpspred2_stach	Y	Y	0	1	0
AHF21228.1_3575_mod3_gly_TEST	50.1	gly_3	khayatt_hmm	Y	Y	0	1	0
AHF21228.1_3575_mod3_gly_TEST	50.1	3h4mphe	bachmann_ravel	Y	N	0	1	0
AHF21228.1_3575_mod3_gly_TEST	50.1	gly	nrpspred2_singaa	Y	Y	0	1	0
AHF21228.1_3575_mod3_gly_TEST	50.1	no_confident_result	atree	N	N	0	1	0
AHF21228.1_3575_mod3_gly_TEST	50.1	phe	nrpssp	Y	N	0	1	0
YP_631961.1_10241_mod7_tyr_TEST	46.94	no_hit	bachmann_ravel	N	N	0	0	0
YP_631961.1_10241_mod7_tyr_TEST	46.94	phe	nrpssp	Y	N	0	0	0
YP_631961.1_10241_mod7_tyr_TEST	46.94	no_confident_result	atree	N	N	0	0	0
YP_631961.1_10241_mod7_tyr_TEST	46.94	N/A	nrpspred2_singaa	N	N	0	0	0
YP_631961.1_10241_mod7_tyr_TEST	46.94	phe	nrpspred2_stach	Y	N	0	0	0
YP_631961.1_10241_mod7_tyr_TEST	46.94	gly_3	khayatt_hmm	Y	N	0	0	0
BGC0000398_AFH75330.1_1625_mod2_leu_TEST	69.57	leu	bachmann_ravel	Y	Y	0	1	0
BGC0000398_AFH75330.1_1625_mod2_leu_TEST	69.57	leu	nrpspred2_singaa	Y	Y	0	1	0
BGC0000398_AFH75330.1_1625_mod2_leu_TEST	69.57	leu	nrpssp	Y	Y	0	1	0
BGC0000398_AFH75330.1_1625_mod2_leu_TEST	69.57	no_confident_result	atree	N	N	0	1	0
BGC0000398_AFH75330.1_1625_mod2_leu_TEST	69.57	leu	nrpspred2_stach	Y	Y	0	1	0
BGC0000398_AFH75330.1_1625_mod2_leu_TEST	69.57	leu_7	khayatt_hmm	Y	Y	0	1	0
BGC0000426_AGZ03651.1_1997_mod2_trp_TEST	64.61	tyr_2	khayatt_hmm	Y	N	0	1	0
BGC0000426_AGZ03651.1_1997_mod2_trp_TEST	64.61	tyr	nrpspred2_stach	Y	N	0	1	0
BGC0000426_AGZ03651.1_1997_mod2_trp_TEST	64.61	tyr	nrpssp	Y	N	0	1	0
BGC0000426_AGZ03651.1_1997_mod2_trp_TEST	64.61	no_confident_result	atree	N	N	0	1	0
BGC0000426_AGZ03651.1_1997_mod2_trp_TEST	64.61	tyr	nrpspred2_singaa	Y	N	0	1	0
BGC0000426_AGZ03651.1_1997_mod2_trp_TEST	64.61	tyr|trp	bachmann_ravel	Y	Y	0	1	0
BGC0001149_CDF96614.1_1540_mod2_pro_TEST	42.94	pro	bachmann_ravel	Y	Y	1	1	1
BGC0001149_CDF96614.1_1540_mod2_pro_TEST	42.94	pro	nrpssp	Y	Y	1	1	1
BGC0001149_CDF96614.1_1540_mod2_pro_TEST	42.94	pro	atree	Y	Y	1	1	1
BGC0001149_CDF96614.1_1540_mod2_pro_TEST	42.94	pro	nrpspred2_singaa	Y	Y	1	1	1
BGC0001149_CDF96614.1_1540_mod2_pro_TEST	42.94	pro-mpro_1	khayatt_hmm	Y	Y	1	1	1
BGC0001149_CDF96614.1_1540_mod2_pro_TEST	42.94	pro	nrpspred2_stach	Y	Y	1	1	1
AGM16412.1_3015_mod3_thr_TEST	67.08	no_confident_result	atree	N	N	0	1	0
AGM16412.1_3015_mod3_thr_TEST	67.08	thr	nrpssp	Y	Y	0	1	0
AGM16412.1_3015_mod3_thr_TEST	67.08	thr	nrpspred2_singaa	Y	Y	0	1	0
AGM16412.1_3015_mod3_thr_TEST	67.08	thr	bachmann_ravel	Y	Y	0	1	0
AGM16412.1_3015_mod3_thr_TEST	67.08	thr_2	khayatt_hmm	Y	Y	0	1	0
AGM16412.1_3015_mod3_thr_TEST	67.08	thr	nrpspred2_stach	Y	Y	0	1	0
XP_002568558.1_227_mod1_trp_TEST	37.96	phe	nrpspred2_stach	Y	N	0	0	0
XP_002568558.1_227_mod1_trp_TEST	37.96	ala_2	khayatt_hmm	Y	N	0	0	0
XP_002568558.1_227_mod1_trp_TEST	37.96	no_hit	bachmann_ravel	N	N	0	0	0
XP_002568558.1_227_mod1_trp_TEST	37.96	N/A	nrpspred2_singaa	N	N	0	0	0
XP_002568558.1_227_mod1_trp_TEST	37.96	pro	atree	Y	N	0	0	0
XP_002568558.1_227_mod1_trp_TEST	37.96	trp	nrpssp	Y	Y	0	0	0
BGC0000425_AFH75321.1_1645_mod2_leu_TEST	71.1	val_6	khayatt_hmm	Y	N	0	1	0
BGC0000425_AFH75321.1_1645_mod2_leu_TEST	71.1	val	nrpspred2_stach	Y	N	0	1	0
BGC0000425_AFH75321.1_1645_mod2_leu_TEST	71.1	val	nrpspred2_singaa	Y	N	0	1	0
BGC0000425_AFH75321.1_1645_mod2_leu_TEST	71.1	val	nrpssp	Y	N	0	1	0
BGC0000425_AFH75321.1_1645_mod2_leu_TEST	71.1	no_confident_result	atree	N	N	0	1	0
BGC0000425_AFH75321.1_1645_mod2_leu_TEST	71.1	val	bachmann_ravel	Y	N	0	1	0
EWS95124_9_mod1_gly_TEST	62.04	gly_2	khayatt_hmm	Y	Y	0	1	0
EWS95124_9_mod1_gly_TEST	62.04	gly	nrpspred2_stach	Y	Y	0	1	0
EWS95124_9_mod1_gly_TEST	62.04	gly	nrpspred2_singaa	Y	Y	0	1	0
EWS95124_9_mod1_gly_TEST	62.04	gly	nrpssp	Y	Y	0	1	0
EWS95124_9_mod1_gly_TEST	62.04	no_confident_result	atree	N	N	0	1	0
EWS95124_9_mod1_gly_TEST	62.04	gly	bachmann_ravel	Y	Y	0	1	0
AGC65516.1_1081_mod1_val_TEST	36.84	val	nrpssp	Y	Y	0	0	0
AGC65516.1_1081_mod1_val_TEST	36.84	val	atree	Y	Y	0	0	0
AGC65516.1_1081_mod1_val_TEST	36.84	N/A	nrpspred2_singaa	N	N	0	0	0
AGC65516.1_1081_mod1_val_TEST	36.84	no_hit	bachmann_ravel	N	N	0	0	0
AGC65516.1_1081_mod1_val_TEST	36.84	val	nrpspred2_stach	Y	Y	0	0	0
AGC65516.1_1081_mod1_val_TEST	36.84	val_4	khayatt_hmm	Y	Y	0	0	0
BGC0001133_XBJ1_0775_1543_mod2_ser_TEST	47.23	ser_4	khayatt_hmm	Y	Y	0	1	0
BGC0001133_XBJ1_0775_1543_mod2_ser_TEST	47.23	ser	nrpspred2_stach	Y	Y	0	1	0
BGC0001133_XBJ1_0775_1543_mod2_ser_TEST	47.23	ser	bachmann_ravel	Y	Y	0	1	0
BGC0001133_XBJ1_0775_1543_mod2_ser_TEST	47.23	no_confident_result	atree	N	N	0	1	0
BGC0001133_XBJ1_0775_1543_mod2_ser_TEST	47.23	ser	nrpssp	Y	Y	0	1	0
BGC0001133_XBJ1_0775_1543_mod2_ser_TEST	47.23	ser	nrpspred2_singaa	Y	Y	0	1	0
BGC0001166_AGQ43600.1_228_mod1_pro_TEST	85.92	pro	bachmann_ravel	Y	Y	0	1	0
BGC0001166_AGQ43600.1_228_mod1_pro_TEST	85.92	pro	nrpspred2_singaa	Y	Y	0	1	0
BGC0001166_AGQ43600.1_228_mod1_pro_TEST	85.92	pro	nrpssp	Y	Y	0	1	0
BGC0001166_AGQ43600.1_228_mod1_pro_TEST	85.92	no_confident_result	atree	N	N	0	1	0
BGC0001166_AGQ43600.1_228_mod1_pro_TEST	85.92	pro_1	khayatt_hmm	Y	Y	0	1	0
BGC0001166_AGQ43600.1_228_mod1_pro_TEST	85.92	pro	nrpspred2_stach	Y	Y	0	1	0
AHH53507.1_475_mod1_orn_TEST	57.79	gln	nrpspred2_stach	Y	N	0	0	0
AHH53507.1_475_mod1_orn_TEST	57.79	lys_1	khayatt_hmm	Y	N	0	0	0
AHH53507.1_475_mod1_orn_TEST	57.79	horn	nrpssp	Y	N	0	0	0
AHH53507.1_475_mod1_orn_TEST	57.79	no_confident_result	atree	N	N	0	0	0
AHH53507.1_475_mod1_orn_TEST	57.79	N/A	nrpspred2_singaa	N	N	0	0	0
AHH53507.1_475_mod1_orn_TEST	57.79	no_hit	bachmann_ravel	N	N	0	0	0
CCJ67640.1_2746_mod3_leu_TEST	70.7	leu	bachmann_ravel	Y	Y	0	1	0
CCJ67640.1_2746_mod3_leu_TEST	70.7	leu	nrpssp	Y	Y	0	1	0
CCJ67640.1_2746_mod3_leu_TEST	70.7	no_confident_result	atree	N	N	0	1	0
CCJ67640.1_2746_mod3_leu_TEST	70.7	leu	nrpspred2_singaa	Y	Y	0	1	0
CCJ67640.1_2746_mod3_leu_TEST	70.7	leu	nrpspred2_stach	Y	Y	0	1	0
CCJ67640.1_2746_mod3_leu_TEST	70.7	leu_7	khayatt_hmm	Y	Y	0	1	0
BGC0000463_AGM14933.1_3718_mod4_leu_TEST	62.63	gln	nrpspred2_stach	Y	N	0	0	0
BGC0000463_AGM14933.1_3718_mod4_leu_TEST	62.63	asp_2	khayatt_hmm	Y	N	0	0	0
BGC0000463_AGM14933.1_3718_mod4_leu_TEST	62.63	thr	bachmann_ravel	Y	N	0	0	0
BGC0000463_AGM14933.1_3718_mod4_leu_TEST	62.63	N/A	nrpspred2_singaa	N	N	0	0	0
BGC0000463_AGM14933.1_3718_mod4_leu_TEST	62.63	asp	nrpssp	Y	N	0	0	0
BGC0000463_AGM14933.1_3718_mod4_leu_TEST	62.63	no_confident_result	atree	N	N	0	0	0
AGM16414.1_2358_mod3_ile_TEST	55.35	ile_2	khayatt_hmm	Y	Y	0	1	0
AGM16414.1_2358_mod3_ile_TEST	55.35	ile	nrpspred2_stach	Y	Y	0	1	0
AGM16414.1_2358_mod3_ile_TEST	55.35	no_confident_result	atree	N	N	0	1	0
AGM16414.1_2358_mod3_ile_TEST	55.35	ile	nrpssp	Y	Y	0	1	0
AGM16414.1_2358_mod3_ile_TEST	55.35	ile	nrpspred2_singaa	Y	Y	0	1	0
AGM16414.1_2358_mod3_ile_TEST	55.35	leu	bachmann_ravel	Y	N	0	1	0
BGC0001132_xnc1_2022_1149_mod2_leu_TEST	53.32	N/A	nrpspred2_singaa	N	N	0	0	0
BGC0001132_xnc1_2022_1149_mod2_leu_TEST	53.32	tyr	nrpssp	Y	N	0	0	0
BGC0001132_xnc1_2022_1149_mod2_leu_TEST	53.32	no_confident_result	atree	N	N	0	0	0
BGC0001132_xnc1_2022_1149_mod2_leu_TEST	53.32	trp	bachmann_ravel	Y	N	0	0	0
BGC0001132_xnc1_2022_1149_mod2_leu_TEST	53.32	trp_1	khayatt_hmm	Y	N	0	0	0
BGC0001132_xnc1_2022_1149_mod2_leu_TEST	53.32	phe	nrpspred2_stach	Y	N	0	0	0
BGC0000398_AFH75330.1_584_mod1_leu_TEST	75.27	leu_7	khayatt_hmm	Y	Y	0	1	0
BGC0000398_AFH75330.1_584_mod1_leu_TEST	75.27	leu	nrpspred2_stach	Y	Y	0	1	0
BGC0000398_AFH75330.1_584_mod1_leu_TEST	75.27	leu	nrpspred2_singaa	Y	Y	0	1	0
BGC0000398_AFH75330.1_584_mod1_leu_TEST	75.27	leu	nrpssp	Y	Y	0	1	0
BGC0000398_AFH75330.1_584_mod1_leu_TEST	75.27	no_confident_result	atree	N	N	0	1	0
BGC0000398_AFH75330.1_584_mod1_leu_TEST	75.27	leu	bachmann_ravel	Y	Y	0	1	0
BGC0000369_AHZ20773.1_2017_mod2_tyr_TEST	45.59	no_confident_result	atree	N	N	0	1	0
BGC0000369_AHZ20773.1_2017_mod2_tyr_TEST	45.59	tyr	nrpssp	Y	Y	0	1	0
BGC0000369_AHZ20773.1_2017_mod2_tyr_TEST	45.59	tyr	nrpspred2_singaa	Y	Y	0	1	0
BGC0000369_AHZ20773.1_2017_mod2_tyr_TEST	45.59	tyr	bachmann_ravel	Y	Y	0	1	0
BGC0000369_AHZ20773.1_2017_mod2_tyr_TEST	45.59	trp_4	khayatt_hmm	Y	N	0	1	0
BGC0000369_AHZ20773.1_2017_mod2_tyr_TEST	45.59	tyr	nrpspred2_stach	Y	Y	0	1	0
NP_216899.1_570_mod1_thr_TEST	100	N/A	nrpspred2_singaa	N	N	0	0	0
NP_216899.1_570_mod1_thr_TEST	100	cys	nrpssp	Y	N	0	0	0
NP_216899.1_570_mod1_thr_TEST	100	ser|thr	atree	Y	Y	0	0	0
NP_216899.1_570_mod1_thr_TEST	100	ser-thr	bachmann_ravel	Y	Y	0	0	0
NP_216899.1_570_mod1_thr_TEST	100	ser-thr	nrpspred2_stach	Y	Y	0	0	0
NP_216899.1_570_mod1_thr_TEST	100	cys_4	khayatt_hmm	Y	N	0	0	0
EFE73312.1_5470_mod5_val_TEST	57.17	thr-athr_1	khayatt_hmm	Y	N	0	0	0
EFE73312.1_5470_mod5_val_TEST	57.17	thr	nrpspred2_stach	Y	N	0	0	0
EFE73312.1_5470_mod5_val_TEST	57.17	thr	bachmann_ravel	Y	N	0	0	0
EFE73312.1_5470_mod5_val_TEST	57.17	no_confident_result	atree	N	N	0	0	0
EFE73312.1_5470_mod5_val_TEST	57.17	thr	nrpssp	Y	N	0	0	0
EFE73312.1_5470_mod5_val_TEST	57.17	N/A	nrpspred2_singaa	N	N	0	0	0
AHF21228.1_2025_mod2_dab_TEST	56.06	orn	nrpspred2_singaa	Y	N	0	1	0
AHF21228.1_2025_mod2_dab_TEST	56.06	dab	nrpssp	Y	Y	0	1	0
AHF21228.1_2025_mod2_dab_TEST	56.06	no_confident_result	atree	N	N	0	1	0
AHF21228.1_2025_mod2_dab_TEST	56.06	no_hit	bachmann_ravel	N	N	0	1	0
AHF21228.1_2025_mod2_dab_TEST	56.06	orn_1	khayatt_hmm	Y	N	0	1	0
AHF21228.1_2025_mod2_dab_TEST	56.06	dab	nrpspred2_stach	Y	Y	0	1	0
AHH53507.1_6245_mod6_ala_TEST	56.47	phe	nrpssp	Y	N	0	1	0
AHH53507.1_6245_mod6_ala_TEST	56.47	no_confident_result	atree	N	N	0	1	0
AHH53507.1_6245_mod6_ala_TEST	56.47	ala	nrpspred2_singaa	Y	Y	0	1	0
AHH53507.1_6245_mod6_ala_TEST	56.47	no_hit	bachmann_ravel	N	N	0	1	0
AHH53507.1_6245_mod6_ala_TEST	56.47	ala_6	khayatt_hmm	Y	Y	0	1	0
AHH53507.1_6245_mod6_ala_TEST	56.47	d-lyserg	nrpspred2_stach	Y	N	0	1	0
BGC0000431_EFE73312.1_441_mod1_thr_TEST	53.14	asn_8	khayatt_hmm	Y	N	0	1	0
BGC0000431_EFE73312.1_441_mod1_thr_TEST	53.14	asp	nrpspred2_stach	Y	N	0	1	0
BGC0000431_EFE73312.1_441_mod1_thr_TEST	53.14	asp|asn	bachmann_ravel	Y	N	0	1	0
BGC0000431_EFE73312.1_441_mod1_thr_TEST	53.14	asn	nrpspred2_singaa	Y	N	0	1	0
BGC0000431_EFE73312.1_441_mod1_thr_TEST	53.14	asn	nrpssp	Y	N	0	1	0
BGC0000431_EFE73312.1_441_mod1_thr_TEST	53.14	no_confident_result	atree	N	N	0	1	0
YP_116975.1_508_mod1_lys_TEST	52.21	hpg	bachmann_ravel	Y	N	0	1	0
YP_116975.1_508_mod1_lys_TEST	52.21	leu	nrpspred2_singaa	Y	N	0	1	0
YP_116975.1_508_mod1_lys_TEST	52.21	phe	nrpssp	Y	N	0	1	0
YP_116975.1_508_mod1_lys_TEST	52.21	no_confident_result	atree	N	N	0	1	0
YP_116975.1_508_mod1_lys_TEST	52.21	ser_4	khayatt_hmm	Y	N	0	1	0
YP_116975.1_508_mod1_lys_TEST	52.21	hpg	nrpspred2_stach	Y	N	0	1	0
BGC0000463_AGM14933.1_561_mod1_gln_TEST	61.16	N/A	nrpspred2_singaa	N	N	0	0	0
BGC0000463_AGM14933.1_561_mod1_gln_TEST	61.16	no_confident_result	atree	N	N	0	0	0
BGC0000463_AGM14933.1_561_mod1_gln_TEST	61.16	ser	nrpssp	Y	N	0	0	0
BGC0000463_AGM14933.1_561_mod1_gln_TEST	61.16	thr	bachmann_ravel	Y	N	0	0	0
BGC0000463_AGM14933.1_561_mod1_gln_TEST	61.16	gln	nrpspred2_stach	Y	Y	0	0	0
BGC0000463_AGM14933.1_561_mod1_gln_TEST	61.16	asp_2	khayatt_hmm	Y	N	0	0	0
AHZ34233.1_3643_mod4_leu_TEST	73.67	leu	nrpspred2_singaa	Y	Y	0	1	0
AHZ34233.1_3643_mod4_leu_TEST	73.67	leu	nrpssp	Y	Y	0	1	0
AHZ34233.1_3643_mod4_leu_TEST	73.67	no_confident_result	atree	N	N	0	1	0
AHZ34233.1_3643_mod4_leu_TEST	73.67	leu	bachmann_ravel	Y	Y	0	1	0
AHZ34233.1_3643_mod4_leu_TEST	73.67	leu_7	khayatt_hmm	Y	Y	0	1	0
AHZ34233.1_3643_mod4_leu_TEST	73.67	leu	nrpspred2_stach	Y	Y	0	1	0
BGC0001133_XBJ1_0775_477_mod1_thr_TEST	48.62	thr	nrpspred2_stach	Y	Y	0	1	0
BGC0001133_XBJ1_0775_477_mod1_thr_TEST	48.62	thr-athr_1	khayatt_hmm	Y	Y	0	1	0
BGC0001133_XBJ1_0775_477_mod1_thr_TEST	48.62	thr	bachmann_ravel	Y	Y	0	1	0
BGC0001133_XBJ1_0775_477_mod1_thr_TEST	48.62	thr	nrpspred2_singaa	Y	Y	0	1	0
BGC0001133_XBJ1_0775_477_mod1_thr_TEST	48.62	thr	nrpssp	Y	Y	0	1	0
BGC0001133_XBJ1_0775_477_mod1_thr_TEST	48.62	no_confident_result	atree	N	N	0	1	0
AGM16413.1_4358_mod4_ile_TEST	55.69	ile	nrpspred2_stach	Y	Y	0	0	0
AGM16413.1_4358_mod4_ile_TEST	55.69	ile_2	khayatt_hmm	Y	Y	0	0	0
AGM16413.1_4358_mod4_ile_TEST	55.69	leu	bachmann_ravel	Y	N	0	0	0
AGM16413.1_4358_mod4_ile_TEST	55.69	ile	nrpssp	Y	Y	0	0	0
AGM16413.1_4358_mod4_ile_TEST	55.69	no_confident_result	atree	N	N	0	0	0
AGM16413.1_4358_mod4_ile_TEST	55.69	N/A	nrpspred2_singaa	N	N	0	0	0
AEC14348.1_1108_mod1_phe_TEST	41.29	trp_1	khayatt_hmm	Y	N	0	1	0
AEC14348.1_1108_mod1_phe_TEST	41.29	phe	nrpspred2_stach	Y	Y	0	1	0
AEC14348.1_1108_mod1_phe_TEST	41.29	phe	nrpssp	Y	Y	0	1	0
AEC14348.1_1108_mod1_phe_TEST	41.29	no_confident_result	atree	N	N	0	1	0
AEC14348.1_1108_mod1_phe_TEST	41.29	tyr	nrpspred2_singaa	Y	N	0	1	0
AEC14348.1_1108_mod1_phe_TEST	41.29	no_hit	bachmann_ravel	N	N	0	1	0
BGC0001133_XBJ1_0774_3102_mod3_ser_TEST	47.23	ser	bachmann_ravel	Y	Y	0	1	0
BGC0001133_XBJ1_0774_3102_mod3_ser_TEST	47.23	ser	nrpspred2_singaa	Y	Y	0	1	0
BGC0001133_XBJ1_0774_3102_mod3_ser_TEST	47.23	no_confident_result	atree	N	N	0	1	0
BGC0001133_XBJ1_0774_3102_mod3_ser_TEST	47.23	ser	nrpssp	Y	Y	0	1	0
BGC0001133_XBJ1_0774_3102_mod3_ser_TEST	47.23	ser	nrpspred2_stach	Y	Y	0	1	0
BGC0001133_XBJ1_0774_3102_mod3_ser_TEST	47.23	ser_4	khayatt_hmm	Y	Y	0	1	0
CBG75492_4248_mod4_orn_TEST	50	lys_1	khayatt_hmm	Y	N	0	0	0
CBG75492_4248_mod4_orn_TEST	50	arg	nrpspred2_stach	Y	N	0	0	0
CBG75492_4248_mod4_orn_TEST	50	N/A	nrpspred2_singaa	N	N	0	0	0
CBG75492_4248_mod4_orn_TEST	50	arg	nrpssp	Y	N	0	0	0
CBG75492_4248_mod4_orn_TEST	50	no_confident_result	atree	N	N	0	0	0
CBG75492_4248_mod4_orn_TEST	50	no_hit	bachmann_ravel	N	N	0	0	0
AHZ20784.1_509_mod1_thr_TEST	59.87	thr_5	khayatt_hmm	Y	Y	0	1	0
AHZ20784.1_509_mod1_thr_TEST	59.87	thr	nrpspred2_stach	Y	Y	0	1	0
AHZ20784.1_509_mod1_thr_TEST	59.87	thr	bachmann_ravel	Y	Y	0	1	0
AHZ20784.1_509_mod1_thr_TEST	59.87	thr	nrpssp	Y	Y	0	1	0
AHZ20784.1_509_mod1_thr_TEST	59.87	no_confident_result	atree	N	N	0	1	0
AHZ20784.1_509_mod1_thr_TEST	59.87	thr	nrpspred2_singaa	Y	Y	0	1	0
AGM16412.1_4054_mod4_orn_TEST	56.38	orn	bachmann_ravel	Y	Y	0	1	0
AGM16412.1_4054_mod4_orn_TEST	56.38	orn	nrpssp	Y	Y	0	1	0
AGM16412.1_4054_mod4_orn_TEST	56.38	no_confident_result	atree	N	N	0	1	0
AGM16412.1_4054_mod4_orn_TEST	56.38	orn	nrpspred2_singaa	Y	Y	0	1	0
AGM16412.1_4054_mod4_orn_TEST	56.38	orn	nrpspred2_stach	Y	Y	0	1	0
AGM16412.1_4054_mod4_orn_TEST	56.38	orn_1	khayatt_hmm	Y	Y	0	1	0
BGC0000463_AGM14925.1_482_mod1_leu_TEST	67.79	leu	bachmann_ravel	Y	Y	0	1	0
BGC0000463_AGM14925.1_482_mod1_leu_TEST	67.79	leu	nrpspred2_singaa	Y	Y	0	1	0
BGC0000463_AGM14925.1_482_mod1_leu_TEST	67.79	leu	nrpssp	Y	Y	0	1	0
BGC0000463_AGM14925.1_482_mod1_leu_TEST	67.79	no_confident_result	atree	N	N	0	1	0
BGC0000463_AGM14925.1_482_mod1_leu_TEST	67.79	leu_7	khayatt_hmm	Y	Y	0	1	0
BGC0000463_AGM14925.1_482_mod1_leu_TEST	67.79	leu	nrpspred2_stach	Y	Y	0	1	0
AGM16413.1_5398_mod5_pro_TEST	56.96	no_confident_result	atree	N	N	0	1	0
AGM16413.1_5398_mod5_pro_TEST	56.96	pro	nrpssp	Y	Y	0	1	0
AGM16413.1_5398_mod5_pro_TEST	56.96	pro	nrpspred2_singaa	Y	Y	0	1	0
AGM16413.1_5398_mod5_pro_TEST	56.96	pro	bachmann_ravel	Y	Y	0	1	0
AGM16413.1_5398_mod5_pro_TEST	56.96	pro	nrpspred2_stach	Y	Y	0	1	0
AGM16413.1_5398_mod5_pro_TEST	56.96	pro_2	khayatt_hmm	Y	Y	0	1	0
BGC0000369_AHZ20773.1_478_mod1_thr_TEST	58.78	thr	nrpspred2_singaa	Y	Y	0	1	0
BGC0000369_AHZ20773.1_478_mod1_thr_TEST	58.78	no_confident_result	atree	N	N	0	1	0
BGC0000369_AHZ20773.1_478_mod1_thr_TEST	58.78	thr	nrpssp	Y	Y	0	1	0
BGC0000369_AHZ20773.1_478_mod1_thr_TEST	58.78	thr	bachmann_ravel	Y	Y	0	1	0
BGC0000369_AHZ20773.1_478_mod1_thr_TEST	58.78	thr_5	khayatt_hmm	Y	Y	0	1	0
BGC0000369_AHZ20773.1_478_mod1_thr_TEST	58.78	thr	nrpspred2_stach	Y	Y	0	1	0
BGC0000314_WP_010369430.1_544_mod1_asn_TEST	38.1	asn	nrpspred2_stach	Y	Y	0	1	0
BGC0000314_WP_010369430.1_544_mod1_asn_TEST	38.1	gly_3	khayatt_hmm	Y	N	0	1	0
BGC0000314_WP_010369430.1_544_mod1_asn_TEST	38.1	phe	nrpssp	Y	N	0	1	0
BGC0000314_WP_010369430.1_544_mod1_asn_TEST	38.1	no_confident_result	atree	N	N	0	1	0
BGC0000314_WP_010369430.1_544_mod1_asn_TEST	38.1	asp	nrpspred2_singaa	Y	N	0	1	0
BGC0000314_WP_010369430.1_544_mod1_asn_TEST	38.1	asn	bachmann_ravel	Y	Y	0	1	0
AFZ61526.1_575_mod1_leu_TEST	78.03	leu	bachmann_ravel	Y	Y	1	1	1
AFZ61526.1_575_mod1_leu_TEST	78.03	leu	nrpssp	Y	Y	1	1	1
AFZ61526.1_575_mod1_leu_TEST	78.03	leu	atree	Y	Y	1	1	1
AFZ61526.1_575_mod1_leu_TEST	78.03	leu	nrpspred2_singaa	Y	Y	1	1	1
AFZ61526.1_575_mod1_leu_TEST	78.03	leu	nrpspred2_stach	Y	Y	1	1	1
AFZ61526.1_575_mod1_leu_TEST	78.03	leu_7	khayatt_hmm	Y	Y	1	1	1
BGC0000398_AFH75329.1_3793_mod4_ser_TEST	74.09	ser	nrpspred2_singaa	Y	Y	0	1	0
BGC0000398_AFH75329.1_3793_mod4_ser_TEST	74.09	ser	nrpssp	Y	Y	0	1	0
BGC0000398_AFH75329.1_3793_mod4_ser_TEST	74.09	no_confident_result	atree	N	N	0	1	0
BGC0000398_AFH75329.1_3793_mod4_ser_TEST	74.09	ser	bachmann_ravel	Y	Y	0	1	0
BGC0000398_AFH75329.1_3793_mod4_ser_TEST	74.09	ser	nrpspred2_stach	Y	Y	0	1	0
BGC0000398_AFH75329.1_3793_mod4_ser_TEST	74.09	ser_4	khayatt_hmm	Y	Y	0	1	0
YP_116976.1_488_mod1_lys_TEST	51.38	leu|ile|val	bachmann_ravel	Y	N	1	1	1
YP_116976.1_488_mod1_lys_TEST	51.38	lys	nrpssp	Y	Y	1	1	1
YP_116976.1_488_mod1_lys_TEST	51.38	lys	atree	Y	Y	1	1	1
YP_116976.1_488_mod1_lys_TEST	51.38	lys	nrpspred2_singaa	Y	Y	1	1	1
YP_116976.1_488_mod1_lys_TEST	51.38	lys	nrpspred2_stach	Y	Y	1	1	1
YP_116976.1_488_mod1_lys_TEST	51.38	lys_1	khayatt_hmm	Y	Y	1	1	1
YP_003712466.1_562_mod1_val_TEST	45.65	LDAP	nrpspred2_stach	Y	N	0	0	0
YP_003712466.1_562_mod1_val_TEST	45.65	trp_1	khayatt_hmm	Y	N	0	0	0
YP_003712466.1_562_mod1_val_TEST	45.65	no_hit	bachmann_ravel	N	N	0	0	0
YP_003712466.1_562_mod1_val_TEST	45.65	phe	nrpssp	Y	N	0	0	0
YP_003712466.1_562_mod1_val_TEST	45.65	no_confident_result	atree	N	N	0	0	0
YP_003712466.1_562_mod1_val_TEST	45.65	N/A	nrpspred2_singaa	N	N	0	0	0
CCA29202.1_1497_mod2_cys_TEST	48.41	cys	nrpspred2_singaa	Y	Y	0	1	0
CCA29202.1_1497_mod2_cys_TEST	48.41	no_confident_result	atree	N	N	0	1	0
CCA29202.1_1497_mod2_cys_TEST	48.41	cys	nrpssp	Y	Y	0	1	0
CCA29202.1_1497_mod2_cys_TEST	48.41	cys	bachmann_ravel	Y	Y	0	1	0
CCA29202.1_1497_mod2_cys_TEST	48.41	cys_3	khayatt_hmm	Y	Y	0	1	0
CCA29202.1_1497_mod2_cys_TEST	48.41	cys	nrpspred2_stach	Y	Y	0	1	0
AHZ20773.1_478_mod1_thr_TEST	58.78	thr_5	khayatt_hmm	Y	Y	0	1	0
AHZ20773.1_478_mod1_thr_TEST	58.78	thr	nrpspred2_stach	Y	Y	0	1	0
AHZ20773.1_478_mod1_thr_TEST	58.78	thr	nrpspred2_singaa	Y	Y	0	1	0
AHZ20773.1_478_mod1_thr_TEST	58.78	thr	nrpssp	Y	Y	0	1	0
AHZ20773.1_478_mod1_thr_TEST	58.78	no_confident_result	atree	N	N	0	1	0
AHZ20773.1_478_mod1_thr_TEST	58.78	thr	bachmann_ravel	Y	Y	0	1	0
BGC0000426_AGZ03650.1_37_mod1_phe_TEST	55.62	phe_2	khayatt_hmm	Y	Y	0	1	0
BGC0000426_AGZ03650.1_37_mod1_phe_TEST	55.62	phe	nrpspred2_stach	Y	Y	0	1	0
BGC0000426_AGZ03650.1_37_mod1_phe_TEST	55.62	phe	nrpssp	Y	Y	0	1	0
BGC0000426_AGZ03650.1_37_mod1_phe_TEST	55.62	no_confident_result	atree	N	N	0	1	0
BGC0000426_AGZ03650.1_37_mod1_phe_TEST	55.62	phe	nrpspred2_singaa	Y	Y	0	1	0
BGC0000426_AGZ03650.1_37_mod1_phe_TEST	55.62	phe|d-phe	bachmann_ravel	Y	Y	0	1	0
BGC0001132_xnc1_2022_77_mod1_val_TEST	58.54	val	nrpspred2_singaa	Y	Y	0	1	0
BGC0001132_xnc1_2022_77_mod1_val_TEST	58.54	no_confident_result	atree	N	N	0	1	0
BGC0001132_xnc1_2022_77_mod1_val_TEST	58.54	val	nrpssp	Y	Y	0	1	0
BGC0001132_xnc1_2022_77_mod1_val_TEST	58.54	val	bachmann_ravel	Y	Y	0	1	0
BGC0001132_xnc1_2022_77_mod1_val_TEST	58.54	val_6	khayatt_hmm	Y	Y	0	1	0
BGC0001132_xnc1_2022_77_mod1_val_TEST	58.54	val	nrpspred2_stach	Y	Y	0	1	0
BGC0000463_AGM14933.1_4773_mod5_gln_TEST	68.98	ser	nrpspred2_stach	Y	N	0	1	0
BGC0000463_AGM14933.1_4773_mod5_gln_TEST	68.98	ser_4	khayatt_hmm	Y	N	0	1	0
BGC0000463_AGM14933.1_4773_mod5_gln_TEST	68.98	ser	nrpssp	Y	N	0	1	0
BGC0000463_AGM14933.1_4773_mod5_gln_TEST	68.98	no_confident_result	atree	N	N	0	1	0
BGC0000463_AGM14933.1_4773_mod5_gln_TEST	68.98	ser	nrpspred2_singaa	Y	N	0	1	0
BGC0000463_AGM14933.1_4773_mod5_gln_TEST	68.98	ser	bachmann_ravel	Y	N	0	1	0
AHF21229.1_1387_mod3_ala_TEST	53.28	ile	bachmann_ravel	Y	N	0	1	0
AHF21229.1_1387_mod3_ala_TEST	53.28	ile	nrpspred2_singaa	Y	N	0	1	0
AHF21229.1_1387_mod3_ala_TEST	53.28	val	nrpssp	Y	N	0	1	0
AHF21229.1_1387_mod3_ala_TEST	53.28	no_confident_result	atree	N	N	0	1	0
AHF21229.1_1387_mod3_ala_TEST	53.28	ile	nrpspred2_stach	Y	N	0	1	0
AHF21229.1_1387_mod3_ala_TEST	53.28	val_3	khayatt_hmm	Y	N	0	1	0
BGC0001166_AGQ43600.1_1838_mod2_ala_TEST	88.05	ala	nrpspred2_stach	Y	Y	0	1	0
BGC0001166_AGQ43600.1_1838_mod2_ala_TEST	88.05	ala_1	khayatt_hmm	Y	Y	0	1	0
BGC0001166_AGQ43600.1_1838_mod2_ala_TEST	88.05	ala	nrpspred2_singaa	Y	Y	0	1	0
BGC0001166_AGQ43600.1_1838_mod2_ala_TEST	88.05	ile	nrpssp	Y	N	0	1	0
BGC0001166_AGQ43600.1_1838_mod2_ala_TEST	88.05	no_confident_result	atree	N	N	0	1	0
BGC0001166_AGQ43600.1_1838_mod2_ala_TEST	88.05	ala	bachmann_ravel	Y	Y	0	1	0
AGC65516.1_2153_mod2_ser_TEST	41.44	ser	nrpssp	Y	Y	1	1	1
AGC65516.1_2153_mod2_ser_TEST	41.44	ser	atree	Y	Y	1	1	1
AGC65516.1_2153_mod2_ser_TEST	41.44	ser	nrpspred2_singaa	Y	Y	1	1	1
AGC65516.1_2153_mod2_ser_TEST	41.44	ser	bachmann_ravel	Y	Y	1	1	1
AGC65516.1_2153_mod2_ser_TEST	41.44	ser	nrpspred2_stach	Y	Y	1	1	1
AGC65516.1_2153_mod2_ser_TEST	41.44	ser_4	khayatt_hmm	Y	Y	1	1	1
AHH53506.1_3045_mod3_asp_TEST	54.26	asp	bachmann_ravel	Y	Y	0	0	0
AHH53506.1_3045_mod3_asp_TEST	54.26	N/A	nrpspred2_singaa	N	N	0	0	0
AHH53506.1_3045_mod3_asp_TEST	54.26	no_confident_result	atree	N	N	0	0	0
AHH53506.1_3045_mod3_asp_TEST	54.26	asn	nrpssp	Y	N	0	0	0
AHH53506.1_3045_mod3_asp_TEST	54.26	asp	nrpspred2_stach	Y	Y	0	0	0
AHH53506.1_3045_mod3_asp_TEST	54.26	asn_8	khayatt_hmm	Y	N	0	0	0
AEC14346.1_1080_mod2_leu_TEST	42.11	no_Adom_found	nrpspred2_stach	N	N	0	0	0
AEC14346.1_1080_mod2_leu_TEST	42.11	leu_6	khayatt_hmm	Y	Y	0	0	0
AEC14346.1_1080_mod2_leu_TEST	42.11	leu	bachmann_ravel	Y	Y	0	0	0
AEC14346.1_1080_mod2_leu_TEST	42.11	no_confident_result	atree	N	N	0	0	0
AEC14346.1_1080_mod2_leu_TEST	42.11	leu	nrpssp	Y	Y	0	0	0
AEC14346.1_1080_mod2_leu_TEST	42.11	no_Adom_found	nrpspred2_singaa	Y	N	0	0	0
NP_216896.3_457_mod1_lys_TEST	100	lys	atree	Y	Y	1	1	1
NP_216896.3_457_mod1_lys_TEST	100	lys	nrpssp	Y	Y	1	1	1
NP_216896.3_457_mod1_lys_TEST	100	lys	nrpspred2_singaa	Y	Y	1	1	1
NP_216896.3_457_mod1_lys_TEST	100	lys	bachmann_ravel	Y	Y	1	1	1
NP_216896.3_457_mod1_lys_TEST	100	ser_4	khayatt_hmm	Y	N	1	1	1
NP_216896.3_457_mod1_lys_TEST	100	lys	nrpspred2_stach	Y	Y	1	1	1
BGC0000398_AFH75330.1_2671_mod3_ser_TEST	76.92	ser	nrpspred2_stach	Y	Y	0	1	0
BGC0000398_AFH75330.1_2671_mod3_ser_TEST	76.92	ser_4	khayatt_hmm	Y	Y	0	1	0
BGC0000398_AFH75330.1_2671_mod3_ser_TEST	76.92	ser	bachmann_ravel	Y	Y	0	1	0
BGC0000398_AFH75330.1_2671_mod3_ser_TEST	76.92	ser	nrpssp	Y	Y	0	1	0
BGC0000398_AFH75330.1_2671_mod3_ser_TEST	76.92	no_confident_result	atree	N	N	0	1	0
BGC0000398_AFH75330.1_2671_mod3_ser_TEST	76.92	ser	nrpspred2_singaa	Y	Y	0	1	0
YP_631961.1_9179_mod6_ser_TEST	54.64	ser	bachmann_ravel	Y	Y	0	1	0
YP_631961.1_9179_mod6_ser_TEST	54.64	ser	nrpspred2_singaa	Y	Y	0	1	0
YP_631961.1_9179_mod6_ser_TEST	54.64	no_confident_result	atree	N	N	0	1	0
YP_631961.1_9179_mod6_ser_TEST	54.64	ser	nrpssp	Y	Y	0	1	0
YP_631961.1_9179_mod6_ser_TEST	54.64	ser_4	khayatt_hmm	Y	Y	0	1	0
YP_631961.1_9179_mod6_ser_TEST	54.64	ser	nrpspred2_stach	Y	Y	0	1	0
AEU11003.1_4205_mod4_pro_TEST	72.67	pro	nrpspred2_stach	Y	Y	0	1	0
AEU11003.1_4205_mod4_pro_TEST	72.67	pro-mpro_1	khayatt_hmm	Y	Y	0	1	0
AEU11003.1_4205_mod4_pro_TEST	72.67	pro	nrpssp	Y	Y	0	1	0
AEU11003.1_4205_mod4_pro_TEST	72.67	no_confident_result	atree	N	N	0	1	0
AEU11003.1_4205_mod4_pro_TEST	72.67	pro	nrpspred2_singaa	Y	Y	0	1	0
AEU11003.1_4205_mod4_pro_TEST	72.67	pro	bachmann_ravel	Y	Y	0	1	0
BGC0000314_WP_010369428.1_544_mod1_val_TEST	46.18	val_4	khayatt_hmm	Y	Y	0	1	0
BGC0000314_WP_010369428.1_544_mod1_val_TEST	46.18	val/ile	nrpspred2_stach	Y	Y	0	1	0
BGC0000314_WP_010369428.1_544_mod1_val_TEST	46.18	val	nrpssp	Y	Y	0	1	0
BGC0000314_WP_010369428.1_544_mod1_val_TEST	46.18	no_confident_result	atree	N	N	0	1	0
BGC0000314_WP_010369428.1_544_mod1_val_TEST	46.18	val	nrpspred2_singaa	Y	Y	0	1	0
BGC0000314_WP_010369428.1_544_mod1_val_TEST	46.18	val	bachmann_ravel	Y	Y	0	1	0
AHF21229.1_474_mod2_ile_TEST	64.47	val	bachmann_ravel	Y	N	0	1	0
AHF21229.1_474_mod2_ile_TEST	64.47	val	nrpssp	Y	N	0	1	0
AHF21229.1_474_mod2_ile_TEST	64.47	no_confident_result	atree	N	N	0	1	0
AHF21229.1_474_mod2_ile_TEST	64.47	val	nrpspred2_singaa	Y	N	0	1	0
AHF21229.1_474_mod2_ile_TEST	64.47	val	nrpspred2_stach	Y	N	0	1	0
AHF21229.1_474_mod2_ile_TEST	64.47	val_4	khayatt_hmm	Y	N	0	1	0
AGC65514.1_530_mod1_val_TEST	40.93	val_4	khayatt_hmm	Y	Y	0	0	0
AGC65514.1_530_mod1_val_TEST	40.93	val	nrpspred2_stach	Y	Y	0	0	0
AGC65514.1_530_mod1_val_TEST	40.93	no_hit	bachmann_ravel	N	N	0	0	0
AGC65514.1_530_mod1_val_TEST	40.93	val	nrpssp	Y	Y	0	0	0
AGC65514.1_530_mod1_val_TEST	40.93	no_confident_result	atree	N	N	0	0	0
AGC65514.1_530_mod1_val_TEST	40.93	N/A	nrpspred2_singaa	N	N	0	0	0
AFZ61525.1_3733_mod4_ser_TEST	76.02	ser	nrpspred2_singaa	Y	Y	0	1	0
AFZ61525.1_3733_mod4_ser_TEST	76.02	ser	nrpssp	Y	Y	0	1	0
AFZ61525.1_3733_mod4_ser_TEST	76.02	no_confident_result	atree	N	N	0	1	0
AFZ61525.1_3733_mod4_ser_TEST	76.02	ser	bachmann_ravel	Y	Y	0	1	0
AFZ61525.1_3733_mod4_ser_TEST	76.02	ser	nrpspred2_stach	Y	Y	0	1	0
AFZ61525.1_3733_mod4_ser_TEST	76.02	ser_4	khayatt_hmm	Y	Y	0	1	0
AEC14346.1_19_mod1_thr_TEST	41.85	thr	nrpspred2_stach	Y	Y	0	1	0
AEC14346.1_19_mod1_thr_TEST	41.85	thr-athr_1	khayatt_hmm	Y	Y	0	1	0
AEC14346.1_19_mod1_thr_TEST	41.85	thr	bachmann_ravel	Y	Y	0	1	0
AEC14346.1_19_mod1_thr_TEST	41.85	no_confident_result	atree	N	N	0	1	0
AEC14346.1_19_mod1_thr_TEST	41.85	thr	nrpssp	Y	Y	0	1	0
AEC14346.1_19_mod1_thr_TEST	41.85	thr	nrpspred2_singaa	Y	Y	0	1	0
XP_002568558.1_1292_mod2_his_TEST	38.91	orn	nrpspred2_stach	Y	N	0	1	1
XP_002568558.1_1292_mod2_his_TEST	38.91	gln_1	khayatt_hmm	Y	N	0	1	1
XP_002568558.1_1292_mod2_his_TEST	38.91	no_hit	bachmann_ravel	N	N	0	1	1
XP_002568558.1_1292_mod2_his_TEST	38.91	pro	atree	Y	N	0	1	1
XP_002568558.1_1292_mod2_his_TEST	38.91	pro	nrpssp	Y	N	0	1	1
XP_002568558.1_1292_mod2_his_TEST	38.91	pro	nrpspred2_singaa	Y	N	0	1	1
BGC0000431_EFE73313.1_2638_mod3_gly_TEST	52.21	gly	nrpspred2_stach	Y	Y	0	1	0
BGC0000431_EFE73313.1_2638_mod3_gly_TEST	52.21	gly_2	khayatt_hmm	Y	Y	0	1	0
BGC0000431_EFE73313.1_2638_mod3_gly_TEST	52.21	3h4mphe	bachmann_ravel	Y	N	0	1	0
BGC0000431_EFE73313.1_2638_mod3_gly_TEST	52.21	no_confident_result	atree	N	N	0	1	0
BGC0000431_EFE73313.1_2638_mod3_gly_TEST	52.21	gly	nrpssp	Y	Y	0	1	0
BGC0000431_EFE73313.1_2638_mod3_gly_TEST	52.21	gly	nrpspred2_singaa	Y	Y	0	1	0
BGC0000425_AFH75322.1_4831_mod5_dab_TEST	77.58	dab	bachmann_ravel	Y	Y	0	0	0
BGC0000425_AFH75322.1_4831_mod5_dab_TEST	77.58	dab	nrpssp	Y	Y	0	0	0
BGC0000425_AFH75322.1_4831_mod5_dab_TEST	77.58	no_confident_result	atree	N	N	0	0	0
BGC0000425_AFH75322.1_4831_mod5_dab_TEST	77.58	N/A	nrpspred2_singaa	N	N	0	0	0
BGC0000425_AFH75322.1_4831_mod5_dab_TEST	77.58	dab_2	khayatt_hmm	Y	Y	0	0	0
BGC0000425_AFH75322.1_4831_mod5_dab_TEST	77.58	dab	nrpspred2_stach	Y	Y	0	0	0
AGM16414.1_277_mod1_val_TEST	57.76	val_4	khayatt_hmm	Y	Y	0	1	0
AGM16414.1_277_mod1_val_TEST	57.76	val	nrpspred2_stach	Y	Y	0	1	0
AGM16414.1_277_mod1_val_TEST	57.76	val	bachmann_ravel	Y	Y	0	1	0
AGM16414.1_277_mod1_val_TEST	57.76	val	nrpssp	Y	Y	0	1	0
AGM16414.1_277_mod1_val_TEST	57.76	no_confident_result	atree	N	N	0	1	0
AGM16414.1_277_mod1_val_TEST	57.76	val	nrpspred2_singaa	Y	Y	0	1	0
AGM16414.1_1316_mod2_lys_TEST	57.44	no_hit	bachmann_ravel	N	N	0	1	0
AGM16414.1_1316_mod2_lys_TEST	57.44	orn	nrpssp	Y	N	0	1	0
AGM16414.1_1316_mod2_lys_TEST	57.44	no_confident_result	atree	N	N	0	1	0
AGM16414.1_1316_mod2_lys_TEST	57.44	orn	nrpspred2_singaa	Y	N	0	1	0
AGM16414.1_1316_mod2_lys_TEST	57.44	orn	nrpspred2_stach	Y	N	0	1	0
AGM16414.1_1316_mod2_lys_TEST	57.44	orn_1	khayatt_hmm	Y	Y	0	1	0
BGC0000416_CBJ90288.1_557_mod1_val_TEST	44.79	no_hit	bachmann_ravel	N	N	0	0	0
BGC0000416_CBJ90288.1_557_mod1_val_TEST	44.79	phe	nrpssp	Y	N	0	0	0
BGC0000416_CBJ90288.1_557_mod1_val_TEST	44.79	no_confident_result	atree	N	N	0	0	0
BGC0000416_CBJ90288.1_557_mod1_val_TEST	44.79	N/A	nrpspred2_singaa	N	N	0	0	0
BGC0000416_CBJ90288.1_557_mod1_val_TEST	44.79	LDAP	nrpspred2_stach	Y	N	0	0	0
BGC0000416_CBJ90288.1_557_mod1_val_TEST	44.79	trp_1	khayatt_hmm	Y	N	0	0	0
AEC14347.1_567_mod1_phe_TEST	40.58	phe	nrpspred2_stach	Y	Y	0	0	0
AEC14347.1_567_mod1_phe_TEST	40.58	val_4	khayatt_hmm	Y	N	0	0	0
AEC14347.1_567_mod1_phe_TEST	40.58	no_hit	bachmann_ravel	N	N	0	0	0
AEC14347.1_567_mod1_phe_TEST	40.58	phe	nrpssp	Y	Y	0	0	0
AEC14347.1_567_mod1_phe_TEST	40.58	no_confident_result	atree	N	N	0	0	0
AEC14347.1_567_mod1_phe_TEST	40.58	N/A	nrpspred2_singaa	N	N	0	0	0
EPE34341.1_1766_mod2_thr_TEST	37.45	phe	nrpspred2_stach	Y	N	0	0	0
EPE34341.1_1766_mod2_thr_TEST	37.45	ala_2	khayatt_hmm	Y	N	0	0	0
EPE34341.1_1766_mod2_thr_TEST	37.45	no_hit	bachmann_ravel	N	N	0	0	0
EPE34341.1_1766_mod2_thr_TEST	37.45	no_confident_result	atree	N	N	0	0	0
EPE34341.1_1766_mod2_thr_TEST	37.45	pro	nrpssp	Y	N	0	0	0
EPE34341.1_1766_mod2_thr_TEST	37.45	N/A	nrpspred2_singaa	N	N	0	0	0
YP_631961.1_12373_mod9_ala_TEST	48.06	ile	nrpspred2_stach	Y	N	0	0	0
YP_631961.1_12373_mod9_ala_TEST	48.06	gly_3	khayatt_hmm	Y	N	0	0	0
YP_631961.1_12373_mod9_ala_TEST	48.06	N/A	nrpspred2_singaa	N	N	0	0	0
YP_631961.1_12373_mod9_ala_TEST	48.06	phe	nrpssp	Y	N	0	0	0
YP_631961.1_12373_mod9_ala_TEST	48.06	no_confident_result	atree	N	N	0	0	0
YP_631961.1_12373_mod9_ala_TEST	48.06	no_hit	bachmann_ravel	N	N	0	0	0
BGC0000314_WP_010369430.1_2041_mod2_ile_TEST	39.59	val_3	khayatt_hmm	Y	N	0	1	0
BGC0000314_WP_010369430.1_2041_mod2_ile_TEST	39.59	ile	nrpspred2_stach	Y	Y	0	1	0
BGC0000314_WP_010369430.1_2041_mod2_ile_TEST	39.59	leu	bachmann_ravel	Y	N	0	1	0
BGC0000314_WP_010369430.1_2041_mod2_ile_TEST	39.59	leu	nrpspred2_singaa	Y	N	0	1	0
BGC0000314_WP_010369430.1_2041_mod2_ile_TEST	39.59	no_confident_result	atree	N	N	0	1	0
BGC0000314_WP_010369430.1_2041_mod2_ile_TEST	39.59	leu	nrpssp	Y	N	0	1	0
AHH53507.1_2589_mod3_ala_TEST	55.97	no_hit	bachmann_ravel	N	N	0	1	0
AHH53507.1_2589_mod3_ala_TEST	55.97	ala	nrpspred2_singaa	Y	Y	0	1	0
AHH53507.1_2589_mod3_ala_TEST	55.97	no_confident_result	atree	N	N	0	1	0
AHH53507.1_2589_mod3_ala_TEST	55.97	gly	nrpssp	Y	N	0	1	0
AHH53507.1_2589_mod3_ala_TEST	55.97	ala_6	khayatt_hmm	Y	Y	0	1	0
AHH53507.1_2589_mod3_ala_TEST	55.97	d-lyserg	nrpspred2_stach	Y	N	0	1	0
AFZ61526.1_1614_mod2_ser_TEST	76.84	ser	nrpspred2_singaa	Y	Y	0	1	0
AFZ61526.1_1614_mod2_ser_TEST	76.84	ser	nrpssp	Y	Y	0	1	0
AFZ61526.1_1614_mod2_ser_TEST	76.84	no_confident_result	atree	N	N	0	1	0
AFZ61526.1_1614_mod2_ser_TEST	76.84	ser	bachmann_ravel	Y	Y	0	1	0
AFZ61526.1_1614_mod2_ser_TEST	76.84	ser_4	khayatt_hmm	Y	Y	0	1	0
AFZ61526.1_1614_mod2_ser_TEST	76.84	ser	nrpspred2_stach	Y	Y	0	1	0
AGZ15458.1_478_mod1_pip_TEST	48.89	d-lyserg	nrpspred2_stach	Y	N	0	0	0
AGZ15458.1_478_mod1_pip_TEST	48.89	ala_6	khayatt_hmm	Y	N	0	0	0
AGZ15458.1_478_mod1_pip_TEST	48.89	no_hit	bachmann_ravel	N	N	0	0	0
AGZ15458.1_478_mod1_pip_TEST	48.89	phe	nrpssp	Y	N	0	0	0
AGZ15458.1_478_mod1_pip_TEST	48.89	no_confident_result	atree	N	N	0	0	0
AGZ15458.1_478_mod1_pip_TEST	48.89	N/A	nrpspred2_singaa	N	N	0	0	0
BGC0000463_AGM14934.1_2646_mod3_gln_TEST	62.45	asp_2	khayatt_hmm	Y	N	0	0	0
BGC0000463_AGM14934.1_2646_mod3_gln_TEST	62.45	gln	nrpspred2_stach	Y	Y	0	0	0
BGC0000463_AGM14934.1_2646_mod3_gln_TEST	62.45	thr	bachmann_ravel	Y	N	0	0	0
BGC0000463_AGM14934.1_2646_mod3_gln_TEST	62.45	N/A	nrpspred2_singaa	N	N	0	0	0
BGC0000463_AGM14934.1_2646_mod3_gln_TEST	62.45	no_confident_result	atree	N	N	0	0	0
BGC0000463_AGM14934.1_2646_mod3_gln_TEST	62.45	ser	nrpssp	Y	N	0	0	0
AHF21228.1_8208_mod6_ser_TEST	64.65	ser	bachmann_ravel	Y	Y	0	1	0
AHF21228.1_8208_mod6_ser_TEST	64.65	ser	nrpspred2_singaa	Y	Y	0	1	0
AHF21228.1_8208_mod6_ser_TEST	64.65	ser	nrpssp	Y	Y	0	1	0
AHF21228.1_8208_mod6_ser_TEST	64.65	no_confident_result	atree	N	N	0	1	0
AHF21228.1_8208_mod6_ser_TEST	64.65	ser_1	khayatt_hmm	Y	Y	0	1	0
AHF21228.1_8208_mod6_ser_TEST	64.65	ser	nrpspred2_stach	Y	Y	0	1	0
BGC0000398_AFH75328.1_482_mod1_leu_TEST	70.65	leu	nrpspred2_stach	Y	Y	0	1	0
BGC0000398_AFH75328.1_482_mod1_leu_TEST	70.65	leu_7	khayatt_hmm	Y	Y	0	1	0
BGC0000398_AFH75328.1_482_mod1_leu_TEST	70.65	leu	bachmann_ravel	Y	Y	0	1	0
BGC0000398_AFH75328.1_482_mod1_leu_TEST	70.65	leu	nrpssp	Y	Y	0	1	0
BGC0000398_AFH75328.1_482_mod1_leu_TEST	70.65	no_confident_result	atree	N	N	0	1	0
BGC0000398_AFH75328.1_482_mod1_leu_TEST	70.65	leu	nrpspred2_singaa	Y	Y	0	1	0
BGC0000369_AHZ20774.1_477_mod1_thr_TEST	51.93	thr_5	khayatt_hmm	Y	Y	0	1	0
BGC0000369_AHZ20774.1_477_mod1_thr_TEST	51.93	thr	nrpspred2_stach	Y	Y	0	1	0
BGC0000369_AHZ20774.1_477_mod1_thr_TEST	51.93	thr	nrpspred2_singaa	Y	Y	0	1	0
BGC0000369_AHZ20774.1_477_mod1_thr_TEST	51.93	no_confident_result	atree	N	N	0	1	0
BGC0000369_AHZ20774.1_477_mod1_thr_TEST	51.93	thr	nrpssp	Y	Y	0	1	0
BGC0000369_AHZ20774.1_477_mod1_thr_TEST	51.93	thr	bachmann_ravel	Y	Y	0	1	0
BGC0000426_AGZ03651.1_480_mod1_ala_TEST	60.57	no_hit	bachmann_ravel	N	N	0	0	0
BGC0000426_AGZ03651.1_480_mod1_ala_TEST	60.57	gln	nrpssp	Y	N	0	0	0
BGC0000426_AGZ03651.1_480_mod1_ala_TEST	60.57	no_confident_result	atree	N	N	0	0	0
BGC0000426_AGZ03651.1_480_mod1_ala_TEST	60.57	N/A	nrpspred2_singaa	N	N	0	0	0
BGC0000426_AGZ03651.1_480_mod1_ala_TEST	60.57	ser_1	khayatt_hmm	Y	N	0	0	0
BGC0000426_AGZ03651.1_480_mod1_ala_TEST	60.57	ala	nrpspred2_stach	Y	Y	0	0	0
YP_003712465.1_557_mod1_val_TEST	44.79	trp_1	khayatt_hmm	Y	N	0	0	0
YP_003712465.1_557_mod1_val_TEST	44.79	LDAP	nrpspred2_stach	Y	N	0	0	0
YP_003712465.1_557_mod1_val_TEST	44.79	N/A	nrpspred2_singaa	N	N	0	0	0
YP_003712465.1_557_mod1_val_TEST	44.79	phe	nrpssp	Y	N	0	0	0
YP_003712465.1_557_mod1_val_TEST	44.79	no_confident_result	atree	N	N	0	0	0
YP_003712465.1_557_mod1_val_TEST	44.79	no_hit	bachmann_ravel	N	N	0	0	0
AEA30273.1_1527_mod2_pro_TEST	62.37	pro	atree	Y	Y	1	1	1
AEA30273.1_1527_mod2_pro_TEST	62.37	pro	nrpssp	Y	Y	1	1	1
AEA30273.1_1527_mod2_pro_TEST	62.37	pro	nrpspred2_singaa	Y	Y	1	1	1
AEA30273.1_1527_mod2_pro_TEST	62.37	pro	bachmann_ravel	Y	Y	1	1	1
AEA30273.1_1527_mod2_pro_TEST	62.37	pro	nrpspred2_stach	Y	Y	1	1	1
AEA30273.1_1527_mod2_pro_TEST	62.37	pro_4	khayatt_hmm	Y	Y	1	1	1
AHF21228.1_12993_mod10_glu_TEST	49.9	gln	nrpssp	Y	N	0	0	0
AHF21228.1_12993_mod10_glu_TEST	49.9	no_confident_result	atree	N	N	0	0	0
AHF21228.1_12993_mod10_glu_TEST	49.9	N/A	nrpspred2_singaa	N	N	0	0	0
AHF21228.1_12993_mod10_glu_TEST	49.9	glu|asp	bachmann_ravel	Y	Y	0	0	0
AHF21228.1_12993_mod10_glu_TEST	49.9	glu	nrpspred2_stach	Y	Y	0	0	0
AHF21228.1_12993_mod10_glu_TEST	49.9	glu_3	khayatt_hmm	Y	Y	0	0	0
XP_754329.2_1103_mod2_ala_TEST	33.77	no_hit	bachmann_ravel	N	N	0	0	0
XP_754329.2_1103_mod2_ala_TEST	33.77	phe	nrpssp	Y	N	0	0	0
XP_754329.2_1103_mod2_ala_TEST	33.77	no_confident_result	atree	N	N	0	0	0
XP_754329.2_1103_mod2_ala_TEST	33.77	N/A	nrpspred2_singaa	N	N	0	0	0
XP_754329.2_1103_mod2_ala_TEST	33.77	trp_4	khayatt_hmm	Y	N	0	0	0
XP_754329.2_1103_mod2_ala_TEST	33.77	pro	nrpspred2_stach	Y	N	0	0	0
AGM16413.1_2831_mod3_ser_TEST	63.95	ser_1	khayatt_hmm	Y	Y	0	1	0
AGM16413.1_2831_mod3_ser_TEST	63.95	ser	nrpspred2_stach	Y	Y	0	1	0
AGM16413.1_2831_mod3_ser_TEST	63.95	ser	bachmann_ravel	Y	Y	0	1	0
AGM16413.1_2831_mod3_ser_TEST	63.95	ser	nrpspred2_singaa	Y	Y	0	1	0
AGM16413.1_2831_mod3_ser_TEST	63.95	ser	nrpssp	Y	Y	0	1	0
AGM16413.1_2831_mod3_ser_TEST	63.95	no_confident_result	atree	N	N	0	1	0
AGC24265.1_37_mod1_pro_TEST	38.9	no_hit	bachmann_ravel	N	N	0	0	0
AGC24265.1_37_mod1_pro_TEST	38.9	N/A	nrpspred2_singaa	N	N	0	0	0
AGC24265.1_37_mod1_pro_TEST	38.9	phe	nrpssp	Y	N	0	0	0
AGC24265.1_37_mod1_pro_TEST	38.9	no_confident_result	atree	N	N	0	0	0
AGC24265.1_37_mod1_pro_TEST	38.9	phe	nrpspred2_stach	Y	N	0	0	0
AGC24265.1_37_mod1_pro_TEST	38.9	cys_2	khayatt_hmm	Y	N	0	0	0
AHZ20774.1_477_mod1_thr_TEST	51.93	thr	nrpssp	Y	Y	0	1	0
AHZ20774.1_477_mod1_thr_TEST	51.93	no_confident_result	atree	N	N	0	1	0
AHZ20774.1_477_mod1_thr_TEST	51.93	thr	nrpspred2_singaa	Y	Y	0	1	0
AHZ20774.1_477_mod1_thr_TEST	51.93	thr	bachmann_ravel	Y	Y	0	1	0
AHZ20774.1_477_mod1_thr_TEST	51.93	thr_5	khayatt_hmm	Y	Y	0	1	0
AHZ20774.1_477_mod1_thr_TEST	51.93	thr	nrpspred2_stach	Y	Y	0	1	0
AHF21228.1_9291_mod7_dab_TEST	50	no_hit	bachmann_ravel	N	N	0	1	0
AHF21228.1_9291_mod7_dab_TEST	50	no_confident_result	atree	N	N	0	1	0
AHF21228.1_9291_mod7_dab_TEST	50	dab	nrpssp	Y	Y	0	1	0
AHF21228.1_9291_mod7_dab_TEST	50	orn	nrpspred2_singaa	Y	N	0	1	0
AHF21228.1_9291_mod7_dab_TEST	50	dab	nrpspred2_stach	Y	Y	0	1	0
AHF21228.1_9291_mod7_dab_TEST	50	orn_1	khayatt_hmm	Y	N	0	1	0
AHF21228.1_5129_mod4_ser_TEST	64.26	ser	nrpspred2_singaa	Y	Y	0	1	0
AHF21228.1_5129_mod4_ser_TEST	64.26	ser	nrpssp	Y	Y	0	1	0
AHF21228.1_5129_mod4_ser_TEST	64.26	no_confident_result	atree	N	N	0	1	0
AHF21228.1_5129_mod4_ser_TEST	64.26	ser	bachmann_ravel	Y	Y	0	1	0
AHF21228.1_5129_mod4_ser_TEST	64.26	ser_1	khayatt_hmm	Y	Y	0	1	0
AHF21228.1_5129_mod4_ser_TEST	64.26	ser	nrpspred2_stach	Y	Y	0	1	0
BGC0001133_XBJ1_0774_563_mod1_leu_TEST	45.04	no_confident_result	atree	N	N	0	1	0
BGC0001133_XBJ1_0774_563_mod1_leu_TEST	45.04	leu	nrpssp	Y	Y	0	1	0
BGC0001133_XBJ1_0774_563_mod1_leu_TEST	45.04	leu	nrpspred2_singaa	Y	Y	0	1	0
BGC0001133_XBJ1_0774_563_mod1_leu_TEST	45.04	no_hit	bachmann_ravel	N	N	0	1	0
BGC0001133_XBJ1_0774_563_mod1_leu_TEST	45.04	leu	nrpspred2_stach	Y	Y	0	1	0
BGC0001133_XBJ1_0774_563_mod1_leu_TEST	45.04	trp_1	khayatt_hmm	Y	N	0	1	0
AGC65514.1_4147_mod3_val_TEST	40.74	val	nrpssp	Y	Y	0	1	0
AGC65514.1_4147_mod3_val_TEST	40.74	no_confident_result	atree	N	N	0	1	0
AGC65514.1_4147_mod3_val_TEST	40.74	val	nrpspred2_singaa	Y	Y	0	1	0
AGC65514.1_4147_mod3_val_TEST	40.74	val	bachmann_ravel	Y	Y	0	1	0
AGC65514.1_4147_mod3_val_TEST	40.74	val	nrpspred2_stach	Y	Y	0	1	0
AGC65514.1_4147_mod3_val_TEST	40.74	val_4	khayatt_hmm	Y	Y	0	1	0
YP_003712464.1_561_mod1_leu_TEST	46.51	LDAP	nrpspred2_stach	Y	N	0	0	0
YP_003712464.1_561_mod1_leu_TEST	46.51	trp_1	khayatt_hmm	Y	Y	0	0	0
YP_003712464.1_561_mod1_leu_TEST	46.51	no_hit	bachmann_ravel	N	N	0	0	0
YP_003712464.1_561_mod1_leu_TEST	46.51	no_confident_result	atree	N	N	0	0	0
YP_003712464.1_561_mod1_leu_TEST	46.51	phe	nrpssp	Y	N	0	0	0
YP_003712464.1_561_mod1_leu_TEST	46.51	N/A	nrpspred2_singaa	N	N	0	0	0
AHF21229.1_280_mod1_val_TEST	65.17	no_hit	bachmann_ravel	N	N	0	0	0
AHF21229.1_280_mod1_val_TEST	65.17	orn	nrpssp	Y	N	0	0	0
AHF21229.1_280_mod1_val_TEST	65.17	no_confident_result	atree	N	N	0	0	0
AHF21229.1_280_mod1_val_TEST	65.17	no_Adom_found	nrpspred2_singaa	Y	N	0	0	0
AHF21229.1_280_mod1_val_TEST	65.17	no_Adom_found	nrpspred2_stach	N	N	0	0	0
AHF21229.1_280_mod1_val_TEST	65.17	no_call	khayatt_hmm	Y	N	0	0	0
AHZ20773.1_2017_mod2_tyr_TEST	45.59	tyr	nrpspred2_stach	Y	Y	0	1	0
AHZ20773.1_2017_mod2_tyr_TEST	45.59	trp_4	khayatt_hmm	Y	Y	0	1	0
AHZ20773.1_2017_mod2_tyr_TEST	45.59	tyr	bachmann_ravel	Y	Y	0	1	0
AHZ20773.1_2017_mod2_tyr_TEST	45.59	tyr	nrpspred2_singaa	Y	Y	0	1	0
AHZ20773.1_2017_mod2_tyr_TEST	45.59	no_confident_result	atree	N	N	0	1	0
AHZ20773.1_2017_mod2_tyr_TEST	45.59	tyr	nrpssp	Y	Y	0	1	0
BGC0000398_AFH75328.1_1544_mod2_glu_TEST	67.35	asp_2	khayatt_hmm	Y	N	0	1	0
BGC0000398_AFH75328.1_1544_mod2_glu_TEST	67.35	asp	nrpspred2_stach	Y	N	0	1	0
BGC0000398_AFH75328.1_1544_mod2_glu_TEST	67.35	gln	bachmann_ravel	Y	N	0	1	0
BGC0000398_AFH75328.1_1544_mod2_glu_TEST	67.35	ser	nrpssp	Y	N	0	1	0
BGC0000398_AFH75328.1_1544_mod2_glu_TEST	67.35	no_confident_result	atree	N	N	0	1	0
BGC0000398_AFH75328.1_1544_mod2_glu_TEST	67.35	asp	nrpspred2_singaa	Y	N	0	1	0
AHZ20781.1_1540_mod2_thr_TEST	53.24	thr	nrpspred2_singaa	Y	Y	0	1	0
AHZ20781.1_1540_mod2_thr_TEST	53.24	no_confident_result	atree	N	N	0	1	0
AHZ20781.1_1540_mod2_thr_TEST	53.24	thr	nrpssp	Y	Y	0	1	0
AHZ20781.1_1540_mod2_thr_TEST	53.24	thr	bachmann_ravel	Y	Y	0	1	0
AHZ20781.1_1540_mod2_thr_TEST	53.24	thr	nrpspred2_stach	Y	Y	0	1	0
AHZ20781.1_1540_mod2_thr_TEST	53.24	thr_5	khayatt_hmm	Y	Y	0	1	0
AEA30272.1_3675_mod4_gly_TEST	54.29	gly	nrpssp	Y	Y	0	1	0
AEA30272.1_3675_mod4_gly_TEST	54.29	no_confident_result	atree	N	N	0	1	0
AEA30272.1_3675_mod4_gly_TEST	54.29	gly	nrpspred2_singaa	Y	Y	0	1	0
AEA30272.1_3675_mod4_gly_TEST	54.29	3h4mphe	bachmann_ravel	Y	N	0	1	0
AEA30272.1_3675_mod4_gly_TEST	54.29	gly	nrpspred2_stach	Y	Y	0	1	0
AEA30272.1_3675_mod4_gly_TEST	54.29	gly_2	khayatt_hmm	Y	Y	0	1	0
AHH53506.1_5177_mod5_gly_TEST	53.44	gly_1	khayatt_hmm	Y	Y	0	1	0
AHH53506.1_5177_mod5_gly_TEST	53.44	gly	nrpspred2_stach	Y	Y	0	1	0
AHH53506.1_5177_mod5_gly_TEST	53.44	gly	nrpspred2_singaa	Y	Y	0	1	0
AHH53506.1_5177_mod5_gly_TEST	53.44	no_confident_result	atree	N	N	0	1	0
AHH53506.1_5177_mod5_gly_TEST	53.44	gly	nrpssp	Y	Y	0	1	0
AHH53506.1_5177_mod5_gly_TEST	53.44	gly	bachmann_ravel	Y	Y	0	1	0
BGC0000463_AGM14933.1_7925_mod8_leu_TEST	63.23	thr	bachmann_ravel	Y	N	0	0	0
BGC0000463_AGM14933.1_7925_mod8_leu_TEST	63.23	N/A	nrpspred2_singaa	N	N	0	0	0
BGC0000463_AGM14933.1_7925_mod8_leu_TEST	63.23	ser	nrpssp	Y	N	0	0	0
BGC0000463_AGM14933.1_7925_mod8_leu_TEST	63.23	no_confident_result	atree	N	N	0	0	0
BGC0000463_AGM14933.1_7925_mod8_leu_TEST	63.23	gln	nrpspred2_stach	Y	N	0	0	0
BGC0000463_AGM14933.1_7925_mod8_leu_TEST	63.23	asp_2	khayatt_hmm	Y	N	0	0	0
BGC0001132_xnc1_2022_3284_mod4_val_TEST	57.56	val	bachmann_ravel	Y	Y	0	1	0
BGC0001132_xnc1_2022_3284_mod4_val_TEST	57.56	no_confident_result	atree	N	N	0	1	0
BGC0001132_xnc1_2022_3284_mod4_val_TEST	57.56	val	nrpssp	Y	Y	0	1	0
BGC0001132_xnc1_2022_3284_mod4_val_TEST	57.56	val	nrpspred2_singaa	Y	Y	0	1	0
BGC0001132_xnc1_2022_3284_mod4_val_TEST	57.56	val	nrpspred2_stach	Y	Y	0	1	0
BGC0001132_xnc1_2022_3284_mod4_val_TEST	57.56	val_6	khayatt_hmm	Y	Y	0	1	0
BGC0001149_CDF96614.1_480_mod1_ser_TEST	65.97	ser	bachmann_ravel	Y	Y	0	1	0
BGC0001149_CDF96614.1_480_mod1_ser_TEST	65.97	ser	nrpspred2_singaa	Y	Y	0	1	0
BGC0001149_CDF96614.1_480_mod1_ser_TEST	65.97	ser	nrpssp	Y	Y	0	1	0
BGC0001149_CDF96614.1_480_mod1_ser_TEST	65.97	no_confident_result	atree	N	N	0	1	0
BGC0001149_CDF96614.1_480_mod1_ser_TEST	65.97	ser_5	khayatt_hmm	Y	Y	0	1	0
BGC0001149_CDF96614.1_480_mod1_ser_TEST	65.97	ser	nrpspred2_stach	Y	Y	0	1	0
BGC0000431_EFE73312.1_1526_mod2_ser_TEST	60.44	thr	nrpssp	Y	N	0	1	0
BGC0000431_EFE73312.1_1526_mod2_ser_TEST	60.44	no_confident_result	atree	N	N	0	1	0
BGC0000431_EFE73312.1_1526_mod2_ser_TEST	60.44	thr	nrpspred2_singaa	Y	N	0	1	0
BGC0000431_EFE73312.1_1526_mod2_ser_TEST	60.44	thr	bachmann_ravel	Y	N	0	1	0
BGC0000431_EFE73312.1_1526_mod2_ser_TEST	60.44	thr-athr_1	khayatt_hmm	Y	N	0	1	0
BGC0000431_EFE73312.1_1526_mod2_ser_TEST	60.44	thr	nrpspred2_stach	Y	N	0	1	0
BGC0000398_AFH75329.1_566_mod1_thr_TEST	79.02	thr	nrpspred2_stach	Y	Y	0	1	0
BGC0000398_AFH75329.1_566_mod1_thr_TEST	79.02	dht-dhab_1	khayatt_hmm	Y	N	0	1	0
BGC0000398_AFH75329.1_566_mod1_thr_TEST	79.02	thr	bachmann_ravel	Y	Y	0	1	0
BGC0000398_AFH75329.1_566_mod1_thr_TEST	79.02	thr	nrpspred2_singaa	Y	Y	0	1	0
BGC0000398_AFH75329.1_566_mod1_thr_TEST	79.02	dht	nrpssp	Y	N	0	1	0
BGC0000398_AFH75329.1_566_mod1_thr_TEST	79.02	no_confident_result	atree	N	N	0	1	0
BGC0000314_WP_010369425.1_467_mod1_thr_TEST	45.49	thr	bachmann_ravel	Y	Y	0	1	0
BGC0000314_WP_010369425.1_467_mod1_thr_TEST	45.49	thr	nrpssp	Y	Y	0	1	0
BGC0000314_WP_010369425.1_467_mod1_thr_TEST	45.49	no_confident_result	atree	N	N	0	1	0
BGC0000314_WP_010369425.1_467_mod1_thr_TEST	45.49	thr	nrpspred2_singaa	Y	Y	0	1	0
BGC0000314_WP_010369425.1_467_mod1_thr_TEST	45.49	thr	nrpspred2_stach	Y	Y	0	1	0
BGC0000314_WP_010369425.1_467_mod1_thr_TEST	45.49	thr-athr_1	khayatt_hmm	Y	Y	0	1	0
BGC0000425_AFH75321.1_5900_mod6_val_TEST	71.19	val	bachmann_ravel	Y	Y	0	1	0
BGC0000425_AFH75321.1_5900_mod6_val_TEST	71.19	val	nrpspred2_singaa	Y	Y	0	1	0
BGC0000425_AFH75321.1_5900_mod6_val_TEST	71.19	val	nrpssp	Y	Y	0	1	0
BGC0000425_AFH75321.1_5900_mod6_val_TEST	71.19	no_confident_result	atree	N	N	0	1	0
BGC0000425_AFH75321.1_5900_mod6_val_TEST	71.19	val	nrpspred2_stach	Y	Y	0	1	0
BGC0000425_AFH75321.1_5900_mod6_val_TEST	71.19	val_6	khayatt_hmm	Y	Y	0	1	0
YP_631961.1_1173_mod1_ser_TEST	56.04	ser	bachmann_ravel	Y	Y	0	1	0
YP_631961.1_1173_mod1_ser_TEST	56.04	ser	nrpssp	Y	Y	0	1	0
YP_631961.1_1173_mod1_ser_TEST	56.04	no_confident_result	atree	N	N	0	1	0
YP_631961.1_1173_mod1_ser_TEST	56.04	ser	nrpspred2_singaa	Y	Y	0	1	0
YP_631961.1_1173_mod1_ser_TEST	56.04	ser_4	khayatt_hmm	Y	Y	0	1	0
YP_631961.1_1173_mod1_ser_TEST	56.04	ser	nrpspred2_stach	Y	Y	0	1	0
AHZ34232.1_480_mod1_leu_TEST	68.62	leu_7	khayatt_hmm	Y	Y	0	1	0
AHZ34232.1_480_mod1_leu_TEST	68.62	leu	nrpspred2_stach	Y	Y	0	1	0
AHZ34232.1_480_mod1_leu_TEST	68.62	leu	nrpspred2_singaa	Y	Y	0	1	0
AHZ34232.1_480_mod1_leu_TEST	68.62	no_confident_result	atree	N	N	0	1	0
AHZ34232.1_480_mod1_leu_TEST	68.62	leu	nrpssp	Y	Y	0	1	0
AHZ34232.1_480_mod1_leu_TEST	68.62	leu	bachmann_ravel	Y	Y	0	1	0
EWS95122_476_mod1_ser_TEST	58.73	ser_4	khayatt_hmm	Y	Y	0	1	0
EWS95122_476_mod1_ser_TEST	58.73	ser	nrpspred2_stach	Y	Y	0	1	0
EWS95122_476_mod1_ser_TEST	58.73	ser	bachmann_ravel	Y	Y	0	1	0
EWS95122_476_mod1_ser_TEST	58.73	no_confident_result	atree	N	N	0	1	0
EWS95122_476_mod1_ser_TEST	58.73	ser	nrpssp	Y	Y	0	1	0
EWS95122_476_mod1_ser_TEST	58.73	ser	nrpspred2_singaa	Y	Y	0	1	0
EFE73312.1_1526_mod2_thr_TEST	60.44	thr	bachmann_ravel	Y	Y	0	1	0
EFE73312.1_1526_mod2_thr_TEST	60.44	thr	nrpssp	Y	Y	0	1	0
EFE73312.1_1526_mod2_thr_TEST	60.44	no_confident_result	atree	N	N	0	1	0
EFE73312.1_1526_mod2_thr_TEST	60.44	thr	nrpspred2_singaa	Y	Y	0	1	0
EFE73312.1_1526_mod2_thr_TEST	60.44	thr-athr_1	khayatt_hmm	Y	Y	0	1	0
EFE73312.1_1526_mod2_thr_TEST	60.44	thr	nrpspred2_stach	Y	Y	0	1	0
BGC0000369_AHZ20781.1_1540_mod2_thr_TEST	53.24	thr	nrpspred2_stach	Y	Y	0	1	0
BGC0000369_AHZ20781.1_1540_mod2_thr_TEST	53.24	thr_5	khayatt_hmm	Y	Y	0	1	0
BGC0000369_AHZ20781.1_1540_mod2_thr_TEST	53.24	thr	nrpssp	Y	Y	0	1	0
BGC0000369_AHZ20781.1_1540_mod2_thr_TEST	53.24	no_confident_result	atree	N	N	0	1	0
BGC0000369_AHZ20781.1_1540_mod2_thr_TEST	53.24	thr	nrpspred2_singaa	Y	Y	0	1	0
BGC0000369_AHZ20781.1_1540_mod2_thr_TEST	53.24	thr	bachmann_ravel	Y	Y	0	1	0
BGC0000398_AFH75329.1_2729_mod3_leu_TEST	69.31	leu_7	khayatt_hmm	Y	Y	0	1	0
BGC0000398_AFH75329.1_2729_mod3_leu_TEST	69.31	leu	nrpspred2_stach	Y	Y	0	1	0
BGC0000398_AFH75329.1_2729_mod3_leu_TEST	69.31	leu	bachmann_ravel	Y	Y	0	1	0
BGC0000398_AFH75329.1_2729_mod3_leu_TEST	69.31	no_confident_result	atree	N	N	0	1	0
BGC0000398_AFH75329.1_2729_mod3_leu_TEST	69.31	leu	nrpssp	Y	Y	0	1	0
BGC0000398_AFH75329.1_2729_mod3_leu_TEST	69.31	leu	nrpspred2_singaa	Y	Y	0	1	0
ADL64235_1458_mod2_phe_TEST	37.83	tyr/trp	bachmann_ravel	Y	N	0	0	0
ADL64235_1458_mod2_phe_TEST	37.83	phe	nrpssp	Y	Y	0	0	0
ADL64235_1458_mod2_phe_TEST	37.83	no_confident_result	atree	N	N	0	0	0
ADL64235_1458_mod2_phe_TEST	37.83	N/A	nrpspred2_singaa	N	N	0	0	0
ADL64235_1458_mod2_phe_TEST	37.83	val_4	khayatt_hmm	Y	N	0	0	0
ADL64235_1458_mod2_phe_TEST	37.83	lys	nrpspred2_stach	Y	N	0	0	0
AEI70245.1_1510_mod2_thr_TEST	72.08	thr	nrpspred2_stach	Y	Y	1	1	1
AEI70245.1_1510_mod2_thr_TEST	72.08	thr-athr_1	khayatt_hmm	Y	Y	1	1	1
AEI70245.1_1510_mod2_thr_TEST	72.08	thr	bachmann_ravel	Y	Y	1	1	1
AEI70245.1_1510_mod2_thr_TEST	72.08	thr	nrpssp	Y	Y	1	1	1
AEI70245.1_1510_mod2_thr_TEST	72.08	thr|athr	atree	Y	Y	1	1	1
AEI70245.1_1510_mod2_thr_TEST	72.08	thr	nrpspred2_singaa	Y	Y	1	1	1
BGC0001133_XBJ1_0775_3649_mod4_leu_TEST	44.64	no_hit	bachmann_ravel	N	N	0	1	0
BGC0001133_XBJ1_0775_3649_mod4_leu_TEST	44.64	leu	nrpspred2_singaa	Y	Y	0	1	0
BGC0001133_XBJ1_0775_3649_mod4_leu_TEST	44.64	no_confident_result	atree	N	N	0	1	0
BGC0001133_XBJ1_0775_3649_mod4_leu_TEST	44.64	leu	nrpssp	Y	Y	0	1	0
BGC0001133_XBJ1_0775_3649_mod4_leu_TEST	44.64	leu	nrpspred2_stach	Y	Y	0	1	0
BGC0001133_XBJ1_0775_3649_mod4_leu_TEST	44.64	trp_1	khayatt_hmm	Y	N	0	1	0
AHH53507.1_1547_mod2_asp_TEST	55.33	asp	nrpspred2_stach	Y	Y	0	0	0
AHH53507.1_1547_mod2_asp_TEST	55.33	asp_3	khayatt_hmm	Y	Y	0	0	0
AHH53507.1_1547_mod2_asp_TEST	55.33	asp	bachmann_ravel	Y	Y	0	0	0
AHH53507.1_1547_mod2_asp_TEST	55.33	N/A	nrpspred2_singaa	N	N	0	0	0
AHH53507.1_1547_mod2_asp_TEST	55.33	asp	nrpssp	Y	Y	0	0	0
AHH53507.1_1547_mod2_asp_TEST	55.33	no_confident_result	atree	N	N	0	0	0
EWS95124_3485_mod4_tyr_TEST	55.35	N/A	nrpspred2_singaa	N	N	0	0	0
EWS95124_3485_mod4_tyr_TEST	55.35	no_confident_result	atree	N	N	0	0	0
EWS95124_3485_mod4_tyr_TEST	55.35	trp	nrpssp	Y	N	0	0	0
EWS95124_3485_mod4_tyr_TEST	55.35	tyr	bachmann_ravel	Y	Y	0	0	0
EWS95124_3485_mod4_tyr_TEST	55.35	tyr	nrpspred2_stach	Y	Y	0	0	0
EWS95124_3485_mod4_tyr_TEST	55.35	phe_3	khayatt_hmm	Y	N	0	0	0
AHZ20774.1_1541_mod2_gln_TEST	48.86	ser	nrpssp	Y	N	0	1	0
AHZ20774.1_1541_mod2_gln_TEST	48.86	no_confident_result	atree	N	N	0	1	0
AHZ20774.1_1541_mod2_gln_TEST	48.86	gln	nrpspred2_singaa	Y	Y	0	1	0
AHZ20774.1_1541_mod2_gln_TEST	48.86	gln	bachmann_ravel	Y	Y	0	1	0
AHZ20774.1_1541_mod2_gln_TEST	48.86	gln	nrpspred2_stach	Y	Y	0	1	0
AHZ20774.1_1541_mod2_gln_TEST	48.86	ser_4	khayatt_hmm	Y	N	0	1	0
AEU11003.1_1620_mod2_phe_TEST	73.9	no_confident_result	atree	N	N	0	1	0
AEU11003.1_1620_mod2_phe_TEST	73.9	tyr	nrpssp	Y	N	0	1	0
AEU11003.1_1620_mod2_phe_TEST	73.9	phe	nrpspred2_singaa	Y	Y	0	1	0
AEU11003.1_1620_mod2_phe_TEST	73.9	phe|d-phe	bachmann_ravel	Y	Y	0	1	0
AEU11003.1_1620_mod2_phe_TEST	73.9	phe	nrpspred2_stach	Y	Y	0	1	0
AEU11003.1_1620_mod2_phe_TEST	73.9	trp_1	khayatt_hmm	Y	N	0	1	0
AHZ34232.1_2599_mod3_gln_TEST	62.63	asp_2	khayatt_hmm	Y	N	0	0	0
AHZ34232.1_2599_mod3_gln_TEST	62.63	gln	nrpspred2_stach	Y	Y	0	0	0
AHZ34232.1_2599_mod3_gln_TEST	62.63	asp	nrpssp	Y	N	0	0	0
AHZ34232.1_2599_mod3_gln_TEST	62.63	no_confident_result	atree	N	N	0	0	0
AHZ34232.1_2599_mod3_gln_TEST	62.63	N/A	nrpspred2_singaa	N	N	0	0	0
AHZ34232.1_2599_mod3_gln_TEST	62.63	thr	bachmann_ravel	Y	N	0	0	0
AEA30272.1_1550_mod2_ala_TEST	55.86	no_hit	bachmann_ravel	N	N	0	1	0
AEA30272.1_1550_mod2_ala_TEST	55.86	asp	nrpssp	Y	N	0	1	0
AEA30272.1_1550_mod2_ala_TEST	55.86	no_confident_result	atree	N	N	0	1	0
AEA30272.1_1550_mod2_ala_TEST	55.86	ala	nrpspred2_singaa	Y	Y	0	1	0
AEA30272.1_1550_mod2_ala_TEST	55.86	ala_6	khayatt_hmm	Y	Y	0	1	0
AEA30272.1_1550_mod2_ala_TEST	55.86	d-lyserg	nrpspred2_stach	Y	N	0	1	0
AEA30272.1_474_mod1_thr_TEST	64.07	thr	nrpspred2_singaa	Y	Y	1	1	1
AEA30272.1_474_mod1_thr_TEST	64.07	thr	nrpssp	Y	Y	1	1	1
AEA30272.1_474_mod1_thr_TEST	64.07	thr|athr	atree	Y	Y	1	1	1
AEA30272.1_474_mod1_thr_TEST	64.07	thr	bachmann_ravel	Y	Y	1	1	1
AEA30272.1_474_mod1_thr_TEST	64.07	thr	nrpspred2_stach	Y	Y	1	1	1
AEA30272.1_474_mod1_thr_TEST	64.07	thr-athr_1	khayatt_hmm	Y	Y	1	1	1
BGC0000416_CBJ90289.1_562_mod1_val_TEST	45.65	LDAP	nrpspred2_stach	Y	N	0	0	0
BGC0000416_CBJ90289.1_562_mod1_val_TEST	45.65	trp_1	khayatt_hmm	Y	N	0	0	0
BGC0000416_CBJ90289.1_562_mod1_val_TEST	45.65	no_hit	bachmann_ravel	N	N	0	0	0
BGC0000416_CBJ90289.1_562_mod1_val_TEST	45.65	phe	nrpssp	Y	N	0	0	0
BGC0000416_CBJ90289.1_562_mod1_val_TEST	45.65	no_confident_result	atree	N	N	0	0	0
BGC0000416_CBJ90289.1_562_mod1_val_TEST	45.65	N/A	nrpspred2_singaa	N	N	0	0	0
BAH22763.1_488_mod1_thr_TEST	72.92	thr	bachmann_ravel	Y	Y	1	1	1
BAH22763.1_488_mod1_thr_TEST	72.92	thr	nrpspred2_singaa	Y	Y	1	1	1
BAH22763.1_488_mod1_thr_TEST	72.92	thr	nrpssp	Y	Y	1	1	1
BAH22763.1_488_mod1_thr_TEST	72.92	thr	atree	Y	Y	1	1	1
BAH22763.1_488_mod1_thr_TEST	72.92	thr	nrpspred2_stach	Y	Y	1	1	1
BAH22763.1_488_mod1_thr_TEST	72.92	thr_5	khayatt_hmm	Y	Y	1	1	1
BGC0001132_xnc1_2022_2204_mod3_val_TEST	58.18	val	bachmann_ravel	Y	Y	0	1	0
BGC0001132_xnc1_2022_2204_mod3_val_TEST	58.18	val	nrpssp	Y	Y	0	1	0
BGC0001132_xnc1_2022_2204_mod3_val_TEST	58.18	no_confident_result	atree	N	N	0	1	0
BGC0001132_xnc1_2022_2204_mod3_val_TEST	58.18	val	nrpspred2_singaa	Y	Y	0	1	0
BGC0001132_xnc1_2022_2204_mod3_val_TEST	58.18	val	nrpspred2_stach	Y	Y	0	1	0
BGC0001132_xnc1_2022_2204_mod3_val_TEST	58.18	val_6	khayatt_hmm	Y	Y	0	1	0
AHH53506.1_475_mod1_trp_TEST	50.94	no_hit	bachmann_ravel	N	N	0	0	0
AHH53506.1_475_mod1_trp_TEST	50.94	no_confident_result	atree	N	N	0	0	0
AHH53506.1_475_mod1_trp_TEST	50.94	trp	nrpssp	Y	Y	0	0	0
AHH53506.1_475_mod1_trp_TEST	50.94	N/A	nrpspred2_singaa	N	N	0	0	0
AHH53506.1_475_mod1_trp_TEST	50.94	trp	nrpspred2_stach	Y	Y	0	0	0
AHH53506.1_475_mod1_trp_TEST	50.94	trp_4	khayatt_hmm	Y	Y	0	0	0
EWS95122_2421_mod2_ala_TEST	53.6	d-lyserg	nrpspred2_stach	Y	N	0	1	0
EWS95122_2421_mod2_ala_TEST	53.6	ala_6	khayatt_hmm	Y	Y	0	1	0
EWS95122_2421_mod2_ala_TEST	53.6	ala	nrpspred2_singaa	Y	Y	0	1	0
EWS95122_2421_mod2_ala_TEST	53.6	phe	nrpssp	Y	N	0	1	0
EWS95122_2421_mod2_ala_TEST	53.6	no_confident_result	atree	N	N	0	1	0
EWS95122_2421_mod2_ala_TEST	53.6	no_hit	bachmann_ravel	N	N	0	1	0
AFZ61525.1_2683_mod3_leu_TEST	74.16	leu	bachmann_ravel	Y	Y	0	1	0
AFZ61525.1_2683_mod3_leu_TEST	74.16	leu	nrpssp	Y	Y	0	1	0
AFZ61525.1_2683_mod3_leu_TEST	74.16	no_confident_result	atree	N	N	0	1	0
AFZ61525.1_2683_mod3_leu_TEST	74.16	leu	nrpspred2_singaa	Y	Y	0	1	0
AFZ61525.1_2683_mod3_leu_TEST	74.16	leu	nrpspred2_stach	Y	Y	0	1	0
AFZ61525.1_2683_mod3_leu_TEST	74.16	leu_7	khayatt_hmm	Y	Y	0	1	0
AHF21228.1_6670_mod5_trp_TEST	55.16	N/A	nrpspred2_singaa	N	N	0	0	0
AHF21228.1_6670_mod5_trp_TEST	55.16	phe	nrpssp	Y	N	0	0	0
AHF21228.1_6670_mod5_trp_TEST	55.16	no_confident_result	atree	N	N	0	0	0
AHF21228.1_6670_mod5_trp_TEST	55.16	glu	bachmann_ravel	Y	N	0	0	0
AHF21228.1_6670_mod5_trp_TEST	55.16	phe_2	khayatt_hmm	Y	N	0	0	0
AHF21228.1_6670_mod5_trp_TEST	55.16	phe	nrpspred2_stach	Y	N	0	0	0
AHZ20774.1_3047_mod3_gly_TEST	47.48	gly_3	khayatt_hmm	Y	Y	0	1	0
AHZ20774.1_3047_mod3_gly_TEST	47.48	gly	nrpspred2_stach	Y	Y	0	1	0
AHZ20774.1_3047_mod3_gly_TEST	47.48	gly	nrpspred2_singaa	Y	Y	0	1	0
AHZ20774.1_3047_mod3_gly_TEST	47.48	gly	nrpssp	Y	Y	0	1	0
AHZ20774.1_3047_mod3_gly_TEST	47.48	no_confident_result	atree	N	N	0	1	0
AHZ20774.1_3047_mod3_gly_TEST	47.48	gly	bachmann_ravel	Y	Y	0	1	0
YP_631961.1_5832_mod5_val_TEST	47.42	no_hit	bachmann_ravel	N	N	0	0	0
YP_631961.1_5832_mod5_val_TEST	47.42	N/A	nrpspred2_singaa	N	N	0	0	0
YP_631961.1_5832_mod5_val_TEST	47.42	no_confident_result	atree	N	N	0	0	0
YP_631961.1_5832_mod5_val_TEST	47.42	val	nrpssp	Y	Y	0	0	0
YP_631961.1_5832_mod5_val_TEST	47.42	val_4	khayatt_hmm	Y	N	0	0	0
YP_631961.1_5832_mod5_val_TEST	47.42	cys	nrpspred2_stach	Y	N	0	0	0
BGC0000463_AGM14933.1_6881_mod7_val_TEST	65.26	leu	nrpspred2_singaa	Y	N	0	1	0
BGC0000463_AGM14933.1_6881_mod7_val_TEST	65.26	leu	nrpssp	Y	N	0	1	0
BGC0000463_AGM14933.1_6881_mod7_val_TEST	65.26	no_confident_result	atree	N	N	0	1	0
BGC0000463_AGM14933.1_6881_mod7_val_TEST	65.26	leu	bachmann_ravel	Y	N	0	1	0
BGC0000463_AGM14933.1_6881_mod7_val_TEST	65.26	leu	nrpspred2_stach	Y	N	0	1	0
BGC0000463_AGM14933.1_6881_mod7_val_TEST	65.26	leu_7	khayatt_hmm	Y	N	0	1	0
AHF21228.1_11933_mod9_phe_TEST	55.18	phe_2	khayatt_hmm	Y	Y	0	0	0
AHF21228.1_11933_mod9_phe_TEST	55.18	phe	nrpspred2_stach	Y	Y	0	0	0
AHF21228.1_11933_mod9_phe_TEST	55.18	no_confident_result	atree	N	N	0	0	0
AHF21228.1_11933_mod9_phe_TEST	55.18	phe	nrpssp	Y	Y	0	0	0
AHF21228.1_11933_mod9_phe_TEST	55.18	N/A	nrpspred2_singaa	N	N	0	0	0
AHF21228.1_11933_mod9_phe_TEST	55.18	phe-trp	bachmann_ravel	Y	Y	0	0	0
AHZ34232.1_1547_mod2_leu_TEST	67.58	leu	bachmann_ravel	Y	Y	0	1	0
AHZ34232.1_1547_mod2_leu_TEST	67.58	leu	nrpspred2_singaa	Y	Y	0	1	0
AHZ34232.1_1547_mod2_leu_TEST	67.58	leu	nrpssp	Y	Y	0	1	0
AHZ34232.1_1547_mod2_leu_TEST	67.58	no_confident_result	atree	N	N	0	1	0
AHZ34232.1_1547_mod2_leu_TEST	67.58	leu_7	khayatt_hmm	Y	Y	0	1	0
AHZ34232.1_1547_mod2_leu_TEST	67.58	leu	nrpspred2_stach	Y	Y	0	1	0
AHF21228.1_474_mod1_val_TEST	55.47	val	nrpspred2_stach	Y	Y	0	1	0
AHF21228.1_474_mod1_val_TEST	55.47	val_4	khayatt_hmm	Y	Y	0	1	0
AHF21228.1_474_mod1_val_TEST	55.47	val	bachmann_ravel	Y	Y	0	1	0
AHF21228.1_474_mod1_val_TEST	55.47	val	nrpssp	Y	Y	0	1	0
AHF21228.1_474_mod1_val_TEST	55.47	no_confident_result	atree	N	N	0	1	0
AHF21228.1_474_mod1_val_TEST	55.47	val	nrpspred2_singaa	Y	Y	0	1	0
AGM16412.1_1974_mod2_val_TEST	58.51	val	bachmann_ravel	Y	Y	0	1	0
AGM16412.1_1974_mod2_val_TEST	58.51	val	nrpspred2_singaa	Y	Y	0	1	0
AGM16412.1_1974_mod2_val_TEST	58.51	no_confident_result	atree	N	N	0	1	0
AGM16412.1_1974_mod2_val_TEST	58.51	val	nrpssp	Y	Y	0	1	0
AGM16412.1_1974_mod2_val_TEST	58.51	val_4	khayatt_hmm	Y	Y	0	1	0
AGM16412.1_1974_mod2_val_TEST	58.51	val	nrpspred2_stach	Y	Y	0	1	0
YP_631961.1_4764_mod4_ser_TEST	55.31	ser	bachmann_ravel	Y	Y	0	1	0
YP_631961.1_4764_mod4_ser_TEST	55.31	ser	nrpspred2_singaa	Y	Y	0	1	0
YP_631961.1_4764_mod4_ser_TEST	55.31	ser	nrpssp	Y	Y	0	1	0
YP_631961.1_4764_mod4_ser_TEST	55.31	no_confident_result	atree	N	N	0	1	0
YP_631961.1_4764_mod4_ser_TEST	55.31	ser_4	khayatt_hmm	Y	Y	0	1	0
YP_631961.1_4764_mod4_ser_TEST	55.31	ser	nrpspred2_stach	Y	Y	0	1	0
BGC0001178_AGS77307.1_1045_mod2_tyr_TEST	82.97	tyr	bachmann_ravel	Y	Y	0	1	0
BGC0001178_AGS77307.1_1045_mod2_tyr_TEST	82.97	bht	nrpssp	Y	N	0	1	0
BGC0001178_AGS77307.1_1045_mod2_tyr_TEST	82.97	no_confident_result	atree	N	N	0	1	0
BGC0001178_AGS77307.1_1045_mod2_tyr_TEST	82.97	tyr	nrpspred2_singaa	Y	Y	0	1	0
BGC0001178_AGS77307.1_1045_mod2_tyr_TEST	82.97	tyr_3	khayatt_hmm	Y	Y	0	1	0
BGC0001178_AGS77307.1_1045_mod2_tyr_TEST	82.97	tyr	nrpspred2_stach	Y	Y	0	1	0
AHZ20781.1_481_mod1_thr_TEST	53.59	thr	bachmann_ravel	Y	Y	0	1	0
AHZ20781.1_481_mod1_thr_TEST	53.59	thr	nrpssp	Y	Y	0	1	0
AHZ20781.1_481_mod1_thr_TEST	53.59	no_confident_result	atree	N	N	0	1	0
AHZ20781.1_481_mod1_thr_TEST	53.59	thr	nrpspred2_singaa	Y	Y	0	1	0
AHZ20781.1_481_mod1_thr_TEST	53.59	thr	nrpspred2_stach	Y	Y	0	1	0
AHZ20781.1_481_mod1_thr_TEST	53.59	thr_5	khayatt_hmm	Y	Y	0	1	0
EFE73312.1_4373_mod4_thr_TEST	60.32	thr	bachmann_ravel	Y	Y	0	1	0
EFE73312.1_4373_mod4_thr_TEST	60.32	thr	nrpspred2_singaa	Y	Y	0	1	0
EFE73312.1_4373_mod4_thr_TEST	60.32	no_confident_result	atree	N	N	0	1	0
EFE73312.1_4373_mod4_thr_TEST	60.32	thr	nrpssp	Y	Y	0	1	0
EFE73312.1_4373_mod4_thr_TEST	60.32	thr-athr_1	khayatt_hmm	Y	Y	0	1	0
EFE73312.1_4373_mod4_thr_TEST	60.32	thr	nrpspred2_stach	Y	Y	0	1	0
BGC0000431_EFE73312.1_5470_mod5_thr_TEST	57.17	no_confident_result	atree	N	N	0	0	0
BGC0000431_EFE73312.1_5470_mod5_thr_TEST	57.17	thr	nrpssp	Y	Y	0	0	0
BGC0000431_EFE73312.1_5470_mod5_thr_TEST	57.17	N/A	nrpspred2_singaa	N	N	0	0	0
BGC0000431_EFE73312.1_5470_mod5_thr_TEST	57.17	thr	bachmann_ravel	Y	Y	0	0	0
BGC0000431_EFE73312.1_5470_mod5_thr_TEST	57.17	thr	nrpspred2_stach	Y	Y	0	0	0
BGC0000431_EFE73312.1_5470_mod5_thr_TEST	57.17	thr-athr_1	khayatt_hmm	Y	Y	0	0	0
BGC0001168_509516289_4_mod1_arg_TEST	38.56	N/A	nrpspred2_singaa	N	N	0	0	0
BGC0001168_509516289_4_mod1_arg_TEST	38.56	phe	nrpssp	Y	N	0	0	0
BGC0001168_509516289_4_mod1_arg_TEST	38.56	no_confident_result	atree	N	N	0	0	0
BGC0001168_509516289_4_mod1_arg_TEST	38.56	arg	bachmann_ravel	Y	Y	0	0	0
BGC0001168_509516289_4_mod1_arg_TEST	38.56	arg_2	khayatt_hmm	Y	N	0	0	0
BGC0001168_509516289_4_mod1_arg_TEST	38.56	arg	nrpspred2_stach	Y	Y	0	0	0
BGC0000425_AFH75322.1_5909_mod6_lys_TEST	51.29	phe	nrpssp	Y	N	0	0	0
BGC0000425_AFH75322.1_5909_mod6_lys_TEST	51.29	no_confident_result	atree	N	N	0	0	0
BGC0000425_AFH75322.1_5909_mod6_lys_TEST	51.29	N/A	nrpspred2_singaa	N	N	0	0	0
BGC0000425_AFH75322.1_5909_mod6_lys_TEST	51.29	lys	bachmann_ravel	Y	Y	0	0	0
BGC0000425_AFH75322.1_5909_mod6_lys_TEST	51.29	val_4	khayatt_hmm	Y	N	0	0	0
BGC0000425_AFH75322.1_5909_mod6_lys_TEST	51.29	lys-b	nrpspred2_stach	Y	N	0	0	0
CCJ67640.1_5904_mod6_lys_TEST	52.09	lys	bachmann_ravel	Y	Y	0	0	0
CCJ67640.1_5904_mod6_lys_TEST	52.09	phe	nrpssp	Y	N	0	0	0
CCJ67640.1_5904_mod6_lys_TEST	52.09	no_confident_result	atree	N	N	0	0	0
CCJ67640.1_5904_mod6_lys_TEST	52.09	N/A	nrpspred2_singaa	N	N	0	0	0
CCJ67640.1_5904_mod6_lys_TEST	52.09	val_4	khayatt_hmm	Y	N	0	0	0
CCJ67640.1_5904_mod6_lys_TEST	52.09	lys-b	nrpspred2_stach	Y	N	0	0	0
AHF21228.1_10396_mod8_dab_TEST	56.06	no_hit	bachmann_ravel	N	N	0	1	0
AHF21228.1_10396_mod8_dab_TEST	56.06	orn	nrpspred2_singaa	Y	N	0	1	0
AHF21228.1_10396_mod8_dab_TEST	56.06	dab	nrpssp	Y	Y	0	1	0
AHF21228.1_10396_mod8_dab_TEST	56.06	no_confident_result	atree	N	N	0	1	0
AHF21228.1_10396_mod8_dab_TEST	56.06	orn_1	khayatt_hmm	Y	N	0	1	0
AHF21228.1_10396_mod8_dab_TEST	56.06	dab	nrpspred2_stach	Y	Y	0	1	0
AEI70245.1_445_mod1_ala_TEST	60.25	gly	bachmann_ravel	Y	N	0	1	0
AEI70245.1_445_mod1_ala_TEST	60.25	gly	nrpssp	Y	N	0	1	0
AEI70245.1_445_mod1_ala_TEST	60.25	no_confident_result	atree	N	N	0	1	0
AEI70245.1_445_mod1_ala_TEST	60.25	gly	nrpspred2_singaa	Y	N	0	1	0
AEI70245.1_445_mod1_ala_TEST	60.25	gly_2	khayatt_hmm	Y	N	0	1	0
AEI70245.1_445_mod1_ala_TEST	60.25	gly	nrpspred2_stach	Y	N	0	1	0
BGC0000416_CBJ90287.1_561_mod1_leu_TEST	46.51	phe	nrpssp	Y	N	0	0	0
BGC0000416_CBJ90287.1_561_mod1_leu_TEST	46.51	no_confident_result	atree	N	N	0	0	0
BGC0000416_CBJ90287.1_561_mod1_leu_TEST	46.51	N/A	nrpspred2_singaa	N	N	0	0	0
BGC0000416_CBJ90287.1_561_mod1_leu_TEST	46.51	no_hit	bachmann_ravel	N	N	0	0	0
BGC0000416_CBJ90287.1_561_mod1_leu_TEST	46.51	LDAP	nrpspred2_stach	Y	N	0	0	0
BGC0000416_CBJ90287.1_561_mod1_leu_TEST	46.51	trp_1	khayatt_hmm	Y	N	0	0	0
AGC65517.1_453_mod1_tyr_TEST	36.54	phe|trp	bachmann_ravel	Y	N	0	1	0
AGC65517.1_453_mod1_tyr_TEST	36.54	phe	nrpssp	Y	N	0	1	0
AGC65517.1_453_mod1_tyr_TEST	36.54	no_confident_result	atree	N	N	0	1	0
AGC65517.1_453_mod1_tyr_TEST	36.54	glu	nrpspred2_singaa	Y	N	0	1	0
AGC65517.1_453_mod1_tyr_TEST	36.54	asn	nrpspred2_stach	Y	N	0	1	0
AGC65517.1_453_mod1_tyr_TEST	36.54	lys_1	khayatt_hmm	Y	N	0	1	0
AFZ61525.1_1627_mod2_val_TEST	66.88	val_6	khayatt_hmm	Y	Y	0	1	0
AFZ61525.1_1627_mod2_val_TEST	66.88	val	nrpspred2_stach	Y	Y	0	1	0
AFZ61525.1_1627_mod2_val_TEST	66.88	val	nrpssp	Y	Y	0	1	0
AFZ61525.1_1627_mod2_val_TEST	66.88	no_confident_result	atree	N	N	0	1	0
AFZ61525.1_1627_mod2_val_TEST	66.88	val	nrpspred2_singaa	Y	Y	0	1	0
AFZ61525.1_1627_mod2_val_TEST	66.88	no_hit	bachmann_ravel	N	N	0	1	0
AEU11003.1_555_mod1_pro_TEST	70.85	pro	nrpspred2_singaa	Y	Y	0	1	0
AEU11003.1_555_mod1_pro_TEST	70.85	pro	nrpssp	Y	Y	0	1	0
AEU11003.1_555_mod1_pro_TEST	70.85	no_confident_result	atree	N	N	0	1	0
AEU11003.1_555_mod1_pro_TEST	70.85	pro	bachmann_ravel	Y	Y	0	1	0
AEU11003.1_555_mod1_pro_TEST	70.85	pro-mpro_1	khayatt_hmm	Y	Y	0	1	0
AEU11003.1_555_mod1_pro_TEST	70.85	pro	nrpspred2_stach	Y	Y	0	1	0
BGC0000369_AHZ20781.1_481_mod1_thr_TEST	53.59	thr	nrpspred2_stach	Y	Y	0	1	0
BGC0000369_AHZ20781.1_481_mod1_thr_TEST	53.59	thr_5	khayatt_hmm	Y	Y	0	1	0
BGC0000369_AHZ20781.1_481_mod1_thr_TEST	53.59	thr	bachmann_ravel	Y	Y	0	1	0
BGC0000369_AHZ20781.1_481_mod1_thr_TEST	53.59	thr	nrpssp	Y	Y	0	1	0
BGC0000369_AHZ20781.1_481_mod1_thr_TEST	53.59	no_confident_result	atree	N	N	0	1	0
BGC0000369_AHZ20781.1_481_mod1_thr_TEST	53.59	thr	nrpspred2_singaa	Y	Y	0	1	0
YP_116977.1_584_mod1_thr_TEST	52.95	cys_4	khayatt_hmm	Y	N	0	1	0
YP_116977.1_584_mod1_thr_TEST	52.95	gln	nrpspred2_stach	Y	N	0	1	0
YP_116977.1_584_mod1_thr_TEST	52.95	cys	nrpssp	Y	N	0	1	0
YP_116977.1_584_mod1_thr_TEST	52.95	no_confident_result	atree	N	N	0	1	0
YP_116977.1_584_mod1_thr_TEST	52.95	cys	nrpspred2_singaa	Y	N	0	1	0
YP_116977.1_584_mod1_thr_TEST	52.95	gln	bachmann_ravel	Y	N	0	1	0
AHH53506.1_1527_mod2_asp_TEST	54.02	asn_7	khayatt_hmm	Y	N	0	0	0
AHH53506.1_1527_mod2_asp_TEST	54.02	asp	nrpspred2_stach	Y	Y	0	0	0
AHH53506.1_1527_mod2_asp_TEST	54.02	asn	bachmann_ravel	Y	N	0	0	0
AHH53506.1_1527_mod2_asp_TEST	54.02	asn	nrpssp	Y	N	0	0	0
AHH53506.1_1527_mod2_asp_TEST	54.02	no_confident_result	atree	N	N	0	0	0
AHH53506.1_1527_mod2_asp_TEST	54.02	N/A	nrpspred2_singaa	N	N	0	0	0
AFZ61525.1_558_mod1_athr_TEST	76.17	dht-dhab_1	khayatt_hmm	Y	N	0	1	0
AFZ61525.1_558_mod1_athr_TEST	76.17	thr	nrpspred2_stach	Y	N	0	1	0
AFZ61525.1_558_mod1_athr_TEST	76.17	thr	nrpspred2_singaa	Y	N	0	1	0
AFZ61525.1_558_mod1_athr_TEST	76.17	dht	nrpssp	Y	N	0	1	0
AFZ61525.1_558_mod1_athr_TEST	76.17	no_confident_result	atree	N	N	0	1	0
AFZ61525.1_558_mod1_athr_TEST	76.17	thr	bachmann_ravel	Y	N	0	1	0
AHH53506.1_4093_mod4_thr_TEST	56.78	thr	bachmann_ravel	Y	Y	0	1	0
AHH53506.1_4093_mod4_thr_TEST	56.78	thr	nrpspred2_singaa	Y	Y	0	1	0
AHH53506.1_4093_mod4_thr_TEST	56.78	thr	nrpssp	Y	Y	0	1	0
AHH53506.1_4093_mod4_thr_TEST	56.78	no_confident_result	atree	N	N	0	1	0
AHH53506.1_4093_mod4_thr_TEST	56.78	thr-athr_1	khayatt_hmm	Y	Y	0	1	0
AHH53506.1_4093_mod4_thr_TEST	56.78	thr	nrpspred2_stach	Y	Y	0	1	0
BGC0000398_AFH75330.1_3756_mod4_val_TEST	67.15	val	nrpspred2_stach	Y	Y	0	1	0
BGC0000398_AFH75330.1_3756_mod4_val_TEST	67.15	ile_3	khayatt_hmm	Y	N	0	1	0
BGC0000398_AFH75330.1_3756_mod4_val_TEST	67.15	no_hit	bachmann_ravel	N	N	0	1	0
BGC0000398_AFH75330.1_3756_mod4_val_TEST	67.15	ile	nrpspred2_singaa	Y	N	0	1	0
BGC0000398_AFH75330.1_3756_mod4_val_TEST	67.15	ile	nrpssp	Y	N	0	1	0
BGC0000398_AFH75330.1_3756_mod4_val_TEST	67.15	no_confident_result	atree	N	N	0	1	0
EFE73312.1_441_mod1_asp_TEST	53.14	asn_8	khayatt_hmm	Y	N	0	1	0
EFE73312.1_441_mod1_asp_TEST	53.14	asp	nrpspred2_stach	Y	Y	0	1	0
EFE73312.1_441_mod1_asp_TEST	53.14	asp|asn	bachmann_ravel	Y	Y	0	1	0
EFE73312.1_441_mod1_asp_TEST	53.14	asn	nrpssp	Y	N	0	1	0
EFE73312.1_441_mod1_asp_TEST	53.14	no_confident_result	atree	N	N	0	1	0
EFE73312.1_441_mod1_asp_TEST	53.14	asn	nrpspred2_singaa	Y	N	0	1	0
CCA29202.1_393_mod1_gly_TEST	43.29	gly	nrpspred2_singaa	Y	Y	0	1	0
CCA29202.1_393_mod1_gly_TEST	43.29	gly	nrpssp	Y	Y	0	1	0
CCA29202.1_393_mod1_gly_TEST	43.29	no_confident_result	atree	N	N	0	1	0
CCA29202.1_393_mod1_gly_TEST	43.29	no_hit	bachmann_ravel	N	N	0	1	0
CCA29202.1_393_mod1_gly_TEST	43.29	gly_3	khayatt_hmm	Y	Y	0	1	0
CCA29202.1_393_mod1_gly_TEST	43.29	gly	nrpspred2_stach	Y	Y	0	1	0
BGC0001133_XBJ1_0774_2057_mod2_leu_TEST	42.83	leu	nrpspred2_stach	Y	Y	0	1	0
BGC0001133_XBJ1_0774_2057_mod2_leu_TEST	42.83	trp_1	khayatt_hmm	Y	N	0	1	0
BGC0001133_XBJ1_0774_2057_mod2_leu_TEST	42.83	leu	nrpspred2_singaa	Y	Y	0	1	0
BGC0001133_XBJ1_0774_2057_mod2_leu_TEST	42.83	no_confident_result	atree	N	N	0	1	0
BGC0001133_XBJ1_0774_2057_mod2_leu_TEST	42.83	leu	nrpssp	Y	Y	0	1	0
BGC0001133_XBJ1_0774_2057_mod2_leu_TEST	42.83	ile	bachmann_ravel	Y	N	0	1	0
EFE73312.1_2615_mod3_ser_TEST	62.09	ser	bachmann_ravel	Y	Y	0	1	0
EFE73312.1_2615_mod3_ser_TEST	62.09	ser	nrpspred2_singaa	Y	Y	0	1	0
EFE73312.1_2615_mod3_ser_TEST	62.09	no_confident_result	atree	N	N	0	1	0
EFE73312.1_2615_mod3_ser_TEST	62.09	ser	nrpssp	Y	Y	0	1	0
EFE73312.1_2615_mod3_ser_TEST	62.09	ser	nrpspred2_stach	Y	Y	0	1	0
EFE73312.1_2615_mod3_ser_TEST	62.09	ser_4	khayatt_hmm	Y	Y	0	1	0
BGC0000314_WP_010369428.1_2037_mod2_asn_TEST	39.42	asn	nrpspred2_stach	Y	Y	0	1	0
BGC0000314_WP_010369428.1_2037_mod2_asn_TEST	39.42	gly_3	khayatt_hmm	Y	N	0	1	0
BGC0000314_WP_010369428.1_2037_mod2_asn_TEST	39.42	asp	nrpspred2_singaa	Y	N	0	1	0
BGC0000314_WP_010369428.1_2037_mod2_asn_TEST	39.42	phe	nrpssp	Y	N	0	1	0
BGC0000314_WP_010369428.1_2037_mod2_asn_TEST	39.42	no_confident_result	atree	N	N	0	1	0
BGC0000314_WP_010369428.1_2037_mod2_asn_TEST	39.42	asn	bachmann_ravel	Y	Y	0	1	0
AEC14349.1_24_mod1_val_TEST	40.04	no_confident_result	atree	N	N	0	1	0
AEC14349.1_24_mod1_val_TEST	40.04	val	nrpssp	Y	Y	0	1	0
AEC14349.1_24_mod1_val_TEST	40.04	val	nrpspred2_singaa	Y	Y	0	1	0
AEC14349.1_24_mod1_val_TEST	40.04	val	bachmann_ravel	Y	Y	0	1	0
AEC14349.1_24_mod1_val_TEST	40.04	val_4	khayatt_hmm	Y	Y	0	1	0
AEC14349.1_24_mod1_val_TEST	40.04	val	nrpspred2_stach	Y	Y	0	1	0
CCJ67639.1_1691_mod2_leu_TEST	71.52	leu	bachmann_ravel	Y	Y	1	1	1
CCJ67639.1_1691_mod2_leu_TEST	71.52	leu	atree	Y	Y	1	1	1
CCJ67639.1_1691_mod2_leu_TEST	71.52	leu	nrpssp	Y	Y	1	1	1
CCJ67639.1_1691_mod2_leu_TEST	71.52	leu	nrpspred2_singaa	Y	Y	1	1	1
CCJ67639.1_1691_mod2_leu_TEST	71.52	leu	nrpspred2_stach	Y	Y	1	1	1
CCJ67639.1_1691_mod2_leu_TEST	71.52	leu_7	khayatt_hmm	Y	Y	1	1	1
CCA29203.1_3604_mod3_gly_TEST	38.34	gly	nrpspred2_stach	Y	Y	0	1	0
CCA29203.1_3604_mod3_gly_TEST	38.34	gly_3	khayatt_hmm	Y	Y	0	1	0
CCA29203.1_3604_mod3_gly_TEST	38.34	gly	nrpspred2_singaa	Y	Y	0	1	0
CCA29203.1_3604_mod3_gly_TEST	38.34	no_confident_result	atree	N	N	0	1	0
CCA29203.1_3604_mod3_gly_TEST	38.34	phe	nrpssp	Y	N	0	1	0
CCA29203.1_3604_mod3_gly_TEST	38.34	gly	bachmann_ravel	Y	Y	0	1	0
AEF33078.1_463_mod1_thr_TEST	62.96	thr	bachmann_ravel	Y	Y	1	1	1
AEF33078.1_463_mod1_thr_TEST	62.96	thr	nrpspred2_singaa	Y	Y	1	1	1
AEF33078.1_463_mod1_thr_TEST	62.96	thr	nrpssp	Y	Y	1	1	1
AEF33078.1_463_mod1_thr_TEST	62.96	thr|athr	atree	Y	Y	1	1	1
AEF33078.1_463_mod1_thr_TEST	62.96	thr-athr_1	khayatt_hmm	Y	Y	1	1	1
AEF33078.1_463_mod1_thr_TEST	62.96	thr	nrpspred2_stach	Y	Y	1	1	1
AHH53507.1_4147_mod4_asp_TEST	51.78	asn	nrpssp	Y	N	1	1	1
AHH53507.1_4147_mod4_asp_TEST	51.78	asn	atree	Y	N	1	1	1
AHH53507.1_4147_mod4_asp_TEST	51.78	asn	nrpspred2_singaa	Y	N	1	1	1
AHH53507.1_4147_mod4_asp_TEST	51.78	asp	bachmann_ravel	Y	Y	1	1	1
AHH53507.1_4147_mod4_asp_TEST	51.78	asp	nrpspred2_stach	Y	Y	1	1	1
AHH53507.1_4147_mod4_asp_TEST	51.78	asn_8	khayatt_hmm	Y	N	1	1	1
AFZ61526.1_2645_mod3_ile_TEST	73.08	ile	nrpssp	Y	Y	0	1	0
AFZ61526.1_2645_mod3_ile_TEST	73.08	no_confident_result	atree	N	N	0	1	0
AFZ61526.1_2645_mod3_ile_TEST	73.08	ile	nrpspred2_singaa	Y	Y	0	1	0
AFZ61526.1_2645_mod3_ile_TEST	73.08	no_hit	bachmann_ravel	N	N	0	1	0
AFZ61526.1_2645_mod3_ile_TEST	73.08	ile_3	khayatt_hmm	Y	Y	0	1	0
AFZ61526.1_2645_mod3_ile_TEST	73.08	ile	nrpspred2_stach	Y	Y	0	1	0
AGM16412.1_5576_mod5_ser_TEST	64.07	ser	bachmann_ravel	Y	Y	0	1	0
AGM16412.1_5576_mod5_ser_TEST	64.07	ser	nrpssp	Y	Y	0	1	0
AGM16412.1_5576_mod5_ser_TEST	64.07	no_confident_result	atree	N	N	0	1	0
AGM16412.1_5576_mod5_ser_TEST	64.07	ser	nrpspred2_singaa	Y	Y	0	1	0
AGM16412.1_5576_mod5_ser_TEST	64.07	ser_1	khayatt_hmm	Y	Y	0	1	0
AGM16412.1_5576_mod5_ser_TEST	64.07	ser	nrpspred2_stach	Y	Y	0	1	0
YP_631961.1_2650_mod2_leu_TEST	48.44	no_hit	bachmann_ravel	N	N	0	0	0
YP_631961.1_2650_mod2_leu_TEST	48.44	N/A	nrpspred2_singaa	N	N	0	0	0
YP_631961.1_2650_mod2_leu_TEST	48.44	val	nrpssp	Y	N	0	0	0
YP_631961.1_2650_mod2_leu_TEST	48.44	no_confident_result	atree	N	N	0	0	0
YP_631961.1_2650_mod2_leu_TEST	48.44	phe	nrpspred2_stach	Y	N	0	0	0
YP_631961.1_2650_mod2_leu_TEST	48.44	val_4	khayatt_hmm	Y	N	0	0	0
BGC0000425_AFH75322.1_2740_mod3_ile_TEST	70.62	ile	nrpspred2_stach	Y	Y	0	1	0
BGC0000425_AFH75322.1_2740_mod3_ile_TEST	70.62	ile_3	khayatt_hmm	Y	Y	0	1	0
BGC0000425_AFH75322.1_2740_mod3_ile_TEST	70.62	no_hit	bachmann_ravel	N	N	0	1	0
BGC0000425_AFH75322.1_2740_mod3_ile_TEST	70.62	ile	nrpspred2_singaa	Y	Y	0	1	0
BGC0000425_AFH75322.1_2740_mod3_ile_TEST	70.62	ile	nrpssp	Y	Y	0	1	0
BGC0000425_AFH75322.1_2740_mod3_ile_TEST	70.62	no_confident_result	atree	N	N	0	1	0
AHZ34233.1_4704_mod5_leu_TEST	69.36	leu_7	khayatt_hmm	Y	Y	0	1	0
AHZ34233.1_4704_mod5_leu_TEST	69.36	leu	nrpspred2_stach	Y	Y	0	1	0
AHZ34233.1_4704_mod5_leu_TEST	69.36	leu	nrpspred2_singaa	Y	Y	0	1	0
AHZ34233.1_4704_mod5_leu_TEST	69.36	leu	nrpssp	Y	Y	0	1	0
AHZ34233.1_4704_mod5_leu_TEST	69.36	no_confident_result	atree	N	N	0	1	0
AHZ34233.1_4704_mod5_leu_TEST	69.36	leu	bachmann_ravel	Y	Y	0	1	0
XP_754329.2_55_mod1_trp_TEST	33.81	tyr	nrpssp	Y	N	0	0	0
XP_754329.2_55_mod1_trp_TEST	33.81	no_confident_result	atree	N	N	0	0	0
XP_754329.2_55_mod1_trp_TEST	33.81	N/A	nrpspred2_singaa	N	N	0	0	0
XP_754329.2_55_mod1_trp_TEST	33.81	no_hit	bachmann_ravel	N	N	0	0	0
XP_754329.2_55_mod1_trp_TEST	33.81	orn	nrpspred2_stach	Y	N	0	0	0
XP_754329.2_55_mod1_trp_TEST	33.81	trp_4	khayatt_hmm	Y	Y	0	0	0
BGC0000463_AGM14934.1_1604_mod2_leu_TEST	71.04	leu_7	khayatt_hmm	Y	Y	0	1	0
BGC0000463_AGM14934.1_1604_mod2_leu_TEST	71.04	leu	nrpspred2_stach	Y	Y	0	1	0
BGC0000463_AGM14934.1_1604_mod2_leu_TEST	71.04	leu	nrpspred2_singaa	Y	Y	0	1	0
BGC0000463_AGM14934.1_1604_mod2_leu_TEST	71.04	no_confident_result	atree	N	N	0	1	0
BGC0000463_AGM14934.1_1604_mod2_leu_TEST	71.04	leu	nrpssp	Y	Y	0	1	0
BGC0000463_AGM14934.1_1604_mod2_leu_TEST	71.04	leu	bachmann_ravel	Y	Y	0	1	0
AFZ61501.1_1515_mod2_glu_TEST	70.2	asp	nrpssp	Y	N	0	1	0
AFZ61501.1_1515_mod2_glu_TEST	70.2	no_confident_result	atree	N	N	0	1	0
AFZ61501.1_1515_mod2_glu_TEST	70.2	asp	nrpspred2_singaa	Y	N	0	1	0
AFZ61501.1_1515_mod2_glu_TEST	70.2	val	bachmann_ravel	Y	N	0	1	0
AFZ61501.1_1515_mod2_glu_TEST	70.2	asp	nrpspred2_stach	Y	N	0	1	0
AFZ61501.1_1515_mod2_glu_TEST	70.2	asp_2	khayatt_hmm	Y	N	0	1	0
BGC0000463_AGM14925.1_1531_mod2_glu_TEST	67.35	asp	nrpspred2_singaa	Y	N	0	1	0
BGC0000463_AGM14925.1_1531_mod2_glu_TEST	67.35	ser	nrpssp	Y	N	0	1	0
BGC0000463_AGM14925.1_1531_mod2_glu_TEST	67.35	no_confident_result	atree	N	N	0	1	0
BGC0000463_AGM14925.1_1531_mod2_glu_TEST	67.35	gln	bachmann_ravel	Y	N	0	1	0
BGC0000463_AGM14925.1_1531_mod2_glu_TEST	67.35	asp_2	khayatt_hmm	Y	N	0	1	0
BGC0000463_AGM14925.1_1531_mod2_glu_TEST	67.35	asp	nrpspred2_stach	Y	N	0	1	0
BGC0000369_AHZ20774.1_1541_mod2_gln_TEST	48.86	gln	nrpspred2_stach	Y	Y	0	1	0
BGC0000369_AHZ20774.1_1541_mod2_gln_TEST	48.86	ser_4	khayatt_hmm	Y	N	0	1	0
BGC0000369_AHZ20774.1_1541_mod2_gln_TEST	48.86	gln	bachmann_ravel	Y	Y	0	1	0
BGC0000369_AHZ20774.1_1541_mod2_gln_TEST	48.86	ser	nrpssp	Y	N	0	1	0
BGC0000369_AHZ20774.1_1541_mod2_gln_TEST	48.86	no_confident_result	atree	N	N	0	1	0
BGC0000369_AHZ20774.1_1541_mod2_gln_TEST	48.86	gln	nrpspred2_singaa	Y	Y	0	1	0
AHH53508.1_483_mod1_glu_TEST	54.15	3-me-glu	nrpspred2_stach	Y	N	0	0	0
AHH53508.1_483_mod1_glu_TEST	54.15	asn_7	khayatt_hmm	Y	N	0	0	0
AHH53508.1_483_mod1_glu_TEST	54.15	no_hit	bachmann_ravel	N	N	0	0	0
AHH53508.1_483_mod1_glu_TEST	54.15	asn	nrpssp	Y	N	0	0	0
AHH53508.1_483_mod1_glu_TEST	54.15	no_confident_result	atree	N	N	0	0	0
AHH53508.1_483_mod1_glu_TEST	54.15	N/A	nrpspred2_singaa	N	N	0	0	0
BGC0000431_EFE73313.1_484_mod1_ser_TEST	62.27	ser	bachmann_ravel	Y	Y	1	1	1
BGC0000431_EFE73313.1_484_mod1_ser_TEST	62.27	ser	nrpspred2_singaa	Y	Y	1	1	1
BGC0000431_EFE73313.1_484_mod1_ser_TEST	62.27	ser	atree	Y	Y	1	1	1
BGC0000431_EFE73313.1_484_mod1_ser_TEST	62.27	ser	nrpssp	Y	Y	1	1	1
BGC0000431_EFE73313.1_484_mod1_ser_TEST	62.27	ser_4	khayatt_hmm	Y	Y	1	1	1
BGC0000431_EFE73313.1_484_mod1_ser_TEST	62.27	ser	nrpspred2_stach	Y	Y	1	1	1
AEU11006.1_4186_mod2_gly_TEST	66.21	gly	bachmann_ravel	Y	Y	0	1	0
AEU11006.1_4186_mod2_gly_TEST	66.21	gly	nrpspred2_singaa	Y	Y	0	1	0
AEU11006.1_4186_mod2_gly_TEST	66.21	gly	nrpssp	Y	Y	0	1	0
AEU11006.1_4186_mod2_gly_TEST	66.21	no_confident_result	atree	N	N	0	1	0
AEU11006.1_4186_mod2_gly_TEST	66.21	gly_3	khayatt_hmm	Y	Y	0	1	0
AEU11006.1_4186_mod2_gly_TEST	66.21	gly	nrpspred2_stach	Y	Y	0	1	0
BGC0000431_EFE73313.1_1569_mod2_lys_TEST	47.83	N/A	nrpspred2_singaa	N	N	0	0	0
BGC0000431_EFE73313.1_1569_mod2_lys_TEST	47.83	phe	nrpssp	Y	N	0	0	0
BGC0000431_EFE73313.1_1569_mod2_lys_TEST	47.83	no_confident_result	atree	N	N	0	0	0
BGC0000431_EFE73313.1_1569_mod2_lys_TEST	47.83	val	bachmann_ravel	Y	N	0	0	0
BGC0000431_EFE73313.1_1569_mod2_lys_TEST	47.83	trp_4	khayatt_hmm	Y	N	0	0	0
BGC0000431_EFE73313.1_1569_mod2_lys_TEST	47.83	"N-(1-1-dimethyl-1-allyl)Trp"	nrpspred2_stach	Y	N	0	0	0
AFZ61501.1_498_mod1_leu_TEST	71.49	leu	nrpspred2_singaa	Y	Y	0	1	0
AFZ61501.1_498_mod1_leu_TEST	71.49	leu	nrpssp	Y	Y	0	1	0
AFZ61501.1_498_mod1_leu_TEST	71.49	no_confident_result	atree	N	N	0	1	0
AFZ61501.1_498_mod1_leu_TEST	71.49	leu	bachmann_ravel	Y	Y	0	1	0
AFZ61501.1_498_mod1_leu_TEST	71.49	leu_7	khayatt_hmm	Y	Y	0	1	0
AFZ61501.1_498_mod1_leu_TEST	71.49	leu	nrpspred2_stach	Y	Y	0	1	0
BGC0000463_AGM14933.1_1613_mod2_gln_TEST	65.82	val_6	khayatt_hmm	Y	N	0	1	0
BGC0000463_AGM14933.1_1613_mod2_gln_TEST	65.82	val	nrpspred2_stach	Y	N	0	1	0
BGC0000463_AGM14933.1_1613_mod2_gln_TEST	65.82	val	nrpssp	Y	N	0	1	0
BGC0000463_AGM14933.1_1613_mod2_gln_TEST	65.82	no_confident_result	atree	N	N	0	1	0
BGC0000463_AGM14933.1_1613_mod2_gln_TEST	65.82	val	nrpspred2_singaa	Y	N	0	1	0
BGC0000463_AGM14933.1_1613_mod2_gln_TEST	65.82	val	bachmann_ravel	Y	N	0	1	0
CBG75492_1712_mod2_ser_TEST	63	ser_3	khayatt_hmm	Y	Y	1	1	1
CBG75492_1712_mod2_ser_TEST	63	ser	nrpspred2_stach	Y	Y	1	1	1
CBG75492_1712_mod2_ser_TEST	63	ser	nrpspred2_singaa	Y	Y	1	1	1
CBG75492_1712_mod2_ser_TEST	63	ser	nrpssp	Y	Y	1	1	1
CBG75492_1712_mod2_ser_TEST	63	ser	atree	Y	Y	1	1	1
CBG75492_1712_mod2_ser_TEST	63	ser	bachmann_ravel	Y	Y	1	1	1
ADL64235_433_mod1_val_TEST	44.4	val	bachmann_ravel	Y	Y	0	1	0
ADL64235_433_mod1_val_TEST	44.4	val	nrpssp	Y	Y	0	1	0
ADL64235_433_mod1_val_TEST	44.4	no_confident_result	atree	N	N	0	1	0
ADL64235_433_mod1_val_TEST	44.4	val	nrpspred2_singaa	Y	Y	0	1	0
ADL64235_433_mod1_val_TEST	44.4	val	nrpspred2_stach	Y	Y	0	1	0
ADL64235_433_mod1_val_TEST	44.4	val_4	khayatt_hmm	Y	Y	0	1	0
AGM16412.1_456_mod1_orn_TEST	57.82	orn	nrpspred2_stach	Y	Y	0	1	0
AGM16412.1_456_mod1_orn_TEST	57.82	orn_1	khayatt_hmm	Y	Y	0	1	0
AGM16412.1_456_mod1_orn_TEST	57.82	orn	nrpssp	Y	Y	0	1	0
AGM16412.1_456_mod1_orn_TEST	57.82	no_confident_result	atree	N	N	0	1	0
AGM16412.1_456_mod1_orn_TEST	57.82	orn	nrpspred2_singaa	Y	Y	0	1	0
AGM16412.1_456_mod1_orn_TEST	57.82	no_hit	bachmann_ravel	N	N	0	1	0
CCA29203.1_542_mod1_ser_TEST	49.31	ser	bachmann_ravel	Y	Y	0	1	0
CCA29203.1_542_mod1_ser_TEST	49.31	ser	nrpspred2_singaa	Y	Y	0	1	0
CCA29203.1_542_mod1_ser_TEST	49.31	ser	nrpssp	Y	Y	0	1	0
CCA29203.1_542_mod1_ser_TEST	49.31	no_confident_result	atree	N	N	0	1	0
CCA29203.1_542_mod1_ser_TEST	49.31	ser_4	khayatt_hmm	Y	Y	0	1	0
CCA29203.1_542_mod1_ser_TEST	49.31	ser	nrpspred2_stach	Y	Y	0	1	0
AEU11006.1_2653_mod1_gln_TEST	68.98	gln	nrpspred2_singaa	Y	Y	0	1	0
AEU11006.1_2653_mod1_gln_TEST	68.98	gln	nrpssp	Y	Y	0	1	0
AEU11006.1_2653_mod1_gln_TEST	68.98	no_confident_result	atree	N	N	0	1	0
AEU11006.1_2653_mod1_gln_TEST	68.98	gln	bachmann_ravel	Y	Y	0	1	0
AEU11006.1_2653_mod1_gln_TEST	68.98	ser_2	khayatt_hmm	Y	N	0	1	0
AEU11006.1_2653_mod1_gln_TEST	68.98	gln	nrpspred2_stach	Y	Y	0	1	0
AHZ34233.1_1522_mod2_gln_TEST	65.51	asp_2	khayatt_hmm	Y	N	0	0	0
AHZ34233.1_1522_mod2_gln_TEST	65.51	gln	nrpspred2_stach	Y	Y	0	0	0
AHZ34233.1_1522_mod2_gln_TEST	65.51	thr	bachmann_ravel	Y	N	0	0	0
AHZ34233.1_1522_mod2_gln_TEST	65.51	asp	nrpssp	Y	N	0	0	0
AHZ34233.1_1522_mod2_gln_TEST	65.51	no_confident_result	atree	N	N	0	0	0
AHZ34233.1_1522_mod2_gln_TEST	65.51	N/A	nrpspred2_singaa	N	N	0	0	0
AHZ34233.1_483_mod1_leu_TEST	73.31	leu	nrpspred2_stach	Y	Y	0	1	0
AHZ34233.1_483_mod1_leu_TEST	73.31	leu_7	khayatt_hmm	Y	Y	0	1	0
AHZ34233.1_483_mod1_leu_TEST	73.31	leu	nrpspred2_singaa	Y	Y	0	1	0
AHZ34233.1_483_mod1_leu_TEST	73.31	leu	nrpssp	Y	Y	0	1	0
AHZ34233.1_483_mod1_leu_TEST	73.31	no_confident_result	atree	N	N	0	1	0
AHZ34233.1_483_mod1_leu_TEST	73.31	leu	bachmann_ravel	Y	Y	0	1	0
NP_216895.1_486_mod1_lys_TEST	100	lys	nrpspred2_stach	Y	Y	1	1	1
NP_216895.1_486_mod1_lys_TEST	100	lys_1	khayatt_hmm	Y	Y	1	1	1
NP_216895.1_486_mod1_lys_TEST	100	leu|ile|val	bachmann_ravel	Y	N	1	1	1
NP_216895.1_486_mod1_lys_TEST	100	lys	nrpssp	Y	Y	1	1	1
NP_216895.1_486_mod1_lys_TEST	100	lys	atree	Y	Y	1	1	1
NP_216895.1_486_mod1_lys_TEST	100	lys	nrpspred2_singaa	Y	Y	1	1	1
BGC0000463_AGM14933.1_5818_mod6_ser_TEST	65.42	val	bachmann_ravel	Y	N	0	1	0
BGC0000463_AGM14933.1_5818_mod6_ser_TEST	65.42	val	nrpssp	Y	N	0	1	0
BGC0000463_AGM14933.1_5818_mod6_ser_TEST	65.42	no_confident_result	atree	N	N	0	1	0
BGC0000463_AGM14933.1_5818_mod6_ser_TEST	65.42	val	nrpspred2_singaa	Y	N	0	1	0
BGC0000463_AGM14933.1_5818_mod6_ser_TEST	65.42	val_6	khayatt_hmm	Y	N	0	1	0
BGC0000463_AGM14933.1_5818_mod6_ser_TEST	65.42	val	nrpspred2_stach	Y	N	0	1	0
AHZ34233.1_2589_mod3_val_TEST	66.88	phe|trp	bachmann_ravel	Y	N	0	1	0
AHZ34233.1_2589_mod3_val_TEST	66.88	ile	nrpssp	Y	N	0	1	0
AHZ34233.1_2589_mod3_val_TEST	66.88	no_confident_result	atree	N	N	0	1	0
AHZ34233.1_2589_mod3_val_TEST	66.88	val	nrpspred2_singaa	Y	Y	0	1	0
AHZ34233.1_2589_mod3_val_TEST	66.88	val	nrpspred2_stach	Y	Y	0	1	0
AHZ34233.1_2589_mod3_val_TEST	66.88	ile_3	khayatt_hmm	Y	N	0	1	0
ZP_10287804.1_2037_mod2_asn_TEST	39.42	asn	bachmann_ravel	Y	Y	0	1	0
ZP_10287804.1_2037_mod2_asn_TEST	39.42	asp	nrpspred2_singaa	Y	N	0	1	0
ZP_10287804.1_2037_mod2_asn_TEST	39.42	no_confident_result	atree	N	N	0	1	0
ZP_10287804.1_2037_mod2_asn_TEST	39.42	phe	nrpssp	Y	N	0	1	0
ZP_10287804.1_2037_mod2_asn_TEST	39.42	asn	nrpspred2_stach	Y	Y	0	1	0
ZP_10287804.1_2037_mod2_asn_TEST	39.42	gly_3	khayatt_hmm	Y	N	0	1	0
AHH53507.1_5197_mod5_gly_TEST	54.66	gly_2	khayatt_hmm	Y	Y	1	1	1
AHH53507.1_5197_mod5_gly_TEST	54.66	gly	nrpspred2_stach	Y	Y	1	1	1
AHH53507.1_5197_mod5_gly_TEST	54.66	gly	bachmann_ravel	Y	Y	1	1	1
AHH53507.1_5197_mod5_gly_TEST	54.66	gly	nrpspred2_singaa	Y	Y	1	1	1
AHH53507.1_5197_mod5_gly_TEST	54.66	gly	atree	Y	Y	1	1	1
AHH53507.1_5197_mod5_gly_TEST	54.66	gly	nrpssp	Y	Y	1	1	1
BGC0000398_AFH75329.1_1652_mod2_val_TEST	65.56	ile_3	khayatt_hmm	Y	N	0	1	0
BGC0000398_AFH75329.1_1652_mod2_val_TEST	65.56	val	nrpspred2_stach	Y	Y	0	1	0
BGC0000398_AFH75329.1_1652_mod2_val_TEST	65.56	no_hit	bachmann_ravel	N	N	0	1	0
BGC0000398_AFH75329.1_1652_mod2_val_TEST	65.56	ile	nrpspred2_singaa	Y	N	0	1	0
BGC0000398_AFH75329.1_1652_mod2_val_TEST	65.56	ile	nrpssp	Y	N	0	1	0
BGC0000398_AFH75329.1_1652_mod2_val_TEST	65.56	no_confident_result	atree	N	N	0	1	0
AGC65514.1_1579_mod2_ser_TEST	44.97	ser	nrpspred2_stach	Y	Y	0	1	0
AGC65514.1_1579_mod2_ser_TEST	44.97	ser_1	khayatt_hmm	Y	Y	0	1	0
AGC65514.1_1579_mod2_ser_TEST	44.97	ser	bachmann_ravel	Y	Y	0	1	0
AGC65514.1_1579_mod2_ser_TEST	44.97	ser	nrpspred2_singaa	Y	Y	0	1	0
AGC65514.1_1579_mod2_ser_TEST	44.97	no_confident_result	atree	N	N	0	1	0
AGC65514.1_1579_mod2_ser_TEST	44.97	ser	nrpssp	Y	Y	0	1	0
AGZ15459.1_694_mod1_pip_TEST	42.8	phe	bachmann_ravel	Y	N	0	1	0
AGZ15459.1_694_mod1_pip_TEST	42.8	ala	nrpspred2_singaa	Y	N	0	1	0
AGZ15459.1_694_mod1_pip_TEST	42.8	phe	nrpssp	Y	N	0	1	0
AGZ15459.1_694_mod1_pip_TEST	42.8	no_confident_result	atree	N	N	0	1	0
AGZ15459.1_694_mod1_pip_TEST	42.8	pro	nrpspred2_stach	Y	N	0	1	0
AGZ15459.1_694_mod1_pip_TEST	42.8	ser_4	khayatt_hmm	Y	N	0	1	0
EFE73313.1_2638_mod3_gly_TEST	52.21	gly	nrpspred2_singaa	Y	Y	0	1	0
EFE73313.1_2638_mod3_gly_TEST	52.21	gly	nrpssp	Y	Y	0	1	0
EFE73313.1_2638_mod3_gly_TEST	52.21	no_confident_result	atree	N	N	0	1	0
EFE73313.1_2638_mod3_gly_TEST	52.21	3h4mphe	bachmann_ravel	Y	N	0	1	0
EFE73313.1_2638_mod3_gly_TEST	52.21	gly	nrpspred2_stach	Y	Y	0	1	0
EFE73313.1_2638_mod3_gly_TEST	52.21	gly_2	khayatt_hmm	Y	Y	0	1	0
AGM16413.1_273_mod1_val_TEST	58.09	val	nrpssp	Y	Y	0	1	0
AGM16413.1_273_mod1_val_TEST	58.09	no_confident_result	atree	N	N	0	1	0
AGM16413.1_273_mod1_val_TEST	58.09	val	nrpspred2_singaa	Y	Y	0	1	0
AGM16413.1_273_mod1_val_TEST	58.09	val	bachmann_ravel	Y	Y	0	1	0
AGM16413.1_273_mod1_val_TEST	58.09	val_4	khayatt_hmm	Y	Y	0	1	0
AGM16413.1_273_mod1_val_TEST	58.09	val	nrpspred2_stach	Y	Y	0	1	0
BGC0000463_AGM14933.1_2676_mod3_val_TEST	66.11	leu	bachmann_ravel	Y	N	0	1	0
BGC0000463_AGM14933.1_2676_mod3_val_TEST	66.11	leu	nrpssp	Y	N	0	1	0
BGC0000463_AGM14933.1_2676_mod3_val_TEST	66.11	no_confident_result	atree	N	N	0	1	0
BGC0000463_AGM14933.1_2676_mod3_val_TEST	66.11	leu	nrpspred2_singaa	Y	N	0	1	0
BGC0000463_AGM14933.1_2676_mod3_val_TEST	66.11	leu_7	khayatt_hmm	Y	N	0	1	0
BGC0000463_AGM14933.1_2676_mod3_val_TEST	66.11	leu	nrpspred2_stach	Y	N	0	1	0
BGC0001178_AGS77309.1_1972_mod2_tyr_TEST	83.76	hpg	nrpspred2_stach	Y	N	0	1	0
BGC0001178_AGS77309.1_1972_mod2_tyr_TEST	83.76	hpg-hpg2Cl_4	khayatt_hmm	Y	N	0	1	0
BGC0001178_AGS77309.1_1972_mod2_tyr_TEST	83.76	hpg	bachmann_ravel	Y	N	0	1	0
BGC0001178_AGS77309.1_1972_mod2_tyr_TEST	83.76	hpg	nrpssp	Y	N	0	1	0
BGC0001178_AGS77309.1_1972_mod2_tyr_TEST	83.76	no_confident_result	atree	N	N	0	1	0
BGC0001178_AGS77309.1_1972_mod2_tyr_TEST	83.76	hpg	nrpspred2_singaa	Y	N	0	1	0
EFE73313.1_484_mod1_ser_TEST	62.27	ser	nrpspred2_stach	Y	Y	1	1	1
EFE73313.1_484_mod1_ser_TEST	62.27	ser_4	khayatt_hmm	Y	Y	1	1	1
EFE73313.1_484_mod1_ser_TEST	62.27	ser	nrpspred2_singaa	Y	Y	1	1	1
EFE73313.1_484_mod1_ser_TEST	62.27	ser	atree	Y	Y	1	1	1
EFE73313.1_484_mod1_ser_TEST	62.27	ser	nrpssp	Y	Y	1	1	1
EFE73313.1_484_mod1_ser_TEST	62.27	ser	bachmann_ravel	Y	Y	1	1	1
BGC0000463_AGM14934.1_568_mod1_leu_TEST	74.58	no_confident_result	atree	N	N	0	1	0
BGC0000463_AGM14934.1_568_mod1_leu_TEST	74.58	leu	nrpssp	Y	Y	0	1	0
BGC0000463_AGM14934.1_568_mod1_leu_TEST	74.58	leu	nrpspred2_singaa	Y	Y	0	1	0
BGC0000463_AGM14934.1_568_mod1_leu_TEST	74.58	leu	bachmann_ravel	Y	Y	0	1	0
BGC0000463_AGM14934.1_568_mod1_leu_TEST	74.58	leu_7	khayatt_hmm	Y	Y	0	1	0
BGC0000463_AGM14934.1_568_mod1_leu_TEST	74.58	leu	nrpspred2_stach	Y	Y	0	1	0
AGM16413.1_1312_mod2_lys_TEST	58.26	orn	nrpspred2_stach	Y	N	0	1	0
AGM16413.1_1312_mod2_lys_TEST	58.26	orn_1	khayatt_hmm	Y	N	0	1	0
AGM16413.1_1312_mod2_lys_TEST	58.26	no_hit	bachmann_ravel	N	N	0	1	0
AGM16413.1_1312_mod2_lys_TEST	58.26	orn	nrpssp	Y	N	0	1	0
AGM16413.1_1312_mod2_lys_TEST	58.26	no_confident_result	atree	N	N	0	1	0
AGM16413.1_1312_mod2_lys_TEST	58.26	orn	nrpspred2_singaa	Y	N	0	1	0
BGC0001166_AGQ43600.1_4142_mod4_aeo_TEST	86.49	N/A	nrpspred2_singaa	N	N	0	0	0
BGC0001166_AGQ43600.1_4142_mod4_aeo_TEST	86.49	pro	nrpssp	Y	N	0	0	0
BGC0001166_AGQ43600.1_4142_mod4_aeo_TEST	86.49	no_confident_result	atree	N	N	0	0	0
BGC0001166_AGQ43600.1_4142_mod4_aeo_TEST	86.49	no_hit	bachmann_ravel	N	N	0	0	0
BGC0001166_AGQ43600.1_4142_mod4_aeo_TEST	86.49	aeo	nrpspred2_stach	Y	Y	0	0	0
BGC0001166_AGQ43600.1_4142_mod4_aeo_TEST	86.49	iva-abu_1	khayatt_hmm	Y	N	0	0	0
