<?xml version="1.0" encoding="UTF-8" standalone="no"?>
<!-- Created with Inkscape (http://www.inkscape.org/) -->

<svg
   xmlns:dc="http://purl.org/dc/elements/1.1/"
   xmlns:cc="http://creativecommons.org/ns#"
   xmlns:rdf="http://www.w3.org/1999/02/22-rdf-syntax-ns#"
   xmlns:svg="http://www.w3.org/2000/svg"
   xmlns="http://www.w3.org/2000/svg"
   xmlns:sodipodi="http://sodipodi.sourceforge.net/DTD/sodipodi-0.dtd"
   xmlns:inkscape="http://www.inkscape.org/namespaces/inkscape"
   id="svg2985"
   version="1.1"
   inkscape:version="0.48.4 r9939"
   width="978.76624"
   height="701.77747"
   xml:space="preserve"
   sodipodi:docname="fig_s2.png"><metadata
     id="metadata2991"><rdf:RDF><cc:Work
         rdf:about=""><dc:format>image/svg+xml</dc:format><dc:type
           rdf:resource="http://purl.org/dc/dcmitype/StillImage" /><dc:title></dc:title></cc:Work></rdf:RDF></metadata><defs
     id="defs2989"><clipPath
       clipPathUnits="userSpaceOnUse"
       id="clipPath3023"><path
         d="M 0,0 857,0 857,573 0,573 0,0 z"
         id="path3025"
         inkscape:connector-curvature="0" /></clipPath><clipPath
       clipPathUnits="userSpaceOnUse"
       id="clipPath3039"><path
         d="m 49.39,34.33 741.32,0 0,515.47 -741.32,0 0,-515.47 z"
         id="path3041"
         inkscape:connector-curvature="0" /></clipPath></defs><sodipodi:namedview
     pagecolor="#ffffff"
     bordercolor="#666666"
     borderopacity="1"
     objecttolerance="10"
     gridtolerance="10"
     guidetolerance="10"
     inkscape:pageopacity="0"
     inkscape:pageshadow="2"
     inkscape:window-width="1880"
     inkscape:window-height="1062"
     id="namedview2987"
     showgrid="false"
     inkscape:zoom="1.3137871"
     inkscape:cx="556.16432"
     inkscape:cy="404.19126"
     inkscape:window-x="1960"
     inkscape:window-y="18"
     inkscape:window-maximized="1"
     inkscape:current-layer="g2993"
     fit-margin-top="0"
     fit-margin-left="0"
     fit-margin-right="0"
     fit-margin-bottom="0" /><g
     id="g2993"
     inkscape:groupmode="layer"
     inkscape:label="freq_NN"
     transform="matrix(1.25,0,0,-1.25,-10.289999,708.96996)"><path
       d="m 49.39,34.33 741.32,0 0,515.47 -741.32,0 0,-515.47 z"
       style="fill:#ffffff;fill-opacity:1;fill-rule:nonzero;stroke:none"
       id="path3043"
       inkscape:connector-curvature="0" /><path
       d="m 49.39,117.77 741.32,0"
       style="fill:none;stroke:#fafafa;stroke-width:1.07000005;stroke-linecap:butt;stroke-linejoin:round;stroke-miterlimit:10;stroke-opacity:1;stroke-dasharray:none"
       id="path3045"
       inkscape:connector-curvature="0" /><path
       d="m 49.39,237.81 741.32,0"
       style="fill:none;stroke:#fafafa;stroke-width:1.07000005;stroke-linecap:butt;stroke-linejoin:round;stroke-miterlimit:10;stroke-opacity:1;stroke-dasharray:none"
       id="path3047"
       inkscape:connector-curvature="0" /><path
       d="m 49.39,357.84 741.32,0"
       style="fill:none;stroke:#fafafa;stroke-width:1.07000005;stroke-linecap:butt;stroke-linejoin:round;stroke-miterlimit:10;stroke-opacity:1;stroke-dasharray:none"
       id="path3049"
       inkscape:connector-curvature="0" /><path
       d="m 49.39,477.87 741.32,0"
       style="fill:none;stroke:#fafafa;stroke-width:1.07000005;stroke-linecap:butt;stroke-linejoin:round;stroke-miterlimit:10;stroke-opacity:1;stroke-dasharray:none"
       id="path3051"
       inkscape:connector-curvature="0" /><path
       d="m 174.98,34.33 0,515.47"
       style="fill:none;stroke:#fafafa;stroke-width:1.07000005;stroke-linecap:butt;stroke-linejoin:round;stroke-miterlimit:10;stroke-opacity:1;stroke-dasharray:none"
       id="path3053"
       inkscape:connector-curvature="0" /><path
       d="m 358.78,34.33 0,515.47"
       style="fill:none;stroke:#fafafa;stroke-width:1.07000005;stroke-linecap:butt;stroke-linejoin:round;stroke-miterlimit:10;stroke-opacity:1;stroke-dasharray:none"
       id="path3055"
       inkscape:connector-curvature="0" /><path
       d="m 542.58,34.33 0,515.47"
       style="fill:none;stroke:#fafafa;stroke-width:1.07000005;stroke-linecap:butt;stroke-linejoin:round;stroke-miterlimit:10;stroke-opacity:1;stroke-dasharray:none"
       id="path3057"
       inkscape:connector-curvature="0" /><path
       d="m 726.38,34.33 0,515.47"
       style="fill:none;stroke:#fafafa;stroke-width:1.07000005;stroke-linecap:butt;stroke-linejoin:round;stroke-miterlimit:10;stroke-opacity:1;stroke-dasharray:none"
       id="path3059"
       inkscape:connector-curvature="0" /><path
       d="m 49.39,57.76 741.32,0"
       style="fill:none;stroke:#e5e5e5;stroke-width:0.43000001;stroke-linecap:butt;stroke-linejoin:round;stroke-miterlimit:10;stroke-opacity:1;stroke-dasharray:none"
       id="path3061"
       inkscape:connector-curvature="0" /><path
       d="m 49.39,177.79 741.32,0"
       style="fill:none;stroke:#e5e5e5;stroke-width:0.43000001;stroke-linecap:butt;stroke-linejoin:round;stroke-miterlimit:10;stroke-opacity:1;stroke-dasharray:none"
       id="path3063"
       inkscape:connector-curvature="0" /><path
       d="m 49.39,297.82 741.32,0"
       style="fill:none;stroke:#e5e5e5;stroke-width:0.43000001;stroke-linecap:butt;stroke-linejoin:round;stroke-miterlimit:10;stroke-opacity:1;stroke-dasharray:none"
       id="path3065"
       inkscape:connector-curvature="0" /><path
       d="m 49.39,417.86 741.32,0"
       style="fill:none;stroke:#e5e5e5;stroke-width:0.43000001;stroke-linecap:butt;stroke-linejoin:round;stroke-miterlimit:10;stroke-opacity:1;stroke-dasharray:none"
       id="path3067"
       inkscape:connector-curvature="0" /><path
       d="m 49.39,537.89 741.32,0"
       style="fill:none;stroke:#e5e5e5;stroke-width:0.43000001;stroke-linecap:butt;stroke-linejoin:round;stroke-miterlimit:10;stroke-opacity:1;stroke-dasharray:none"
       id="path3069"
       inkscape:connector-curvature="0" /><path
       d="m 83.08,34.33 0,515.47"
       style="fill:none;stroke:#e5e5e5;stroke-width:0.43000001;stroke-linecap:butt;stroke-linejoin:round;stroke-miterlimit:10;stroke-opacity:1;stroke-dasharray:none"
       id="path3071"
       inkscape:connector-curvature="0" /><path
       d="m 266.88,34.33 0,515.47"
       style="fill:none;stroke:#e5e5e5;stroke-width:0.43000001;stroke-linecap:butt;stroke-linejoin:round;stroke-miterlimit:10;stroke-opacity:1;stroke-dasharray:none"
       id="path3073"
       inkscape:connector-curvature="0" /><path
       d="m 450.68,34.33 0,515.47"
       style="fill:none;stroke:#e5e5e5;stroke-width:0.43000001;stroke-linecap:butt;stroke-linejoin:round;stroke-miterlimit:10;stroke-opacity:1;stroke-dasharray:none"
       id="path3075"
       inkscape:connector-curvature="0" /><path
       d="m 634.48,34.33 0,515.47"
       style="fill:none;stroke:#e5e5e5;stroke-width:0.43000001;stroke-linecap:butt;stroke-linejoin:round;stroke-miterlimit:10;stroke-opacity:1;stroke-dasharray:none"
       id="path3077"
       inkscape:connector-curvature="0" /><path
       d="m 236.25,34.33 0,515.47"
       style="fill:none;stroke:#333333;stroke-width:3.20000005;stroke-linecap:butt;stroke-linejoin:round;stroke-miterlimit:10;stroke-opacity:1;stroke-dasharray:3.2, 3.2;stroke-dashoffset:0"
       id="path3079"
       inkscape:connector-curvature="0" /><path
       d="m 83.08,126.18 9.19,-46.34 9.19,-5.76 9.19,-9.84 9.19,7.92 9.19,-5.28 9.19,-1.68 9.19,1.44 9.19,0.48 9.19,-0.48 9.19,10.56 9.19,-0.24 9.19,-12.24 9.19,0.72 9.19,13.44 9.19,-0.24 9.19,-8.4 9.19,-5.04 9.19,11.28 9.19,8.4 9.19,-11.28 9.19,-2.88 9.19,-1.2 9.19,1.2 9.19,-3.36 9.19,2.88 9.19,0.72 9.19,-3.36 9.19,-2.4 9.19,-1.2 9.19,0 9.19,1.44 9.19,-2.4 9.19,-0.72 9.19,2.88 9.19,0.24 9.19,-1.68 9.19,0.48 9.19,-0.72 9.19,4.08 9.19,-2.88 9.19,-0.24 9.19,-1.92 9.19,0.72 9.19,1.68 9.19,-1.44 9.19,-1.44 9.19,-2.4 9.19,3.12 9.19,-2.16 9.19,-0.48 9.19,-1.2 9.19,-0.24 9.19,1.2 9.19,-0.24 9.19,-0.96 9.19,0.24 9.19,0.72 9.19,-0.24 9.19,-1.2 9.19,-0.24 9.19,0.72 9.19,-0.72 9.19,0 9.19,-0.24 9.19,0.24 9.19,0.24 9.19,0 9.19,0 9.19,-0.24 9.19,0 9.19,0 9.19,0 9.19,-0.24"
       style="fill:none;stroke:#e41a1c;stroke-width:2.13000011;stroke-linecap:butt;stroke-linejoin:round;stroke-miterlimit:1;stroke-opacity:1;stroke-dasharray:none"
       id="path3081"
       inkscape:connector-curvature="0" /><path
       d="m 83.08,526.37 9.19,-352.18 9.19,-74.66 9.19,12.24 9.19,-11.76 9.19,-8.16 9.19,30 9.19,-22.8 9.19,-10.08 9.19,-3.85 9.19,-7.68 9.19,23.77 9.19,-17.53 9.19,-3.36 9.19,-0.24 9.19,0.48 9.19,-5.52 9.19,8.64 9.19,-6.96 9.19,-4.8 9.19,7.44 9.19,-5.52 9.19,-5.04 9.19,-1.2 9.19,0.72 9.19,-1.44 9.19,-1.2 9.19,-0.24 9.19,4.56 9.19,-3.12 9.19,-3.6 9.19,-1.2 9.19,-0.96 9.19,1.2 9.19,-2.16 9.19,-0.24 9.19,0.96 9.19,-1.2 9.19,0.72 9.19,0.48 9.19,-0.48 9.19,0.96 9.19,-0.72 9.19,-0.48 9.19,0 9.19,-0.48 9.19,-0.96 9.19,0 9.19,0.72 9.19,-0.96 9.19,0 9.19,-0.24 9.19,-0.24 9.19,0 9.19,-0.24 9.19,0.24 9.19,-0.24 9.19,0 9.19,0 9.19,0.24 9.19,-0.24 9.19,0 9.19,0 9.19,0 9.19,0 9.19,0 9.19,0 9.19,0 9.19,0 9.19,0 9.19,0 9.19,0 9.19,0 9.19,0"
       style="fill:none;stroke:#377eb8;stroke-width:2.13000011;stroke-linecap:butt;stroke-linejoin:round;stroke-miterlimit:1;stroke-opacity:1;stroke-dasharray:none"
       id="path3083"
       inkscape:connector-curvature="0" /><path
       d="m 49.39,34.33 741.32,0 0,515.47 -741.32,0 0,-515.47 z"
       style="fill:none;stroke:#7f7f7f;stroke-width:1.07000005;stroke-linecap:round;stroke-linejoin:round;stroke-miterlimit:10;stroke-opacity:1;stroke-dasharray:none"
       id="path3085"
       inkscape:connector-curvature="0" /><text
       id="text3099"
       transform="scale(1,-1)"
       x="38.450001"
       y="-54.169998"><tspan
         id="tspan3101"
         y="-54.169998"
         x="38.450001"
         style="font-size:10px;font-variant:normal;font-weight:normal;writing-mode:lr-tb;fill:#000000;fill-opacity:1;fill-rule:nonzero;stroke:none;font-family:Helvetica;-inkscape-font-specification:Helvetica">0</tspan></text>
<text
       id="text3103"
       transform="scale(1,-1)"
       x="27.33"
       y="-174.2"><tspan
         id="tspan3105"
         sodipodi:role="line"
         y="-174.2"
         x="27.33 32.889999 38.450001"
         style="font-size:10px;font-variant:normal;font-weight:normal;writing-mode:lr-tb;fill:#000000;fill-opacity:1;fill-rule:nonzero;stroke:none;font-family:Helvetica;-inkscape-font-specification:Helvetica">500</tspan></text>
<text
       id="text3107"
       transform="scale(1,-1)"
       x="21.77"
       y="-294.23001"><tspan
         id="tspan3109"
         sodipodi:role="line"
         y="-294.23001"
         x="21.77 27.33 32.889999 38.450001"
         style="font-size:10px;font-variant:normal;font-weight:normal;writing-mode:lr-tb;fill:#000000;fill-opacity:1;fill-rule:nonzero;stroke:none;font-family:Helvetica;-inkscape-font-specification:Helvetica">1000</tspan></text>
<text
       id="text3111"
       transform="scale(1,-1)"
       x="21.77"
       y="-414.26999"><tspan
         id="tspan3113"
         sodipodi:role="line"
         y="-414.26999"
         x="21.77 27.33 32.889999 38.450001"
         style="font-size:10px;font-variant:normal;font-weight:normal;writing-mode:lr-tb;fill:#000000;fill-opacity:1;fill-rule:nonzero;stroke:none;font-family:Helvetica;-inkscape-font-specification:Helvetica">1500</tspan></text>
<text
       id="text3115"
       transform="scale(1,-1)"
       x="21.77"
       y="-534.29999"><tspan
         id="tspan3117"
         sodipodi:role="line"
         y="-534.29999"
         x="21.77 27.33 32.889999 38.450001"
         style="font-size:10px;font-variant:normal;font-weight:normal;writing-mode:lr-tb;fill:#000000;fill-opacity:1;fill-rule:nonzero;stroke:none;font-family:Helvetica;-inkscape-font-specification:Helvetica">2000</tspan></text>
<path
       inkscape:connector-curvature="0"
       id="path3125"
       style="fill:none;stroke:#000000;stroke-width:1.07000005;stroke-linecap:butt;stroke-linejoin:round;stroke-miterlimit:10;stroke-opacity:1;stroke-dasharray:none"
       d="m 46.4,57.76 2.99,0" /><path
       inkscape:connector-curvature="0"
       id="path3127"
       style="fill:none;stroke:#000000;stroke-width:1.07000005;stroke-linecap:butt;stroke-linejoin:round;stroke-miterlimit:10;stroke-opacity:1;stroke-dasharray:none"
       d="m 46.4,177.79 2.99,0" /><path
       inkscape:connector-curvature="0"
       id="path3129"
       style="fill:none;stroke:#000000;stroke-width:1.07000005;stroke-linecap:butt;stroke-linejoin:round;stroke-miterlimit:10;stroke-opacity:1;stroke-dasharray:none"
       d="m 46.4,297.82 2.99,0" /><path
       inkscape:connector-curvature="0"
       id="path3131"
       style="fill:none;stroke:#000000;stroke-width:1.07000005;stroke-linecap:butt;stroke-linejoin:round;stroke-miterlimit:10;stroke-opacity:1;stroke-dasharray:none"
       d="m 46.4,417.86 2.99,0" /><path
       inkscape:connector-curvature="0"
       id="path3133"
       style="fill:none;stroke:#000000;stroke-width:1.07000005;stroke-linecap:butt;stroke-linejoin:round;stroke-miterlimit:10;stroke-opacity:1;stroke-dasharray:none"
       d="m 46.4,537.89 2.99,0" /><path
       inkscape:connector-curvature="0"
       id="path3153"
       style="fill:none;stroke:#000000;stroke-width:1.07000005;stroke-linecap:butt;stroke-linejoin:round;stroke-miterlimit:10;stroke-opacity:1;stroke-dasharray:none"
       d="m 83.08,31.34 0,2.99" /><path
       inkscape:connector-curvature="0"
       id="path3155"
       style="fill:none;stroke:#000000;stroke-width:1.07000005;stroke-linecap:butt;stroke-linejoin:round;stroke-miterlimit:10;stroke-opacity:1;stroke-dasharray:none"
       d="m 266.88,31.34 0,2.99" /><path
       inkscape:connector-curvature="0"
       id="path3157"
       style="fill:none;stroke:#000000;stroke-width:1.07000005;stroke-linecap:butt;stroke-linejoin:round;stroke-miterlimit:10;stroke-opacity:1;stroke-dasharray:none"
       d="m 450.68,31.34 0,2.99" /><path
       inkscape:connector-curvature="0"
       id="path3159"
       style="fill:none;stroke:#000000;stroke-width:1.07000005;stroke-linecap:butt;stroke-linejoin:round;stroke-miterlimit:10;stroke-opacity:1;stroke-dasharray:none"
       d="m 634.48,31.34 0,2.99" /><text
       id="text3165"
       transform="scale(1,-1)"
       x="80.300003"
       y="-21.77"><tspan
         id="tspan3167"
         y="-21.77"
         x="80.300003"
         style="font-size:10px;font-variant:normal;font-weight:normal;writing-mode:lr-tb;fill:#000000;fill-opacity:1;fill-rule:nonzero;stroke:none;font-family:Helvetica;-inkscape-font-specification:Helvetica">0</tspan></text>
<text
       id="text3169"
       transform="scale(1,-1)"
       x="264.10001"
       y="-21.77"><tspan
         id="tspan3171"
         y="-21.77"
         x="264.10001"
         style="font-size:10px;font-variant:normal;font-weight:normal;writing-mode:lr-tb;fill:#000000;fill-opacity:1;fill-rule:nonzero;stroke:none;font-family:Helvetica;-inkscape-font-specification:Helvetica">3</tspan></text>
<text
       id="text3173"
       transform="scale(1,-1)"
       x="447.89999"
       y="-21.77"><tspan
         id="tspan3175"
         y="-21.77"
         x="447.89999"
         style="font-size:10px;font-variant:normal;font-weight:normal;writing-mode:lr-tb;fill:#000000;fill-opacity:1;fill-rule:nonzero;stroke:none;font-family:Helvetica;-inkscape-font-specification:Helvetica">6</tspan></text>
<text
       id="text3177"
       transform="scale(1,-1)"
       x="631.70001"
       y="-21.77"><tspan
         id="tspan3179"
         y="-21.77"
         x="631.70001"
         style="font-size:10px;font-variant:normal;font-weight:normal;writing-mode:lr-tb;fill:#000000;fill-opacity:1;fill-rule:nonzero;stroke:none;font-family:Helvetica;-inkscape-font-specification:Helvetica">9</tspan></text>
<text
       id="text3193"
       transform="scale(1,-1)"
       x="284.10999"
       y="-8.3699999"><tspan
         id="tspan3195"
         sodipodi:role="line"
         y="-8.3699999"
         x="284.10999 292.77399 299.44601 303.742 313.73801 320.41 323.07401 325.73801 331.55801 338.23001 344.90201 348.23801 356.90201 363.57401 370.246 374.242 380.914 386.914 390.25 393.586 402.25 408.922 411.586 418.258 424.92999 431.60199 438.27399 442.26999 445.60599 454.26999 456.93399 462.93399 466.26999 472.94199 479.61398 485.61398 492.28598 495.62198 499.61798 506.28998 508.95398 515.62598 521.62598 528.63397 535.30597 538.64197 545.31403 551.98602"
         style="font-size:12px;font-variant:normal;font-weight:normal;writing-mode:lr-tb;fill:#000000;fill-opacity:1;fill-rule:nonzero;stroke:none;font-family:Helvetica;-inkscape-font-specification:Helvetica">Normalized Nearest Neighbor Distance (bins=0.15)</tspan></text>
<text
       id="text3203"
       transform="matrix(0,1,1,0,0,0)"
       x="263.72"
       y="16.98"><tspan
         id="tspan3205"
         sodipodi:role="line"
         y="16.98"
         x="263.72 271.052 275.048 281.72 288.392 295.064 301.73599 308.40799 314.40799"
         style="font-size:12px;font-variant:normal;font-weight:normal;writing-mode:lr-tb;fill:#000000;fill-opacity:1;fill-rule:nonzero;stroke:none;font-family:Helvetica;-inkscape-font-specification:Helvetica">Frequency</tspan></text>
<text
       id="text3291"
       transform="scale(1,-1)"
       x="311.97"
       y="-556.96997"><tspan
         id="tspan3293"
         sodipodi:role="line"
         y="-556.96997"
         x="311.97 322.078 329.862 337.646 342.30801 350.09201 357.09201 360.98401 364.87601 374.98401 382.76801 385.87601 393.66 401.444 409.228 417.01199 421.67401 425.56601 434.90399 439.42599 447.20999 454.99399 461.99399 469.77798 473.66998 483.77798 486.88599 493.88599 497.77798 505.56198 513.34601 520.34601"
         style="font-size:14px;font-variant:normal;font-weight:normal;writing-mode:lr-tb;fill:#000000;fill-opacity:1;fill-rule:nonzero;stroke:none;font-family:Helvetica;-inkscape-font-specification:Helvetica">Nearest Neighbor Branch Distance</tspan></text>
<g
       id="g4206"
       transform="translate(-464.61105,98.646121)"><path
         d="m 797.99282,238.78954 94.14538,0 0,56 -94.14538,0 0,-56 z"
         style="fill:#ffffff;fill-opacity:1;fill-rule:nonzero;stroke:#333333;stroke-opacity:1"
         id="path3221"
         inkscape:connector-curvature="0" /><g
         id="g4194"><g
           id="g4161"
           transform="translate(0,-39.884697)"><path
             d="m 803.47,285.59 17.28,0 0,17.28 -17.28,0 0,-17.28 z"
             style="fill:#ffffff;fill-opacity:1;fill-rule:nonzero;stroke:#333333;stroke-width:1.07000005;stroke-linecap:round;stroke-linejoin:round;stroke-miterlimit:10;stroke-opacity:1;stroke-dasharray:none"
             id="path3235"
             inkscape:connector-curvature="0" /><path
             d="m 805.19,294.23 13.83,0"
             style="fill:none;stroke:#e41a1c;stroke-width:2.13000011;stroke-linecap:butt;stroke-linejoin:round;stroke-miterlimit:10;stroke-opacity:1;stroke-dasharray:none"
             id="path3241"
             inkscape:connector-curvature="0" /></g><g
           id="g4165"><path
             d="m 803.47,268.31 17.28,0 0,17.28 -17.28,0 0,-17.28 z"
             style="fill:#ffffff;fill-opacity:1;fill-rule:nonzero;stroke:#333333;stroke-width:1.07000005;stroke-linecap:round;stroke-linejoin:round;stroke-miterlimit:10;stroke-opacity:1;stroke-dasharray:none"
             id="path3247"
             inkscape:connector-curvature="0" /><path
             d="m 805.19,276.95 13.83,0"
             style="fill:none;stroke:#377eb8;stroke-width:2.13000011;stroke-linecap:butt;stroke-linejoin:round;stroke-miterlimit:10;stroke-opacity:1;stroke-dasharray:none"
             id="path3253"
             inkscape:connector-curvature="0" /></g><text
           xml:space="preserve"
           style="font-size:12.80000019px;font-style:normal;font-weight:normal;line-height:125%;letter-spacing:0px;word-spacing:0px;fill:#000000;fill-opacity:1;stroke:none;font-family:Sans;-inkscape-font-specification:Sans"
           x="831.271"
           y="-272.29062"
           id="text4169"
           sodipodi:linespacing="125%"
           transform="scale(1,-1)"><tspan
             sodipodi:role="line"
             id="tspan4171"
             x="831.271"
             y="-272.29062">Correct</tspan></text>
<text
           xml:space="preserve"
           style="font-size:12.80000019px;font-style:normal;font-weight:normal;line-height:125%;letter-spacing:0px;word-spacing:0px;fill:#000000;fill-opacity:1;stroke:none;font-family:Sans;-inkscape-font-specification:Sans"
           x="830.73352"
           y="-249.77031"
           id="text4169-3"
           sodipodi:linespacing="125%"
           transform="scale(1,-1)"><tspan
             sodipodi:role="line"
             id="tspan4171-1"
             x="830.73352"
             y="-249.77031">Incorrect</tspan></text>
</g></g></g></svg>