Phylum,Dataset,Count
Proteobacteria,Train,115
Proteobacteria,Test,162
Actinobacteria,Train,139
Actinobacteria,Test,133
Firmicutes,Train,136
Firmicutes,Test,64
Cyanobacteria,Train,36
Cyanobacteria,Test,34
Fungi,Train,62
Fungi,Test,28
Other/Unclass.,Train,6
Other/Unclass.,Test,13
