{
    "general_params": {
        "compounds": [
            {
                "compound": "azanigerone"
            }
        ], 
        "loci": {
            "nucl_acc": [
                {
                    "end_coord": -1, 
                    "Accession": "ACJE01000001", 
                    "start_coord": -1
                }
            ]
        }, 
        "mibig_accession": "BGC0001143", 
        "publications": [
            "22921072 "
        ], 
        "Polyketide": {
            "pks_subclass": [
                "Type I"
            ]
        }, 
        "minimal": true, 
        "biosyn_class": [
            "Polyketide"
        ]
    }
}