{
    "general_params": {
        "compounds": [
            {
                "compound": "E-492"
            }, 
            {
                "compound": "E-975"
            }
        ], 
        "loci": {
            "nucl_acc": [
                {
                    "end_coord": -1, 
                    "Accession": "DQ272521", 
                    "start_coord": -1
                }, 
                {
                    "end_coord": -1, 
                    "Accession": "DQ272522", 
                    "start_coord": -1
                }
            ]
        }, 
        "mibig_accession": "BGC0000049", 
        "publications": [
            "16724457"
        ], 
        "Polyketide": {
            "pks_subclass": [
                "Type I"
            ]
        }, 
        "minimal": true, 
        "biosyn_class": [
            "Polyketide"
        ]
    }
}