{
    "version": "14", 
    "personal": {
        "submitter_name": "Helge B. Bode", 
        "submitter_institution": "Molecular Biotechnology, Institute for Molecular Bioscience Goethe University Frankfurt, 60438 Frankfurt/Main, Germany", 
        "submitter_email": "h.bode@bio.uni-frankfurt.de"
    }, 
    "general_params": {
        "mibig_accession": "BGC0001132", 
        "biosyn_class": [
            "NRP"
        ], 
        "publications": "24616055", 
        "loci": {
            "complete": "complete", 
            "nucl_acc": [
                {
                    "Accession": "FN667742", 
                    "mixs_compliant": true, 
                    "start_coord": 1902220, 
                    "end_coord": 1904723, 
                    "conn_comp_cluster": [
                        "Knock-out studies", 
                        "Heterologous expression"
                    ]
                }
            ]
        }, 
        "compounds": [
            {
                "compound": "Xenotetrapeptide", 
                "chem_synonyms": [], 
                "chem_struct": "CC(C)[C@H]1NC(=O)[C@@H](NC(=O)[C@H](NC(=O)[C@@H](NC1=O)C(C)C)C(C)C)CC(C)C", 
                "molecular_formula": "C21H39O4N4", 
                "mol_mass": 411.296582, 
                "mass_ion_type": "[M+H]+", 
                "chem_act": [
                    "Unknown"
                ]
            }
        ], 
        "genes": {}, 
        "NRP": {
            "subclass": "Other", 
            "lin_cycl_nrp": "Cyclic", 
            "nrps_genes": [
                {
                    "nrps_gene": "xnc1_2022", 
                    "nrps_module": [
                        {
                            "module_nr": "1", 
                            "a_substr_spec": {
                                "aa_type": "Proteinogenic", 
                                "prot_adom_spec": "Valine", 
                                "evidence_a_spec": "Structure-based inference", 
                                "epimerized": true
                            }, 
                            "cdom_subtype": "LCL", 
                            "nrps_mod_doms": "None", 
                            "nrps_mod_skip_iter": "Neither"
                        }, 
                        {
                            "module_nr": "2", 
                            "a_substr_spec": {
                                "aa_type": "Proteinogenic", 
                                "prot_adom_spec": "Leucine", 
                                "evidence_a_spec": "Structure-based inference"
                            }, 
                            "cdom_subtype": "Dual", 
                            "nrps_mod_doms": "None"
                        }, 
                        {
                            "module_nr": "3", 
                            "a_substr_spec": {
                                "aa_type": "Proteinogenic", 
                                "prot_adom_spec": "Valine", 
                                "evidence_a_spec": "Structure-based inference", 
                                "epimerized": true
                            }, 
                            "cdom_subtype": "LCL", 
                            "nrps_mod_doms": "None", 
                            "nrps_mod_skip_iter": "Neither"
                        }, 
                        {
                            "module_nr": "4", 
                            "a_substr_spec": {
                                "aa_type": "Proteinogenic", 
                                "prot_adom_spec": "Valine", 
                                "evidence_a_spec": "Structure-based inference"
                            }, 
                            "cdom_subtype": "Dual", 
                            "nrps_mod_doms": "None", 
                            "nrps_mod_skip_iter": "Neither"
                        }
                    ]
                }
            ], 
            "nrps_te_type": "Type I", 
            "nrps_thioesterase": [], 
            "nrps_release_type": "Macrolactamization"
        }
    }
}


