{
    "general_params": {
        "compounds": [
            {
                "compound": "meridamycin"
            }
        ], 
        "loci": {
            "nucl_acc": [
                {
                    "end_coord": -1, 
                    "Accession": "DQ351275", 
                    "start_coord": -1
                }
            ]
        }, 
        "mibig_accession": "BGC0001011", 
        "publications": [
            "16806745"
        ], 
        "Polyketide": {
            "pks_subclass": [
                "Type I"
            ]
        }, 
        "minimal": true, 
        "biosyn_class": [
            "NRP", 
            "Polyketide"
        ]
    }
}