<?xml version="1.0" encoding="UTF-8" standalone="no"?>
<svg
   xmlns:dc="http://purl.org/dc/elements/1.1/"
   xmlns:cc="http://creativecommons.org/ns#"
   xmlns:rdf="http://www.w3.org/1999/02/22-rdf-syntax-ns#"
   xmlns:svg="http://www.w3.org/2000/svg"
   xmlns="http://www.w3.org/2000/svg"
   xmlns:sodipodi="http://sodipodi.sourceforge.net/DTD/sodipodi-0.dtd"
   xmlns:inkscape="http://www.inkscape.org/namespaces/inkscape"
   width="1027.6228"
   height="311.90262"
   viewBox="0 0 29001.799 8802.5849"
   version="1.1"
   xml:space="preserve"
   id="svg3146"
   inkscape:version="0.48.4 r9939"
   sodipodi:docname="fig3_draft.svg"
   style="stroke-width:28.22200012;stroke-linejoin:round"><metadata
     id="metadata3190"><rdf:RDF><cc:Work
         rdf:about=""><dc:format>image/svg+xml</dc:format><dc:type
           rdf:resource="http://purl.org/dc/dcmitype/StillImage" /><dc:title /></cc:Work></rdf:RDF></metadata><defs
     id="defs3188"><clipPath
       id="pf982c5de08"><rect
         height="201.60001"
         width="558"
         x="90"
         y="25.200001"
         id="rect4622" /></clipPath><clipPath
       id="clipPath5565"><rect
         height="201.60001"
         width="558"
         x="90"
         y="25.200001"
         id="rect5567" /></clipPath><clipPath
       id="clipPath5569"><rect
         height="201.60001"
         width="558"
         x="90"
         y="25.200001"
         id="rect5571" /></clipPath><clipPath
       id="clipPath5573"><rect
         height="201.60001"
         width="558"
         x="90"
         y="25.200001"
         id="rect5575" /></clipPath><clipPath
       id="clipPath5577"><rect
         height="201.60001"
         width="558"
         x="90"
         y="25.200001"
         id="rect5579" /></clipPath><clipPath
       id="clipPath5581"><rect
         height="201.60001"
         width="558"
         x="90"
         y="25.200001"
         id="rect5583" /></clipPath><clipPath
       id="clipPath5585"><rect
         height="201.60001"
         width="558"
         x="90"
         y="25.200001"
         id="rect5587" /></clipPath><clipPath
       id="clipPath5589"><rect
         height="201.60001"
         width="558"
         x="90"
         y="25.200001"
         id="rect5591" /></clipPath><clipPath
       id="clipPath5593"><rect
         height="201.60001"
         width="558"
         x="90"
         y="25.200001"
         id="rect5595" /></clipPath><clipPath
       id="clipPath5597"><rect
         height="201.60001"
         width="558"
         x="90"
         y="25.200001"
         id="rect5599" /></clipPath><clipPath
       id="clipPath5601"><rect
         height="201.60001"
         width="558"
         x="90"
         y="25.200001"
         id="rect5603" /></clipPath><clipPath
       id="clipPath5605"><rect
         height="201.60001"
         width="558"
         x="90"
         y="25.200001"
         id="rect5607" /></clipPath><clipPath
       id="clipPath5609"><rect
         height="201.60001"
         width="558"
         x="90"
         y="25.200001"
         id="rect5611" /></clipPath><clipPath
       id="clipPath5613"><rect
         height="201.60001"
         width="558"
         x="90"
         y="25.200001"
         id="rect5615" /></clipPath><clipPath
       id="clipPath5617"><rect
         height="201.60001"
         width="558"
         x="90"
         y="25.200001"
         id="rect5619" /></clipPath><clipPath
       id="clipPath5621"><rect
         height="201.60001"
         width="558"
         x="90"
         y="25.200001"
         id="rect5623" /></clipPath><clipPath
       id="clipPath5625"><rect
         height="201.60001"
         width="558"
         x="90"
         y="25.200001"
         id="rect5627" /></clipPath><clipPath
       id="clipPath5629"><rect
         height="201.60001"
         width="558"
         x="90"
         y="25.200001"
         id="rect5631" /></clipPath><clipPath
       id="clipPath5633"><rect
         height="201.60001"
         width="558"
         x="90"
         y="25.200001"
         id="rect5635" /></clipPath><clipPath
       id="clipPath5637"><rect
         height="201.60001"
         width="558"
         x="90"
         y="25.200001"
         id="rect5639" /></clipPath><clipPath
       id="clipPath5641"><rect
         height="201.60001"
         width="558"
         x="90"
         y="25.200001"
         id="rect5643" /></clipPath><clipPath
       id="clipPath5645"><rect
         height="201.60001"
         width="558"
         x="90"
         y="25.200001"
         id="rect5647" /></clipPath><clipPath
       id="clipPath5649"><rect
         height="201.60001"
         width="558"
         x="90"
         y="25.200001"
         id="rect5651" /></clipPath><clipPath
       id="clipPath5653"><rect
         height="201.60001"
         width="558"
         x="90"
         y="25.200001"
         id="rect5655" /></clipPath><clipPath
       id="clipPath5657"><rect
         height="201.60001"
         width="558"
         x="90"
         y="25.200001"
         id="rect5659" /></clipPath><clipPath
       id="clipPath5661"><rect
         height="201.60001"
         width="558"
         x="90"
         y="25.200001"
         id="rect5663" /></clipPath><clipPath
       id="clipPath5665"><rect
         height="201.60001"
         width="558"
         x="90"
         y="25.200001"
         id="rect5667" /></clipPath><clipPath
       id="clipPath5669"><rect
         height="201.60001"
         width="558"
         x="90"
         y="25.200001"
         id="rect5671" /></clipPath><clipPath
       id="clipPath5673"><rect
         height="201.60001"
         width="558"
         x="90"
         y="25.200001"
         id="rect5675" /></clipPath><clipPath
       id="clipPath5677"><rect
         height="201.60001"
         width="558"
         x="90"
         y="25.200001"
         id="rect5679" /></clipPath><clipPath
       id="clipPath5681"><rect
         height="201.60001"
         width="558"
         x="90"
         y="25.200001"
         id="rect5683" /></clipPath><clipPath
       id="clipPath5685"><rect
         height="201.60001"
         width="558"
         x="90"
         y="25.200001"
         id="rect5687" /></clipPath><clipPath
       id="clipPath5689"><rect
         height="201.60001"
         width="558"
         x="90"
         y="25.200001"
         id="rect5691" /></clipPath><clipPath
       id="clipPath5693"><rect
         height="201.60001"
         width="558"
         x="90"
         y="25.200001"
         id="rect5695" /></clipPath><clipPath
       id="clipPath5697"><rect
         height="201.60001"
         width="558"
         x="90"
         y="25.200001"
         id="rect5699" /></clipPath><clipPath
       id="clipPath5701"><rect
         height="201.60001"
         width="558"
         x="90"
         y="25.200001"
         id="rect5703" /></clipPath><clipPath
       id="clipPath5705"><rect
         height="201.60001"
         width="558"
         x="90"
         y="25.200001"
         id="rect5707" /></clipPath><clipPath
       id="clipPath5709"><rect
         height="201.60001"
         width="558"
         x="90"
         y="25.200001"
         id="rect5711" /></clipPath><clipPath
       id="clipPath5713"><rect
         height="201.60001"
         width="558"
         x="90"
         y="25.200001"
         id="rect5715" /></clipPath><clipPath
       id="clipPath5717"><rect
         height="201.60001"
         width="558"
         x="90"
         y="25.200001"
         id="rect5719" /></clipPath><clipPath
       id="clipPath5721"><rect
         height="201.60001"
         width="558"
         x="90"
         y="25.200001"
         id="rect5723" /></clipPath><clipPath
       id="clipPath5725"><rect
         height="201.60001"
         width="558"
         x="90"
         y="25.200001"
         id="rect5727" /></clipPath><clipPath
       id="clipPath5729"><rect
         height="201.60001"
         width="558"
         x="90"
         y="25.200001"
         id="rect5731" /></clipPath><clipPath
       id="clipPath5733"><rect
         height="201.60001"
         width="558"
         x="90"
         y="25.200001"
         id="rect5735" /></clipPath><clipPath
       id="clipPath5737"><rect
         height="201.60001"
         width="558"
         x="90"
         y="25.200001"
         id="rect5739" /></clipPath><clipPath
       id="clipPath5741"><rect
         height="201.60001"
         width="558"
         x="90"
         y="25.200001"
         id="rect5743" /></clipPath><clipPath
       id="clipPath5745"><rect
         height="201.60001"
         width="558"
         x="90"
         y="25.200001"
         id="rect5747" /></clipPath><clipPath
       id="clipPath5749"><rect
         height="201.60001"
         width="558"
         x="90"
         y="25.200001"
         id="rect5751" /></clipPath><clipPath
       id="clipPath5753"><rect
         height="201.60001"
         width="558"
         x="90"
         y="25.200001"
         id="rect5755" /></clipPath><clipPath
       id="clipPath5757"><rect
         height="201.60001"
         width="558"
         x="90"
         y="25.200001"
         id="rect5759" /></clipPath><clipPath
       id="clipPath5761"><rect
         height="201.60001"
         width="558"
         x="90"
         y="25.200001"
         id="rect5763" /></clipPath><clipPath
       id="clipPath5765"><rect
         height="201.60001"
         width="558"
         x="90"
         y="25.200001"
         id="rect5767" /></clipPath><clipPath
       id="clipPath5769"><rect
         height="201.60001"
         width="558"
         x="90"
         y="25.200001"
         id="rect5771" /></clipPath><clipPath
       id="clipPath5773"><rect
         height="201.60001"
         width="558"
         x="90"
         y="25.200001"
         id="rect5775" /></clipPath><clipPath
       id="clipPath5777"><rect
         height="201.60001"
         width="558"
         x="90"
         y="25.200001"
         id="rect5779" /></clipPath><clipPath
       id="clipPath5781"><rect
         height="201.60001"
         width="558"
         x="90"
         y="25.200001"
         id="rect5783" /></clipPath><clipPath
       id="clipPath5785"><rect
         height="201.60001"
         width="558"
         x="90"
         y="25.200001"
         id="rect5787" /></clipPath><clipPath
       id="clipPath5789"><rect
         height="201.60001"
         width="558"
         x="90"
         y="25.200001"
         id="rect5791" /></clipPath><clipPath
       id="clipPath5793"><rect
         height="201.60001"
         width="558"
         x="90"
         y="25.200001"
         id="rect5795" /></clipPath><clipPath
       id="clipPath5797"><rect
         height="201.60001"
         width="558"
         x="90"
         y="25.200001"
         id="rect5799" /></clipPath><clipPath
       id="clipPath5801"><rect
         height="201.60001"
         width="558"
         x="90"
         y="25.200001"
         id="rect5803" /></clipPath><clipPath
       id="clipPath5805"><rect
         height="201.60001"
         width="558"
         x="90"
         y="25.200001"
         id="rect5807" /></clipPath><clipPath
       id="clipPath5809"><rect
         height="201.60001"
         width="558"
         x="90"
         y="25.200001"
         id="rect5811" /></clipPath><clipPath
       id="clipPath5813"><rect
         height="201.60001"
         width="558"
         x="90"
         y="25.200001"
         id="rect5815" /></clipPath><clipPath
       id="clipPath5817"><rect
         height="201.60001"
         width="558"
         x="90"
         y="25.200001"
         id="rect5819" /></clipPath><clipPath
       id="clipPath5821"><rect
         height="201.60001"
         width="558"
         x="90"
         y="25.200001"
         id="rect5823" /></clipPath><clipPath
       id="clipPath5825"><rect
         height="201.60001"
         width="558"
         x="90"
         y="25.200001"
         id="rect5827" /></clipPath><clipPath
       id="clipPath5829"><rect
         height="201.60001"
         width="558"
         x="90"
         y="25.200001"
         id="rect5831" /></clipPath><clipPath
       id="clipPath5833"><rect
         height="201.60001"
         width="558"
         x="90"
         y="25.200001"
         id="rect5835" /></clipPath><clipPath
       id="clipPath5837"><rect
         height="201.60001"
         width="558"
         x="90"
         y="25.200001"
         id="rect5839" /></clipPath><clipPath
       id="clipPath5841"><rect
         height="201.60001"
         width="558"
         x="90"
         y="25.200001"
         id="rect5843" /></clipPath><clipPath
       id="clipPath5845"><rect
         height="201.60001"
         width="558"
         x="90"
         y="25.200001"
         id="rect5847" /></clipPath><clipPath
       id="clipPath5849"><rect
         height="201.60001"
         width="558"
         x="90"
         y="25.200001"
         id="rect5851" /></clipPath><clipPath
       id="clipPath5853"><rect
         height="201.60001"
         width="558"
         x="90"
         y="25.200001"
         id="rect5855" /></clipPath><clipPath
       id="pf982c5de08-8"><rect
         height="201.60001"
         width="558"
         x="90"
         y="25.200001"
         id="rect4622-2" /></clipPath><clipPath
       id="clipPath9458"><rect
         height="201.60001"
         width="558"
         x="90"
         y="25.200001"
         id="rect9460" /></clipPath><clipPath
       id="clipPath9462"><rect
         height="201.60001"
         width="558"
         x="90"
         y="25.200001"
         id="rect9464" /></clipPath><clipPath
       id="clipPath9466"><rect
         height="201.60001"
         width="558"
         x="90"
         y="25.200001"
         id="rect9468" /></clipPath><clipPath
       id="clipPath9470"><rect
         height="201.60001"
         width="558"
         x="90"
         y="25.200001"
         id="rect9472" /></clipPath><clipPath
       id="clipPath9474"><rect
         height="201.60001"
         width="558"
         x="90"
         y="25.200001"
         id="rect9476" /></clipPath><clipPath
       id="clipPath9478"><rect
         height="201.60001"
         width="558"
         x="90"
         y="25.200001"
         id="rect9480" /></clipPath><clipPath
       id="clipPath9482"><rect
         height="201.60001"
         width="558"
         x="90"
         y="25.200001"
         id="rect9484" /></clipPath><clipPath
       id="clipPath9486"><rect
         height="201.60001"
         width="558"
         x="90"
         y="25.200001"
         id="rect9488" /></clipPath><clipPath
       id="clipPath9490"><rect
         height="201.60001"
         width="558"
         x="90"
         y="25.200001"
         id="rect9492" /></clipPath><clipPath
       id="clipPath9494"><rect
         height="201.60001"
         width="558"
         x="90"
         y="25.200001"
         id="rect9496" /></clipPath><clipPath
       id="clipPath9498"><rect
         height="201.60001"
         width="558"
         x="90"
         y="25.200001"
         id="rect9500" /></clipPath><clipPath
       id="clipPath9502"><rect
         height="201.60001"
         width="558"
         x="90"
         y="25.200001"
         id="rect9504" /></clipPath><clipPath
       id="clipPath9506"><rect
         height="201.60001"
         width="558"
         x="90"
         y="25.200001"
         id="rect9508" /></clipPath><clipPath
       id="clipPath9510"><rect
         height="201.60001"
         width="558"
         x="90"
         y="25.200001"
         id="rect9512" /></clipPath><clipPath
       id="clipPath9514"><rect
         height="201.60001"
         width="558"
         x="90"
         y="25.200001"
         id="rect9516" /></clipPath><clipPath
       id="clipPath9518"><rect
         height="201.60001"
         width="558"
         x="90"
         y="25.200001"
         id="rect9520" /></clipPath><clipPath
       id="clipPath9522"><rect
         height="201.60001"
         width="558"
         x="90"
         y="25.200001"
         id="rect9524" /></clipPath><clipPath
       id="clipPath9526"><rect
         height="201.60001"
         width="558"
         x="90"
         y="25.200001"
         id="rect9528" /></clipPath><clipPath
       id="clipPath9530"><rect
         height="201.60001"
         width="558"
         x="90"
         y="25.200001"
         id="rect9532" /></clipPath><clipPath
       id="clipPath9534"><rect
         height="201.60001"
         width="558"
         x="90"
         y="25.200001"
         id="rect9536" /></clipPath><clipPath
       id="clipPath9538"><rect
         height="201.60001"
         width="558"
         x="90"
         y="25.200001"
         id="rect9540" /></clipPath><clipPath
       id="clipPath9542"><rect
         height="201.60001"
         width="558"
         x="90"
         y="25.200001"
         id="rect9544" /></clipPath><clipPath
       id="clipPath9546"><rect
         height="201.60001"
         width="558"
         x="90"
         y="25.200001"
         id="rect9548" /></clipPath><clipPath
       id="clipPath9550"><rect
         height="201.60001"
         width="558"
         x="90"
         y="25.200001"
         id="rect9552" /></clipPath><clipPath
       id="clipPath9554"><rect
         height="201.60001"
         width="558"
         x="90"
         y="25.200001"
         id="rect9556" /></clipPath><clipPath
       id="clipPath9558"><rect
         height="201.60001"
         width="558"
         x="90"
         y="25.200001"
         id="rect9560" /></clipPath><clipPath
       id="clipPath9562"><rect
         height="201.60001"
         width="558"
         x="90"
         y="25.200001"
         id="rect9564" /></clipPath><clipPath
       id="clipPath9566"><rect
         height="201.60001"
         width="558"
         x="90"
         y="25.200001"
         id="rect9568" /></clipPath><clipPath
       id="clipPath9570"><rect
         height="201.60001"
         width="558"
         x="90"
         y="25.200001"
         id="rect9572" /></clipPath><clipPath
       id="clipPath9574"><rect
         height="201.60001"
         width="558"
         x="90"
         y="25.200001"
         id="rect9576" /></clipPath><clipPath
       id="clipPath9578"><rect
         height="201.60001"
         width="558"
         x="90"
         y="25.200001"
         id="rect9580" /></clipPath><clipPath
       id="clipPath9582"><rect
         height="201.60001"
         width="558"
         x="90"
         y="25.200001"
         id="rect9584" /></clipPath><clipPath
       id="clipPath9586"><rect
         height="201.60001"
         width="558"
         x="90"
         y="25.200001"
         id="rect9588" /></clipPath><clipPath
       id="clipPath9590"><rect
         height="201.60001"
         width="558"
         x="90"
         y="25.200001"
         id="rect9592" /></clipPath><clipPath
       id="clipPath9594"><rect
         height="201.60001"
         width="558"
         x="90"
         y="25.200001"
         id="rect9596" /></clipPath><clipPath
       id="clipPath9598"><rect
         height="201.60001"
         width="558"
         x="90"
         y="25.200001"
         id="rect9600" /></clipPath><clipPath
       id="clipPath9602"><rect
         height="201.60001"
         width="558"
         x="90"
         y="25.200001"
         id="rect9604" /></clipPath><clipPath
       id="clipPath9606"><rect
         height="201.60001"
         width="558"
         x="90"
         y="25.200001"
         id="rect9608" /></clipPath><clipPath
       id="clipPath9610"><rect
         height="201.60001"
         width="558"
         x="90"
         y="25.200001"
         id="rect9612" /></clipPath><clipPath
       id="clipPath9614"><rect
         height="201.60001"
         width="558"
         x="90"
         y="25.200001"
         id="rect9616" /></clipPath><clipPath
       id="clipPath9618"><rect
         height="201.60001"
         width="558"
         x="90"
         y="25.200001"
         id="rect9620" /></clipPath><clipPath
       id="clipPath9622"><rect
         height="201.60001"
         width="558"
         x="90"
         y="25.200001"
         id="rect9624" /></clipPath><clipPath
       id="clipPath9626"><rect
         height="201.60001"
         width="558"
         x="90"
         y="25.200001"
         id="rect9628" /></clipPath><clipPath
       id="clipPath9630"><rect
         height="201.60001"
         width="558"
         x="90"
         y="25.200001"
         id="rect9632" /></clipPath><clipPath
       id="clipPath9634"><rect
         height="201.60001"
         width="558"
         x="90"
         y="25.200001"
         id="rect9636" /></clipPath><clipPath
       id="clipPath9638"><rect
         height="201.60001"
         width="558"
         x="90"
         y="25.200001"
         id="rect9640" /></clipPath><clipPath
       id="clipPath9642"><rect
         height="201.60001"
         width="558"
         x="90"
         y="25.200001"
         id="rect9644" /></clipPath><clipPath
       id="clipPath9646"><rect
         height="201.60001"
         width="558"
         x="90"
         y="25.200001"
         id="rect9648" /></clipPath><clipPath
       id="clipPath9650"><rect
         height="201.60001"
         width="558"
         x="90"
         y="25.200001"
         id="rect9652" /></clipPath><clipPath
       id="clipPath9654"><rect
         height="201.60001"
         width="558"
         x="90"
         y="25.200001"
         id="rect9656" /></clipPath><clipPath
       id="clipPath9658"><rect
         height="201.60001"
         width="558"
         x="90"
         y="25.200001"
         id="rect9660" /></clipPath><clipPath
       id="clipPath9662"><rect
         height="201.60001"
         width="558"
         x="90"
         y="25.200001"
         id="rect9664" /></clipPath><clipPath
       id="clipPath9666"><rect
         height="201.60001"
         width="558"
         x="90"
         y="25.200001"
         id="rect9668" /></clipPath><clipPath
       id="clipPath9670"><rect
         height="201.60001"
         width="558"
         x="90"
         y="25.200001"
         id="rect9672" /></clipPath><clipPath
       id="clipPath9674"><rect
         height="201.60001"
         width="558"
         x="90"
         y="25.200001"
         id="rect9676" /></clipPath><clipPath
       id="clipPath9678"><rect
         height="201.60001"
         width="558"
         x="90"
         y="25.200001"
         id="rect9680" /></clipPath><clipPath
       id="clipPath9682"><rect
         height="201.60001"
         width="558"
         x="90"
         y="25.200001"
         id="rect9684" /></clipPath><clipPath
       id="clipPath9686"><rect
         height="201.60001"
         width="558"
         x="90"
         y="25.200001"
         id="rect9688" /></clipPath><clipPath
       id="clipPath9690"><rect
         height="201.60001"
         width="558"
         x="90"
         y="25.200001"
         id="rect9692" /></clipPath><clipPath
       id="clipPath9694"><rect
         height="201.60001"
         width="558"
         x="90"
         y="25.200001"
         id="rect9696" /></clipPath><clipPath
       id="clipPath9698"><rect
         height="201.60001"
         width="558"
         x="90"
         y="25.200001"
         id="rect9700" /></clipPath><clipPath
       id="clipPath9702"><rect
         height="201.60001"
         width="558"
         x="90"
         y="25.200001"
         id="rect9704" /></clipPath><clipPath
       id="clipPath9706"><rect
         height="201.60001"
         width="558"
         x="90"
         y="25.200001"
         id="rect9708" /></clipPath><clipPath
       id="clipPath9710"><rect
         height="201.60001"
         width="558"
         x="90"
         y="25.200001"
         id="rect9712" /></clipPath><clipPath
       id="clipPath9714"><rect
         height="201.60001"
         width="558"
         x="90"
         y="25.200001"
         id="rect9716" /></clipPath><clipPath
       id="clipPath9718"><rect
         height="201.60001"
         width="558"
         x="90"
         y="25.200001"
         id="rect9720" /></clipPath><clipPath
       id="clipPath9722"><rect
         height="201.60001"
         width="558"
         x="90"
         y="25.200001"
         id="rect9724" /></clipPath><clipPath
       id="clipPath9726"><rect
         height="201.60001"
         width="558"
         x="90"
         y="25.200001"
         id="rect9728" /></clipPath><clipPath
       id="clipPath9730"><rect
         height="201.60001"
         width="558"
         x="90"
         y="25.200001"
         id="rect9732" /></clipPath><clipPath
       id="clipPath9734"><rect
         height="201.60001"
         width="558"
         x="90"
         y="25.200001"
         id="rect9736" /></clipPath><clipPath
       id="clipPath9738"><rect
         height="201.60001"
         width="558"
         x="90"
         y="25.200001"
         id="rect9740" /></clipPath><clipPath
       id="clipPath9742"><rect
         height="201.60001"
         width="558"
         x="90"
         y="25.200001"
         id="rect9744" /></clipPath><clipPath
       id="clipPath9746"><rect
         height="201.60001"
         width="558"
         x="90"
         y="25.200001"
         id="rect9748" /></clipPath><clipPath
       id="pf982c5de08-7"><rect
         height="201.60001"
         width="558"
         x="90"
         y="25.200001"
         id="rect4622-9" /></clipPath><clipPath
       id="clipPath11708"><rect
         height="201.60001"
         width="558"
         x="90"
         y="25.200001"
         id="rect11710" /></clipPath><clipPath
       id="clipPath11712"><rect
         height="201.60001"
         width="558"
         x="90"
         y="25.200001"
         id="rect11714" /></clipPath><clipPath
       id="clipPath11716"><rect
         height="201.60001"
         width="558"
         x="90"
         y="25.200001"
         id="rect11718" /></clipPath><clipPath
       id="clipPath11720"><rect
         height="201.60001"
         width="558"
         x="90"
         y="25.200001"
         id="rect11722" /></clipPath><clipPath
       id="clipPath11724"><rect
         height="201.60001"
         width="558"
         x="90"
         y="25.200001"
         id="rect11726" /></clipPath><clipPath
       id="clipPath11728"><rect
         height="201.60001"
         width="558"
         x="90"
         y="25.200001"
         id="rect11730" /></clipPath><clipPath
       id="clipPath11732"><rect
         height="201.60001"
         width="558"
         x="90"
         y="25.200001"
         id="rect11734" /></clipPath><clipPath
       id="clipPath11736"><rect
         height="201.60001"
         width="558"
         x="90"
         y="25.200001"
         id="rect11738" /></clipPath><clipPath
       id="clipPath11740"><rect
         height="201.60001"
         width="558"
         x="90"
         y="25.200001"
         id="rect11742" /></clipPath><clipPath
       id="clipPath11744"><rect
         height="201.60001"
         width="558"
         x="90"
         y="25.200001"
         id="rect11746" /></clipPath><clipPath
       id="clipPath11748"><rect
         height="201.60001"
         width="558"
         x="90"
         y="25.200001"
         id="rect11750" /></clipPath><clipPath
       id="clipPath11752"><rect
         height="201.60001"
         width="558"
         x="90"
         y="25.200001"
         id="rect11754" /></clipPath><clipPath
       id="clipPath11756"><rect
         height="201.60001"
         width="558"
         x="90"
         y="25.200001"
         id="rect11758" /></clipPath><clipPath
       id="clipPath11760"><rect
         height="201.60001"
         width="558"
         x="90"
         y="25.200001"
         id="rect11762" /></clipPath><clipPath
       id="clipPath11764"><rect
         height="201.60001"
         width="558"
         x="90"
         y="25.200001"
         id="rect11766" /></clipPath><clipPath
       id="clipPath11768"><rect
         height="201.60001"
         width="558"
         x="90"
         y="25.200001"
         id="rect11770" /></clipPath><clipPath
       id="clipPath11772"><rect
         height="201.60001"
         width="558"
         x="90"
         y="25.200001"
         id="rect11774" /></clipPath><clipPath
       id="clipPath11776"><rect
         height="201.60001"
         width="558"
         x="90"
         y="25.200001"
         id="rect11778" /></clipPath><clipPath
       id="clipPath11780"><rect
         height="201.60001"
         width="558"
         x="90"
         y="25.200001"
         id="rect11782" /></clipPath><clipPath
       id="clipPath11784"><rect
         height="201.60001"
         width="558"
         x="90"
         y="25.200001"
         id="rect11786" /></clipPath><clipPath
       id="clipPath11788"><rect
         height="201.60001"
         width="558"
         x="90"
         y="25.200001"
         id="rect11790" /></clipPath><clipPath
       id="clipPath11792"><rect
         height="201.60001"
         width="558"
         x="90"
         y="25.200001"
         id="rect11794" /></clipPath><clipPath
       id="clipPath11796"><rect
         height="201.60001"
         width="558"
         x="90"
         y="25.200001"
         id="rect11798" /></clipPath><clipPath
       id="clipPath11800"><rect
         height="201.60001"
         width="558"
         x="90"
         y="25.200001"
         id="rect11802" /></clipPath><clipPath
       id="clipPath11804"><rect
         height="201.60001"
         width="558"
         x="90"
         y="25.200001"
         id="rect11806" /></clipPath><clipPath
       id="clipPath11808"><rect
         height="201.60001"
         width="558"
         x="90"
         y="25.200001"
         id="rect11810" /></clipPath><clipPath
       id="clipPath11812"><rect
         height="201.60001"
         width="558"
         x="90"
         y="25.200001"
         id="rect11814" /></clipPath><clipPath
       id="clipPath11816"><rect
         height="201.60001"
         width="558"
         x="90"
         y="25.200001"
         id="rect11818" /></clipPath><clipPath
       id="clipPath11820"><rect
         height="201.60001"
         width="558"
         x="90"
         y="25.200001"
         id="rect11822" /></clipPath><clipPath
       id="clipPath11824"><rect
         height="201.60001"
         width="558"
         x="90"
         y="25.200001"
         id="rect11826" /></clipPath><clipPath
       id="clipPath11828"><rect
         height="201.60001"
         width="558"
         x="90"
         y="25.200001"
         id="rect11830" /></clipPath><clipPath
       id="clipPath11832"><rect
         height="201.60001"
         width="558"
         x="90"
         y="25.200001"
         id="rect11834" /></clipPath><clipPath
       id="clipPath11836"><rect
         height="201.60001"
         width="558"
         x="90"
         y="25.200001"
         id="rect11838" /></clipPath><clipPath
       id="clipPath11840"><rect
         height="201.60001"
         width="558"
         x="90"
         y="25.200001"
         id="rect11842" /></clipPath><clipPath
       id="clipPath11844"><rect
         height="201.60001"
         width="558"
         x="90"
         y="25.200001"
         id="rect11846" /></clipPath><clipPath
       id="clipPath11848"><rect
         height="201.60001"
         width="558"
         x="90"
         y="25.200001"
         id="rect11850" /></clipPath><clipPath
       id="clipPath11852"><rect
         height="201.60001"
         width="558"
         x="90"
         y="25.200001"
         id="rect11854" /></clipPath><clipPath
       id="clipPath11856"><rect
         height="201.60001"
         width="558"
         x="90"
         y="25.200001"
         id="rect11858" /></clipPath><clipPath
       id="clipPath11860"><rect
         height="201.60001"
         width="558"
         x="90"
         y="25.200001"
         id="rect11862" /></clipPath><clipPath
       id="clipPath11864"><rect
         height="201.60001"
         width="558"
         x="90"
         y="25.200001"
         id="rect11866" /></clipPath><clipPath
       id="clipPath11868"><rect
         height="201.60001"
         width="558"
         x="90"
         y="25.200001"
         id="rect11870" /></clipPath><clipPath
       id="clipPath11872"><rect
         height="201.60001"
         width="558"
         x="90"
         y="25.200001"
         id="rect11874" /></clipPath><clipPath
       id="clipPath11876"><rect
         height="201.60001"
         width="558"
         x="90"
         y="25.200001"
         id="rect11878" /></clipPath><clipPath
       id="clipPath11880"><rect
         height="201.60001"
         width="558"
         x="90"
         y="25.200001"
         id="rect11882" /></clipPath><clipPath
       id="clipPath11884"><rect
         height="201.60001"
         width="558"
         x="90"
         y="25.200001"
         id="rect11886" /></clipPath><clipPath
       id="clipPath11888"><rect
         height="201.60001"
         width="558"
         x="90"
         y="25.200001"
         id="rect11890" /></clipPath><clipPath
       id="clipPath11892"><rect
         height="201.60001"
         width="558"
         x="90"
         y="25.200001"
         id="rect11894" /></clipPath><clipPath
       id="clipPath11896"><rect
         height="201.60001"
         width="558"
         x="90"
         y="25.200001"
         id="rect11898" /></clipPath><clipPath
       id="clipPath11900"><rect
         height="201.60001"
         width="558"
         x="90"
         y="25.200001"
         id="rect11902" /></clipPath><clipPath
       id="clipPath11904"><rect
         height="201.60001"
         width="558"
         x="90"
         y="25.200001"
         id="rect11906" /></clipPath><clipPath
       id="clipPath11908"><rect
         height="201.60001"
         width="558"
         x="90"
         y="25.200001"
         id="rect11910" /></clipPath><clipPath
       id="clipPath11912"><rect
         height="201.60001"
         width="558"
         x="90"
         y="25.200001"
         id="rect11914" /></clipPath><clipPath
       id="clipPath11916"><rect
         height="201.60001"
         width="558"
         x="90"
         y="25.200001"
         id="rect11918" /></clipPath><clipPath
       id="clipPath11920"><rect
         height="201.60001"
         width="558"
         x="90"
         y="25.200001"
         id="rect11922" /></clipPath><clipPath
       id="clipPath11924"><rect
         height="201.60001"
         width="558"
         x="90"
         y="25.200001"
         id="rect11926" /></clipPath><clipPath
       id="clipPath11928"><rect
         height="201.60001"
         width="558"
         x="90"
         y="25.200001"
         id="rect11930" /></clipPath><clipPath
       id="clipPath11932"><rect
         height="201.60001"
         width="558"
         x="90"
         y="25.200001"
         id="rect11934" /></clipPath><clipPath
       id="clipPath11936"><rect
         height="201.60001"
         width="558"
         x="90"
         y="25.200001"
         id="rect11938" /></clipPath><clipPath
       id="clipPath11940"><rect
         height="201.60001"
         width="558"
         x="90"
         y="25.200001"
         id="rect11942" /></clipPath><clipPath
       id="clipPath11944"><rect
         height="201.60001"
         width="558"
         x="90"
         y="25.200001"
         id="rect11946" /></clipPath><clipPath
       id="clipPath11948"><rect
         height="201.60001"
         width="558"
         x="90"
         y="25.200001"
         id="rect11950" /></clipPath><clipPath
       id="clipPath11952"><rect
         height="201.60001"
         width="558"
         x="90"
         y="25.200001"
         id="rect11954" /></clipPath><clipPath
       id="clipPath11956"><rect
         height="201.60001"
         width="558"
         x="90"
         y="25.200001"
         id="rect11958" /></clipPath><clipPath
       id="clipPath11960"><rect
         height="201.60001"
         width="558"
         x="90"
         y="25.200001"
         id="rect11962" /></clipPath><clipPath
       id="clipPath11964"><rect
         height="201.60001"
         width="558"
         x="90"
         y="25.200001"
         id="rect11966" /></clipPath><clipPath
       id="clipPath11968"><rect
         height="201.60001"
         width="558"
         x="90"
         y="25.200001"
         id="rect11970" /></clipPath><clipPath
       id="clipPath11972"><rect
         height="201.60001"
         width="558"
         x="90"
         y="25.200001"
         id="rect11974" /></clipPath><clipPath
       id="clipPath11976"><rect
         height="201.60001"
         width="558"
         x="90"
         y="25.200001"
         id="rect11978" /></clipPath><clipPath
       id="clipPath11980"><rect
         height="201.60001"
         width="558"
         x="90"
         y="25.200001"
         id="rect11982" /></clipPath><clipPath
       id="clipPath11984"><rect
         height="201.60001"
         width="558"
         x="90"
         y="25.200001"
         id="rect11986" /></clipPath><clipPath
       id="clipPath11988"><rect
         height="201.60001"
         width="558"
         x="90"
         y="25.200001"
         id="rect11990" /></clipPath><clipPath
       id="clipPath11992"><rect
         height="201.60001"
         width="558"
         x="90"
         y="25.200001"
         id="rect11994" /></clipPath><clipPath
       id="clipPath11996"><rect
         height="201.60001"
         width="558"
         x="90"
         y="25.200001"
         id="rect11998" /></clipPath><defs
       id="defs4419"><path
         id="Cf_0_616f68b6d9"
         d="m 613.254,-16.2256 -0.129,0 0,-2.3667 0,-2.3668 0,-2.3667 0,-2.3667 0,-2.3667 0,-2.3668 0,-2.3667 0,-2.3667 0,-2.3668 0,-2.3667 0,-2.3667 0,-2.3667 0,-2.3668 0,-2.3667 0,-2.3667 0,-2.3667 0,-2.3668 0,-2.3667 0,-2.3667 0,-2.3667 0,-2.3668 0,-2.3667 0,-2.3667 0,-2.3667 0,-2.3668 0,-2.3667 0,-2.3667 0,-2.3667 0,-2.3668 0,-2.3667 0,-2.3667 0,-2.3668 0,-2.3667 0,-2.3667 0,-2.3667 0,-2.367 0,-2.366 0,-2.367 0,-2.367 0,-2.367 0,-2.366 0,-2.367 0,-2.367 0,-2.367 0,-2.366 0,-2.367 0,-2.367 0,-2.366 0,-2.367 0,-2.367 0,-2.367 0,-2.366 0,-2.367 0,-2.367 0,-2.367 0,-2.366 0,-2.367 0,-2.367 0,-2.366 0,-2.367 0,-2.367 0,-2.367 0,-2.366 0,-2.367 0,-2.367 0,-2.367 0,-2.366 0,-2.367 0,-2.367 0,-2.366 0,-2.367 0,-2.367 0,-2.367 0,-2.366 0,-2.367 0,-2.367 0,-2.367 0,-2.366 0,-2.367 0,-2.367 0,-2.366 0,-2.367 0,-2.367 0,-2.367 0,-2.366 0,-2.367 0,-2.367 0,-2.367 0,-2.366 0,-2.367 0,-2.367 0,-2.366 0,-2.367 0,-2.367 0,-2.367 0,-2.366 0,-2.367 0,-2.367 0,-2.367 0.043,0 0,0 0.019,2.367 0.026,2.367 0.03,2.367 0.035,2.366 0.038,2.367 0.039,2.367 0.035,2.367 0.029,2.366 0.022,2.367 0.013,2.367 0.005,2.366 0.001,2.367 0.002,2.367 0.012,2.367 0.031,2.366 0.059,2.367 0.098,2.367 0.142,2.367 0.192,2.366 0.241,2.367 0.286,2.367 0.326,2.366 0.356,2.367 0.376,2.367 0.392,2.367 0.405,2.366 0.421,2.367 0.442,2.367 0.475,2.367 0.512,2.366 0.555,2.367 0.596,2.367 0.627,2.366 0.645,2.367 0.645,2.367 0.627,2.367 0.59,2.366 0.539,2.367 0.475,2.367 0.403,2.367 0.326,2.366 0.248,2.367 0.178,2.367 0.118,2.366 0.078,2.367 0.065,2.367 0.085,2.367 0.141,2.366 0.239,2.367 0.377,2.367 0.552,2.367 0.758,2.366 0.985,2.367 1.213,2.367 1.422,2.366 1.589,2.367 1.686,2.367 1.693,2.367 1.6,2.366 1.407,2.367 1.124,2.367 0.779,2.367 0.402,2.366 0.03,2.367 -0.308,2.3667 -0.584,2.3667 -0.785,2.3667 -0.904,2.3668 -0.942,2.3667 -0.913,2.3667 -0.83,2.3668 -0.715,2.3667 -0.589,2.3667 -0.475,2.3667 -0.397,2.3668 -0.374,2.3667 -0.417,2.3667 -0.53,2.3667 -0.703,2.3668 -0.917,2.3667 -1.145,2.3667 -1.358,2.3667 -1.526,2.3668 -1.633,2.3667 -1.664,2.3667 -1.625,2.3667 -1.522,2.3668 -1.375,2.3667 -1.201,2.3667 -1.017,2.3667 -0.837,2.3668 -0.673,2.3667 -0.529,2.3667 -0.406,2.3668 -0.304,2.3667 -0.224,2.3667 -0.161,2.3667 -0.112,2.3668 -0.076,2.3667 z"
         inkscape:connector-curvature="0" /></defs><defs
       id="defs4411"><path
         id="Ce_0_ba92773835"
         d="m 613.125,-25.5551 -0.058,0 -0.032,-2.2673 -0.046,-2.2673 -0.064,-2.2673 -0.087,-2.2673 -0.114,-2.2673 -0.148,-2.2673 -0.187,-2.2673 -0.231,-2.2673 -0.28,-2.2674 -0.331,-2.2673 -0.385,-2.2673 -0.438,-2.2673 -0.489,-2.2673 -0.535,-2.2673 -0.575,-2.2673 -0.606,-2.2673 -0.632,-2.2673 -0.648,-2.2673 -0.659,-2.2673 -0.667,-2.2674 -0.672,-2.2673 -0.68,-2.2673 -0.692,-2.2673 -0.715,-2.2673 -0.75,-2.2673 -0.799,-2.2673 -0.862,-2.2673 -0.932,-2.2673 -0.999,-2.2673 -1.049,-2.2674 -1.066,-2.2673 -1.035,-2.2673 -0.944,-2.267 -0.791,-2.268 -0.579,-2.267 -0.325,-2.267 -0.048,-2.268 0.226,-2.267 0.472,-2.267 0.674,-2.267 0.816,-2.268 0.895,-2.267 0.918,-2.267 0.894,-2.268 0.835,-2.267 0.76,-2.267 0.677,-2.268 0.6,-2.267 0.535,-2.267 0.485,-2.268 0.453,-2.267 0.436,-2.267 0.435,-2.267 0.442,-2.268 0.458,-2.267 0.473,-2.267 0.487,-2.268 0.497,-2.267 0.499,-2.267 0.496,-2.268 0.486,-2.267 0.469,-2.267 0.448,-2.268 0.42,-2.267 0.389,-2.267 0.354,-2.267 0.318,-2.268 0.283,-2.267 0.252,-2.267 0.228,-2.268 0.213,-2.267 0.207,-2.267 0.209,-2.268 0.218,-2.267 0.227,-2.267 0.234,-2.268 0.234,-2.267 0.223,-2.267 0.203,-2.268 0.173,-2.267 0.137,-2.267 0.098,-2.267 0.061,-2.268 0.029,-2.267 0.007,-2.267 -0.007,-2.268 -0.01,-2.267 -0.004,-2.267 0.008,-2.268 0.024,-2.267 0.04,-2.267 0.053,-2.268 0.063,-2.267 0.066,-2.267 0.066,-2.267 0.061,-2.268 0.053,-2.267 0.044,-2.267 0.034,-2.268 0.076,0 0,0 0,2.268 0,2.267 0,2.267 0,2.268 0,2.267 0,2.267 0,2.267 0,2.268 0,2.267 0,2.267 0,2.268 0,2.267 0,2.267 0,2.268 0,2.267 0,2.267 0,2.268 0,2.267 0,2.267 0,2.267 0,2.268 0,2.267 0,2.267 0,2.268 0,2.267 0,2.267 0,2.268 0,2.267 0,2.267 0,2.268 0,2.267 0,2.267 0,2.268 0,2.267 0,2.267 0,2.267 0,2.268 0,2.267 0,2.267 0,2.268 0,2.267 0,2.267 0,2.268 0,2.267 0,2.267 0,2.268 0,2.267 0,2.267 0,2.267 0,2.268 0,2.267 0,2.267 0,2.268 0,2.267 0,2.267 0,2.268 0,2.267 0,2.267 0,2.268 0,2.267 0,2.267 0,2.267 0,2.268 0,2.267 0,2.267 0,2.268 0,2.267 0,2.2673 0,2.2673 0,2.2674 0,2.2673 0,2.2673 0,2.2673 0,2.2673 0,2.2673 0,2.2673 0,2.2673 0,2.2673 0,2.2673 0,2.2674 0,2.2673 0,2.2673 0,2.2673 0,2.2673 0,2.2673 0,2.2673 0,2.2673 0,2.2673 0,2.2673 0,2.2673 0,2.2674 0,2.2673 0,2.2673 0,2.2673 0,2.2673 0,2.2673 0,2.2673 0,2.2673 0,2.2673 z"
         inkscape:connector-curvature="0" /></defs><defs
       id="defs4403"><path
         id="Cd_0_568caa0d2b"
         d="m 543.494,-15.9755 -0.119,0 0,-2.3718 0,-2.3717 0,-2.3718 0,-2.3718 0,-2.3718 0,-2.3718 0,-2.3717 0,-2.3718 0,-2.3718 0,-2.3718 0,-2.3717 0,-2.3718 0,-2.3718 0,-2.3718 0,-2.3718 0,-2.3717 0,-2.3718 0,-2.3718 0,-2.3718 0,-2.3718 0,-2.3717 0,-2.3718 0,-2.3718 0,-2.3718 0,-2.3718 0,-2.3717 0,-2.3718 0,-2.3718 0,-2.3718 0,-2.3718 0,-2.3717 0,-2.3718 0,-2.3718 0,-2.3718 0,-2.3718 0,-2.3722 0,-2.371 0,-2.372 0,-2.372 0,-2.372 0,-2.371 0,-2.372 0,-2.372 0,-2.372 0,-2.372 0,-2.371 0,-2.372 0,-2.372 0,-2.372 0,-2.371 0,-2.372 0,-2.372 0,-2.372 0,-2.372 0,-2.371 0,-2.372 0,-2.372 0,-2.372 0,-2.371 0,-2.372 0,-2.372 0,-2.372 0,-2.372 0,-2.371 0,-2.372 0,-2.372 0,-2.372 0,-2.371 0,-2.372 0,-2.372 0,-2.372 0,-2.372 0,-2.371 0,-2.372 0,-2.372 0,-2.372 0,-2.371 0,-2.372 0,-2.372 0,-2.372 0,-2.372 0,-2.371 0,-2.372 0,-2.372 0,-2.372 0,-2.372 0,-2.371 0,-2.372 0,-2.372 0,-2.372 0,-2.371 0,-2.372 0,-2.372 0,-2.372 0,-2.372 0,-2.371 0,-2.372 0,-2.372 0,-2.372 0.086,0 0,0 0.04,2.372 0.05,2.372 0.061,2.372 0.07,2.371 0.076,2.372 0.075,2.372 0.071,2.372 0.058,2.372 0.041,2.371 0.021,2.372 0,2.372 -0.018,2.372 -0.027,2.371 -0.028,2.372 -0.016,2.372 0.007,2.372 0.042,2.372 0.086,2.371 0.135,2.372 0.187,2.372 0.237,2.372 0.283,2.372 0.322,2.371 0.356,2.372 0.383,2.372 0.409,2.372 0.435,2.371 0.462,2.372 0.491,2.372 0.521,2.372 0.548,2.372 0.568,2.371 0.579,2.372 0.579,2.372 0.568,2.372 0.549,2.371 0.525,2.372 0.498,2.372 0.469,2.372 0.437,2.372 0.401,2.371 0.36,2.372 0.316,2.372 0.272,2.372 0.234,2.371 0.212,2.372 0.213,2.372 0.25,2.372 0.325,2.372 0.442,2.371 0.6,2.372 0.792,2.372 1.004,2.372 1.217,2.371 1.411,2.372 1.559,2.372 1.635,2.372 1.623,2.372 1.512,2.371 1.303,2.372 1.013,2.372 0.669,2.372 0.301,2.371 -0.052,2.3722 -0.363,2.3718 -0.609,2.3718 -0.78,2.3718 -0.876,2.3718 -0.907,2.3717 -0.883,2.3718 -0.822,2.3718 -0.738,2.3718 -0.648,2.3718 -0.565,2.3717 -0.508,2.3718 -0.489,2.3718 -0.52,2.3718 -0.605,2.3718 -0.74,2.3717 -0.915,2.3718 -1.106,2.3718 -1.292,2.3718 -1.445,2.3718 -1.547,2.3717 -1.586,2.3718 -1.558,2.3718 -1.472,2.3718 -1.338,2.3718 -1.177,2.3717 -1,2.3718 -0.826,2.3718 -0.663,2.3718 -0.519,2.3717 -0.395,2.3718 -0.295,2.3718 -0.214,2.3718 -0.152,2.3718 -0.105,2.3717 -0.071,2.3718 z"
         inkscape:connector-curvature="0" /></defs><defs
       id="defs4395"><path
         id="Cc_0_0bec7e0993"
         d="m 543.375,-20.7521 -0.045,0 -0.024,-2.316 -0.033,-2.316 -0.045,-2.316 -0.06,-2.316 -0.08,-2.3161 -0.105,-2.316 -0.136,-2.316 -0.176,-2.316 -0.224,-2.316 -0.282,-2.316 -0.35,-2.316 -0.423,-2.316 -0.497,-2.316 -0.568,-2.316 -0.629,-2.316 -0.673,-2.3161 -0.698,-2.316 -0.703,-2.316 -0.691,-2.316 -0.669,-2.316 -0.644,-2.316 -0.626,-2.316 -0.622,-2.316 -0.639,-2.316 -0.679,-2.316 -0.739,-2.316 -0.816,-2.3161 -0.904,-2.316 -0.991,-2.316 -1.066,-2.316 -1.116,-2.316 -1.126,-2.316 -1.085,-2.316 -0.983,-2.316 -0.818,-2.3156 -0.592,-2.316 -0.319,-2.316 -0.021,-2.316 0.28,-2.316 0.556,-2.316 0.783,-2.316 0.949,-2.316 1.042,-2.317 1.068,-2.316 1.035,-2.316 0.958,-2.316 0.85,-2.316 0.729,-2.316 0.606,-2.316 0.493,-2.316 0.396,-2.316 0.322,-2.316 0.276,-2.316 0.257,-2.316 0.265,-2.316 0.296,-2.316 0.344,-2.316 0.401,-2.316 0.459,-2.316 0.509,-2.316 0.546,-2.316 0.566,-2.316 0.567,-2.316 0.547,-2.316 0.511,-2.316 0.461,-2.316 0.405,-2.316 0.345,-2.316 0.293,-2.316 0.249,-2.316 0.223,-2.316 0.211,-2.316 0.215,-2.316 0.231,-2.316 0.251,-2.316 0.272,-2.316 0.283,-2.316 0.285,-2.316 0.271,-2.316 0.247,-2.316 0.21,-2.316 0.17,-2.316 0.127,-2.316 0.089,-2.316 0.057,-2.316 0.033,-2.316 0.019,-2.316 0.012,-2.316 0.013,-2.316 0.016,-2.316 0.023,-2.316 0.029,-2.316 0.034,-2.316 0.035,-2.316 0.035,-2.316 0.033,-2.316 0.028,-2.316 0.023,-2.316 0.019,-2.316 0.039,0 0,0 0,2.316 0,2.316 0,2.316 0,2.316 0,2.316 0,2.316 0,2.316 0,2.316 0,2.316 0,2.316 0,2.316 0,2.316 0,2.316 0,2.316 0,2.316 0,2.316 0,2.316 0,2.316 0,2.316 0,2.316 0,2.316 0,2.316 0,2.316 0,2.316 0,2.316 0,2.316 0,2.316 0,2.316 0,2.316 0,2.316 0,2.316 0,2.316 0,2.316 0,2.316 0,2.316 0,2.316 0,2.316 0,2.316 0,2.316 0,2.316 0,2.316 0,2.316 0,2.316 0,2.316 0,2.316 0,2.316 0,2.316 0,2.316 0,2.316 0,2.316 0,2.316 0,2.316 0,2.316 0,2.316 0,2.316 0,2.316 0,2.317 0,2.316 0,2.316 0,2.316 0,2.316 0,2.316 0,2.316 0,2.316 0,2.3156 0,2.316 0,2.316 0,2.316 0,2.316 0,2.316 0,2.316 0,2.316 0,2.3161 0,2.316 0,2.316 0,2.316 0,2.316 0,2.316 0,2.316 0,2.316 0,2.316 0,2.316 0,2.316 0,2.3161 0,2.316 0,2.316 0,2.316 0,2.316 0,2.316 0,2.316 0,2.316 0,2.316 0,2.316 0,2.316 0,2.3161 0,2.316 0,2.316 0,2.316 0,2.316 z"
         inkscape:connector-curvature="0" /></defs><defs
       id="defs4387"><path
         id="Cb_0_8c77766eda"
         d="m 473.756,-15.1679 -0.131,0 0,-2.3881 0,-2.3881 0,-2.3881 0,-2.3881 0,-2.3881 0,-2.3881 0,-2.3881 0,-2.3881 0,-2.3881 0,-2.3881 0,-2.3881 0,-2.3881 0,-2.3881 0,-2.3881 0,-2.388 0,-2.3881 0,-2.3881 0,-2.3881 0,-2.3881 0,-2.3881 0,-2.3881 0,-2.3881 0,-2.3881 0,-2.3881 0,-2.3881 0,-2.3881 0,-2.3881 0,-2.3881 0,-2.388 0,-2.3881 0,-2.3881 0,-2.3881 0,-2.3881 0,-2.3881 0,-2.3881 0,-2.3878 0,-2.388 0,-2.388 0,-2.389 0,-2.388 0,-2.388 0,-2.388 0,-2.388 0,-2.388 0,-2.388 0,-2.388 0,-2.388 0,-2.388 0,-2.389 0,-2.388 0,-2.388 0,-2.388 0,-2.388 0,-2.388 0,-2.388 0,-2.388 0,-2.388 0,-2.388 0,-2.388 0,-2.389 0,-2.388 0,-2.388 0,-2.388 0,-2.388 0,-2.388 0,-2.388 0,-2.388 0,-2.388 0,-2.388 0,-2.388 0,-2.389 0,-2.388 0,-2.388 0,-2.388 0,-2.388 0,-2.388 0,-2.388 0,-2.388 0,-2.388 0,-2.388 0,-2.388 0,-2.389 0,-2.388 0,-2.388 0,-2.388 0,-2.388 0,-2.388 0,-2.388 0,-2.388 0,-2.388 0,-2.388 0,-2.389 0,-2.388 0,-2.388 0,-2.388 0,-2.388 0,-2.388 0,-2.388 0,-2.388 0.087,0 0,0 0.038,2.388 0.049,2.388 0.059,2.388 0.069,2.388 0.074,2.388 0.075,2.388 0.072,2.388 0.063,2.389 0.049,2.388 0.033,2.388 0.018,2.388 0.006,2.388 0.004,2.388 0.011,2.388 0.031,2.388 0.065,2.388 0.109,2.388 0.162,2.389 0.219,2.388 0.276,2.388 0.325,2.388 0.366,2.388 0.395,2.388 0.412,2.388 0.421,2.388 0.424,2.388 0.426,2.388 0.429,2.388 0.439,2.389 0.451,2.388 0.467,2.388 0.481,2.388 0.491,2.388 0.495,2.388 0.491,2.388 0.48,2.388 0.463,2.388 0.445,2.388 0.425,2.388 0.406,2.389 0.385,2.388 0.366,2.388 0.346,2.388 0.327,2.388 0.313,2.388 0.309,2.388 0.319,2.388 0.351,2.388 0.409,2.388 0.498,2.388 0.615,2.389 0.759,2.388 0.922,2.388 1.091,2.388 1.247,2.388 1.376,2.388 1.454,2.388 1.467,2.388 1.405,2.388 1.261,2.388 1.045,2.389 0.767,2.388 0.45,2.388 0.117,2.3878 -0.205,2.3881 -0.494,2.3881 -0.731,2.3881 -0.903,2.3881 -1.005,2.3881 -1.038,2.3881 -1.009,2.388 -0.933,2.3881 -0.828,2.3881 -0.719,2.3881 -0.626,2.3881 -0.574,2.3881 -0.574,2.3881 -0.635,2.3881 -0.749,2.3881 -0.904,2.3881 -1.076,2.3881 -1.24,2.3881 -1.374,2.3881 -1.459,2.3881 -1.484,2.388 -1.452,2.3881 -1.366,2.3881 -1.242,2.3881 -1.092,2.3881 -0.933,2.3881 -0.774,2.3881 -0.628,2.3881 -0.496,2.3881 -0.383,2.3881 -0.29,2.3881 -0.214,2.3881 -0.155,2.3881 -0.109,2.3881 -0.075,2.3881 z"
         inkscape:connector-curvature="0" /></defs><defs
       id="defs4379"><path
         id="Ca_0_11f64ba827"
         d="m 473.625,-24.4129 -0.063,0 -0.038,-2.2711 -0.054,-2.2711 -0.077,-2.2711 -0.107,-2.2711 -0.145,-2.2711 -0.191,-2.2712 -0.246,-2.2711 -0.31,-2.2711 -0.382,-2.2711 -0.459,-2.2711 -0.538,-2.2711 -0.616,-2.2711 -0.685,-2.2711 -0.742,-2.2711 -0.781,-2.2711 -0.8,-2.2711 -0.795,-2.2711 -0.768,-2.2711 -0.725,-2.2711 -0.668,-2.2711 -0.609,-2.2711 -0.553,-2.2711 -0.514,-2.2711 -0.501,-2.2712 -0.522,-2.2711 -0.585,-2.2711 -0.686,-2.2711 -0.82,-2.2711 -0.97,-2.2711 -1.114,-2.2711 -1.221,-2.2711 -1.265,-2.2711 -1.222,-2.2711 -1.078,-2.2716 -0.838,-2.271 -0.514,-2.271 -0.141,-2.271 0.243,-2.271 0.598,-2.271 0.89,-2.271 1.094,-2.271 1.204,-2.271 1.222,-2.271 1.165,-2.272 1.056,-2.271 0.916,-2.271 0.763,-2.271 0.615,-2.271 0.484,-2.271 0.376,-2.271 0.295,-2.271 0.249,-2.271 0.233,-2.272 0.249,-2.271 0.291,-2.271 0.352,-2.271 0.422,-2.271 0.493,-2.271 0.556,-2.271 0.605,-2.271 0.637,-2.271 0.648,-2.271 0.642,-2.272 0.618,-2.271 0.578,-2.271 0.528,-2.271 0.47,-2.271 0.408,-2.271 0.35,-2.271 0.3,-2.271 0.26,-2.271 0.234,-2.272 0.22,-2.271 0.216,-2.271 0.217,-2.271 0.219,-2.271 0.216,-2.271 0.206,-2.271 0.187,-2.271 0.162,-2.271 0.131,-2.271 0.098,-2.272 0.066,-2.271 0.038,-2.271 0.016,-2.271 0.003,-2.271 -0.004,-2.271 -0.004,-2.271 0.002,-2.271 0.01,-2.271 0.019,-2.272 0.027,-2.271 0.034,-2.271 0.036,-2.271 0.037,-2.271 0.033,-2.271 0.03,-2.271 0.024,-2.271 0.019,-2.271 0.041,0 0,0 0,2.271 0,2.271 0,2.271 0,2.271 0,2.271 0,2.271 0,2.271 0,2.271 0,2.272 0,2.271 0,2.271 0,2.271 0,2.271 0,2.271 0,2.271 0,2.271 0,2.271 0,2.272 0,2.271 0,2.271 0,2.271 0,2.271 0,2.271 0,2.271 0,2.271 0,2.271 0,2.271 0,2.272 0,2.271 0,2.271 0,2.271 0,2.271 0,2.271 0,2.271 0,2.271 0,2.271 0,2.272 0,2.271 0,2.271 0,2.271 0,2.271 0,2.271 0,2.271 0,2.271 0,2.271 0,2.271 0,2.272 0,2.271 0,2.271 0,2.271 0,2.271 0,2.271 0,2.271 0,2.271 0,2.271 0,2.272 0,2.271 0,2.271 0,2.271 0,2.271 0,2.271 0,2.271 0,2.271 0,2.271 0,2.271 0,2.2716 0,2.2711 0,2.2711 0,2.2711 0,2.2711 0,2.2711 0,2.2711 0,2.2711 0,2.2711 0,2.2711 0,2.2712 0,2.2711 0,2.2711 0,2.2711 0,2.2711 0,2.2711 0,2.2711 0,2.2711 0,2.2711 0,2.2711 0,2.2711 0,2.2711 0,2.2711 0,2.2711 0,2.2711 0,2.2711 0,2.2711 0,2.2711 0,2.2712 0,2.2711 0,2.2711 0,2.2711 0,2.2711 0,2.2711 z"
         inkscape:connector-curvature="0" /></defs><defs
       id="defs4371"><path
         id="C9_0_fd4a7bfc0f"
         d="m 403.977,-19.8164 -0.102,0 0,-2.0158 0,-2.0159 0,-2.0159 0,-2.0159 0,-2.0159 0,-2.0159 0,-2.0158 0,-2.0159 0,-2.0159 0,-2.0159 0,-2.0159 0,-2.0159 0,-2.0158 0,-2.0159 0,-2.0159 0,-2.0159 0,-2.0159 0,-2.0158 0,-2.0159 0,-2.0159 0,-2.0159 0,-2.0159 0,-2.0159 0,-2.0158 0,-2.0159 0,-2.0159 0,-2.0159 0,-2.0159 0,-2.0159 0,-2.0158 0,-2.0159 0,-2.0159 0,-2.0159 0,-2.0159 0,-2.0159 0,-2.0158 0,-2.0159 0,-2.0159 0,-2.0159 0,-2.0162 0,-2.016 0,-2.015 0,-2.016 0,-2.016 0,-2.016 0,-2.016 0,-2.016 0,-2.016 0,-2.016 0,-2.016 0,-2.015 0,-2.016 0,-2.016 0,-2.016 0,-2.016 0,-2.016 0,-2.016 0,-2.016 0,-2.015 0,-2.016 0,-2.016 0,-2.016 0,-2.016 0,-2.016 0,-2.016 0,-2.016 0,-2.016 0,-2.015 0,-2.016 0,-2.016 0,-2.016 0,-2.016 0,-2.016 0,-2.016 0,-2.016 0,-2.015 0,-2.016 0,-2.016 0,-2.016 0,-2.016 0,-2.016 0,-2.016 0,-2.016 0,-2.016 0,-2.015 0,-2.016 0,-2.016 0,-2.016 0,-2.016 0,-2.016 0,-2.016 0,-2.016 0,-2.015 0,-2.016 0,-2.016 0,-2.016 0,-2.016 0,-2.016 0,-2.016 0.22,0 0,0 0.084,2.016 0.107,2.016 0.135,2.016 0.166,2.016 0.199,2.016 0.233,2.016 0.27,2.015 0.304,2.016 0.338,2.016 0.368,2.016 0.397,2.016 0.421,2.016 0.444,2.016 0.465,2.016 0.484,2.015 0.505,2.016 0.525,2.016 0.549,2.016 0.572,2.016 0.597,2.016 0.62,2.016 0.644,2.016 0.661,2.016 0.675,2.015 0.682,2.016 0.679,2.016 0.669,2.016 0.647,2.016 0.615,2.016 0.572,2.016 0.518,2.016 0.454,2.015 0.382,2.016 0.301,2.016 0.219,2.016 0.135,2.016 0.057,2.016 -0.012,2.016 -0.067,2.016 -0.105,2.016 -0.121,2.015 -0.116,2.016 -0.09,2.016 -0.044,2.016 0.018,2.016 0.088,2.016 0.162,2.016 0.233,2.016 0.293,2.015 0.335,2.016 0.356,2.016 0.351,2.016 0.32,2.016 0.263,2.016 0.183,2.016 0.084,2.016 -0.026,2.016 -0.142,2.015 -0.256,2.016 -0.361,2.0162 -0.454,2.0159 -0.531,2.0159 -0.587,2.0159 -0.625,2.0158 -0.645,2.0159 -0.651,2.0159 -0.643,2.0159 -0.627,2.0159 -0.606,2.0159 -0.582,2.0158 -0.561,2.0159 -0.542,2.0159 -0.527,2.0159 -0.518,2.0159 -0.516,2.0159 -0.517,2.0158 -0.525,2.0159 -0.533,2.0159 -0.543,2.0159 -0.551,2.0159 -0.555,2.0159 -0.554,2.0158 -0.545,2.0159 -0.529,2.0159 -0.505,2.0159 -0.474,2.0159 -0.437,2.0158 -0.397,2.0159 -0.353,2.0159 -0.309,2.0159 -0.265,2.0159 -0.224,2.0159 -0.186,2.0158 -0.151,2.0159 -0.121,2.0159 -0.096,2.0159 -0.074,2.0159 -0.056,2.0159 -0.042,2.0158 z"
         inkscape:connector-curvature="0" /></defs><defs
       id="defs4363"><path
         id="C8_0_6cbf6962e1"
         d="m 403.875,-35.8556 -0.177,0 -0.097,-2.1605 -0.138,-2.1605 -0.191,-2.1605 -0.255,-2.1605 -0.332,-2.1605 -0.419,-2.1605 -0.514,-2.1604 -0.613,-2.1605 -0.711,-2.1605 -0.803,-2.1605 -0.885,-2.1605 -0.949,-2.1605 -0.996,-2.1605 -1.02,-2.1605 -1.024,-2.1605 -1.009,-2.1605 -0.981,-2.1605 -0.945,-2.1605 -0.912,-2.1605 -0.892,-2.1605 -0.891,-2.1604 -0.92,-2.1605 -0.978,-2.1605 -1.065,-2.1605 -1.167,-2.1605 -1.271,-2.1605 -1.352,-2.1605 -1.39,-2.1605 -1.362,-2.1605 -1.254,-2.1601 -1.06,-2.161 -0.787,-2.16 -0.454,-2.161 -0.086,-2.16 0.284,-2.161 0.625,-2.16 0.908,-2.161 1.117,-2.16 1.242,-2.161 1.288,-2.16 1.262,-2.161 1.185,-2.16 1.071,-2.161 0.94,-2.16 0.805,-2.161 0.681,-2.16 0.573,-2.161 0.489,-2.16 0.431,-2.161 0.403,-2.16 0.399,-2.161 0.421,-2.16 0.461,-2.161 0.51,-2.16 0.566,-2.161 0.619,-2.16 0.662,-2.161 0.693,-2.16 0.709,-2.161 0.709,-2.16 0.693,-2.161 0.664,-2.16 0.622,-2.161 0.572,-2.16 0.517,-2.161 0.462,-2.16 0.409,-2.161 0.366,-2.16 0.332,-2.161 0.312,-2.16 0.304,-2.161 0.306,-2.16 0.314,-2.161 0.322,-2.16 0.325,-2.161 0.319,-2.16 0.301,-2.161 0.272,-2.16 0.232,-2.161 0.183,-2.16 0.133,-2.161 0.083,-2.16 0.041,-2.161 0.008,-2.16 -0.012,-2.161 -0.021,-2.16 -0.016,-2.16 -0.003,-2.161 0.016,-2.16 0.038,-2.161 0.058,-2.16 0.075,-2.161 0.085,-2.16 0.089,-2.161 0.087,-2.16 0.08,-2.161 0.07,-2.16 0.058,-2.161 0.045,-2.16 0.106,0 0,0 0,2.16 0,2.161 0,2.16 0,2.161 0,2.16 0,2.161 0,2.16 0,2.161 0,2.16 0,2.161 0,2.16 0,2.161 0,2.16 0,2.16 0,2.161 0,2.16 0,2.161 0,2.16 0,2.161 0,2.16 0,2.161 0,2.16 0,2.161 0,2.16 0,2.161 0,2.16 0,2.161 0,2.16 0,2.161 0,2.16 0,2.161 0,2.16 0,2.161 0,2.16 0,2.161 0,2.16 0,2.161 0,2.16 0,2.161 0,2.16 0,2.161 0,2.16 0,2.161 0,2.16 0,2.161 0,2.16 0,2.161 0,2.16 0,2.161 0,2.16 0,2.161 0,2.16 0,2.161 0,2.16 0,2.161 0,2.16 0,2.161 0,2.16 0,2.161 0,2.16 0,2.161 0,2.16 0,2.161 0,2.16 0,2.161 0,2.16 0,2.161 0,2.16 0,2.161 0,2.1601 0,2.1605 0,2.1605 0,2.1605 0,2.1605 0,2.1605 0,2.1605 0,2.1605 0,2.1605 0,2.1604 0,2.1605 0,2.1605 0,2.1605 0,2.1605 0,2.1605 0,2.1605 0,2.1605 0,2.1605 0,2.1605 0,2.1605 0,2.1605 0,2.1605 0,2.1605 0,2.1604 0,2.1605 0,2.1605 0,2.1605 0,2.1605 0,2.1605 0,2.1605 z"
         inkscape:connector-curvature="0" /></defs><defs
       id="defs4355"><path
         id="C7_0_f694d60258"
         d="m 334.285,-14.2845 -0.16,0 0,-2.0579 0,-2.0578 0,-2.0579 0,-2.0578 0,-2.0579 0,-2.0579 0,-2.0578 0,-2.0579 0,-2.0578 0,-2.0579 0,-2.0579 0,-2.0578 0,-2.0579 0,-2.0578 0,-2.0579 0,-2.0578 0,-2.0579 0,-2.0579 0,-2.0578 0,-2.0579 0,-2.0578 0,-2.0579 0,-2.0578 0,-2.0579 0,-2.0579 0,-2.0578 0,-2.0579 0,-2.0578 0,-2.0579 0,-2.0579 0,-2.0578 0,-2.0579 0,-2.0578 0,-2.0579 0,-2.0578 0,-2.0579 0,-2.0579 0,-2.0578 0,-2.0579 0,-2.0578 0,-2.0579 0,-2.0583 0,-2.057 0,-2.058 0,-2.058 0,-2.058 0,-2.058 0,-2.058 0,-2.058 0,-2.057 0,-2.058 0,-2.058 0,-2.058 0,-2.058 0,-2.058 0,-2.058 0,-2.057 0,-2.058 0,-2.058 0,-2.058 0,-2.058 0,-2.058 0,-2.058 0,-2.057 0,-2.058 0,-2.058 0,-2.058 0,-2.058 0,-2.058 0,-2.058 0,-2.057 0,-2.058 0,-2.058 0,-2.058 0,-2.058 0,-2.058 0,-2.058 0,-2.057 0,-2.058 0,-2.058 0,-2.058 0,-2.058 0,-2.058 0,-2.058 0,-2.057 0,-2.058 0,-2.058 0,-2.058 0,-2.058 0,-2.058 0,-2.058 0,-2.057 0,-2.058 0,-2.058 0,-2.058 0,-2.058 0,-2.058 0,-2.058 0,-2.057 0.191,0 0,0 0.078,2.057 0.102,2.058 0.13,2.058 0.16,2.058 0.192,2.058 0.224,2.058 0.257,2.058 0.285,2.057 0.311,2.058 0.332,2.058 0.349,2.058 0.36,2.058 0.37,2.058 0.378,2.058 0.386,2.057 0.397,2.058 0.409,2.058 0.425,2.058 0.443,2.058 0.461,2.058 0.478,2.058 0.492,2.057 0.501,2.058 0.503,2.058 0.498,2.058 0.485,2.058 0.464,2.058 0.434,2.058 0.397,2.057 0.352,2.058 0.301,2.058 0.245,2.058 0.186,2.058 0.13,2.058 0.079,2.058 0.041,2.057 0.019,2.058 0.02,2.058 0.045,2.058 0.099,2.058 0.179,2.058 0.283,2.058 0.407,2.057 0.542,2.058 0.68,2.058 0.812,2.058 0.925,2.058 1.012,2.058 1.063,2.058 1.072,2.057 1.036,2.058 0.956,2.058 0.837,2.058 0.684,2.058 0.51,2.058 0.324,2.058 0.139,2.057 -0.035,2.0583 -0.187,2.0579 -0.313,2.0578 -0.408,2.0579 -0.474,2.0578 -0.511,2.0579 -0.523,2.0579 -0.514,2.0578 -0.491,2.0579 -0.458,2.0578 -0.424,2.0579 -0.393,2.0578 -0.37,2.0579 -0.363,2.0579 -0.374,2.0578 -0.407,2.0579 -0.463,2.0578 -0.539,2.0579 -0.631,2.0579 -0.734,2.0578 -0.839,2.0579 -0.936,2.0578 -1.02,2.0579 -1.081,2.0578 -1.118,2.0579 -1.125,2.0579 -1.105,2.0578 -1.06,2.0579 -0.994,2.0578 -0.912,2.0579 -0.82,2.0578 -0.722,2.0579 -0.624,2.0579 -0.531,2.0578 -0.441,2.0579 -0.362,2.0578 -0.291,2.0579 -0.229,2.0579 -0.178,2.0578 -0.135,2.0579 -0.101,2.0578 -0.074,2.0579 z"
         inkscape:connector-curvature="0" /></defs><defs
       id="defs4347"><path
         id="C6_0_f1b9abd7be"
         d="m 334.125,-31.2896 -0.156,0 -0.095,-2.2006 -0.14,-2.2006 -0.2,-2.2006 -0.275,-2.2006 -0.365,-2.2006 -0.466,-2.2006 -0.575,-2.2006 -0.685,-2.2007 -0.786,-2.2006 -0.87,-2.2006 -0.932,-2.2006 -0.963,-2.2006 -0.968,-2.2006 -0.946,-2.2006 -0.906,-2.2006 -0.858,-2.2006 -0.815,-2.2006 -0.785,-2.2006 -0.778,-2.2006 -0.796,-2.2006 -0.842,-2.2006 -0.915,-2.2006 -1.008,-2.2006 -1.114,-2.2006 -1.223,-2.2006 -1.322,-2.2006 -1.393,-2.2006 -1.423,-2.2006 -1.394,-2.2006 -1.291,-2.2006 -1.108,-2.2006 -0.846,-2.2007 -0.517,-2.201 -0.144,-2.2 0.245,-2.201 0.617,-2.2 0.938,-2.201 1.187,-2.201 1.351,-2.2 1.425,-2.201 1.422,-2.2 1.36,-2.201 1.257,-2.201 1.135,-2.2 1.008,-2.201 0.887,-2.2 0.779,-2.201 0.687,-2.201 0.608,-2.2 0.546,-2.201 0.498,-2.2 0.467,-2.201 0.449,-2.201 0.447,-2.2 0.454,-2.201 0.47,-2.2 0.491,-2.201 0.513,-2.201 0.531,-2.2 0.545,-2.201 0.55,-2.2 0.547,-2.201 0.533,-2.201 0.508,-2.2 0.475,-2.201 0.434,-2.2 0.388,-2.201 0.342,-2.201 0.303,-2.2 0.271,-2.201 0.251,-2.201 0.242,-2.2 0.243,-2.201 0.249,-2.2 0.254,-2.201 0.256,-2.201 0.246,-2.2 0.227,-2.201 0.194,-2.2 0.153,-2.201 0.106,-2.201 0.057,-2.2 0.014,-2.201 -0.022,-2.2 -0.044,-2.201 -0.052,-2.201 -0.046,-2.2 -0.028,-2.201 -10e-4,-2.2 0.03,-2.201 0.059,-2.201 0.084,-2.2 0.102,-2.201 0.109,-2.2 0.108,-2.201 0.1,-2.201 0.088,-2.2 0.072,-2.201 0.057,-2.2 0.124,0 0,0 0,2.2 0,2.201 0,2.2 0,2.201 0,2.201 0,2.2 0,2.201 0,2.2 0,2.201 0,2.201 0,2.2 0,2.201 0,2.2 0,2.201 0,2.201 0,2.2 0,2.201 0,2.2 0,2.201 0,2.201 0,2.2 0,2.201 0,2.2 0,2.201 0,2.201 0,2.2 0,2.201 0,2.2 0,2.201 0,2.201 0,2.2 0,2.201 0,2.201 0,2.2 0,2.201 0,2.2 0,2.201 0,2.201 0,2.2 0,2.201 0,2.2 0,2.201 0,2.201 0,2.2 0,2.201 0,2.2 0,2.201 0,2.201 0,2.2 0,2.201 0,2.2 0,2.201 0,2.201 0,2.2 0,2.201 0,2.2 0,2.201 0,2.201 0,2.2 0,2.201 0,2.2 0,2.201 0,2.201 0,2.2 0,2.201 0,2.2 0,2.201 0,2.2007 0,2.2006 0,2.2006 0,2.2006 0,2.2006 0,2.2006 0,2.2006 0,2.2006 0,2.2006 0,2.2006 0,2.2006 0,2.2006 0,2.2006 0,2.2006 0,2.2006 0,2.2006 0,2.2006 0,2.2006 0,2.2006 0,2.2006 0,2.2006 0,2.2006 0,2.2006 0,2.2006 0,2.2007 0,2.2006 0,2.2006 0,2.2006 0,2.2006 0,2.2006 0,2.2006 0,2.2006 z"
         inkscape:connector-curvature="0" /></defs><defs
       id="defs4339"><path
         id="C5_0_11e0ff900e"
         d="m 264.571,-26.4519 -0.196,0 0,-2.2984 0,-2.2983 0,-2.2983 0,-2.2984 0,-2.2983 0,-2.2983 0,-2.2984 0,-2.2983 0,-2.2983 0,-2.2984 0,-2.2983 0,-2.2984 0,-2.2983 0,-2.2983 0,-2.2984 0,-2.2983 0,-2.2983 0,-2.2984 0,-2.2983 0,-2.2983 0,-2.2984 0,-2.2983 0,-2.2983 0,-2.2984 0,-2.2983 0,-2.2983 0,-2.2984 0,-2.2983 0,-2.2983 0,-2.2984 0,-2.2983 0,-2.2984 0,-2.2983 0,-2.298 0,-2.299 0,-2.298 0,-2.298 0,-2.299 0,-2.298 0,-2.298 0,-2.299 0,-2.298 0,-2.298 0,-2.299 0,-2.298 0,-2.298 0,-2.299 0,-2.298 0,-2.298 0,-2.299 0,-2.298 0,-2.298 0,-2.299 0,-2.298 0,-2.298 0,-2.299 0,-2.298 0,-2.298 0,-2.299 0,-2.298 0,-2.298 0,-2.299 0,-2.298 0,-2.298 0,-2.299 0,-2.298 0,-2.298 0,-2.299 0,-2.298 0,-2.298 0,-2.299 0,-2.298 0,-2.298 0,-2.299 0,-2.298 0,-2.298 0,-2.299 0,-2.298 0,-2.298 0,-2.299 0,-2.298 0,-2.298 0,-2.299 0,-2.298 0,-2.298 0,-2.299 0,-2.298 0,-2.298 0,-2.299 0,-2.298 0,-2.298 0,-2.299 0,-2.298 0,-2.298 0,-2.299 0,-2.298 0,-2.298 0,-2.299 0,-2.298 0.124,0 0,0 0.048,2.298 0.059,2.299 0.07,2.298 0.082,2.298 0.09,2.299 0.094,2.298 0.096,2.298 0.091,2.299 0.081,2.298 0.069,2.298 0.052,2.299 0.038,2.298 0.025,2.298 0.02,2.299 0.023,2.298 0.039,2.298 0.067,2.299 0.107,2.298 0.158,2.298 0.218,2.299 0.283,2.298 0.349,2.298 0.413,2.299 0.472,2.298 0.524,2.298 0.569,2.299 0.608,2.298 0.641,2.298 0.67,2.299 0.697,2.298 0.722,2.298 0.743,2.299 0.761,2.298 0.773,2.298 0.776,2.299 0.77,2.298 0.753,2.298 0.725,2.299 0.686,2.298 0.638,2.298 0.582,2.299 0.517,2.298 0.446,2.298 0.37,2.299 0.29,2.298 0.209,2.298 0.132,2.299 0.063,2.298 0.009,2.298 -0.026,2.299 -0.035,2.298 -0.014,2.298 0.037,2.299 0.118,2.298 0.224,2.298 0.348,2.299 0.477,2.298 0.6,2.298 0.699,2.299 0.764,2.298 0.778,2.298 0.735,2.299 0.631,2.298 0.468,2.298 0.258,2.299 0.014,2.298 -0.245,2.2983 -0.499,2.2984 -0.73,2.2983 -0.921,2.2984 -1.067,2.2983 -1.16,2.2983 -1.204,2.2984 -1.205,2.2983 -1.173,2.2983 -1.118,2.2984 -1.051,2.2983 -0.982,2.2983 -0.917,2.2984 -0.861,2.2983 -0.816,2.2983 -0.782,2.2984 -0.757,2.2983 -0.738,2.2983 -0.723,2.2984 -0.704,2.2983 -0.682,2.2983 -0.652,2.2984 -0.614,2.2983 -0.567,2.2984 -0.513,2.2983 -0.453,2.2983 -0.391,2.2984 -0.328,2.2983 -0.27,2.2983 -0.214,2.2984 -0.167,2.2983 -0.126,2.2983 -0.092,2.2984 z"
         inkscape:connector-curvature="0" /></defs><defs
       id="defs4331"><path
         id="C4_0_dc3f17b531"
         d="m 264.375,-35.9067 -0.346,0 -0.177,-2.1594 -0.244,-2.1595 -0.323,-2.1595 -0.411,-2.1594 -0.506,-2.1595 -0.6,-2.1595 -0.686,-2.1594 -0.757,-2.1595 -0.806,-2.1594 -0.831,-2.1595 -0.833,-2.1595 -0.814,-2.1594 -0.782,-2.1595 -0.747,-2.1594 -0.716,-2.1595 -0.7,-2.1595 -0.707,-2.1594 -0.737,-2.1595 -0.796,-2.1594 -0.881,-2.1595 -0.985,-2.1595 -1.107,-2.1594 -1.233,-2.1595 -1.354,-2.1594 -1.453,-2.1595 -1.514,-2.1595 -1.522,-2.1594 -1.462,-2.1595 -1.325,-2.1595 -1.109,-2.1599 -0.825,-2.159 -0.488,-2.159 -0.123,-2.16 0.242,-2.159 0.576,-2.16 0.859,-2.159 1.072,-2.16 1.209,-2.159 1.271,-2.16 1.269,-2.159 1.218,-2.16 1.132,-2.159 1.024,-2.16 0.908,-2.159 0.788,-2.159 0.673,-2.16 0.566,-2.159 0.475,-2.16 0.402,-2.159 0.353,-2.16 0.334,-2.159 0.344,-2.16 0.383,-2.159 0.445,-2.16 0.521,-2.159 0.605,-2.159 0.683,-2.16 0.748,-2.159 0.79,-2.16 0.807,-2.159 0.796,-2.16 0.757,-2.159 0.697,-2.16 0.62,-2.159 0.534,-2.16 0.448,-2.159 0.369,-2.16 0.303,-2.159 0.255,-2.159 0.226,-2.16 0.215,-2.159 0.218,-2.16 0.232,-2.159 0.247,-2.16 0.26,-2.159 0.266,-2.16 0.261,-2.159 0.245,-2.16 0.218,-2.159 0.184,-2.16 0.145,-2.159 0.107,-2.159 0.071,-2.16 0.041,-2.159 0.021,-2.16 0.008,-2.159 0.004,-2.16 0.007,-2.159 0.013,-2.16 0.024,-2.159 0.033,-2.16 0.042,-2.159 0.046,-2.16 0.049,-2.159 0.047,-2.159 0.043,-2.16 0.038,-2.159 0.031,-2.16 0.025,-2.159 0.057,0 0,0 0,2.159 0,2.16 0,2.159 0,2.16 0,2.159 0,2.159 0,2.16 0,2.159 0,2.16 0,2.159 0,2.16 0,2.159 0,2.16 0,2.159 0,2.16 0,2.159 0,2.16 0,2.159 0,2.159 0,2.16 0,2.159 0,2.16 0,2.159 0,2.16 0,2.159 0,2.16 0,2.159 0,2.16 0,2.159 0,2.16 0,2.159 0,2.159 0,2.16 0,2.159 0,2.16 0,2.159 0,2.16 0,2.159 0,2.16 0,2.159 0,2.16 0,2.159 0,2.16 0,2.159 0,2.159 0,2.16 0,2.159 0,2.16 0,2.159 0,2.16 0,2.159 0,2.16 0,2.159 0,2.16 0,2.159 0,2.159 0,2.16 0,2.159 0,2.16 0,2.159 0,2.16 0,2.159 0,2.16 0,2.159 0,2.16 0,2.159 0,2.16 0,2.159 0,2.159 0,2.1599 0,2.1595 0,2.1595 0,2.1594 0,2.1595 0,2.1595 0,2.1594 0,2.1595 0,2.1594 0,2.1595 0,2.1595 0,2.1594 0,2.1595 0,2.1594 0,2.1595 0,2.1595 0,2.1594 0,2.1595 0,2.1594 0,2.1595 0,2.1595 0,2.1594 0,2.1595 0,2.1594 0,2.1595 0,2.1595 0,2.1594 0,2.1595 0,2.1595 0,2.1594 z"
         inkscape:connector-curvature="0" /></defs><defs
       id="defs4323"><path
         id="C3_0_1158bc34aa"
         d="m 194.853,-35.1178 -0.228,0 0,-1.8716 0,-1.8715 0,-1.8716 0,-1.8716 0,-1.8716 0,-1.8715 0,-1.8716 0,-1.8716 0,-1.8715 0,-1.8716 0,-1.8716 0,-1.8716 0,-1.8715 0,-1.8716 0,-1.8716 0,-1.8716 0,-1.8715 0,-1.8716 0,-1.8716 0,-1.8715 0,-1.8716 0,-1.8716 0,-1.8716 0,-1.8715 0,-1.8716 0,-1.8716 0,-1.8716 0,-1.8715 0,-1.8716 0,-1.8716 0,-1.8715 0,-1.8716 0,-1.8716 0,-1.8716 0,-1.8717 0,-1.871 0,-1.872 0,-1.872 0,-1.871 0,-1.872 0,-1.871 0,-1.872 0,-1.871 0,-1.872 0,-1.872 0,-1.871 0,-1.872 0,-1.871 0,-1.872 0,-1.871 0,-1.872 0,-1.872 0,-1.871 0,-1.872 0,-1.871 0,-1.872 0,-1.871 0,-1.872 0,-1.872 0,-1.871 0,-1.872 0,-1.871 0,-1.872 0,-1.871 0,-1.872 0,-1.872 0,-1.871 0,-1.872 0,-1.871 0,-1.872 0,-1.871 0,-1.872 0,-1.872 0,-1.871 0,-1.872 0,-1.871 0,-1.872 0,-1.871 0,-1.872 0,-1.872 0,-1.871 0,-1.872 0,-1.871 0,-1.872 0,-1.871 0,-1.872 0,-1.872 0,-1.871 0,-1.872 0,-1.871 0,-1.872 0,-1.871 0,-1.872 0,-1.872 0,-1.871 0,-1.872 0,-1.871 0,-1.872 0,-1.871 0.272,0 0,0 0.08,1.871 0.096,1.872 0.117,1.871 0.137,1.872 0.161,1.871 0.186,1.872 0.21,1.872 0.235,1.871 0.26,1.872 0.282,1.871 0.304,1.872 0.321,1.871 0.336,1.872 0.346,1.872 0.354,1.871 0.357,1.872 0.357,1.871 0.353,1.872 0.347,1.871 0.339,1.872 0.33,1.872 0.319,1.871 0.309,1.872 0.3,1.871 0.291,1.872 0.283,1.871 0.275,1.872 0.267,1.872 0.259,1.871 0.25,1.872 0.238,1.871 0.224,1.872 0.208,1.871 0.187,1.872 0.166,1.872 0.141,1.871 0.116,1.872 0.093,1.871 0.071,1.872 0.054,1.871 0.044,1.872 0.042,1.872 0.05,1.871 0.067,1.872 0.096,1.871 0.134,1.872 0.179,1.871 0.23,1.872 0.285,1.872 0.337,1.871 0.386,1.872 0.425,1.871 0.453,1.872 0.464,1.871 0.458,1.872 0.432,1.872 0.388,1.871 0.323,1.872 0.241,1.871 0.146,1.872 0.04,1.871 -0.072,1.872 -0.186,1.872 -0.297,1.871 -0.4,1.8717 -0.492,1.8716 -0.57,1.8716 -0.63,1.8716 -0.676,1.8715 -0.702,1.8716 -0.713,1.8716 -0.711,1.8715 -0.696,1.8716 -0.671,1.8716 -0.641,1.8716 -0.607,1.8715 -0.57,1.8716 -0.536,1.8716 -0.501,1.8716 -0.47,1.8715 -0.442,1.8716 -0.416,1.8716 -0.392,1.8715 -0.372,1.8716 -0.35,1.8716 -0.331,1.8716 -0.311,1.8715 -0.29,1.8716 -0.269,1.8716 -0.247,1.8716 -0.224,1.8715 -0.203,1.8716 -0.179,1.8716 -0.158,1.8715 -0.136,1.8716 -0.116,1.8716 -0.098,1.8716 -0.082,1.8715 -0.066,1.8716 z"
         inkscape:connector-curvature="0" /></defs><defs
       id="defs4315"><path
         id="C2_0_fa09b23fa2"
         d="m 194.625,-37.8742 -0.485,0 -0.178,-2.2259 -0.229,-2.2259 -0.288,-2.2259 -0.355,-2.2258 -0.431,-2.2259 -0.514,-2.2259 -0.601,-2.2259 -0.693,-2.2258 -0.785,-2.2259 -0.878,-2.2259 -0.968,-2.2259 -1.054,-2.2258 -1.135,-2.2259 -1.21,-2.2259 -1.279,-2.2259 -1.34,-2.2258 -1.394,-2.2259 -1.437,-2.2259 -1.468,-2.2259 -1.483,-2.2258 -1.476,-2.2259 -1.446,-2.2259 -1.385,-2.2259 -1.293,-2.2258 -1.166,-2.2259 -1.005,-2.2259 -0.815,-2.2259 -0.6,-2.2261 -0.371,-2.226 -0.138,-2.225 0.089,-2.226 0.299,-2.226 0.481,-2.226 0.629,-2.226 0.736,-2.226 0.803,-2.226 0.83,-2.226 0.818,-2.225 0.775,-2.226 0.707,-2.226 0.621,-2.226 0.525,-2.226 0.425,-2.226 0.33,-2.226 0.245,-2.226 0.177,-2.225 0.13,-2.226 0.107,-2.226 0.111,-2.226 0.141,-2.226 0.196,-2.226 0.271,-2.226 0.361,-2.226 0.462,-2.225 0.565,-2.226 0.665,-2.226 0.752,-2.226 0.826,-2.226 0.881,-2.226 0.916,-2.226 0.93,-2.226 0.926,-2.225 0.906,-2.226 0.874,-2.226 0.832,-2.226 0.784,-2.226 0.733,-2.226 0.677,-2.226 0.621,-2.226 0.564,-2.225 0.504,-2.226 0.443,-2.226 0.38,-2.226 0.315,-2.226 0.251,-2.226 0.19,-2.226 0.132,-2.226 0.081,-2.225 0.04,-2.226 0.012,-2.226 -0.005,-2.226 -0.008,-2.226 0.002,-2.226 0.023,-2.226 0.051,-2.226 0.085,-2.225 0.122,-2.226 0.155,-2.226 0.184,-2.226 0.207,-2.226 0.222,-2.226 0.227,-2.226 0.224,-2.226 0.215,-2.225 0.199,-2.226 0.178,-2.226 0.157,-2.226 0.132,-2.226 0.111,-2.226 0.35,0 0,0 0,2.226 0,2.226 0,2.226 0,2.226 0,2.226 0,2.225 0,2.226 0,2.226 0,2.226 0,2.226 0,2.226 0,2.226 0,2.226 0,2.225 0,2.226 0,2.226 0,2.226 0,2.226 0,2.226 0,2.226 0,2.226 0,2.225 0,2.226 0,2.226 0,2.226 0,2.226 0,2.226 0,2.226 0,2.226 0,2.225 0,2.226 0,2.226 0,2.226 0,2.226 0,2.226 0,2.226 0,2.226 0,2.225 0,2.226 0,2.226 0,2.226 0,2.226 0,2.226 0,2.226 0,2.226 0,2.225 0,2.226 0,2.226 0,2.226 0,2.226 0,2.226 0,2.226 0,2.226 0,2.225 0,2.226 0,2.226 0,2.226 0,2.226 0,2.226 0,2.226 0,2.226 0,2.225 0,2.226 0,2.226 0,2.226 0,2.226 0,2.226 0,2.226 0,2.226 0,2.225 0,2.226 0,2.2261 0,2.2259 0,2.2259 0,2.2259 0,2.2258 0,2.2259 0,2.2259 0,2.2259 0,2.2258 0,2.2259 0,2.2259 0,2.2259 0,2.2258 0,2.2259 0,2.2259 0,2.2259 0,2.2258 0,2.2259 0,2.2259 0,2.2259 0,2.2258 0,2.2259 0,2.2259 0,2.2259 0,2.2258 0,2.2259 0,2.2259 0,2.2259 z"
         inkscape:connector-curvature="0" /></defs><defs
       id="defs4307"><path
         id="C1_0_906b30bb38"
         d="m 125.607,-20.2494 -0.732,0 0,-1.8646 0,-1.8646 0,-1.8646 0,-1.8646 0,-1.8646 0,-1.8646 0,-1.8646 0,-1.8645 0,-1.8646 0,-1.8646 0,-1.8646 0,-1.8646 0,-1.8646 0,-1.8646 0,-1.8646 0,-1.8646 0,-1.8645 0,-1.8646 0,-1.8646 0,-1.8646 0,-1.8646 0,-1.8646 0,-1.8646 0,-1.8646 0,-1.8645 0,-1.8646 0,-1.8646 0,-1.8646 0,-1.8646 0,-1.8646 0,-1.8646 0,-1.8646 0,-1.8646 0,-1.8645 0,-1.8646 0,-1.8646 0,-1.8646 0,-1.8646 0,-1.8646 0,-1.8646 0,-1.8646 0,-1.8645 0,-1.8649 0,-1.864 0,-1.865 0,-1.865 0,-1.864 0,-1.865 0,-1.864 0,-1.865 0,-1.864 0,-1.865 0,-1.865 0,-1.864 0,-1.865 0,-1.864 0,-1.865 0,-1.865 0,-1.864 0,-1.865 0,-1.864 0,-1.865 0,-1.865 0,-1.864 0,-1.865 0,-1.864 0,-1.865 0,-1.864 0,-1.865 0,-1.865 0,-1.864 0,-1.865 0,-1.864 0,-1.865 0,-1.865 0,-1.864 0,-1.865 0,-1.864 0,-1.865 0,-1.865 0,-1.864 0,-1.865 0,-1.864 0,-1.865 0,-1.864 0,-1.865 0,-1.865 0,-1.864 0,-1.865 0,-1.864 0,-1.865 0,-1.865 0,-1.864 0,-1.865 0,-1.864 0,-1.865 0,-1.865 0,-1.864 0,-1.865 0.298,0 0,0 0.064,1.865 0.076,1.864 0.087,1.865 0.101,1.865 0.114,1.864 0.129,1.865 0.144,1.864 0.16,1.865 0.177,1.865 0.193,1.864 0.209,1.865 0.226,1.864 0.242,1.865 0.257,1.865 0.272,1.864 0.285,1.865 0.297,1.864 0.308,1.865 0.318,1.864 0.327,1.865 0.333,1.865 0.34,1.864 0.345,1.865 0.349,1.864 0.352,1.865 0.355,1.865 0.358,1.864 0.36,1.865 0.362,1.864 0.365,1.865 0.368,1.865 0.371,1.864 0.374,1.865 0.376,1.864 0.378,1.865 0.379,1.864 0.378,1.865 0.374,1.865 0.368,1.864 0.358,1.865 0.343,1.864 0.324,1.865 0.298,1.865 0.267,1.864 0.23,1.865 0.188,1.864 0.139,1.865 0.087,1.865 0.03,1.864 -0.028,1.865 -0.088,1.864 -0.147,1.865 -0.204,1.864 -0.257,1.865 -0.304,1.865 -0.346,1.864 -0.377,1.8649 -0.402,1.8645 -0.416,1.8646 -0.42,1.8646 -0.416,1.8646 -0.403,1.8646 -0.383,1.8646 -0.355,1.8646 -0.325,1.8646 -0.29,1.8645 -0.256,1.8646 -0.221,1.8646 -0.19,1.8646 -0.162,1.8646 -0.141,1.8646 -0.125,1.8646 -0.116,1.8646 -0.114,1.8646 -0.12,1.8645 -0.13,1.8646 -0.147,1.8646 -0.167,1.8646 -0.191,1.8646 -0.217,1.8646 -0.242,1.8646 -0.267,1.8646 -0.289,1.8645 -0.309,1.8646 -0.324,1.8646 -0.335,1.8646 -0.341,1.8646 -0.341,1.8646 -0.338,1.8646 -0.329,1.8646 -0.316,1.8646 -0.301,1.8645 -0.281,1.8646 -0.261,1.8646 -0.239,1.8646 -0.216,1.8646 -0.194,1.8646 -0.171,1.8646 -0.149,1.8646 z"
         inkscape:connector-curvature="0" /></defs><defs
       id="defs4299"><path
         id="C0_0_336033017c"
         d="m 124.875,-25.6581 -0.276,0 -0.076,-2.4735 -0.092,-2.4735 -0.112,-2.4735 -0.134,-2.4735 -0.16,-2.4734 -0.19,-2.4735 -0.223,-2.4735 -0.262,-2.4735 -0.304,-2.4735 -0.355,-2.4734 -0.409,-2.4735 -0.471,-2.4735 -0.54,-2.4735 -0.616,-2.4735 -0.698,-2.4734 -0.787,-2.4735 -0.879,-2.4735 -0.976,-2.4735 -1.072,-2.4734 -1.166,-2.4735 -1.255,-2.4735 -1.334,-2.4735 -1.4,-2.4735 -1.451,-2.4734 -1.479,-2.4735 -1.486,-2.4735 -1.466,-2.4735 -1.419,-2.4735 -1.345,-2.4734 -1.245,-2.4735 -1.118,-2.4735 -0.97,-2.473 -0.8032,-2.474 -0.622,-2.473 -0.4312,-2.474 -0.2361,-2.473 -0.0415,-2.474 0.1476,-2.473 0.3266,-2.474 0.4917,-2.473 0.6397,-2.474 0.768,-2.473 0.8754,-2.474 0.959,-2.473 1.023,-2.474 1.064,-2.473 1.085,-2.474 1.088,-2.473 1.075,-2.474 1.048,-2.473 1.011,-2.474 0.965,-2.473 0.913,-2.474 0.859,-2.473 0.803,-2.473 0.746,-2.474 0.692,-2.473 0.638,-2.474 0.589,-2.473 0.541,-2.474 0.495,-2.473 0.453,-2.474 0.41,-2.473 0.369,-2.474 0.329,-2.473 0.287,-2.474 0.247,-2.473 0.205,-2.474 0.164,-2.473 0.126,-2.474 0.089,-2.473 0.056,-2.474 0.029,-2.473 0.009,-2.474 -0.003,-2.473 -0.006,-2.474 0,-2.473 0.016,-2.474 0.041,-2.473 0.074,-2.473 0.112,-2.474 0.155,-2.473 0.199,-2.474 0.243,-2.473 0.284,-2.474 0.32,-2.473 0.349,-2.474 0.371,-2.473 0.383,-2.474 0.388,-2.473 0.383,-2.474 0.371,-2.473 0.353,-2.474 0.328,-2.473 0.301,-2.474 0.271,-2.473 0.24,-2.474 0.209,-2.473 0.178,-2.474 0.724,0 0,0 0,2.474 0,2.473 0,2.474 0,2.473 0,2.474 0,2.473 0,2.474 0,2.473 0,2.474 0,2.473 0,2.474 0,2.473 0,2.474 0,2.473 0,2.474 0,2.473 0,2.474 0,2.473 0,2.474 0,2.473 0,2.473 0,2.474 0,2.473 0,2.474 0,2.473 0,2.474 0,2.473 0,2.474 0,2.473 0,2.474 0,2.473 0,2.474 0,2.473 0,2.474 0,2.473 0,2.474 0,2.473 0,2.474 0,2.473 0,2.474 0,2.473 0,2.474 0,2.473 0,2.474 0,2.473 0,2.473 0,2.474 0,2.473 0,2.474 0,2.473 0,2.474 0,2.473 0,2.474 0,2.473 0,2.474 0,2.473 0,2.474 0,2.473 0,2.474 0,2.473 0,2.474 0,2.473 0,2.474 0,2.473 0,2.474 0,2.473 0,2.474 0,2.473 0,2.4735 0,2.4735 0,2.4734 0,2.4735 0,2.4735 0,2.4735 0,2.4735 0,2.4734 0,2.4735 0,2.4735 0,2.4735 0,2.4735 0,2.4734 0,2.4735 0,2.4735 0,2.4735 0,2.4734 0,2.4735 0,2.4735 0,2.4735 0,2.4735 0,2.4734 0,2.4735 0,2.4735 0,2.4735 0,2.4735 0,2.4734 0,2.4735 0,2.4735 0,2.4735 0,2.4735 z"
         inkscape:connector-curvature="0" /></defs></defs><sodipodi:namedview
     pagecolor="#ffffff"
     bordercolor="#666666"
     borderopacity="1"
     objecttolerance="10"
     gridtolerance="10"
     guidetolerance="10"
     inkscape:pageopacity="0"
     inkscape:pageshadow="2"
     inkscape:window-width="1880"
     inkscape:window-height="1062"
     id="namedview3186"
     showgrid="false"
     inkscape:zoom="0.70844244"
     inkscape:cx="628.43016"
     inkscape:cy="-229.69236"
     inkscape:window-x="1960"
     inkscape:window-y="18"
     inkscape:window-maximized="1"
     inkscape:current-layer="svg3146"
     fit-margin-top="0"
     fit-margin-left="0"
     fit-margin-right="0"
     fit-margin-bottom="0" /><g
     id="g16768"
     transform="translate(3.1471252e-5,-0.00453428)"><g
       id="g16744"><g
         id="g5232"
         transform="translate(0,0.00438255)"><path
           style="fill:#214478;fill-opacity:1;stroke:#ffffff;stroke-width:141.1111145;stroke-linejoin:round;stroke-miterlimit:4;stroke-opacity:1;stroke-dasharray:none"
           id="path3150"
           d="m 5014.0825,94.028953 c -453,0 -904,70.999997 -1335,210.999997 -431,140 -837,347 -1204,613 -367,267.00005 -689,589.00005 -956,956.00005 -266,367 -473,773 -613,1204 -140,431 -211,882 -211,1335 0,452 71,903 211,1334 140,431 347,837 613,1204 267,367 589,689 956,956 367,266 773,473 1204,613 431,140 882,212 1335,212 293,0 585,-30 871,-89 l -435,-2116 c -144,30 -290,45 -436,45 -227,0 -452,-36 -667,-106 -216,-70 -419,-174 -602,-307 -184,-133 -345,-294 -478,-478 -133,-183 -237,-386 -307,-602 -70,-215 -106,-440 -106,-666 0,-227 36,-452 106,-667 70,-216 174,-419 307,-602 133,-184 294,-345 478,-478 183,-133 386,-237 602,-307 215,-70 440,-106 667,-106 l 0,-2159.000047 z"
           inkscape:connector-curvature="0" /><path
           style="fill:#3771c8;fill-opacity:1;stroke:#ffffff;stroke-width:141.1111145;stroke-linejoin:round;stroke-miterlimit:4;stroke-opacity:1;stroke-dasharray:none"
           id="path3152"
           d="m 5885.0825,8643.029 c 156,-33 311,-73 463,-123 431,-140 837,-347 1204,-613 367,-267 689,-589 956,-956 266,-367 473,-773 613,-1204 140,-431 212,-882 212,-1334 0,-302 -32,-604 -95,-900 l -2113,450 c 32,148 48,299 48,450 0,226 -36,451 -106,666 -70,216 -174,419 -307,602 -133,184 -294,345 -478,478 -183,133 -385,237 -601,307 -76,25 -153,45 -231,61 l 435,2116 z"
           inkscape:connector-curvature="0" /><path
           style="fill:#2ca089;stroke:#ffffff;stroke-width:141.1111145;stroke-linejoin:round;stroke-miterlimit:4;stroke-opacity:1;stroke-dasharray:none"
           id="path3154"
           d="m 9238.0825,3513.029 c -32,-147 -71,-292 -117,-435 -140,-431 -347,-837 -613,-1204 -267,-367 -589,-689 -956,-956.00005 -367,-266 -773,-473 -1204,-613 -430,-140 -881,-210.999997 -1334,-210.999997 l 0,2159.000047 c 227,0 452,36 667,106 216,70 418,174 601,307 184,133 345,294 478,478 133,183 237,386 307,602 23,71 43,144 58,217 l 2113,-450 z"
           inkscape:connector-curvature="0" /></g><g
         id="g5215"
         transform="translate(0,0.00438255)"><path
           inkscape:connector-curvature="0"
           style="fill:#214478;fill-opacity:1;stroke:none"
           id="path3156"
           d="m 3915.3273,3961.6989 -106.001,0 0,-211 211.001,0 0,211 -105,0 z" /><path
           inkscape:connector-curvature="0"
           style="fill:#3771c8;fill-opacity:1;stroke:none"
           id="path3158"
           d="m 3915.3273,4520.6989 -106.001,0 0,-210 211.001,0 0,210 -105,0 z" /><path
           inkscape:connector-curvature="0"
           style="fill:#2ca089;fill-opacity:1;stroke:none"
           id="path3160"
           d="m 3915.3273,5080.6989 -106.001,0 0,-211 211.001,0 0,211 -105,0 z" /><text
           y="-83.301125"
           x="-10280.688"
           id="text3162"
           class="TextShape"><tspan
             style="font-size:353px;font-weight:400;font-family:'Liberation Sans, sans-serif'"
             id="tspan3164"
             font-weight="400"
             font-size="353px"
             class="TextParagraph"><tspan
               id="tspan3166"
               y="3979.699"
               x="4120.3159"
               class="TextPosition"><tspan
                 style="fill:#000000;stroke:none"
                 id="tspan3168">Khayatt (494)</tspan></tspan></tspan></text>
<text
           y="-83.301125"
           x="-10280.688"
           id="text3170"
           class="TextShape"><tspan
             style="font-size:353px;font-weight:400;font-family:'Liberation Sans, sans-serif'"
             id="tspan3172"
             font-weight="400"
             font-size="353px"
             class="TextParagraph"><tspan
               id="tspan3174"
               y="4538.6987"
               x="4120.3159"
               class="TextPosition"><tspan
                 style="fill:#000000;stroke:none"
                 id="tspan3176">MIBiG (233)</tspan></tspan></tspan></text>
<text
           y="-83.301125"
           x="-10280.688"
           id="text3178"
           class="TextShape"><tspan
             style="font-size:353px;font-weight:400;font-family:'Liberation Sans, sans-serif'"
             id="tspan3180"
             font-weight="400"
             font-size="353px"
             class="TextParagraph"><tspan
               id="tspan3182"
               y="5098.6987"
               x="4120.3159"
               class="TextPosition"><tspan
                 style="fill:#000000;stroke:none"
                 id="tspan3184">Manual (201)</tspan></tspan></tspan></text>
</g><text
         xml:space="preserve"
         style="font-size:1128.88891602px;font-style:normal;font-weight:normal;line-height:125%;letter-spacing:0px;word-spacing:0px;fill:#000000;fill-opacity:1;stroke:none;font-family:Sans"
         x="-48.506977"
         y="857.69531"
         id="text3960"
         sodipodi:linespacing="125%"><tspan
           sodipodi:role="line"
           id="tspan3962"
           x="-48.506977"
           y="857.69531"
           style="font-weight:bold">a</tspan></text>
</g><g
       transform="translate(-2036.5169,-85.966664)"
       id="g5127"><text
         xml:space="preserve"
         style="font-size:1128.88891602px;font-style:normal;font-weight:normal;line-height:125%;letter-spacing:0px;word-spacing:0px;fill:#000000;fill-opacity:1;stroke:none;font-family:Sans"
         x="11803.736"
         y="943.66199"
         id="text3960-2"
         sodipodi:linespacing="125%"><tspan
           sodipodi:role="line"
           id="tspan3962-0"
           x="11803.736"
           y="943.66199"
           style="font-weight:bold">b</tspan></text>
<g
         id="g4279"><path
           id="path4030"
           d="m 16943.662,187.00003 c -453,0 -902,71 -1333,211 -430,139 -836,346 -1202,611.99997 -366,266.0001 -688,588.0001 -954,954.0001 -266,366 -473,772 -612,1202.0001 -140,430.9999 -211,879.9999 -211,1332.9999 0,452 71,900.9998 211,1331.9999 139,430 346,835.9998 612,1202 266,365.9999 588,687.9999 954,954 366,265.9998 772,472.9999 1202,611.9997 431,140 880,212.0003 1333,212.0003 453,0 902,-72.0003 1333,-212.0003 429,-138.9998 835,-345.9999 1201,-611.9997 366,-266.0001 688,-588.0001 954,-954 266,-366.0002 473,-772 612,-1202 140,-431.0001 212,-879.9999 212,-1331.9999 0,-453 -72,-902 -212,-1332.9999 -139,-430.0001 -346,-836.0001 -612,-1202.0001 -190,-262 -409,-501 -653,-714 l -1418,1625 c 122,106 231,226.0001 326,357 133,182.9999 237,384.9999 307,600.9998 70,215 105,440 105,666.0002 0,224.9999 -35,449.9999 -105,664.9999 -70,215.9999 -174,417.9999 -307,600.9998 -133,183.0003 -294,344.0001 -476,477.0002 -183,133 -385,237 -601,306.9999 -215,70.0001 -440,104.9999 -666,104.9999 -226,0 -451,-34.9998 -666,-104.9999 -216,-69.9999 -418,-173.9999 -601,-306.9999 -183,-133.0001 -344,-293.9999 -477,-477.0002 -133,-182.9999 -237,-384.9999 -307,-600.9998 -70,-215 -105,-440 -105,-664.9999 0,-226.0002 35,-451.0002 105,-666.0002 70,-215.9999 174,-417.9999 307,-600.9998 133,-182.9999 294,-344 477,-477 183,-133 385,-237 601,-307 215,-70 440,-105 666,-105 l 0,-2156.00007 z"
           inkscape:connector-curvature="0"
           style="fill:#214478;stroke:#ffffff;stroke-width:141.1111145;stroke-linecap:round;stroke-miterlimit:4;stroke-opacity:1;stroke-dasharray:none" /><path
           id="path4032"
           d="m 19778.662,1250.0001 c -97,-84 -197,-164 -301,-240.0001 -366,-265.99997 -772,-472.99997 -1201,-611.99997 -310,-101 -630,-166 -954,-195 l -189,2148.00007 c 162,14 322,47 476,97 216,70 418,174 601,307 52,37 102,77 150,120 l 1418,-1625 z"
           inkscape:connector-curvature="0"
           style="fill:#a02c2c;stroke:#ffffff;stroke-width:141.1111145;stroke-linecap:round;stroke-miterlimit:4;stroke-opacity:1;stroke-dasharray:none" /><path
           id="path4034"
           d="m 17322.662,203.00003 c -126,-11 -252,-16 -379,-16 l 0,2156.00007 c 63,0 127,3 190,8 l 189,-2148.00007 z"
           inkscape:connector-curvature="0"
           style="fill:#808080;stroke:#ffffff;stroke-width:141.1111145;stroke-linecap:round;stroke-miterlimit:4;stroke-opacity:1;stroke-dasharray:none" /></g><g
         id="g4262"
         transform="translate(-363.68662,0)"><path
           id="path4036"
           d="m 15953.489,4047.6699 -106,0 0,-211 211,0 0,211 -105,0 z"
           inkscape:connector-curvature="0"
           style="fill:#214478;fill-opacity:1;stroke:none" /><path
           id="path4038"
           d="m 15953.489,4606.6699 -106,0 0,-210 211,0 0,210 -105,0 z"
           inkscape:connector-curvature="0"
           style="fill:#a02c2c;fill-opacity:1;stroke:none" /><path
           id="path4040"
           d="m 15953.489,5166.6699 -106,0 0,-211 211,0 0,211 -105,0 z"
           inkscape:connector-curvature="0"
           style="fill:#808080;fill-opacity:1;stroke:none" /><text
           id="text4042"
           class="TextShape"
           x="2434.4902"
           y="10.67003"
           style="font-size:11.99999905px"><tspan
             id="tspan4044"
             font-weight="400"
             font-size="353px"
             class="TextParagraph"
             style="font-size:352.99996948px;font-weight:400;font-family:Liberation Sans"><tspan
               id="tspan4046"
               y="4065.6699"
               x="16158.49"
               class="TextPosition"><tspan
                 id="tspan4048"
                 style="fill:#000000;stroke:none">Bacteria (822)</tspan></tspan></tspan></text>
<text
           id="text4050"
           class="TextShape"
           x="2434.4902"
           y="10.67003"
           style="font-size:11.99999905px"><tspan
             id="tspan4052"
             font-weight="400"
             font-size="353px"
             class="TextParagraph"
             style="font-size:352.99996948px;font-weight:400;font-family:Liberation Sans"><tspan
               id="tspan4054"
               y="4624.6699"
               x="16158.49"
               class="TextPosition"><tspan
                 id="tspan4056"
                 style="fill:#000000;stroke:none">Eukaryota (93)</tspan></tspan></tspan></text>
<text
           id="text4058"
           class="TextShape"
           x="2434.4902"
           y="10.67003"
           style="font-size:11.99999905px"><tspan
             id="tspan4060"
             font-weight="400"
             font-size="353px"
             class="TextParagraph"
             style="font-size:352.99996948px;font-weight:400;font-family:Liberation Sans"><tspan
               id="tspan4062"
               y="5184.6699"
               x="16158.49"
               class="TextPosition"><tspan
                 id="tspan4064"
                 style="fill:#000000;stroke:none">Unclassified (13)</tspan></tspan></tspan></text>
</g></g><g
       transform="translate(0,0.00438255)"
       id="g5377"><text
         xml:space="preserve"
         style="font-size:1128.88891602px;font-style:normal;font-weight:normal;line-height:125%;letter-spacing:0px;word-spacing:0px;fill:#000000;fill-opacity:1;stroke:none;font-family:Sans"
         x="19699.584"
         y="857.69092"
         id="text3960-2-8"
         sodipodi:linespacing="125%"><tspan
           sodipodi:role="line"
           id="tspan3962-0-6"
           x="19699.584"
           y="857.69092"
           style="font-weight:bold">c</tspan></text>
<g
         id="g5369"><path
           id="path4491"
           d="m 24612.244,94.029053 c -453,0 -904,70.999997 -1335,210.999997 -431,140.0001 -837,347 -1204,613 -367,267.00005 -689,589.00005 -956,956.00005 -266,367 -473,773 -613,1203.9999 -140,430.9999 -211,882.0001 -211,1335 0,439.0001 67,876 198,1294.9998 l 2061,-647.9997 c -66,-210.0001 -100,-428.0001 -100,-647.0001 0,-227.0001 36,-452 106,-667 70,-215.9999 174,-418.9998 307,-602.0001 133,-183.9998 294,-344.9999 478,-477.9998 183,-133 386,-237 602,-307 215,-70 440,-106 667,-106 l 0,-2159.000047 z"
           inkscape:connector-curvature="0"
           style="fill:#214478;fill-opacity:1;stroke:#ffffff;stroke-width:141.1111145;stroke-miterlimit:4;stroke-opacity:1;stroke-dasharray:none" /><path
           id="path4493"
           d="m 20491.244,5708.0288 c 5,13 9,26 13,39 140,431.0002 347,837 613,1204.0001 267,367.0001 589,689.0001 956,956.0001 367,265.9998 773,472.9999 1204,612.9999 431,140 882,212 1335,212 453,0 904,-72 1335,-212 358,-116.0001 699,-279.0001 1015,-484.0001 l -1175,-1811.9998 c -158,101.9999 -328,183.9998 -508,241.9999 -215,70.0001 -440,106.0001 -667,106.0001 -227,0 -452,-36 -667,-106.0001 -216,-69.9999 -419,-173.9999 -602,-306.9999 -184,-133.0001 -345,-294 -478,-478.0001 -133,-182.9999 -237,-385.9998 -307,-602 -2,-5.9998 -4,-13 -6,-18.9998 l -2061,647.9997 z"
           inkscape:connector-curvature="0"
           style="fill:#3771c8;stroke:#ffffff;stroke-width:141.1111145;stroke-miterlimit:4;stroke-opacity:1;stroke-dasharray:none" /><path
           id="path4495"
           d="m 26962.244,8036.0288 c 64,-42 126,-84.9999 188,-128.9998 367,-267 689,-589 956,-956.0001 266,-367.0001 473,-772.9999 613,-1204.0001 140,-430.9999 212,-881.9997 212,-1333.9998 0,-452.9999 -72,-904.0001 -212,-1335 -20,-61 -41,-121.9998 -64,-181.9999 l -2022,758.9999 c 11,29.9999 22,60.0001 32,91 70,215 106,439.9999 106,667 0,225.9999 -36,450.9999 -106,665.9999 -70,216.0002 -174,419.0001 -306,602 -133,184.0001 -294,345 -478,478.0001 -30,22.9999 -62,43.9998 -94,65 l 1175,1811.9998 z"
           inkscape:connector-curvature="0"
           style="fill:#216778;stroke:#ffffff;stroke-width:141.1111145;stroke-miterlimit:4;stroke-opacity:1;stroke-dasharray:none" /><path
           id="path4497"
           d="m 28655.244,2896.0291 c -136,-364 -321,-708 -549,-1022 -174,-238 -371,-458 -589,-657 l -1452,1597.9999 c 109,99 208,209.0002 294,328.9999 113,157.0003 206,329 274,511.0001 l 2022,-758.9999 z"
           inkscape:connector-curvature="0"
           style="fill:#2ca089;fill-opacity:1;stroke:#ffffff;stroke-width:141.1111145;stroke-miterlimit:4;stroke-opacity:1;stroke-dasharray:none" /><path
           id="path4499"
           d="m 27517.244,1217.0291 c -117,-106 -239,-206 -367,-299.00005 -367,-266 -772,-472.9999 -1203,-613 -254,-83 -516,-142 -781,-176 l -277,2142.00005 c 133,17 263,47 390,88 216,70 419,174 602,307 64,46 126,96 184,148.9999 l 1452,-1597.9999 z"
           inkscape:connector-curvature="0"
           style="fill:#a02c2c;fill-opacity:1;stroke:#ffffff;stroke-width:141.1111145;stroke-miterlimit:4;stroke-opacity:1;stroke-dasharray:none" /><path
           id="path4501"
           d="m 25166.244,129.02905 c -184,-24 -369,-34.999997 -554,-34.999997 l 0,2159.000047 c 93,0 185,6 277,18 l 277,-2142.00005 z"
           inkscape:connector-curvature="0"
           style="fill:#808080;fill-opacity:1;stroke:#ffffff;stroke-width:141.1111145;stroke-miterlimit:4;stroke-opacity:1;stroke-dasharray:none" /></g><g
         id="g5337"><path
           style="fill:#214478;fill-opacity:1;stroke:none"
           inkscape:connector-curvature="0"
           d="m 22963.3,3397.3255 -106,0 0,-211 211,0 0,211 -105,0 z"
           id="path4503" /><text
           style="font-size:11.99999905px;stroke-width:28.22200012;stroke-linejoin:round"
           y="192.32573"
           x="10460.3"
           class="TextShape"
           id="text4515"><tspan
             style="font-size:352.99996948px;font-weight:400;font-family:Liberation Sans"
             class="TextParagraph"
             font-size="353px"
             font-weight="400"
             id="tspan4517"><tspan
               class="TextPosition"
               x="23168.297"
               y="3415.3257"
               id="tspan4519"><tspan
                 style="fill:#000000;stroke:none"
                 id="tspan4521">Proteobacteria (277)</tspan></tspan></tspan></text>
<path
           style="fill:#3771c8;fill-opacity:1;stroke:none"
           inkscape:connector-curvature="0"
           d="m 22963.3,3832.879 -106,0 0,-211 211,0 0,211 -105,0 z"
           id="path4505" /><text
           style="font-size:11.99999905px;stroke-width:28.22200012;stroke-linejoin:round"
           y="67.879295"
           x="10460.3"
           class="TextShape"
           id="text4523"><tspan
             style="font-size:352.99996948px;font-weight:400;font-family:Liberation Sans"
             class="TextParagraph"
             font-size="353px"
             font-weight="400"
             id="tspan4525"><tspan
               class="TextPosition"
               x="23168.297"
               y="3850.8792"
               id="tspan4527"><tspan
                 style="fill:#000000;stroke:none"
                 id="tspan4529">Actinobacteria (272)</tspan></tspan></tspan></text>
<path
           style="fill:#216778;fill-opacity:1;stroke:none"
           inkscape:connector-curvature="0"
           d="m 22963.3,4268.4325 -106,0 0,-211 211,0 0,211 -105,0 z"
           id="path4507" /><text
           style="font-size:11.99999905px;stroke-width:28.22200012;stroke-linejoin:round"
           y="-56.567211"
           x="10460.3"
           class="TextShape"
           id="text4531"><tspan
             style="font-size:352.99996948px;font-weight:400;font-family:Liberation Sans"
             class="TextParagraph"
             font-size="353px"
             font-weight="400"
             id="tspan4533"><tspan
               class="TextPosition"
               x="23168.297"
               y="4286.4326"
               id="tspan4535"><tspan
                 style="fill:#000000;stroke:none"
                 id="tspan4537">Firmicutes (200)</tspan></tspan></tspan></text>
<path
           style="fill:#2ca089;fill-opacity:1;stroke:none"
           inkscape:connector-curvature="0"
           d="m 22963.3,4703.9859 -106,0 0,-211 211,0 0,211 -105,0 z"
           id="path4509" /><text
           style="font-size:11.99999905px;stroke-width:28.22200012;stroke-linejoin:round"
           y="-180.01381"
           x="10460.3"
           class="TextShape"
           id="text4539"><tspan
             style="font-size:352.99996948px;font-weight:400;font-family:Liberation Sans"
             class="TextParagraph"
             font-size="353px"
             font-weight="400"
             id="tspan4541"><tspan
               class="TextPosition"
               x="23168.297"
               y="4721.9858"
               id="tspan4543"><tspan
                 style="fill:#000000;stroke:none"
                 id="tspan4545">Cyanobacteria (70)</tspan></tspan></tspan></text>
<path
           style="fill:#a02c2c;fill-opacity:1;stroke:none"
           inkscape:connector-curvature="0"
           d="m 22963.3,5139.7122 -106,0 0,-211 211,0 0,211 -105,0 z"
           id="path4511" /><text
           style="font-size:11.99999905px;stroke-width:28.22200012;stroke-linejoin:round"
           y="-304.28754"
           x="10460.3"
           class="TextShape"
           id="text4547"><tspan
             style="font-size:352.99996948px;font-weight:400;font-family:Liberation Sans"
             class="TextParagraph"
             font-size="353px"
             font-weight="400"
             id="tspan4549"><tspan
               class="TextPosition"
               x="23168.297"
               y="5157.7114"
               id="tspan4551"><tspan
                 style="fill:#000000;stroke:none"
                 id="tspan4553">Fungi (90)</tspan></tspan></tspan></text>
<path
           id="path4513"
           d="m 22963.3,5575.4373 -106,0 0,-211.0001 211,0 0,211.0001 -105,0 z"
           inkscape:connector-curvature="0"
           style="fill:#808080;fill-opacity:1;stroke:none" /><text
           id="text4555"
           class="TextShape"
           x="10460.301"
           y="-428.5625"
           style="font-size:11.99999905px"><tspan
             id="tspan4557"
             font-weight="400"
             font-size="353px"
             class="TextParagraph"
             style="font-size:352.99996948px;font-weight:400;font-family:Liberation Sans"><tspan
               id="tspan4559"
               y="5593.4375"
               x="23168.299"
               class="TextPosition"><tspan
                 id="tspan4561"
                 style="fill:#000000;stroke:none">Other / Unclass. (19)</tspan></tspan></tspan></text>
</g></g></g><g
     id="patch_3"
     style="stroke-linecap:butt;stroke-linejoin:round"
     transform="matrix(35.277778,0,0,35.277778,2297.842,7315.7255)"><path
       clip-path="url(#pf982c5de08)"
       d="m 124.875,294 0,0 0,0 0,0 z"
       style="fill:#a2e5b0;stroke:#757575;stroke-width:0.875;stroke-linecap:butt;stroke-linejoin:round"
       id="path4427"
       inkscape:connector-curvature="0" /></g><g
     id="patch_4"
     style="stroke-linecap:butt;stroke-linejoin:round"
     transform="matrix(35.277778,0,0,35.277778,2297.842,7315.7255)"><path
       clip-path="url(#pf982c5de08)"
       d="m 124.875,294 0,0 0,0 0,0 z"
       style="fill:#f2aaa7;stroke:#757575;stroke-width:0.875;stroke-linecap:butt;stroke-linejoin:round"
       id="path4430"
       inkscape:connector-curvature="0" /></g><path
     id="path4427-5"
     style="fill:#a2e5b0;stroke:#757575;stroke-width:0.875"
     d="m 124.875,294 0,0 0,0 0,0 z"
     clip-path="url(#pf982c5de08-7)"
     inkscape:connector-curvature="0"
     transform="matrix(35.277778,0,0,35.277778,2019.7719,10399.506)" /><path
     id="path4430-7"
     style="fill:#f2aaa7;stroke:#757575;stroke-width:0.875"
     d="m 124.875,294 0,0 0,0 0,0 z"
     clip-path="url(#pf982c5de08-7)"
     inkscape:connector-curvature="0"
     transform="matrix(35.277778,0,0,35.277778,2019.7719,10399.506)" /></svg>