Shuffle	Jackknife	Query_ID	prediCAT_Call	Forced_prediCAT_Call	prediCAT_NN_Dist	prediCAT_NN_Score	prediCAT_SNN_Score
jk2	k1_as_query	AGM16412.1_3015_mod3_thr	thr	no_force_needed	0.000	1	1.400
jk2	k1_as_query	Q5DIV7_A4_horn	horn	no_force_needed	0.005	0.998	2.551
jk2	k1_as_query	P39847_A2_val	no_confident_result	ala|val	1.107	0.5572	0.557
jk2	k1_as_query	AEU11003.1_1620_mod2_phe	no_confident_result	tyr	1.677	0.3292	0.329
jk2	k1_as_query	Q2VQ15_A2(5)_val	no_confident_result	val	0.830	0.668	0.668
jk2	k1_as_query	CCJ67637.1_2717_mod3_d-ser	no_confident_result	d-ser	0.705	0.718	0.718
jk2	k1_as_query	AGC65514.1_1579_mod2_ser	ser	no_force_needed	3.038	0	0
jk2	k1_as_query	Q70LM4_A2(14)_leu	leu	no_force_needed	1.974	0.2104	0.488
jk2	k1_as_query	Q8NJX1_A6_gln	no_confident_result	gln	2.464	0.0144	0.014
jk2	k1_as_query	BGC0000431_EFE73308.1_231_mod1_cysa	dab|dpr	no_force_needed	0.000	1	1.000
jk2	k1_as_query	Q5MP00_A1(5)_gly	gly	no_force_needed	3.697	0	0
jk2	k1_as_query	EFE73312.1_5470_mod5_val	thr	no_force_needed	0.000	1	1.457
jk2	k1_as_query	BGC0001125_AIW82285.1_488_mod1_thr	no_confident_result	deoxy-thr	1.399	0.4404	0.851
jk2	k1_as_query	Q9RAH4_A2_ser	no_confident_result	ser	1.017	0.5932	0.593
jk2	k1_as_query	BGC0000419_AIG79241.1_3410_mod3_bht	no_confident_result	bht	0.956	0.6176	0.618
jk2	k1_as_query	Q8KLL5_A2(5)_hpg|hpg2cl	hpg|hpg2cl	no_force_needed	0.005	0.998	0.998
jk2	k1_as_query	AHH53508.1_483_mod1_glu	glu	no_force_needed	0.000	1	1.000
jk2	k1_as_query	BGC0001178_AGS77307.1_26_mod1_hpg	hpg|hpg2cl	no_force_needed	0.634	0.7464	1.405
jk2	k1_as_query	BGC0000419_AIG79242.1_473_mod1_dpg	dpg	no_force_needed	0.028	0.9888	3.036
jk2	k1_as_query	Q8GGP3_A1(2)_cys	cys	no_force_needed	2.705	0	0
jk2	k1_as_query	BGC0000376_BAP16693.1_511_mod1_alpha-me-ser	cys	no_force_needed	4.572	0	0
jk2	k1_as_query	Q70KJ6_A1(4)_val	val	no_force_needed	2.320	0.0720000000000001	0.072
jk2	k1_as_query	AGC65515.1_442_mod1_tyr	no_confident_result	tyr	3.833	0	0
jk2	k1_as_query	BGC0000425_AFH75321.1_3778_mod4_d-leu	d-gln	no_force_needed	0.130	0.948	1.556
jk2	k1_as_query	EFE73313.1_2638_mod3_gly	gly	no_force_needed	0.000	1	1.000
jk2	k1_as_query	CCJ67640.1_4826_mod5_d-dab	no_confident_result	dab	1.135	0.546	2.099
jk2	k1_as_query	Q9FDB3_A1_dhab|dht	dhab|dht	no_force_needed	0.005	0.998	3.555
jk2	k1_as_query	BGC0000335_AID65222.1_2687_mod1_asn	asn	no_force_needed	4.919	0	0
jk2	k1_as_query	BGC0000419_AIG79243.1_1041_mod2_bht	no_confident_result	bht	0.052	0.9792	0.979
jk2	k1_as_query	Q04747_A1(4)_val	val	no_force_needed	2.316	0.0736000000000001	0.074
jk2	k1_as_query	Q50E73_A2(7)_asp	asp	no_force_needed	0.102	0.9592	0.959
jk2	k1_as_query	BGC0000418_AHF20584.1_3410_mod3_bht	no_confident_result	bht	0.935	0.626	0.626
jk2	k1_as_query	Q9L8H4_A2(5)_gly	no_confident_result	gly|sar	3.049	0	0
jk2	k1_as_query	O30980_A1_pro	pro	no_force_needed	0.402	0.8392	1.177
jk2	k1_as_query	Q84BQ4_A5(11)_asp	no_confident_result	asp	0.444	0.8224	1.645
jk2	k1_as_query	YP_631961.1_4764_mod4_ser	ser	no_force_needed	0.341	0.8636	1.725
jk2	k1_as_query	Q70AZ9a_A1_hpg|hpg2cl	hpg|hpg2cl	no_force_needed	0.005	0.998	1.653
jk2	k1_as_query	YP_003712466.1_562_mod1_val	val	no_force_needed	0.000	1	2.594
jk2	k1_as_query	AEU11006.1_4186_mod2_gly	no_confident_result	gly	1.622	0.3512	0.351
jk2	k1_as_query	Q5DIP4_A4(7)_horn	no_confident_result	horn	2.238	0.1048	0.240
jk2	k1_as_query	AHZ20774.1_1541_mod2_gln	gln	no_force_needed	0.005	0.998	0.998
jk2	k1_as_query	Q79JZ1_A1_cys	no_confident_result	cys	5.105	0	0
jk2	k1_as_query	BGC0001166_AGQ43600.1_228_mod1_pro	no_confident_result	pro	0.629	0.7484	1.497
jk2	k1_as_query	BGC0001035_EPE34341.1_1766_mod2_3oh-gln	thr	no_force_needed	0.000	1	1.000
jk2	k1_as_query	P19787_A1_aad	aad	no_force_needed	0.921	0.6316	1.528
jk2	k1_as_query	Q9RAH4_A4_leu	leu	no_force_needed	0.991	0.6036	0.604
jk2	k1_as_query	Q50E73_A1(6)_orn	no_confident_result	orn	2.672	0	0
jk2	k1_as_query	EPE34341.1_5024_mod5_3oh-gln	thr	no_force_needed	0.000	1	1.000
jk2	k1_as_query	Q939Z0_A2(5)_hpg|hpg2cl	no_confident_result	hpg|hpg2cl	0.540	0.784	0.784
jk2	k1_as_query	BGC0001035_EPE34341.1_3930_mod4_4oh-5oh-orn	4oh-5oh-hty	no_force_needed	0.000	1	1.000
jk2	k1_as_query	Q93N87_A1_hpg|hpg2cl	hpg|hpg2cl	no_force_needed	0.005	0.998	2.785
jk2	k1_as_query	BGC0000369_AHZ20773.1_2017_mod2_tyr	tyr	no_force_needed	0.000	1	1.000
jk2	k1_as_query	CCJ67636.1_2656_mod3_d-ser	no_confident_result	d-ser	0.785	0.686	0.686
jk2	k1_as_query	ZP_10287805.1_544_mod1_d-asn	asn	no_force_needed	0.005	0.998	3.799
jk2	k1_as_query	Q5V8A8_A2_trp	no_confident_result	phe	4.403	0	0
jk2	k1_as_query	EPE34341.1_6121_mod6_3oh-pro|3oh-4me-pro	4oh-pro	no_force_needed	0.000	1	1.000
jk2	k1_as_query	Q00869_A1_hyv	no_confident_result	ala	6.031	0	0
jk2	k1_as_query	AHF21228.1_6670_mod5_trp	trp	no_force_needed	0.000	1	1.000
jk2	k1_as_query	P26046_A1_aad	aad	no_force_needed	0.921	0.6316	1.528
jk2	k1_as_query	AEA30274.1_3073_mod3_boh-d-leu	no_confident_result	d-leu	0.258	0.8968	0.897
jk2	k1_as_query	BGC0001133_XBJ1_0774_563_mod1_leu	no_confident_result	leu	0.181	0.9276	0.927
jk2	k1_as_query	BGC0000425_AFH75322.1_4831_mod5_dab	no_confident_result	dab	1.253	0.4988	1.888
jk2	k1_as_query	AGM16414.1_277_mod1_val	val	no_force_needed	0.005	0.998	4.389
jk2	k1_as_query	AHZ20774.1_3047_mod3_gly	gly	no_force_needed	0.005	0.998	0.998
jk2	k1_as_query	BGC0000425_AFH75320.1_1563_mod2_d-pro	no_confident_result	d-pro	0.624	0.7504	0.750
jk2	k1_as_query	Q70AZ6_A1(7)_dpg	dpg	no_force_needed	0.005	0.998	4.448
jk2	k1_as_query	Q9RLP6v1_A2_thr	thr	no_force_needed	0.005	0.998	0.998
jk2	k1_as_query	BGC0000464_CDG17980.1_4858_mod5_ile	leu	no_force_needed	0.868	0.6528	1.101
jk2	k1_as_query	BGC0000431_EFE73312.1_2615_mod3_dpr	ser	no_force_needed	0.000	1	2.685
jk2	k1_as_query	O30980_A2_glu	gln	no_force_needed	0.005	0.998	0.998
jk2	k1_as_query	BGC0000418_AHF20584.1_1929_mod2_hpg	no_confident_result	hpg	0.088	0.9648	0.965
jk2	k1_as_query	P25464_A2_cys	cys	no_force_needed	0.868	0.6528	1.617
jk2	k1_as_query	BGC0001133_XBJ1_0774_2057_mod2_leu	no_confident_result	leu	0.132	0.9472	0.947
jk2	k1_as_query	BGC0000463_AGM14933.1_7925_mod8_leu	no_confident_result	leu	1.074	0.5704	0.571
jk2	k1_as_query	BGC0000431_EFE73312.1_1526_mod2_ser	thr	no_force_needed	0.000	1	2.193
jk2	k1_as_query	Q70LM4_A4(16)_gly	ala	no_force_needed	2.276	0.0896000000000001	0.090
jk2	k1_as_query	CCA29203.1_3604_mod3_gly	no_confident_result	cys	7.500	0	0
jk2	k1_as_query	Q9FB24_A1_thr	no_confident_result	thr	4.983	0	0
jk2	k1_as_query	BGC0000425_AFH75321.1_4831_mod5_d-val	no_confident_result	leu	0.534	0.7864	0.786
jk2	k1_as_query	O33743_A6(10)_leu	no_confident_result	leu	1.727	0.3092	0.613
jk2	k1_as_query	P48633_A1_cys	no_confident_result	cys	4.901	0	0
jk2	k1_as_query	O87313_A1_orn	no_confident_result	fhorn	2.008	0.1968	0.197
jk2	k1_as_query	BGC0000371_BAH33409.1_3340_mod3_horn	no_confident_result	no_confident_result	3.379	0	0
jk2	k1_as_query	BGC0000463_AGM14934.1_3713_mod4_ile|val	no_confident_result	val	2.093	0.1628	0.163
jk2	k1_as_query	BGC0000369_AHZ20781.1_481_mod1_thr	thr	no_force_needed	0.005	0.998	0.998
jk2	k1_as_query	BGC0001036_AGZ15460.1_476_mod1_noh-val	noh-val	no_force_needed	0.000	1	1.000
jk2	k1_as_query	Q9K5M1_A3(5)_thr	no_confident_result	thr	1.694	0.3224	0.322
jk2	k1_as_query	CBG75492_5304_mod5_d-cyclo-horn	horn	no_force_needed	0.000	1	1.000
jk2	k1_as_query	Q9Z4X5_A1(7)_asp	asp	no_force_needed	0.005	0.998	2.665
jk2	k1_as_query	Q9C1G0v1_A2_cys	cys	no_force_needed	0.005	0.998	2.103
jk2	k1_as_query	CBG75492_240_mod1_nme-fhorn	fhorn	no_force_needed	0.000	1	1.000
jk2	k1_as_query	BGC0000419_AIG79243.1_26_mod1_hpg	no_confident_result	hpg	0.134	0.9464	0.946
jk2	k1_as_query	BGC0000464_CDG17982.1_523_mod1_ala	no_confident_result	ala	1.338	0.4648	0.465
jk2	k10_as_query	AHF21228.1_474_mod1_val	val	no_force_needed	0.005	0.998	0.998
jk2	k10_as_query	Q9RLP6/5869932_A1_phe	no_confident_result	ala	1.998	0.2008	0.402
jk2	k10_as_query	Q9C1G0v1_A3_val	val	no_force_needed	0.005	0.998	0.998
jk2	k10_as_query	Q5DIS7_A3_horn	horn	no_force_needed	0.019	0.9924	2.061
jk2	k10_as_query	BGC0000425_AFH75320.1_5859_mod6_d-gln	no_confident_result	d-leu	0.127	0.9492	0.949
jk2	k10_as_query	Q84BQ4_A4(10)_ile	no_confident_result	val	1.887	0.2452	0.245
jk2	k10_as_query	BGC0000463_AGM14925.1_1531_mod2_glu	no_confident_result	asp	2.072	0.1712	0.482
jk2	k10_as_query	BGC0001149_CDF96614.1_480_mod1_ser	no_confident_result	ser	2.341	0.0635999999999999	0.096
jk2	k10_as_query	CCJ67639.1_2757_mod3_d-val	no_confident_result	d-val	0.224	0.9104	3.181
jk2	k10_as_query	Q65NK5_A3_leu	leu	no_force_needed	0.205	0.918	2.081
jk2	k10_as_query	Q83Y48_A1_lys	no_confident_result	arg	7.465	0	0
jk2	k10_as_query	Q54959_A1_athr|thr	thr	no_force_needed	2.070	0.172	0.172
jk2	k10_as_query	BGC0000416_CBJ90287.1_561_mod1_leu	leu	no_force_needed	0.000	1	1.000
jk2	k10_as_query	BGC0000449_AHF21228.1_12993_mod10_glu	glu	no_force_needed	0.005	0.998	0.998
jk2	k10_as_query	Q8KLL5_A2_hpg|hpg2cl	hpg|hpg2cl	no_force_needed	0.005	0.998	0.998
jk2	k10_as_query	BGC0000464_CDG17980.1_3751_mod4_leu	no_confident_result	leu	2.521	0	0
jk2	k10_as_query	Q83VS1_A4_dhab|dht	dhab|dht	no_force_needed	0.005	0.998	3.786
jk2	k10_as_query	Q70K00_A2_thr	thr	no_force_needed	0.090	0.964	1.346
jk2	k10_as_query	O52819_A3_asn	no_confident_result	asn	0.566	0.7736	0.773
jk2	k10_as_query	BGC0000449_AHF21228.1_3575_mod3_gly	gly	no_force_needed	0.005	0.998	0.998
jk2	k10_as_query	Q847C7_A2(7)_me-asp	me-asp	no_force_needed	1.036	0.5856	1.486
jk2	k10_as_query	BGC0000449_AHF21229.1_1387_mod2_ile	ala	no_force_needed	0.005	0.998	0.998
jk2	k10_as_query	Q6DNE7_A1(4)_cys	cys	no_force_needed	2.310	0.076	0.076
jk2	k10_as_query	Q6E7J5_A1_ala	ala	no_force_needed	2.678	0	0
jk2	k10_as_query	O85168_A1_ser	ser	no_force_needed	0.094	0.9624	1.851
jk2	k10_as_query	BGC0000463_AGM14933.1_6881_mod7_val	no_confident_result	val	0.087	0.9652	0.965
jk2	k10_as_query	AHF21229.1_280_mod1_val	val	no_force_needed	0.000	1	1.000
jk2	k10_as_query	P07702_A1_aad	no_confident_result	aad	2.260	0.0960000000000001	0.096
jk2	k10_as_query	BGC0000369_AHZ20774.1_477_mod1_thr	thr	no_force_needed	0.000	1	1.000
jk2	k10_as_query	BGC0000431_EFE73312.1_5470_mod5_thr	val	no_force_needed	0.000	1	1.000
jk2	k10_as_query	Q9S1A7_A1(10)_arg	arg	no_force_needed	0.217	0.9132	1.564
jk2	k10_as_query	BGC0000369_AHZ20784.1_509_mod1_nme-thr	thr	no_force_needed	0.000	1	1.000
jk2	k10_as_query	AEU11003.1_555_mod1_pro	no_confident_result	pro	0.479	0.8084	0.808
jk2	k10_as_query	BGC0001019_AHB82071.1_523_mod1_gly	gly	no_force_needed	2.757	0	0
jk2	k10_as_query	Q84BQ4_A3(9)_ile	no_confident_result	val	1.917	0.2332	0.233
jk2	k10_as_query	Q83VS0/81321400_A9(19)_ala	ala	no_force_needed	0.207	0.9172	5.571
jk2	k10_as_query	EFE73312.1_2615_mod3_ser	dpr	no_force_needed	0.000	1	1.000
jk2	k10_as_query	P25464_A3_val	val	no_force_needed	2.309	0.0763999999999999	0.076
jk2	k10_as_query	Q9I157_A3(4)_dab	no_confident_result	dab	2.533	0	0
jk2	k10_as_query	Q56950b_A1_dhb|sal	dhb|sal	no_force_needed	0.005	0.998	0.998
jk2	k10_as_query	P27743_A3_val	val	no_force_needed	2.940	0	0
jk2	k10_as_query	EPE34341.1_685_mod1_4oh-5oh-orn	4oh-5oh-hty	no_force_needed	0.000	1	1.000
jk2	k10_as_query	EWS95124_2422_mod3_ala|gly	ala	no_force_needed	1.507	0.3972	0.397
jk2	k10_as_query	Q70KJ6_A3(6)_leu	leu	no_force_needed	0.070	0.972	2.077
jk2	k10_as_query	O85739_A1_cys	no_confident_result	thr	4.820	0	0
jk2	k10_as_query	AHF21228.1_2025_mod2_dab	dab	no_force_needed	0.005	0.998	3.608
jk2	k10_as_query	Q93N89_A1_hpg|hpg2cl	hpg|hpg2cl	no_force_needed	0.005	0.998	3.637
jk2	k10_as_query	Q9Z4X5_A3(9)_asn	asn	no_force_needed	0.005	0.998	0.998
jk2	k10_as_query	AHF21228.1_9291_mod7_dab	dab	no_force_needed	0.005	0.998	3.106
jk2	k10_as_query	AGM16413.1_273_mod1_val	val	no_force_needed	0.005	0.998	4.370
jk2	k10_as_query	Q65NK5_A1_gln	no_confident_result	gln	0.302	0.8792	1.741
jk2	k10_as_query	Q5DIP3_A1_ser	ser	no_force_needed	0.018	0.9928	3.264
jk2	k10_as_query	Q6YK40_A1_tyr	no_confident_result	tyr	0.039	0.9844	2.661
jk2	k10_as_query	AEA30272.1_2611_mod3_asp|bme-asp	no_confident_result	asp	3.812	0	0
jk2	k10_as_query	CCA29203.1_542_mod1_ser	no_confident_result	ser	4.015	0	0
jk2	k10_as_query	Q09164/440169_A11_ala	no_confident_result	ala	3.122	0	0
jk2	k10_as_query	Q84BQ5_A3(5)_leu	leu	no_force_needed	0.875	0.65	1.234
jk2	k10_as_query	Q70P97_A1_cys	cys	no_force_needed	0.535	0.786	1.185
jk2	k10_as_query	ADL64235_1458_mod2_phe	no_confident_result	val	6.372	0	0
jk2	k10_as_query	Q83VS0_A11(21)_dab	dab	no_force_needed	0.309	0.8764	2.472
jk2	k10_as_query	Q9FDB3_A4(4)_val	val	no_force_needed	1.624	0.3504	1.881
jk2	k10_as_query	P68876_A1_ala	ala	no_force_needed	0.036	0.9856	0.986
jk2	k10_as_query	Q9RBY6_A1_thr	no_confident_result	thr	6.056	0	0
jk2	k10_as_query	XP_001220460.1_3743_mod1_trp	no_confident_result	ala|leu|val	9.082	0	0
jk2	k10_as_query	BGC0001045_AFR69334.1_2032_mod2_d-cys	no_confident_result	cys	6.390	0	0
jk2	k10_as_query	O94205_A2_phe	no_confident_result	gln	8.010	0	0
jk2	k10_as_query	BGC0000371_BAH31686.1_1984_mod2_ser	no_confident_result	noh-ala	3.917	0	0
jk2	k10_as_query	BGC0000425_AFH75320.1_2651_mod3_d-ser	no_confident_result	d-ser	0.734	0.7064	1.363
jk2	k10_as_query	AGC65514.1_530_mod1_val	val	no_force_needed	4.186	0	0
jk2	k10_as_query	BGC0000425_AFH75322.1_3790_mod4_hse	no_confident_result	hse	0.460	0.816	0.816
jk2	k10_as_query	Q04747_A3(6)_leu	leu	no_force_needed	0.069	0.9724	2.051
jk2	k10_as_query	BGC0000418_AHF20583.1_473_mod1_dpg	dpg	no_force_needed	0.028	0.9888	3.018
jk2	k10_as_query	BGC0000335_AID65224.1_469_mod1_asn	asn	no_force_needed	5.270	0	0
jk2	k10_as_query	Q93I55_A2_asn	asn	no_force_needed	0.085	0.966	3.587
jk2	k10_as_query	BGC0001125_AIW82284.1_295_mod1_deoxy-thr	no_confident_result	deoxy-thr	0.110	0.956	0.956
jk2	k10_as_query	Q8CJX2_A1(10)_glu|3-me-glu	no_confident_result	asp	3.557	0	0
jk2	k10_as_query	YP_003712465.1_557_mod1_val	val	no_force_needed	0.000	1	2.592
jk2	k10_as_query	AGZ15458.1_2022_mod2_noh-d-ala|oh-d-ala	noh-ala	no_force_needed	0.005	0.998	0.998
jk2	k10_as_query	Q7WRJ0/31616733_ALod_phe-ac	no_confident_result	phe-ac	1.098	0.5608	1.069
jk2	k10_as_query	Q2VQ15_A3(6)_val	no_confident_result	val	0.772	0.6912	0.691
jk2	k10_as_query	CCJ67638.1_2717_mod3_d-val	d-val	no_force_needed	0.017	0.9932	3.339
jk2	k10_as_query	AGM16412.1_5576_mod5_ser	ser	no_force_needed	0.005	0.998	3.153
jk2	k10_as_query	P39581_A1_ala	ala	no_force_needed	4.400	0	0
jk2	k10_as_query	O30408_A1(2)_pro	pro	no_force_needed	1.937	0.2252	0.401
jk2	k10_as_query	BGC0000431_EFE73313.1_2638_mod3_gly	gly	no_force_needed	0.000	1	1.000
jk2	k10_as_query	Q9RLP6_A1_phe	no_confident_result	ala	2.046	0.1816	0.364
jk2	k10_as_query	Q9C1G0v1_A1_aad	aad	no_force_needed	0.005	0.998	2.191
jk2	k10_as_query	O87313_A2_b-ala	no_confident_result	lys	6.774	0	0
jk2	k10_as_query	Q9FDB3_A5(5)_ala	ala	no_force_needed	0.587	0.7652	4.931
jk2	k10_as_query	P39845_A1_glu	glu	no_force_needed	0.142	0.9432	2.488
jk2	k10_as_query	Q70AZ7_A1_hpg|hpg2cl	hpg|hpg2cl	no_force_needed	0.005	0.998	0.998
jk2	k10_as_query	NP_216896.3_457_mod1_lys	lys	no_force_needed	0.005	0.998	0.998
jk2	k2_as_query	Q5J1Q7_A3_hpg|hpg2cl	no_confident_result	no_confident_result	6.812	0	0
jk2	k2_as_query	O07944_A3_pip	pro	no_force_needed	2.161	0.1356	0.136
jk2	k2_as_query	BGC0000974_AIR74926.1_511_mod1_gly	gly	no_force_needed	0.105	0.958	0.958
jk2	k2_as_query	YP_116975.1_508_mod1_lys	no_confident_result	lys	4.307	0	0
jk2	k2_as_query	Q2XNF8_A1(2)_ala	no_confident_result	ala	2.849	0	0
jk2	k2_as_query	Q84BC7_A2(5)_ser	no_confident_result	gln	1.034	0.5864	0.586
jk2	k2_as_query	O76858_A1_b-ala	no_confident_result	b-ala	7.474	0	0
jk2	k2_as_query	O30408_A3(4)_phe	no_confident_result	phe	2.961	0	0
jk2	k2_as_query	BGC0000464_CDG17980.1_5930_mod6_thr	no_confident_result	dhab|dht|thr	2.763	0	0
jk2	k2_as_query	Q8G982_A1(8)_leu	no_confident_result	leu	1.653	0.3388	0.339
jk2	k2_as_query	O52821_A1(7)_dpg	dpg	no_force_needed	0.550	0.78	4.820
jk2	k2_as_query	Q884E4_A1_thr	no_confident_result	thr	0.131	0.9476	0.947
jk2	k2_as_query	Q5DIS9_A2(6)_horn	horn	no_force_needed	0.019	0.9924	2.185
jk2	k2_as_query	BGC0000431_EFE73313.1_1569_mod2_lys	met	no_force_needed	0.000	1	1.000
jk2	k2_as_query	BGC0000369_AHZ20781.1_1540_mod2_thr	thr	no_force_needed	2.869	0	0
jk2	k2_as_query	Q9FB27_A1_asn	no_confident_result	asn	4.547	0	0
jk2	k2_as_query	BGC0001178_AGS77307.1_1045_mod2_tyr	tyr	no_force_needed	0.773	0.6908	1.345
jk2	k2_as_query	Q01886v2_A1_pro	no_confident_result	pro	0.592	0.7632	0.763
jk2	k2_as_query	Q01886v1_A1_pro	no_confident_result	pro	0.613	0.7548	0.755
jk2	k2_as_query	BGC0000426_AGZ03651.1_1997_mod2_trp	no_confident_result	tyr	2.183	0.1268	0.442
jk2	k2_as_query	AHH53507.1_475_mod1_orn	orn	no_force_needed	0.000	1	1.000
jk2	k2_as_query	Q09164_A1_ala	no_confident_result	abu	3.120	0	0
jk2	k2_as_query	EWS95124_960_mod2_hpg	no_confident_result	hpg|hpg2cl	3.472	0	0
jk2	k2_as_query	Q9RAH2_A3_asn	no_confident_result	asn	2.856	0	0
jk2	k2_as_query	Q9L8H4_A1(4)_pro	pro	no_force_needed	2.465	0.0140000000000001	0.014
jk2	k2_as_query	AFZ61526.1_1614_mod2_ser	no_confident_result	ser	0.525	0.79	0.790
jk2	k2_as_query	Q09164_A3_leu	leu	no_force_needed	2.171	0.1316	0.131
jk2	k2_as_query	Q884E3_A1_asp	no_confident_result	asp	2.766	0	0
jk2	k2_as_query	Q9RFM9_A1_dhb|sal	no_confident_result	dhb|sal	3.124	0	0
jk2	k2_as_query	Q50E73_A6(11)_ser	ser	no_force_needed	2.509	0	0
jk2	k2_as_query	ZP_10287804.1_544_mod1_d-val	val	no_force_needed	0.000	1	2.000
jk2	k2_as_query	BGC0001133_XBJ1_0775_3649_mod4_leu	leu	no_force_needed	0.131	0.9476	1.875
jk2	k2_as_query	P10378/2506183_A1_dhb|sal	no_confident_result	dhb|sal	0.642	0.7432	0.743
jk2	k2_as_query	O85168_A4_dab	dab	no_force_needed	0.288	0.8848	2.414
jk2	k2_as_query	Q83VS0_A5(15)_athr|thr	no_confident_result	athr	1.425	0.43	0.430
jk2	k2_as_query	Q70JZ9_A4_glu	no_confident_result	gln	3.026	0	0
jk2	k2_as_query	Q8CV01_A1_dhb|sal	no_confident_result	dhb|sal	2.413	0.0348000000000001	0.035
jk2	k2_as_query	BGC0000464_CDG17980.1_1601_mod2_ala	no_confident_result	ala	1.325	0.47	0.470
jk2	k2_as_query	Q84BQ5_A1(3)_thr	no_confident_result	thr	1.117	0.5532	0.553
jk2	k2_as_query	Q9K5M1_A4(6)_tyr	phe	no_force_needed	1.711	0.3156	0.316
jk2	k2_as_query	P25464_A1_aad	aad	no_force_needed	1.229	0.5084	1.899
jk2	k2_as_query	Q8NJX1_A15_abu|iva	abu|iva	no_force_needed	2.459	0.0164	0.016
jk2	k2_as_query	Q50E73_A5(10)_gly	no_confident_result	ala	2.167	0.1332	0.133
jk2	k2_as_query	P94459_A1_pro	pro	no_force_needed	1.382	0.4472	0.447
jk2	k2_as_query	BGC0000425_AFH75322.1_5909_mod6_lys	no_confident_result	lys	0.377	0.8492	0.849
jk2	k2_as_query	BGC0000419_AIG79241.1_1929_mod2_hpg	no_confident_result	hpg	0.088	0.9648	0.965
jk2	k2_as_query	O07944_A1_pro	pro	no_force_needed	1.542	0.3832	0.383
jk2	k2_as_query	Q9Z4X6_A3_trp	no_confident_result	trp	2.019	0.1924	0.192
jk2	k2_as_query	AGZ15458.1_478_mod1_pip	piperazic	no_force_needed	0.000	1	1.000
jk2	k2_as_query	simA_mod10_leu	no_confident_result	bmt	2.760	0	0
jk2	k2_as_query	Q9RLP6v2_A2_thr	thr	no_force_needed	0.005	0.998	0.998
jk2	k2_as_query	Q8KLL4v1_A1_dpg	dpg	no_force_needed	0.005	0.998	3.571
jk2	k2_as_query	Q70LM6_A4(6)_val	val	no_force_needed	1.969	0.2124	0.212
jk2	k2_as_query	Q2XNF8_A3(4)_arg	no_confident_result	ala	2.843	0	0
jk2	k2_as_query	EFE73312.1_4373_mod4_thr	no_confident_result	no_confident_result	0.223	0.9108	0.911
jk2	k2_as_query	O30980_A1(7)_pro	pro	no_force_needed	0.436	0.8256	0.826
jk2	k2_as_query	CCJ67638.1_582_mod1_d-leu	no_confident_result	d-gln	0.558	0.7768	0.777
jk2	k2_as_query	ZP_10287804.1_2037_mod2_asn	asn	no_force_needed	0.005	0.998	2.921
jk2	k2_as_query	Q5DIV8_A1(5)_lys	no_confident_result	orn	2.896	0	0
jk2	k2_as_query	YP_631961.1_1173_mod1_ser	ser	no_force_needed	0.278	0.8888	1.758
jk2	k2_as_query	BGC0000449_AHF21229.1_2929_mod3_ala	no_confident_result	val	2.675	0	0
jk2	k2_as_query	P0C063_A1_pro	pro	no_force_needed	0.141	0.9436	1.074
jk2	k2_as_query	AGC65514.1_4147_mod3_val	no_confident_result	val	6.004	0	0
jk2	k2_as_query	BGC0000335_AID65224.1_1515_mod2_phe	no_confident_result	tyr	1.505	0.398	0.398
jk2	k2_as_query	Q70KJ7_A3_leu	leu	no_force_needed	0.069	0.9724	2.835
jk2	k2_as_query	O52820_A2(5)_hpg|hpg2cl	no_confident_result	hpg|hpg2cl	0.538	0.7848	0.785
jk2	k2_as_query	YP_116977.1_584_mod1_thr	no_confident_result	no_confident_result	3.539	0	0
jk2	k2_as_query	Q70AZ7_A3_bht	bht	no_force_needed	0.005	0.998	3.285
jk2	k2_as_query	Q5DIP4_A3(6)_ser	ser	no_force_needed	0.146	0.9416	2.252
jk2	k2_as_query	AHZ20781.1_1540_mod2_thr	thr	no_force_needed	2.869	0	0
jk2	k2_as_query	Q9KID8v2_A1_pip	pip	no_force_needed	0.005	0.998	2.027
jk2	k2_as_query	Q9RLP6v2_A3_ala	no_confident_result	alaninol	1.550	0.38	0.380
jk2	k2_as_query	Q8KLL3_A1_hpg|hpg2cl	no_confident_result	hpg	0.827	0.6692	0.669
jk2	k2_as_query	EPE34341.1_2860_mod3_4oh-pro	3oh-pro|3oh-4me-pro	no_force_needed	0.000	1	1.000
jk2	k2_as_query	EWS95122_2421_mod2_ala	no_confident_result	ala|gly	1.504	0.3984	0.398
jk2	k2_as_query	BGC0000463_AGM14934.1_568_mod1_leu	no_confident_result	leu	1.780	0.288	1.589
jk2	k2_as_query	Q09164_A2_leu	leu	no_force_needed	2.358	0.0568	0.057
jk2	k2_as_query	BGC0000369_AHZ20773.1_478_mod1_thr	thr	no_force_needed	0.005	0.998	0.998
jk2	k2_as_query	Q6YK40_A4_glu	no_confident_result	gln	2.999	0	0
jk2	k2_as_query	BGC0000439_AHH53506.1_3045_mod3_asp	asp	no_force_needed	0.000	1	1.537
jk2	k2_as_query	simA_mod11_ala	no_confident_result	abu	2.817	0	0
jk2	k2_as_query	Q9RLP6v1_A3_ala	no_confident_result	alaninol	1.587	0.3652	0.365
jk2	k2_as_query	Q70LM5_A1(7)_val	val	no_force_needed	0.808	0.6768	0.677
jk2	k2_as_query	BGC0000464_CDG17980.1_2686_mod3_val	leu	no_force_needed	0.286	0.8856	1.965
jk2	k2_as_query	CCJ67638.1_1653_mod2_d-val	d-val	no_force_needed	0.187	0.9252	4.189
jk2	k2_as_query	AFZ61525.1_1627_mod2_val	no_confident_result	val	1.977	0.2092	0.580
jk2	k2_as_query	BGC0000400_AGM16413.1_1312_mod2_lys	lys	no_force_needed	0.005	0.998	2.837
jk2	k2_as_query	Q65NK5_A2_leu	leu	no_force_needed	0.642	0.7432	0.907
jk2	k2_as_query	Q9Z4X5_A2(8)_gly	gly	no_force_needed	0.005	0.998	0.998
jk2	k2_as_query	Q5DIV7_A1_ser	ser	no_force_needed	0.018	0.9928	2.341
jk2	k2_as_query	BGC0000425_AFH75322.1_565_mod1_dhabu	no_confident_result	d-athr	0.508	0.7968	0.797
jk2	k2_as_query	O66069_A1_gln	gln	no_force_needed	0.061	0.9756	1.867
jk2	k2_as_query	BGC0000464_CDG17981.1_533_mod1_leu	no_confident_result	ile	0.875	0.65	0.650
jk2	k3_as_query	BGC0000419_AIG79241.1_462_mod1_hpg	no_confident_result	hpg	0.081	0.9676	0.968
jk2	k3_as_query	Q9F638/11127897_A_dhb	dhb|sal	no_force_needed	1.697	0.3212	0.321
jk2	k3_as_query	Q84BQ5_A2(4)_leu	leu	no_force_needed	0.870	0.652	1.239
jk2	k3_as_query	P0C064_A4(5)_leu	leu	no_force_needed	0.036	0.9856	1.263
jk2	k3_as_query	O87704_A2(4)_thr	no_confident_result	bmt	3.779	0	0
jk2	k3_as_query	BGC0000425_AFH75322.1_1653_mod2_d-athr	no_confident_result	d-athr	0.555	0.778	0.778
jk2	k3_as_query	P71717_A1_ser|thr	thr	no_force_needed	0.005	0.998	0.998
jk2	k3_as_query	Q9FDT8_ALod_phe-ac	phe-ac	no_force_needed	0.925	0.63	1.098
jk2	k3_as_query	Q70JZ9_A2_asn	asn	no_force_needed	0.088	0.9648	3.733
jk2	k3_as_query	AHZ34233.1_4704_mod5_leu	leu	no_force_needed	1.382	0.4472	1.305
jk2	k3_as_query	Q84BQ5_A4(6)_ser	ser	no_force_needed	0.216	0.9136	1.417
jk2	k3_as_query	EFE73313.1_1569_mod2_met	lys	no_force_needed	0.000	1	1.000
jk2	k3_as_query	AFZ61525.1_3733_mod4_ser	ser	no_force_needed	0.527	0.7892	1.257
jk2	k3_as_query	BGC0000314_WP_010369428.1_544_mod1_val	d-val	no_force_needed	0.000	1	1.000
jk2	k3_as_query	O33743_A1(5)_asn	asn	no_force_needed	3.094	0	0
jk2	k3_as_query	YP_116976.1_488_mod1_lys	no_confident_result	lys	3.638	0	0
jk2	k3_as_query	Q5V8A8_A1_val	no_confident_result	val	5.125	0	0
jk2	k3_as_query	Q8KLL4v2_A1_dpg	dpg	no_force_needed	0.005	0.998	3.580
jk2	k3_as_query	Q9I157_A1(2)_glu	no_confident_result	ser	3.521	0	0
jk2	k3_as_query	Q51338_A1_thr	thr	no_force_needed	0.018	0.9928	1.006
jk2	k3_as_query	CCJ67640.1_2746_mod3_leu	no_confident_result	d-val	1.407	0.4372	0.437
jk2	k3_as_query	BGC0001035_EPE34341.1_2860_mod3_3oh-pro|3oh-4me-pro	4oh-pro	no_force_needed	0.000	1	1.000
jk2	k3_as_query	Q70KJ6_A2(5)_asp	asp	no_force_needed	1.588	0.3648	0.365
jk2	k3_as_query	BGC0001035_EPE34341.1_685_mod1_4oh-5oh-hty	4oh-5oh-orn	no_force_needed	0.000	1	1.000
jk2	k3_as_query	Q9FB27_A2_his	no_confident_result	ala	5.932	0	0
jk2	k3_as_query	Q6VT93_A1(16)_arg	no_confident_result	glu|tyr	6.288	0	0
jk2	k3_as_query	removed_A2(3)_val	no_confident_result	val	0.813	0.6748	0.675
jk2	k3_as_query	Q9FB23_A2_asn	no_confident_result	leu	6.031	0	0
jk2	k3_as_query	XP_754329.2_1103_mod2_ala	no_confident_result	phe	6.417	0	0
jk2	k3_as_query	Q09164_A8_leu	leu	no_force_needed	2.331	0.0676	0.068
jk2	k3_as_query	AFZ61526.1_575_mod1_leu	leu	no_force_needed	1.213	0.5148	1.288
jk2	k3_as_query	AGM16413.1_2831_mod3_ser	ser	no_force_needed	0.005	0.998	2.939
jk2	k3_as_query	CCJ67640.1_3780_mod4_hse	no_confident_result	hse	0.471	0.8116	0.811
jk2	k3_as_query	O85168_A8_asp	no_confident_result	dab	4.707	0	0
jk2	k3_as_query	P0C062_A1(1)_phe	phe	no_force_needed	2.051	0.1796	0.180
jk2	k3_as_query	BGC0000423_CBG75492.1_240_mod1_fhorn	nme-fhorn	no_force_needed	0.000	1	1.000
jk2	k3_as_query	AHH53506.1_475_mod1_trp	trp	no_force_needed	0.000	1	1.000
jk2	k3_as_query	ChaP_mod1_trp	no_confident_result	phe	7.653	0	0
jk2	k3_as_query	Q84BQ6v2_A2_asp	asp	no_force_needed	0.005	0.998	1.813
jk2	k3_as_query	AEF33078.1_463_mod1_thr	no_confident_result	athr|thr	2.188	0.1248	0.125
jk2	k3_as_query	Q83VS0_A3(13)_ala	ala	no_force_needed	0.216	0.9136	6.235
jk2	k3_as_query	Q2N3S9_A1(9)_ser	ser	no_force_needed	4.277	0	0
jk2	k3_as_query	P39846_A2_thr	no_confident_result	thr	4.057	0	0
jk2	k3_as_query	BGC0000449_AHF21228.1_474_mod1_val	val	no_force_needed	0.005	0.998	0.998
jk2	k3_as_query	O68006_A2_cys	no_confident_result	cys	6.912	0	0
jk2	k3_as_query	BGC0000463_AGM14933.1_1613_mod2_gln	no_confident_result	ser	0.138	0.9448	0.945
jk2	k3_as_query	ChaP_mod2_ser	no_confident_result	trp	6.058	0	0
jk2	k3_as_query	AEA30273.1_3652_mod4_d-trp	no_confident_result	boh-ome-tyr	3.708	0	0
jk2	k3_as_query	BGC0000416_CBJ90288.1_557_mod1_val	val	no_force_needed	0.000	1	2.584
jk2	k3_as_query	Q6WZB2_A2(3)_ser	ser	no_force_needed	5.219	0	0
jk2	k3_as_query	AHH53508.1_1559_mod2_kyn	kyn	no_force_needed	0.000	1	1.000
jk2	k3_as_query	Q333U7_A2(4)_cys	no_confident_result	val	4.442	0	0
jk2	k3_as_query	BGC0000376_BAP16689.1_223_mod1_6cl-4hydroxyindole-3-carboxylic	no_confident_result	leu	5.937	0	0
jk2	k3_as_query	P0C063_A3_orn	orn	no_force_needed	0.104	0.9584	1.193
jk2	k3_as_query	CCJ67637.1_576_mod1_d-leu	no_confident_result	d-val	1.212	0.5152	0.515
jk2	k3_as_query	BGC0000463_AGM14934.1_1604_mod2_leu	no_confident_result	leu	1.299	0.4804	1.250
jk2	k3_as_query	AEC14347.1_567_mod1_phe	no_confident_result	phe	4.320	0	0
jk2	k3_as_query	BGC0000449_AHF21228.1_10396_mod8_dab	dab	no_force_needed	0.005	0.998	4.327
jk2	k3_as_query	CCJ67639.1_1691_mod2_leu	no_confident_result	d-val	0.543	0.7828	0.783
jk2	k3_as_query	Q84BQ4_A1(7)_leu	leu	no_force_needed	1.559	0.3764	1.638
jk2	k3_as_query	Q84BC7_A3(6)_pro|me-pro	no_confident_result	pro|me-pro	0.812	0.6752	0.675
jk2	k3_as_query	P27206_A2_leu	leu	no_force_needed	0.872	0.6512	0.792
jk2	k3_as_query	AEA30273.1_1527_mod2_pro	pro	no_force_needed	2.522	0	0
jk2	k3_as_query	Q09164_A6_abu	no_confident_result	ala	3.580	0	0
jk2	k3_as_query	Q50857_A1_ala	no_confident_result	phe-ac	11.653	0	0
jk2	k3_as_query	YP_631961.1_3708_mod3_goh-val	no_confident_result	leu	2.894	0	0
jk2	k3_as_query	BGC0000398_AFH75329.1_3793_mod4_ser	ser	no_force_needed	0.506	0.7976	1.145
jk2	k3_as_query	Q93I54v1_A2_ser	ser	no_force_needed	0.005	0.998	2.670
jk2	k3_as_query	BAH22763.1_488_mod1_thr	no_confident_result	thr	1.715	0.314	0.314
jk2	k3_as_query	BGC0001036_AGZ15459.1_694_mod1_piperazic	pip	no_force_needed	0.000	1	1.000
jk2	k3_as_query	O30980_A2(8)_gln	glu	no_force_needed	0.005	0.998	1.645
jk2	k3_as_query	P39847_A1_glu	glu	no_force_needed	0.140	0.944	2.372
jk2	k3_as_query	BGC0000425_AFH75320.1_3727_mod4_d-leu	no_confident_result	d-leu	1.600	0.36	0.360
jk2	k3_as_query	AHF21228.1_11933_mod9_phe	no_confident_result	trp	0.223	0.9108	1.822
jk2	k3_as_query	Q70AZ6_A1_dpg	dpg	no_force_needed	0.005	0.998	4.358
jk2	k3_as_query	BGC0000369_AHZ20774.1_1541_mod2_gln	gln	no_force_needed	0.005	0.998	0.998
jk2	k3_as_query	EWS95122_476_mod1_ser	no_confident_result	ser	2.975	0	0
jk2	k3_as_query	Q8GAQ3_A2(4)_cys	cys	no_force_needed	2.294	0.0824	0.083
jk2	k3_as_query	BGC0000439_AHH53507.1_475_mod1_orn	orn	no_force_needed	0.000	1	1.000
jk2	k3_as_query	Q333U7_A1(3)_cys	cys	no_force_needed	2.806	0	0
jk2	k3_as_query	O52820_A1(4)_hpg|hpg2cl	no_confident_result	hpg|hpg2cl	0.611	0.7556	0.756
jk2	k3_as_query	BGC0000426_AGZ03651.1_480_mod1_ala	no_confident_result	ala	3.163	0	0
jk2	k3_as_query	Q5DIP4_A2(5)_athr	thr	no_force_needed	1.924	0.2304	0.235
jk2	k3_as_query	BGC0000423_CBG75492.1_5304_mod5_horn	d-cyclo-horn	no_force_needed	0.000	1	1.000
jk2	k3_as_query	Q884E3_A2_ser	ser	no_force_needed	0.402	0.8392	0.839
jk2	k3_as_query	Q83VS1_A4(9)_dhab|dht	dhab|dht	no_force_needed	0.005	0.998	3.784
jk2	k3_as_query	Q8KLL5_A3(6)_bht	bht	no_force_needed	0.005	0.998	2.977
jk2	k3_as_query	Q9FB23_A1_ser	no_confident_result	ser	4.891	0	0
jk2	k3_as_query	BGC0000449_AHF21228.1_11933_mod9_phe	no_confident_result	trp	0.223	0.9108	1.822
jk2	k3_as_query	P27206_A3_leu	leu	no_force_needed	0.070	0.972	2.669
jk2	k3_as_query	P0A398_A1_ala	ala	no_force_needed	1.118	0.5528	1.063
jk2	k3_as_query	Q7WRQ4_A2(9)_me-asp	me-asp	no_force_needed	1.045	0.582	1.475
jk2	k3_as_query	BGC0000400_AGM16413.1_273_mod1_val	val	no_force_needed	0.005	0.998	4.363
jk2	k4_as_query	O68006_A5_ile	no_confident_result	ile	0.436	0.8256	1.562
jk2	k4_as_query	AHZ34233.1_3643_mod4_leu	leu	no_force_needed	0.222	0.9112	2.527
jk2	k4_as_query	CBG75492_1712_mod2_ser	ser	no_force_needed	1.986	0.2056	0.206
jk2	k4_as_query	BGC0000398_AFH75329.1_566_mod1_thr	no_confident_result	thr	1.156	0.5376	0.538
jk2	k4_as_query	BGC0000369_AHZ20774.1_3047_mod3_gly	gly	no_force_needed	0.005	0.998	0.998
jk2	k4_as_query	BGC0000418_AHF20582.1_1038_mod2_bht	no_confident_result	bht	0.052	0.9792	0.979
jk2	k4_as_query	BGC0000425_AFH75321.1_1645_mod2_leu	d-val	no_force_needed	0.188	0.9248	4.446
jk2	k4_as_query	AFZ61501.1_498_mod1_leu	leu	no_force_needed	1.232	0.5072	0.948
jk2	k4_as_query	BGC0000398_AFH75329.1_2729_mod3_leu	leu	no_force_needed	1.837	0.2652	0.265
jk2	k4_as_query	BGC0000423_CBG75492.1_1712_mod2_ser	ser	no_force_needed	1.986	0.2056	0.206
jk2	k4_as_query	AEA30272.1_3675_mod4_gly	no_confident_result	aoh-gly	2.224	0.1104	0.111
jk2	k4_as_query	Q5DIP3_A2_horn	horn	no_force_needed	0.504	0.7984	2.579
jk2	k4_as_query	O87606_A2_orn	orn	no_force_needed	1.237	0.5052	0.505
jk2	k4_as_query	AGC65513.1_491_mod1_phe|tyr	no_confident_result	trp|6cl-trp	7.817	0	0
jk2	k4_as_query	O33743_A3(7)_tyr	no_confident_result	phe	2.049	0.1804	0.180
jk2	k4_as_query	Q5ZPB0_A1_pip	no_confident_result	pro	5.030	0	0
jk2	k4_as_query	YP_631961.1_11304_mod8_blys	no_confident_result	arg	5.777	0	0
jk2	k4_as_query	Q8NJX1_A5_abu|iva	no_confident_result	leu	2.949	0	0
jk2	k4_as_query	AGC65516.1_2153_mod2_ser	ser	no_force_needed	3.041	0	0
jk2	k4_as_query	O85168_A7_dhab|dht|thr	no_confident_result	thr	2.705	0	0
jk2	k4_as_query	BGC0000335_AID65225.1_1648_mod1_tyr	no_confident_result	phe	1.529	0.3884	0.388
jk2	k4_as_query	AGM16414.1_2358_mod3_ile	ile	no_force_needed	0.005	0.998	2.248
jk2	k4_as_query	BGC0000449_AHF21228.1_6670_mod5_trp	trp	no_force_needed	0.005	0.998	0.998
jk2	k4_as_query	AEU11003.1_2671_mod3_aile	ile	no_force_needed	1.160	0.536	0.952
jk2	k4_as_query	AHZ20781.1_481_mod1_thr	thr	no_force_needed	0.005	0.998	0.998
jk2	k4_as_query	simA_mod4_val	no_confident_result	d-ala	3.097	0	0
jk2	k4_as_query	AHH53506.1_3045_mod3_asp	asp	no_force_needed	0.000	1	1.502
jk2	k4_as_query	Q8KLL3_A2_tyr	no_confident_result	tyr	0.848	0.6608	1.249
jk2	k4_as_query	AGM16413.1_5398_mod5_pro	pro	no_force_needed	0.000	1	1.000
jk2	k4_as_query	Q83VS0_A12(22)_tyr	no_confident_result	phe	0.669	0.7324	0.732
jk2	k4_as_query	EWS95124_9_mod1_gly	no_confident_result	aoh-gly	2.635	0	0
jk2	k4_as_query	Q9L8H4_A3(6)_val	val	no_force_needed	0.824	0.6704	0.670
jk2	k4_as_query	Q93I54_A1_asn	asn	no_force_needed	1.594	0.3624	0.765
jk2	k4_as_query	AEA30272.1_1550_mod2_ala	no_confident_result	ala	3.246	0	0
jk2	k4_as_query	Q9RFK9_A1_cys	no_confident_result	cys	1.438	0.4248	0.823
jk2	k4_as_query	P26046_A2_cys	cys	no_force_needed	1.008	0.5968	1.528
jk2	k4_as_query	BGC0000974_AIR74925.1_516_mod1_gly	gly	no_force_needed	0.104	0.9584	0.959
jk2	k4_as_query	Q9KIZ9_A1_cys	cys	no_force_needed	3.142	0	0
jk2	k4_as_query	O85168_A2_ser	no_confident_result	ser	0.295	0.882	1.763
jk2	k4_as_query	Q8NJX1_A9_abu|iva	no_confident_result	abu|iva	2.577	0	0
jk2	k4_as_query	BGC0001035_EPE34341.1_5024_mod5_thr	3oh-gln	no_force_needed	0.000	1	1.000
jk2	k4_as_query	Q884E4_A2_ser	ser	no_force_needed	0.400	0.84	0.840
jk2	k4_as_query	Q45295_A2_leu	leu	no_force_needed	0.547	0.7812	0.781
jk2	k4_as_query	P45745_A2(3)_athr|thr	thr	no_force_needed	1.598	0.3608	0.376
jk2	k4_as_query	BGC0001149_CDF96614.1_1540_mod2_pro	no_confident_result	d-pro	5.680	0	0
jk2	k4_as_query	CCJ67639.1_619_mod1_d-gln	no_confident_result	d-gln	0.936	0.6256	0.626
jk2	k4_as_query	Q8NJX1_A12_abu|iva	abu|iva	no_force_needed	2.396	0.0416	0.057
jk2	k4_as_query	AEC14346.1_1080_mod2_leu	no_confident_result	phe	6.334	0	0
jk2	k4_as_query	Q5DIP4_A1(4)_gly	gly	no_force_needed	2.963	0	0
jk2	k4_as_query	AHZ20784.1_509_mod1_thr	nme-thr	no_force_needed	0.000	1	1.000
jk2	k4_as_query	Q70LM6_A1(3)_ala	no_confident_result	gly	2.281	0.0875999999999999	0.088
jk2	k4_as_query	EFE73313.1_484_mod1_ser	ser	no_force_needed	0.000	1	1.000
jk2	k4_as_query	Q8G983_A1(6)_ser	no_confident_result	leu	3.219	0	0
jk2	k4_as_query	Q9FDB2_A_dhb	no_confident_result	dhb	3.526	0	0
jk2	k4_as_query	Q939Z0_A1(4)_hpg|hpg2cl	no_confident_result	hpg|hpg2cl	0.602	0.7592	0.759
jk2	k4_as_query	Q93N87_A2_hpg|hpg2cl	hpg|hpg2cl	no_force_needed	0.005	0.998	3.192
jk2	k4_as_query	O52819_A1_leu	no_confident_result	leu	0.865	0.654	0.654
jk2	k4_as_query	Q70LM5_A3(9)_trp	trp	no_force_needed	0.842	0.6632	1.199
jk2	k4_as_query	O68007_A2(7)_orn	no_confident_result	dab	3.537	0	0
jk2	k4_as_query	BGC0001113_AIC32693.1_544_mod1_thr	thr	no_force_needed	0.873	0.6508	0.651
jk2	k4_as_query	BGC0000436_EJK79842.1_762_mod1_ile|val	no_confident_result	val	2.563	0	0
jk2	k4_as_query	BGC0000423_CBG75492.1_2792_mod3_horn	no_confident_result	horn	1.664	0.3344	0.335
jk2	k4_as_query	BGC0000439_AHH53506.1_475_mod1_trp	trp	no_force_needed	0.000	1	1.000
jk2	k4_as_query	Q70KJ7_A2_leu	leu	no_force_needed	0.850	0.66	0.805
jk2	k4_as_query	AHH53506.1_5177_mod5_gly	gly	no_force_needed	0.000	1	1.000
jk2	k4_as_query	CCJ67640.1_5904_mod6_lys	no_confident_result	lys	0.379	0.8484	0.849
jk2	k4_as_query	Q9RAH2_A1_leu	no_confident_result	leu	0.962	0.6152	0.615
jk2	k4_as_query	BGC0000416_CBJ90289.1_562_mod1_val	val	no_force_needed	0.000	1	2.587
jk2	k4_as_query	BGC0000463_AGM14933.1_5818_mod6_ser	no_confident_result	gln	0.134	0.9464	0.946
jk2	k4_as_query	Q45R85_A2_glu	no_confident_result	asn	4.068	0	0
jk2	k4_as_query	BGC0000449_AHF21229.1_280_mod1_val	val	no_force_needed	0.000	1	1.000
jk2	k4_as_query	BGC0000369_AHZ20784.1_1992_mod2_glu|tyr	gln|tyr	no_force_needed	0.000	1	1.000
jk2	k4_as_query	Q9C1G0v2_A3_val	val	no_force_needed	0.005	0.998	1.066
jk2	k4_as_query	CBG75492_2792_mod3_nme-fhorn	no_confident_result	horn	1.664	0.3344	0.335
jk2	k4_as_query	Q93N89_A1(1)_hpg|hpg2cl	hpg|hpg2cl	no_force_needed	0.005	0.998	2.877
jk2	k4_as_query	Q9S1A9_A1(6)_ser	no_confident_result	leu	2.732	0	0
jk2	k4_as_query	AEC14348.1_1108_mod1_phe	no_confident_result	phe	4.168	0	0
jk2	k4_as_query	Q9Z4X5_A1_asp	asp	no_force_needed	0.005	0.998	2.665
jk2	k4_as_query	BGC0001036_AGZ15458.1_2022_mod2_noh-ala	noh-d-ala|oh-d-ala	no_force_needed	0.005	0.998	0.998
jk2	k4_as_query	simA_mod3_leu	no_confident_result	pro	2.607	0	0
jk2	k4_as_query	Q9S1A8_A1(8)_leu	no_confident_result	leu	2.807	0	0
jk2	k4_as_query	AHZ20774.1_477_mod1_thr	thr	no_force_needed	0.000	1	1.000
jk2	k4_as_query	Q09164_A10_leu	leu	no_force_needed	2.147	0.1412	0.149
jk2	k4_as_query	YP_702283.1_471_mod1_thr	no_confident_result	ser	4.877	0	0
jk2	k4_as_query	Q9R9I9_A1_ser	ser	no_force_needed	0.856	0.6576	2.391
jk2	k4_as_query	Q8KLL5_A1(4)_hpg|hpg2cl	hpg|hpg2cl	no_force_needed	0.005	0.998	0.998
jk2	k4_as_query	AGM16412.1_456_mod1_orn	orn	no_force_needed	0.005	0.998	2.239
jk2	k4_as_query	BGC0000464_CDG17982.1_1657_mod2_b-ala	no_confident_result	ala	2.984	0	0
jk2	k4_as_query	Q93N87_A3(6)_tyr	tyr	no_force_needed	0.005	0.998	0.998
jk2	k4_as_query	Q9R9J0_A3_gln	no_confident_result	gln	1.322	0.4712	0.471
jk2	k4_as_query	BGC0001125_AIW82283.1_1622_mod2_asn|gln	asn	no_force_needed	0.514	0.7944	1.422
jk2	k4_as_query	YP_003712464.1_561_mod1_leu	leu	no_force_needed	0.000	1	1.000
jk2	k4_as_query	P19787_A2_cys	cys	no_force_needed	1.018	0.5928	1.511
jk2	k5_as_query	Q53526_A1_ala	ala	no_force_needed	1.181	0.5276	0.527
jk2	k5_as_query	Q8NJX1_A11_leu	abu|iva	no_force_needed	2.586	0	0
jk2	k5_as_query	O30980_A3(9)_tyr	tyr	no_force_needed	0.005	0.998	1.558
jk2	k5_as_query	Q01886/62867029_A3_ala	no_confident_result	ala	0.073	0.9708	0.971
jk2	k5_as_query	Q9K5L9_A1(7)_ile	no_confident_result	aile	1.154	0.5384	0.539
jk2	k5_as_query	BGC0000371_BAH33409.1_494_mod1_arg	no_confident_result	no_confident_result	4.794	0	0
jk2	k5_as_query	AHF21228.1_5129_mod4_ser	ser	no_force_needed	0.005	0.998	3.661
jk2	k5_as_query	AGZ15459.1_694_mod1_pip	piperazic	no_force_needed	0.000	1	1.000
jk2	k5_as_query	Q9RK14_A1_orn|horn	no_confident_result	fhorn	2.199	0.1204	0.120
jk2	k5_as_query	BGC0001125_AIW82284.1_1365_mod2_asn	no_confident_result	asn|gln	0.520	0.792	0.792
jk2	k5_as_query	Q9KID8v1_A1_pip	pip	no_force_needed	0.005	0.998	1.252
jk2	k5_as_query	O69246_A1(4)_val	no_confident_result	val	2.528	0	0
jk2	k5_as_query	O33743_A4(8)_val	no_confident_result	val	1.754	0.2984	0.539
jk2	k5_as_query	Q50JA3_A1_thr	no_confident_result	thr	4.462	0	0
jk2	k5_as_query	EFE73312.1_441_mod1_asp	thr	no_force_needed	0.000	1	1.000
jk2	k5_as_query	AFZ61526.1_2645_mod3_ile	no_confident_result	ile	1.845	0.262	0.506
jk2	k5_as_query	XP_002568558.1_227_mod1_trp	no_confident_result	ala	6.015	0	0
jk2	k5_as_query	Q83VS1_A1(6)_ala	ala	no_force_needed	0.005	0.998	5.571
jk2	k5_as_query	BGC0001178_AGS77308.1_476_mod1_dpg	dpg	no_force_needed	0.709	0.7164	3.221
jk2	k5_as_query	BGC0000439_AHH53507.1_1547_mod2_asp	asp	no_force_needed	0.000	1	1.023
jk2	k5_as_query	BGC0000292_XP_001212648.1_529_mod1_phe	no_confident_result	ala	7.565	0	0
jk2	k5_as_query	O85740_A1(3)_cys	no_confident_result	cys	6.026	0	0
jk2	k5_as_query	BGC0000418_AHF20585.1_481_mod1_dpg	dpg	no_force_needed	0.059	0.9764	4.641
jk2	k5_as_query	Q84BQ6v2_A1_leu	leu	no_force_needed	0.005	0.998	2.601
jk2	k5_as_query	AHZ34233.1_483_mod1_leu	leu	no_force_needed	0.222	0.9112	2.665
jk2	k5_as_query	BGC0000456_BAO73252.1_2551_mod2_ala	no_confident_result	tyr	2.972	0	0
jk2	k5_as_query	CCJ67637.1_1654_mod2_d-val	d-val	no_force_needed	0.019	0.9924	4.128
jk2	k5_as_query	BGC0000463_AGM14933.1_2676_mod3_val	no_confident_result	val	0.091	0.9636	0.964
jk2	k5_as_query	AGC24265.1_37_mod1_pro	no_confident_result	pro-4p	7.110	0	0
jk2	k5_as_query	Q83VS0_A8(18)_dhab|dht	no_confident_result	dhab|dht	0.438	0.8248	3.608
jk2	k5_as_query	Q70K00_A1_ser	ser	no_force_needed	0.040	0.984	2.724
jk2	k5_as_query	CCA29203.1_2085_mod2_cys	no_confident_result	cys	5.855	0	0
jk2	k5_as_query	AEA30272.1_474_mod1_thr	no_confident_result	athr|thr	2.086	0.1656	0.165
jk2	k5_as_query	Q45R85_A4_thr	thr	no_force_needed	3.012	0	0
jk2	k5_as_query	O68008_A1(8)_ile	ile	no_force_needed	0.417	0.8332	0.833
jk2	k5_as_query	Q70AZ7_A3(6)_bht	bht	no_force_needed	0.005	0.998	3.276
jk2	k5_as_query	CCA29202.1_1497_mod2_cys	no_confident_result	cys	5.790	0	0
jk2	k5_as_query	BGC0000299_ERG36782.1_467_mod1_thr	d-thr	no_force_needed	0.005	0.998	0.998
jk2	k5_as_query	Q9C1G0v2_A2_cys	cys	no_force_needed	0.005	0.998	2.525
jk2	k5_as_query	P45745_A1_gly	gly	no_force_needed	0.005	0.998	0.998
jk2	k5_as_query	Q9ZGA6_A1(11)_pip	pip	no_force_needed	0.542	0.7832	0.972
jk2	k5_as_query	Q5DIS7_A2_dab	no_confident_result	dab	2.554	0	0
jk2	k5_as_query	BGC0000314_WP_010369425.1_467_mod1_thr	d-thr	no_force_needed	0.005	0.998	0.998
jk2	k5_as_query	O30981_A1(5)_glu	glu	no_force_needed	0.085	0.966	2.296
jk2	k5_as_query	BGC0000449_AHF21228.1_9291_mod7_dab	dab	no_force_needed	0.005	0.998	3.807
jk2	k5_as_query	Q6YK40_A3_pro	pro	no_force_needed	2.532	0	0
jk2	k5_as_query	Q70LM4_A3(15)_trp	no_confident_result	trp	2.239	0.1044	0.257
jk2	k5_as_query	Q939Z1_A3_asn	no_confident_result	asn	0.570	0.772	0.772
jk2	k5_as_query	BGC0001166_AGQ43600.1_4142_mod4_aeo	no_confident_result	aeo	0.591	0.7636	0.764
jk2	k5_as_query	BGC0000456_BAO73252.1_4122_mod3_pro	no_confident_result	athr|ser	3.087	0	0
jk2	k5_as_query	AEF33078.1_1540_mod2_33p-l-ala	no_confident_result	bht|tyr	2.858	0	0
jk2	k5_as_query	Q70JX1_A1_glu	no_confident_result	glu	1.795	0.282	0.672
jk2	k5_as_query	BGC0001019_AHB82071.1_3517_mod3_gly	gly	no_force_needed	3.079	0	0
jk2	k5_as_query	Q70C44_A1_asn	no_confident_result	asn	6.274	0	0
jk2	k5_as_query	P29698_A1(2)_ser	ser	no_force_needed	0.034	0.9864	0.986
jk2	k5_as_query	P27743_A2_cys	cys	no_force_needed	1.909	0.2364	0.237
jk2	k5_as_query	Q45R85_A1_trp	no_confident_result	trp	3.960	0	0
jk2	k5_as_query	removed_A1(2)_athr|thr	no_confident_result	thr	2.571	0	0
jk2	k5_as_query	Q70LM6_A3(5)_ala	no_confident_result	gly	2.266	0.0936	0.093
jk2	k5_as_query	P59591_A1_ala	ala	no_force_needed	1.054	0.5784	0.578
jk2	k5_as_query	BGC0000425_AFH75322.1_2740_mod3_ile	no_confident_result	ile	2.302	0.0792	0.079
jk2	k5_as_query	EFE73308.1_231_mod1_dab|dpr	cysa	no_force_needed	0.005	0.998	0.998
jk2	k5_as_query	YP_631961.1_5832_mod5_val	no_confident_result	goh-val	3.945	0	0
jk2	k5_as_query	O68006_A1_ile	ile	no_force_needed	0.708	0.7168	0.717
jk2	k5_as_query	Q5DIV7_A2_arg	no_confident_result	horn	5.082	0	0
jk2	k5_as_query	BGC0000423_CBG75492.1_4248_mod4_orn	orn	no_force_needed	0.000	1	1.000
jk2	k5_as_query	AHF21229.1_474_mod2_ile	val	no_force_needed	0.143	0.9428	2.728
jk2	k5_as_query	BGC0001036_AGZ15458.1_478_mod1_piperazic	pip	no_force_needed	0.000	1	1.000
jk2	k5_as_query	Q70LM6_A2(4)_leu	leu	no_force_needed	1.843	0.2628	0.583
jk2	k5_as_query	BGC0000400_AGM16412.1_4054_mod4_orn	orn	no_force_needed	0.005	0.998	2.250
jk2	k5_as_query	BGC0000456_BAO73252.1_7854_mod6_val	no_confident_result	athr|ser	3.366	0	0
jk2	k5_as_query	YP_631961.1_10241_mod7_tyr	no_confident_result	ala	1.254	0.4984	0.498
jk2	k5_as_query	Q70JZ9_A3_pro	no_confident_result	pro	2.442	0.0231999999999999	0.038
jk2	k5_as_query	P94873_A3_val	val	no_force_needed	2.920	0	0
jk2	k5_as_query	BGC0000400_AGM16412.1_3015_mod3_thr	thr	no_force_needed	0.000	1	1.394
jk2	k5_as_query	Q83VS0_A7(17)_ala	ala	no_force_needed	0.234	0.9064	5.684
jk2	k5_as_query	Q83VS1_A3_val	val	no_force_needed	0.005	0.998	3.260
jk2	k5_as_query	O68007_A1(6)_lys	no_confident_result	lys	5.168	0	0
jk2	k5_as_query	Q54959_A2_abu|iva	no_confident_result	cys	3.327	0	0
jk2	k5_as_query	XP_002568558.1_1292_mod2_his	no_confident_result	aeo	6.254	0	0
jk2	k5_as_query	BGC0001132_xnc1_2022_2204_mod3_val	val	no_force_needed	0.156	0.9376	1.401
jk2	k5_as_query	BGC0000299_ERG36783.1_2037_mod2_asn	asn	no_force_needed	0.018	0.9928	2.923
jk2	k5_as_query	AHZ34232.1_480_mod1_leu	no_confident_result	leu	1.656	0.3376	0.338
jk2	k5_as_query	Q5DIV8_A2(6)_horn	horn	no_force_needed	0.005	0.998	2.532
jk2	k5_as_query	BGC0000463_AGM14933.1_4773_mod5_gln	no_confident_result	ser	1.677	0.3292	1.135
jk2	k5_as_query	P27743_A1_aad	aad	no_force_needed	0.999	0.6004	0.685
jk2	k5_as_query	Q8NJX1_A4_val	no_confident_result	abu|iva	2.598	0	0
jk2	k5_as_query	O33743_A2(6)_gln	no_confident_result	gln	4.059	0	0
jk2	k5_as_query	BGC0000426_AGZ03650.1_37_mod1_phe	phe	no_force_needed	3.317	0	0
jk2	k5_as_query	Q9FDB3_A3(3)_val	val	no_force_needed	0.323	0.8708	2.795
jk2	k5_as_query	BGC0000400_AGM16414.1_1316_mod2_lys	lys	no_force_needed	0.005	0.998	2.835
jk2	k5_as_query	EPE34341.1_1766_mod2_thr	3oh-gln	no_force_needed	0.005	0.998	0.998
jk2	k5_as_query	CCA29202.1_393_mod1_gly	gly	no_force_needed	5.982	0	0
jk2	k6_as_query	BGC0000425_AFH75321.1_5900_mod6_val	no_confident_result	d-val	0.982	0.6072	2.868
jk2	k6_as_query	YP_631961.1_9179_mod6_ser	ser	no_force_needed	0.291	0.8836	1.741
jk2	k6_as_query	BGC0000463_AGM14933.1_3718_mod4_leu	no_confident_result	leu	1.073	0.5708	0.571
jk2	k6_as_query	O05647_A1_pro	no_confident_result	pro	1.710	0.316	0.316
jk2	k6_as_query	Q6YK39_A1_ser	ser	no_force_needed	0.041	0.9836	2.539
jk2	k6_as_query	Q70JX1_A2_orn	no_confident_result	orn	2.522	0	0
jk2	k6_as_query	O69246_A2(5)_asp	no_confident_result	asp	3.328	0	0
jk2	k6_as_query	BGC0000425_AFH75321.1_2723_mod3_d-val	no_confident_result	leu	0.184	0.9264	0.926
jk2	k6_as_query	Q01886_A4_aeo	no_confident_result	aeo	0.607	0.7572	0.757
jk2	k6_as_query	BGC0001125_AIW82282.1_2490_mod1_val	no_confident_result	val	3.592	0	0
jk2	k6_as_query	CCJ67636.1_1568_mod2_d-pro	no_confident_result	d-pro	0.599	0.7604	0.760
jk2	k6_as_query	Q884E5_A2_thr	no_confident_result	thr	0.130	0.948	0.948
jk2	k6_as_query	BGC0000400_AGM16412.1_456_mod1_orn	orn	no_force_needed	0.005	0.998	2.233
jk2	k6_as_query	Q9FDB3_A2(2)_pro	no_confident_result	d-pro	1.533	0.3868	0.387
jk2	k6_as_query	BGC0000439_AHH53507.1_4147_mod4_asp	asp	no_force_needed	1.869	0.2524	0.505
jk2	k6_as_query	Q7WZ65_A1_dpg	dpg	no_force_needed	0.964	0.6144	3.244
jk2	k6_as_query	P35854_A1_ala	no_confident_result	ala	3.680	0	0
jk2	k6_as_query	Q8G982_A2(9)_me-asp	me-asp	no_force_needed	1.126	0.5496	1.094
jk2	k6_as_query	EPE34341.1_3930_mod4_4oh-5oh-hty	4oh-5oh-orn	no_force_needed	0.000	1	1.000
jk2	k6_as_query	Q93I55_A1_tyr	tyr	no_force_needed	0.044	0.9824	2.657
jk2	k6_as_query	BGC0000414_BAO84868.1_386_mod1_me-tyr	no_confident_result	4-5-dehydro-arg|me-tyr	3.951	0	0
jk2	k6_as_query	AHH53507.1_2589_mod3_ala	ala	no_force_needed	3.210	0	0
jk2	k6_as_query	Q83Y49_A1_val	no_confident_result	ile|val	2.614	0	0
jk2	k6_as_query	Q9FDB0_A1_thr	no_confident_result	cys	7.838	0	0
jk2	k6_as_query	Q8G983/24744797_A2(7)_ala	ala	no_force_needed	2.700	0	0
jk2	k6_as_query	BGC0000398_AFH75329.1_1652_mod2_val	no_confident_result	val	1.105	0.558	0.558
jk2	k6_as_query	Q9Z4X6_A2_athr|thr	thr	no_force_needed	2.195	0.122	0.122
jk2	k6_as_query	BGC0000314_WP_010369430.1_2041_mod2_ile	ile|d-leu	no_force_needed	0.005	0.998	0.998
jk2	k6_as_query	Q6VT95_A1(5)_gly	gly	no_force_needed	3.731	0	0
jk2	k6_as_query	Q2VQ15_A4(7)_lys	no_confident_result	phe	4.349	0	0
jk2	k6_as_query	Q9R9I9_A2_asn	asn	no_force_needed	1.632	0.3472	1.014
jk2	k6_as_query	Q847C7_A1(6)_thr	no_confident_result	thr	2.402	0.0391999999999999	0.039
jk2	k6_as_query	AGM16414.1_1316_mod2_lys	lys	no_force_needed	0.005	0.998	2.832
jk2	k6_as_query	P94459_A3_tyr	tyr	no_force_needed	1.110	0.556	0.556
jk2	k6_as_query	simA_mod5_bmt	no_confident_result	leu	2.730	0	0
jk2	k6_as_query	Q83VS0_A10(20)_dab	dab	no_force_needed	0.272	0.8912	2.540
jk2	k6_as_query	simA_mod9_val	abu|iva	no_force_needed	2.157	0.1372	0.137
jk2	k6_as_query	Q93N89_A2(2)_trp	trp	no_force_needed	0.005	0.998	0.998
jk2	k6_as_query	Q8KLL5_A1_hpg|hpg2cl	hpg|hpg2cl	no_force_needed	0.005	0.998	0.998
jk2	k6_as_query	O05647_A2_phe	no_confident_result	phe	2.407	0.0372	0.037
jk2	k6_as_query	Q70AZ9b_A1_hpg|hpg2cl	hpg|hpg2cl	no_force_needed	0.005	0.998	0.998
jk2	k6_as_query	Q70AZ7_A2(5)_hpg|hpg2cl	hpg|hpg2cl	no_force_needed	0.005	0.998	0.998
jk2	k6_as_query	Q8NJX1_A2_gly	no_confident_result	leu	2.684	0	0
jk2	k6_as_query	BGC0000439_AHH53506.1_5177_mod5_gly	gly	no_force_needed	0.000	1	1.000
jk2	k6_as_query	AFZ61501.1_1515_mod2_glu	no_confident_result	glu	1.552	0.3792	0.379
jk2	k6_as_query	AHH53507.1_4147_mod4_asp	asp	no_force_needed	1.869	0.2524	0.505
jk2	k6_as_query	Q9S1A9_A2(7)_ala	ala	no_force_needed	2.644	0	0
jk2	k6_as_query	AGZ15476.1_490_mod1_3oh-leu	3oh-leu	no_force_needed	0.005	0.998	0.998
jk2	k6_as_query	Q70LM5_A2(8)_val	val	no_force_needed	0.803	0.6788	0.851
jk2	k6_as_query	Q83VS1_A2_val	val	no_force_needed	0.005	0.998	3.832
jk2	k6_as_query	Q9S1A8_A2(9)_me-asp	no_confident_result	me-asp	1.367	0.4532	0.880
jk2	k6_as_query	Q45295_A3_leu	leu	no_force_needed	0.213	0.9148	1.558
jk2	k6_as_query	O68008_A4(11)_asp	no_confident_result	asp	4.274	0	0
jk2	k6_as_query	Q56950a_A1_dhb|sal	dhb|sal	no_force_needed	0.005	0.998	0.998
jk2	k6_as_query	BGC0001019_AHB82072.1_552_mod1_gly	gly	no_force_needed	2.780	0	0
jk2	k6_as_query	P26046_A3_val	val	no_force_needed	0.005	0.998	1.232
jk2	k6_as_query	YP_702283.1_1525_mod2_fhorn	no_confident_result	no_confident_result	3.695	0	0
jk2	k6_as_query	Q84BQ4_A2(8)_ser	ser	no_force_needed	0.219	0.9124	1.421
jk2	k6_as_query	Q8NJX1_A7_abu|iva	no_confident_result	leu	2.999	0	0
jk2	k6_as_query	Q9C1G0v2_A1_aad	aad	no_force_needed	0.005	0.998	2.159
jk2	k6_as_query	AEI70245.1_1510_mod2_thr	no_confident_result	athr|thr	1.609	0.3564	0.356
jk2	k6_as_query	Q9FDB3_A1(1)_dhab|dht	dhab|dht	no_force_needed	0.005	0.998	3.556
jk2	k6_as_query	XP_754329.2_55_mod1_trp	ser	no_force_needed	5.899	0	0
jk2	k6_as_query	AHZ34232.1_2599_mod3_gln	no_confident_result	leu	2.013	0.1948	0.195
jk2	k6_as_query	P27206_A1_glu	no_confident_result	glu	1.511	0.3956	0.395
jk2	k6_as_query	BGC0000439_AHH53507.1_2589_mod3_ala	ala	no_force_needed	3.210	0	0
jk2	k6_as_query	O30980_A3_tyr	tyr	no_force_needed	0.005	0.998	0.998
jk2	k6_as_query	P40871_A1_dhb|sal	no_confident_result	dhb|sal	1.744	0.3024	0.302
jk2	k6_as_query	Q70LM5_A5(11)_trp	trp	no_force_needed	1.255	0.498	1.003
jk2	k6_as_query	BGC0001036_AGZ15459.1_2235_mod2_3oh-3me-pro	3oh-3me-pro	no_force_needed	0.000	1	1.000
jk2	k6_as_query	BGC0000464_CDG17980.1_525_mod1_pro	no_confident_result	pro	0.166	0.9336	0.934
jk2	k6_as_query	O68006_A3_leu	no_confident_result	leu	3.850	0	0
jk2	k6_as_query	Q2VQ17_A1_bmt	thr	no_force_needed	3.407	0	0
jk2	k6_as_query	Q5MD35_A1_cys	cys	no_force_needed	0.531	0.7876	1.239
jk2	k6_as_query	BGC0001133_XBJ1_0774_3102_mod3_ser	ser	no_force_needed	0.005	0.998	0.998
jk2	k6_as_query	AHZ34233.1_2589_mod3_val	no_confident_result	ile	2.252	0.0992000000000001	0.232
jk2	k6_as_query	BGC0000314_WP_010369428.1_2037_mod2_asn	asn	no_force_needed	0.005	0.998	2.920
jk2	k6_as_query	AEU11006.1_2653_mod1_gln	no_confident_result	ser	1.850	0.26	0.496
jk2	k6_as_query	BGC0000376_BAP16697.1_524_mod1_d-ala	no_confident_result	gly	5.290	0	0
jk2	k6_as_query	O69246_A3(6)_leu	leu	no_force_needed	0.464	0.8144	1.454
jk2	k6_as_query	simA_mod2_leu	no_confident_result	val-vol	4.048	0	0
jk2	k6_as_query	Q84BQ6v1_A2_asp	asp	no_force_needed	0.005	0.998	1.809
jk2	k6_as_query	Q8J0L6_A1_lys-erg	ala	no_force_needed	5.374	0	0
jk2	k6_as_query	O94205_A3_pro	no_confident_result	phe	6.860	0	0
jk2	k6_as_query	P94873_A2_cys	cys	no_force_needed	1.942	0.2232	0.223
jk2	k6_as_query	Q5DIS9_A3(7)_gly	gly	no_force_needed	2.944	0	0
jk2	k6_as_query	O30981_A2(6)_ala|val	val	no_force_needed	1.115	0.554	0.554
jk2	k6_as_query	Q939Y2_A1(8)_bht|tyr	no_confident_result	phe	3.367	0	0
jk2	k6_as_query	BGC0001133_XBJ1_0775_477_mod1_thr	no_confident_result	ser	2.427	0.0292	0.029
jk2	k6_as_query	O07944_A4_gly-ph	no_confident_result	abu|iva	3.115	0	0
jk2	k6_as_query	simA_mod8_leu	no_confident_result	abu|iva	2.803	0	0
jk2	k6_as_query	Q93I55_A3_gln	no_confident_result	gln	1.349	0.4604	0.460
jk2	k6_as_query	O87314_A2_thr	no_confident_result	athr	3.699	0	0
jk2	k7_as_query	O52819_A2_bht|tyr	no_confident_result	bht	1.144	0.5424	1.081
jk2	k7_as_query	AGZ15459.1_2235_mod2_3oh-3me-pro	3oh-3me-pro	no_force_needed	0.000	1	1.000
jk2	k7_as_query	BGC0000414_BAO84861.1_508_mod1_ala	no_confident_result	ala	5.475	0	0
jk2	k7_as_query	AGC65517.1_453_mod1_tyr	no_confident_result	tyr	3.895	0	0
jk2	k7_as_query	Q93N87_A1(4)_hpg|hpg2cl	hpg|hpg2cl	no_force_needed	0.005	0.998	2.632
jk2	k7_as_query	AEU11003.1_4205_mod4_pro	no_confident_result	pro	0.492	0.8032	0.803
jk2	k7_as_query	BGC0000463_AGM14925.1_482_mod1_leu	no_confident_result	leu	1.928	0.2288	0.457
jk2	k7_as_query	BGC0000414_BAO84866.1_500_mod1_4-5-dehydro-arg|me-tyr	no_confident_result	me-tyr	3.721	0	0
jk2	k7_as_query	O05819_A1_lys	no_confident_result	lys	3.492	0	0
jk2	k7_as_query	AGM16413.1_4358_mod4_ile	ile	no_force_needed	0.941	0.6236	0.624
jk2	k7_as_query	BGC0000400_AGM16413.1_2831_mod3_ser	ser	no_force_needed	0.005	0.998	2.972
jk2	k7_as_query	BGC0001019_AHB82069.1_1590_mod1_asn	asn	no_force_needed	5.958	0	0
jk2	k7_as_query	Q939Z1_A2_bht	no_confident_result	bht	1.210	0.516	1.032
jk2	k7_as_query	BGC0000464_CDG17982.1_3820_mod4_leu	no_confident_result	leu	0.457	0.8172	0.817
jk2	k7_as_query	BGC0000456_BAO73252.1_5226_mod4_gln	no_confident_result	pro	2.919	0	0
jk2	k7_as_query	CCJ67640.1_566_mod1_dhabu	no_confident_result	d-athr	0.213	0.9148	0.915
jk2	k7_as_query	O94205_A1_ala	no_confident_result	trp	6.418	0	0
jk2	k7_as_query	AHH53506.1_4093_mod4_thr	no_confident_result	thr	2.919	0	0
jk2	k7_as_query	BGC0000398_AFH75328.1_1544_mod2_glu	no_confident_result	glu	1.527	0.3892	0.389
jk2	k7_as_query	BGC0000449_AHF21228.1_2025_mod2_dab	dab	no_force_needed	0.005	0.998	4.290
jk2	k7_as_query	O85168_A6_phe	no_confident_result	tyr	0.663	0.7348	0.735
jk2	k7_as_query	BGC0001166_AGQ43600.1_2990_mod3_d-ala	no_confident_result	ala	0.564	0.7744	1.524
jk2	k7_as_query	P40976_A1_aad	no_confident_result	aad	2.188	0.1248	0.125
jk2	k7_as_query	ADL64235_433_mod1_val	no_confident_result	val	6.032	0	0
jk2	k7_as_query	O87314_A3_orn	orn	no_force_needed	0.005	0.998	0.998
jk2	k7_as_query	Q70AZ7_A2_hpg|hpg2cl	hpg|hpg2cl	no_force_needed	0.005	0.998	0.998
jk2	k7_as_query	Q8GGN5_ADiscrete_ala	no_confident_result	pro	8.721	0	0
jk2	k7_as_query	Q9RAH4_A3_pro|me-pro	no_confident_result	pro|me-pro	0.816	0.6736	0.674
jk2	k7_as_query	Q9RNA9_A1_arg	arg	no_force_needed	0.205	0.918	1.528
jk2	k7_as_query	Q01886v1_A2_ala	ala	no_force_needed	0.005	0.998	1.789
jk2	k7_as_query	Q93N87_A3_tyr	tyr	no_force_needed	0.005	0.998	0.998
jk2	k7_as_query	NP_216895.1_486_mod1_lys	no_confident_result	lys	3.584	0	0
jk2	k7_as_query	BGC0000398_AFH75330.1_1625_mod2_leu	leu	no_force_needed	1.828	0.2688	0.656
jk2	k7_as_query	O52820_A3(6)_bht|tyr	bht	no_force_needed	0.331	0.8676	3.246
jk2	k7_as_query	BGC0000400_AGM16414.1_2358_mod3_ile	ile	no_force_needed	0.005	0.998	0.998
jk2	k7_as_query	EWS95124_3485_mod4_tyr	no_confident_result	boh-phe	2.997	0	0
jk2	k7_as_query	simA_mod6_abu	no_confident_result	ala	2.780	0	0
jk2	k7_as_query	O68008_A3(10)_his	no_confident_result	trp	4.614	0	0
jk2	k7_as_query	simA_mod1_d-ala	no_confident_result	val	3.055	0	0
jk2	k7_as_query	BGC0000425_AFH75320.1_4799_mod5_d-val	no_confident_result	d-val	0.178	0.9288	0.929
jk2	k7_as_query	AEI70245.1_445_mod1_ala	gly	no_force_needed	2.786	0	0
jk2	k7_as_query	Q45563_A1(10)_ile	no_confident_result	ile	0.945	0.622	0.622
jk2	k7_as_query	BGC0000431_EFE73312.1_441_mod1_thr	asp	no_force_needed	0.000	1	1.000
jk2	k7_as_query	O07944_A2_phe	no_confident_result	phe	2.709	0	0
jk2	k7_as_query	P94459_A2_glu	no_confident_result	no_confident_result	0.890	0.644	0.644
jk2	k7_as_query	BGC0000376_BAP16684.1_33_mod1_trp|6cl-trp	no_confident_result	phe|tyr	9.625	0	0
jk2	k7_as_query	AEA30274.1_1533_mod2_d-leu	no_confident_result	boh-d-leu	0.256	0.8976	0.898
jk2	k7_as_query	Q84BC7_A1(4)_ile	no_confident_result	aile	1.483	0.4068	0.407
jk2	k7_as_query	O86329_A1_lys	lys	no_force_needed	0.005	0.998	0.998
jk2	k7_as_query	BGC0000398_AFH75330.1_3756_mod4_val	no_confident_result	val	1.070	0.572	0.572
jk2	k7_as_query	Q08787_A1(7)_leu	no_confident_result	ile	2.764	0	0
jk2	k7_as_query	BGC0000371_BAH31686.1_3493_mod3_horn	no_confident_result	no_confident_result	1.680	0.328	0.328
jk2	k7_as_query	BGC0001045_AFR69334.1_3500_mod3_ile|val	no_confident_result	thr	6.390	0	0
jk2	k7_as_query	BGC0000464_CDG17980.1_7025_mod7_leu	no_confident_result	val	0.285	0.886	0.886
jk2	k7_as_query	Q9Z4X5_A2_gly	gly	no_force_needed	0.005	0.998	0.998
jk2	k7_as_query	Q70LM7_A2_gly	ala	no_force_needed	2.227	0.1092	0.109
jk2	k7_as_query	AEA30274.1_484_mod1_aoh-gly	gly	no_force_needed	2.220	0.112	0.112
jk2	k7_as_query	AGM16412.1_1974_mod2_val	val	no_force_needed	0.005	0.998	4.231
jk2	k7_as_query	P0C063_A2_val	val	no_force_needed	0.010	0.996	1.271
jk2	k7_as_query	Q70LM7_A1_val	no_confident_result	leu	4.555	0	0
jk2	k7_as_query	Q45R83_A3(10)_gly	gly	no_force_needed	3.046	0	0
jk2	k7_as_query	BGC0000400_AGM16413.1_4358_mod4_ile	ile	no_force_needed	0.941	0.6236	0.624
jk2	k7_as_query	Q8NJX1_A8_ala	no_confident_result	abu|iva	3.755	0	0
jk2	k7_as_query	Q93N86_A1(7)_hpg|hpg2cl	no_confident_result	hpg	2.352	0.0592000000000001	0.059
jk2	k7_as_query	Q5DIS9_A1(5)_gln	no_confident_result	horn	3.462	0	0
jk2	k7_as_query	Q8CJX2_A2(11)_trp	no_confident_result	trp	2.055	0.178	0.178
jk2	k7_as_query	Q00869_A2_val	no_confident_result	gly|sar	3.647	0	0
jk2	k7_as_query	Q8NJX1_A16_abu|iva	no_confident_result	abu|iva	2.719	0	0
jk2	k7_as_query	P27742_A3_val	val	no_force_needed	1.849	0.2604	0.520
jk2	k7_as_query	Q09164_A4_val	no_confident_result	val	1.840	0.264	0.264
jk2	k7_as_query	Q45R83_A4(11)_asn	no_confident_result	glu	3.842	0	0
jk2	k7_as_query	Q9RAH2_A2_gly	no_confident_result	gly	1.721	0.3116	0.312
jk2	k7_as_query	AEC14346.1_19_mod1_thr	no_confident_result	thr	7.379	0	0
jk2	k7_as_query	Q54298_A1_pip	no_confident_result	pip	1.969	0.2124	0.617
jk2	k7_as_query	Q09164_A5_bmt	no_confident_result	leu	2.816	0	0
jk2	k7_as_query	Q83VS0_A4(14)_dhab|dht	no_confident_result	dhab|dht	0.686	0.7256	3.533
jk2	k7_as_query	Q83VS0_A2(12)_ala	ala	no_force_needed	0.185	0.926	6.313
jk2	k7_as_query	P94873_A1_aad	aad	no_force_needed	2.134	0.1464	0.254
jk2	k7_as_query	Q2VQ15_A1(4)_ile	no_confident_result	val	1.734	0.3064	0.583
jk2	k7_as_query	O85168_A3_dab	dab	no_force_needed	0.396	0.8416	2.503
jk2	k7_as_query	CBG75492_4248_mod4_orn	orn	no_force_needed	0.000	1	1.000
jk2	k7_as_query	P0C064/68845359_A1(2)_pro	pro	no_force_needed	0.144	0.9424	1.149
jk2	k7_as_query	AFZ61525.1_558_mod1_athr	no_confident_result	d-athr	1.272	0.4912	0.491
jk2	k7_as_query	Q70KJ7_A1_glu	no_confident_result	glu	1.437	0.4252	0.425
jk2	k7_as_query	BGC0000400_AGM16413.1_5398_mod5_pro	pro	no_force_needed	0.000	1	1.000
jk2	k7_as_query	Q9F636_A1_lys	no_confident_result	blys	5.480	0	0
jk2	k7_as_query	BGC0000439_AHH53506.1_4093_mod4_thr	no_confident_result	thr	2.919	0	0
jk2	k7_as_query	Q83VS0_A1(11)_val	val	no_force_needed	1.745	0.302	1.126
jk2	k7_as_query	BGC0001147_AIS24862.1_37_mod1_glycy	no_confident_result	orn	6.535	0	0
jk2	k7_as_query	P11454_A1(2)_ser	ser	no_force_needed	0.034	0.9864	0.987
jk2	k7_as_query	BGC0000449_AHF21228.1_8208_mod6_ser	ser	no_force_needed	0.005	0.998	3.604
jk2	k7_as_query	Q9FB18_A1_b-ala	no_confident_result	glycolic-acid	6.169	0	0
jk2	k7_as_query	BGC0000439_AHH53506.1_1527_mod2_asp	asp	no_force_needed	0.005	0.998	0.998
jk2	k8_as_query	Q8NJX1_A13_pro	no_confident_result	leu	2.719	0	0
jk2	k8_as_query	BGC0000371_BAH33409.1_2360_mod2_gly	no_confident_result	gly	4.468	0	0
jk2	k8_as_query	P94460_A1_ile	no_confident_result	ile	0.951	0.6196	0.620
jk2	k8_as_query	Q9R9J0_A2_asn	asn	no_force_needed	0.982	0.6072	2.122
jk2	k8_as_query	simA_mod7_sar	no_confident_result	gln	5.298	0	0
jk2	k8_as_query	Q7WRQ4_A1(8)_leu	no_confident_result	leu	1.636	0.3456	0.346
jk2	k8_as_query	BGC0001035_EPE34341.1_6121_mod6_4oh-pro	3oh-pro|3oh-4me-pro	no_force_needed	0.000	1	1.000
jk2	k8_as_query	EFE73312.1_1526_mod2_thr	ser	no_force_needed	0.000	1	1.000
jk2	k8_as_query	BGC0000400_AGM16412.1_1974_mod2_val	val	no_force_needed	0.005	0.998	3.412
jk2	k8_as_query	Q8NJX1_A10_ser	no_confident_result	ala	2.346	0.0616	0.062
jk2	k8_as_query	Q2XNF8_A2(3)_ala	no_confident_result	ala	2.498	0.000799999999999912	0.001
jk2	k8_as_query	AHZ34232.1_1547_mod2_leu	no_confident_result	val	1.511	0.3956	0.769
jk2	k8_as_query	BGC0000431_EFE73313.1_484_mod1_ser	ser	no_force_needed	0.000	1	1.000
jk2	k8_as_query	AHZ20784.1_1992_mod2_gln|tyr	glu|tyr	no_force_needed	0.000	1	1.000
jk2	k8_as_query	AHF21228.1_12993_mod10_glu	glu	no_force_needed	0.005	0.998	0.998
jk2	k8_as_query	Q8RTG4_A1_arg	no_confident_result	arg	0.790	0.684	1.327
jk2	k8_as_query	Q83VS1_A2(7)_val	val	no_force_needed	0.005	0.998	3.135
jk2	k8_as_query	Q6WZB2_A1(2)_ser	ser	no_force_needed	5.488	0	0
jk2	k8_as_query	BGC0000449_AHF21228.1_5129_mod4_ser	ser	no_force_needed	0.005	0.998	3.549
jk2	k8_as_query	BGC0000439_AHH53508.1_1559_mod2_kyn	kyn	no_force_needed	0.000	1	1.000
jk2	k8_as_query	Q9Z4X6_A5_asp	no_confident_result	asp	0.444	0.8224	1.645
jk2	k8_as_query	Q939Y9_A1(7)_dpg	dpg	no_force_needed	0.562	0.7752	3.765
jk2	k8_as_query	P0C064_A2(3)_val	val	no_force_needed	0.010	0.996	1.195
jk2	k8_as_query	Q70AZ9_A2_tyr	tyr	no_force_needed	0.754	0.6984	1.290
jk2	k8_as_query	Q70JZ9_A1_tyr	tyr	no_force_needed	0.043	0.9828	1.966
jk2	k8_as_query	BGC0001125_AIW82283.1_552_mod1_deoxy-thr	no_confident_result	deoxy-thr	0.111	0.9556	0.956
jk2	k8_as_query	Q93TX2/14210837_A1(8)_ala	ala	no_force_needed	3.126	0	0
jk2	k8_as_query	Q93I55_A4_pro	no_confident_result	pro	3.864	0	0
jk2	k8_as_query	Q9Z5F4_A1_gly	gly	no_force_needed	4.068	0	0
jk2	k8_as_query	Q50JA3_A2_leu	no_confident_result	leu	5.240	0	0
jk2	k8_as_query	Q93I54v2_A2_ser	ser	no_force_needed	0.005	0.998	2.581
jk2	k8_as_query	Q01757_A1_aad	aad	no_force_needed	1.039	0.5844	0.667
jk2	k8_as_query	Q83VS1_A3(8)_val	val	no_force_needed	0.005	0.998	3.262
jk2	k8_as_query	BGC0000439_AHH53507.1_6245_mod6_ala	ala	no_force_needed	0.000	1	1.000
jk2	k8_as_query	BGC0000382_AIT38302.1_845_mod1_leu	no_confident_result	asn	5.513	0	0
jk2	k8_as_query	BGC0000400_AGM16414.1_277_mod1_val	val	no_force_needed	0.005	0.998	3.571
jk2	k8_as_query	CCJ67640.1_1654_mod2_d-athr	dhabu	no_force_needed	0.215	0.914	2.524
jk2	k8_as_query	Q50E73_A4(9)_asp	asp	no_force_needed	0.105	0.958	0.958
jk2	k8_as_query	BGC0001178_AGS77309.1_1972_mod2_tyr	no_confident_result	hpg|hpg2cl	0.812	0.6752	2.429
jk2	k8_as_query	Q84BQ6v1_A1_leu	leu	no_force_needed	0.005	0.998	2.576
jk2	k8_as_query	BGC0001168_509516289_4_mod1_arg	no_confident_result	ala|leu|val	8.100	0	0
jk2	k8_as_query	O85168_A5_arg	no_confident_result	dab	3.634	0	0
jk2	k8_as_query	Q9R9J0_A1_tyr	no_confident_result	tyr	0.732	0.7072	1.404
jk2	k8_as_query	BGC0000439_AHH53507.1_5197_mod5_gly	gly	no_force_needed	0.000	1	1.000
jk2	k8_as_query	BGC0001178_AGS77309.1_471_mod1_hpg	no_confident_result	hpg|hpg2cl	0.699	0.7204	3.257
jk2	k8_as_query	Q70LM5_A4(10)_leu	leu	no_force_needed	1.790	0.284	0.776
jk2	k8_as_query	Q9Z4X6_A6_hpg|hpg2cl	no_confident_result	gly-ph	3.370	0	0
jk2	k8_as_query	Q9R9J0_A4_pro	no_confident_result	pro	4.203	0	0
jk2	k8_as_query	Q45R83_A1(8)_lys	no_confident_result	no_confident_result	3.676	0	0
jk2	k8_as_query	BGC0001125_AIW82277.1_2006_mod2_pro	no_confident_result	pro	2.386	0.0456	0.077
jk2	k8_as_query	Q9RK14_A2_athr	thr	no_force_needed	4.217	0	0
jk2	k8_as_query	BGC0000456_BAO73252.1_996_mod1_athr|ser	no_confident_result	tyr	2.482	0.00719999999999992	0.007
jk2	k8_as_query	P68878_A1_ala	ala	no_force_needed	0.035	0.986	0.986
jk2	k8_as_query	BGC0000371_BAH31686.1_483_mod1_fhorn	no_confident_result	orn	2.016	0.1936	0.194
jk2	k8_as_query	Q50858_A1_gly	gly	no_force_needed	4.010	0	0
jk2	k8_as_query	Q45R85_A5_gly|sar	gly	no_force_needed	3.064	0	0
jk2	k8_as_query	Q5DIP3_A3_orn	no_confident_result	lys	2.858	0	0
jk2	k8_as_query	Q939Y9_A1_dpg	dpg	no_force_needed	0.554	0.7784	3.783
jk2	k8_as_query	AHZ20773.1_2017_mod2_tyr	tyr	no_force_needed	0.005	0.998	0.998
jk2	k8_as_query	P45745_A1(2)_gly	gly	no_force_needed	0.005	0.998	0.998
jk2	k8_as_query	ZP_10287803.1_467_mod1_d-thr	thr	no_force_needed	0.005	0.998	1.996
jk2	k8_as_query	O33743_A_blys	no_confident_result	blys	5.974	0	0
jk2	k8_as_query	BGC0000414_BAO84864.1_768_mod1_glycolic-acid	b-ala	no_force_needed	7.980	0	0
jk2	k8_as_query	YP_631961.1_12373_mod9_ala	no_confident_result	tyr	1.255	0.498	0.498
jk2	k8_as_query	BGC0001132_xnc1_2022_3284_mod4_val	val	no_force_needed	0.151	0.9396	1.393
jk2	k8_as_query	P39845_A2_orn	orn	no_force_needed	1.244	0.5024	0.502
jk2	k8_as_query	Q8KLL5_A3_bht	bht	no_force_needed	0.005	0.998	2.975
jk2	k8_as_query	Q8G985/24744795_ALod_phe-ac	phe-ac	no_force_needed	0.902	0.6392	1.161
jk2	k8_as_query	Q9FB18_A2_cys	no_confident_result	alpha-me-ser	4.193	0	0
jk2	k8_as_query	BGC0000376_BAP16699.1_1300_mod1_ser	no_confident_result	thr	5.631	0	0
jk2	k8_as_query	P27742_A1_aad	no_confident_result	aad	0.987	0.6052	1.658
jk2	k8_as_query	O87314_A1_orn	orn	no_force_needed	0.005	0.998	0.998
jk2	k8_as_query	Q93I56_A1_asn	asn	no_force_needed	0.129	0.9484	1.964
jk2	k8_as_query	AEA30273.1_2593_mod3_boh-ome-tyr	no_confident_result	d-leu	3.409	0	0
jk2	k8_as_query	Q93N89_A2_trp	trp	no_force_needed	0.005	0.998	0.998
jk2	k8_as_query	P27742_A2_cys	cys	no_force_needed	1.035	0.586	1.918
jk2	k8_as_query	BGC0000464_CDG17982.1_2738_mod3_pro	no_confident_result	pro	0.163	0.9348	0.935
jk2	k8_as_query	P39846_A1_tyr	tyr	no_force_needed	0.749	0.7004	0.700
jk2	k8_as_query	BGC0001166_AGQ43600.1_1838_mod2_ala	no_confident_result	ala	0.526	0.7896	1.579
jk2	k8_as_query	Q6YK40_A2_asn	asn	no_force_needed	0.104	0.9584	2.571
jk2	k8_as_query	Q70AZ8_A1(3)_dpg	dpg	no_force_needed	0.680	0.728	3.520
jk2	k8_as_query	AGM16412.1_4054_mod4_orn	orn	no_force_needed	0.005	0.998	2.237
jk2	k8_as_query	Q04747_A2(5)_asp	asp	no_force_needed	1.613	0.3548	0.355
jk2	k8_as_query	BGC0000463_AGM14934.1_2646_mod3_gln	gln	no_force_needed	1.186	0.5256	0.651
jk2	k8_as_query	ZP_10287805.1_2041_mod2_ile|d-leu	ile	no_force_needed	0.005	0.998	0.998
jk2	k8_as_query	BGC0000425_AFH75321.1_581_mod1_d-gln	no_confident_result	d-leu	0.560	0.776	0.776
jk2	k8_as_query	Q6YK39_A2_thr	thr	no_force_needed	0.092	0.9632	1.325
jk2	k8_as_query	P0C063_A4_leu	leu	no_force_needed	0.035	0.986	1.257
jk2	k8_as_query	Q83VS1_A5_ala	ala	no_force_needed	0.005	0.998	5.264
jk2	k8_as_query	AHZ20773.1_478_mod1_thr	thr	no_force_needed	0.005	0.998	0.998
jk2	k8_as_query	Q70JZ8_A1_asn	asn	no_force_needed	0.084	0.9664	2.098
jk2	k8_as_query	Q9Z4X6_A4_asp	no_confident_result	asp	0.434	0.8264	1.653
jk2	k8_as_query	Q5DIV7_A3_ser	no_confident_result	ser	0.288	0.8848	3.025
jk2	k9_as_query	Q70LM4_A1(13)_trp	trp	no_force_needed	0.844	0.6624	1.307
jk2	k9_as_query	BGC0000398_AFH75330.1_2671_mod3_ser	ser	no_force_needed	0.508	0.7968	1.562
jk2	k9_as_query	AHF21229.1_1387_mod3_ala	ile	no_force_needed	0.005	0.998	0.998
jk2	k9_as_query	Q9R9J1_A1_asn	asn	no_force_needed	0.875	0.65	2.526
jk2	k9_as_query	BGC0000398_AFH75328.1_482_mod1_leu	no_confident_result	leu	1.788	0.2848	0.763
jk2	k9_as_query	BGC0000464_CDG17981.1_1643_mod2_leu	leu	no_force_needed	0.463	0.8148	1.367
jk2	k9_as_query	NP_216899.1_570_mod1_thr	ser|thr	no_force_needed	0.005	0.998	0.998
jk2	k9_as_query	O33743_A5(9)_orn	no_confident_result	orn	1.854	0.2584	0.258
jk2	k9_as_query	Q45295_A1_gln	gln	no_force_needed	0.067	0.9732	1.842
jk2	k9_as_query	Q09164_A7_gly|sar	no_confident_result	val	3.245	0	0
jk2	k9_as_query	CCJ67636.1_476_mod1_dhabu	no_confident_result	dhabu	0.412	0.8352	0.835
jk2	k9_as_query	Q50E73_A3(8)_ala	no_confident_result	ser	2.185	0.126	0.126
jk2	k9_as_query	BGC0001114_AGN11881.1_528_mod1_thr	thr	no_force_needed	0.844	0.6624	0.662
jk2	k9_as_query	Q8GAQ3_A1(3)_phe	no_confident_result	phe	2.681	0	0
jk2	k9_as_query	AHZ34233.1_1522_mod2_gln	gln	no_force_needed	1.194	0.5224	0.737
jk2	k9_as_query	BGC0000400_AGM16412.1_5576_mod5_ser	ser	no_force_needed	0.005	0.998	3.029
jk2	k9_as_query	BGC0001125_AIW82277.1_525_mod1_asn	no_confident_result	asn	0.855	0.658	0.658
jk2	k9_as_query	BGC0000451_CP001614.2_15150-22349_mod2_ser	ser	no_force_needed	3.295	0	0
jk2	k9_as_query	Q8NJX1_A3_ala	no_confident_result	ser	2.314	0.0744	0.075
jk2	k9_as_query	O68008_A5(12)_asn	asn	no_force_needed	3.084	0	0
jk2	k9_as_query	O30408_A2(3)_phe	no_confident_result	tyr	2.068	0.1728	0.173
jk2	k9_as_query	AEC14349.1_24_mod1_val	no_confident_result	leu	7.196	0	0
jk2	k9_as_query	Q939Z1_A1_leu	no_confident_result	leu	0.853	0.6588	0.659
jk2	k9_as_query	AGC65516.1_1081_mod1_val	val	no_force_needed	4.193	0	0
jk2	k9_as_query	YP_631961.1_2650_mod2_leu	no_confident_result	goh-val	2.826	0	0
jk2	k9_as_query	BGC0000456_BAO73252.1_6319_mod5_tyr	no_confident_result	athr|ser	2.405	0.0379999999999999	0.038
jk2	k9_as_query	Q51338_A2_thr	thr	no_force_needed	0.017	0.9932	0.993
jk2	k9_as_query	Q83VS1_A1_ala	ala	no_force_needed	0.005	0.998	5.836
jk2	k9_as_query	Q01886v2_A2_ala	ala	no_force_needed	0.005	0.998	1.788
jk2	k9_as_query	BGC0001019_AHB82071.1_2004_mod2_trp	no_confident_result	tyr	4.610	0	0
jk2	k9_as_query	O87704_A1(3)_tyr	tyr	no_force_needed	0.742	0.7032	0.703
jk2	k9_as_query	BGC0000439_AHH53508.1_483_mod1_glu	glu	no_force_needed	0.000	1	1.000
jk2	k9_as_query	Q83VS0_A6(16)_ser	ser	no_force_needed	0.094	0.9624	1.925
jk2	k9_as_query	Q8NJX1_A17_gln	no_confident_result	gln	2.507	0	0
jk2	k9_as_query	P0C064_A3(4)_orn	no_confident_result	orn	0.094	0.9624	0.962
jk2	k9_as_query	BGC0001045_AFR69334.1_544_mod1_d-ala	no_confident_result	val	5.955	0	0
jk2	k9_as_query	BGC0001132_xnc1_2022_77_mod1_val	no_confident_result	val	1.334	0.4664	0.908
jk2	k9_as_query	Q884E5_A1_asp	no_confident_result	asp	2.831	0	0
jk2	k9_as_query	BGC0000418_AHF20584.1_460_mod1_hpg	no_confident_result	hpg	0.078	0.9688	0.969
jk2	k9_as_query	Q09164_A9_val	no_confident_result	val	1.852	0.2592	0.259
jk2	k9_as_query	O68008_A2(9)_phe	no_confident_result	lys	4.201	0	0
jk2	k9_as_query	BGC0001036_AGZ15455.1_29_mod1_ala|leu|val	no_confident_result	trp	8.490	0	0
jk2	k9_as_query	BGC0001036_AGZ15476.1_490_mod1_3oh-leu	3oh-leu	no_force_needed	0.005	0.998	0.998
jk2	k9_as_query	AHF21228.1_10396_mod8_dab	dab	no_force_needed	0.005	0.998	4.330
jk2	k9_as_query	AHH53506.1_1527_mod2_asp	asp	no_force_needed	0.005	0.998	0.998
jk2	k9_as_query	BGC0001133_XBJ1_0775_1543_mod2_ser	ser	no_force_needed	0.005	0.998	0.998
jk2	k9_as_query	Q939Z0_A3(6)_bht	no_confident_result	bht|tyr	0.334	0.8664	0.866
jk2	k9_as_query	P09095_A1_phe	phe	no_force_needed	2.013	0.1948	0.195
jk2	k9_as_query	Q70AZ7_A1(4)_hpg|hpg2cl	hpg|hpg2cl	no_force_needed	0.005	0.998	0.998
jk2	k9_as_query	BGC0000451_CP001614.2_15150-22349_mod1_orn	no_confident_result	arg	5.746	0	0
jk2	k9_as_query	Q9RLP6_A4_alaninol	no_confident_result	ala	1.506	0.3976	0.795
jk2	k9_as_query	BGC0000419_AIG79240.1_481_mod1_dpg	dpg	no_force_needed	0.058	0.9768	4.347
jk2	k9_as_query	BGC0000418_AHF20582.1_26_mod1_hpg	hpg	no_force_needed	0.135	0.946	1.480
jk2	k9_as_query	Q8NJX1_A14_leu|val	no_confident_result	ala	3.225	0	0
jk2	k9_as_query	BGC0001132_xnc1_2022_1149_mod2_leu	no_confident_result	arg	3.849	0	0
jk2	k9_as_query	AHF21228.1_8208_mod6_ser	ser	no_force_needed	0.005	0.998	3.786
jk2	k9_as_query	Q9Z4X6_A1_ser	ser	no_force_needed	2.042	0.1832	0.390
jk2	k9_as_query	AGZ15460.1_476_mod1_noh-val	noh-val	no_force_needed	0.005	0.998	0.998
jk2	k9_as_query	O68006_A4_glu	no_confident_result	glu	4.360	0	0
jk2	k9_as_query	AHH53507.1_5197_mod5_gly	gly	no_force_needed	0.000	1	1.000
jk2	k9_as_query	Q83VS1_A5(10)_ala	ala	no_force_needed	0.005	0.998	4.688
jk2	k9_as_query	Q93N88_A1(3)_hpg|hpg2cl	hpg|hpg2cl	no_force_needed	0.940	0.624	2.433
jk2	k9_as_query	BGC0000299_ERG36783.1_544_mod1_val	val	no_force_needed	0.000	1	1.000
jk2	k9_as_query	O87606_A1_glu	glu	no_force_needed	0.086	0.9656	2.507
jk2	k9_as_query	BGC0001125_AIW82284.1_2452_mod3_ala	ala	no_force_needed	2.540	0	0
jk2	k9_as_query	Q01886_A3_ala	no_confident_result	ala	0.071	0.9716	0.972
jk2	k9_as_query	Q54356_A1_pro-4p	no_confident_result	pro	5.332	0	0
jk2	k9_as_query	O66071_A1(7)_ile	leu	no_force_needed	2.805	0	0
jk2	k9_as_query	AHF21228.1_3575_mod3_gly	gly	no_force_needed	0.005	0.998	0.998
jk2	k9_as_query	Q5J1Q7_A1_hpg|hpg2cl	no_confident_result	hpg|hpg2cl	5.545	0	0
jk2	k9_as_query	Q6WZ98_A1_blys	no_confident_result	blys	5.784	0	0
jk2	k9_as_query	Q5DIS7_A1_ser	ser	no_force_needed	1.408	0.4368	1.723
jk2	k9_as_query	AGM16413.1_1312_mod2_lys	lys	no_force_needed	0.005	0.998	2.838
jk2	k9_as_query	AFZ61525.1_2683_mod3_leu	no_confident_result	leu	1.617	0.3532	1.172
jk2	k9_as_query	Q6YK41_A1_asn	asn	no_force_needed	0.081	0.9676	2.985
jk2	k9_as_query	BGC0001178_AGS77310.1_492_mod1_dpg	no_confident_result	dpg	0.564	0.7744	3.621
jk2	k9_as_query	AHH53507.1_6245_mod6_ala	ala	no_force_needed	0.000	1	1.000
jk2	k9_as_query	Q9Z4X5_A3_asn	asn	no_force_needed	0.005	0.998	0.998
jk2	k9_as_query	AEA30273.1_471_mod1_boh-phe	no_confident_result	phe	2.521	0	0
jk2	k9_as_query	BGC0000314_WP_010369430.1_544_mod1_asn	d-asn	no_force_needed	0.005	0.998	0.998
jk2	k9_as_query	BGC0000371_BAH31686.1_4563_mod4_horn	no_confident_result	no_confident_result	3.982	0	0
jk2	k9_as_query	Q8NJX1_A1_abu|iva	no_confident_result	val	2.083	0.1668	0.167
jk2	k9_as_query	P19787_A3_val	val	no_force_needed	0.005	0.998	1.240
jk2	k9_as_query	BGC0000398_AFH75330.1_584_mod1_leu	no_confident_result	leu	1.596	0.3616	1.516
jk2	k9_as_query	Q8Z8L1_A1_dhb|sal	no_confident_result	dhb|sal	0.646	0.7416	0.742
jk2	k9_as_query	Q45R82_A2(13)_ile|val	no_confident_result	tyr	3.731	0	0
jk2	k9_as_query	Q8NJX1_A18_val-vol	no_confident_result	leu	3.818	0	0
jk2	k9_as_query	BGC0000425_AFH75320.1_474_mod1_dhabu	no_confident_result	d-athr	0.671	0.7316	1.430
jk2	k9_as_query	AHH53507.1_1547_mod2_asp	asp	no_force_needed	0.000	1	1.042
jk2	k9_as_query	Q93N87_A2(5)_hpg|hpg2cl	hpg|hpg2cl	no_force_needed	0.005	0.998	3.325
jk2	k9_as_query	BGC0000463_AGM14933.1_561_mod1_gln	no_confident_result	leu	1.478	0.4088	0.780
jk2	k9_as_query	Q70LM5_A6(12)_leu	leu	no_force_needed	1.694	0.3224	0.707
