Shuffle	Jackknife	Query_ID	prediCAT_Call	Forced_prediCAT_Call	prediCAT_NN_Dist	prediCAT_NN_Score	prediCAT_SNN_Score
jk7	k1_as_query	Q9RLP6v2_A2_thr	no_confident_result	ala	2.682	0	0
jk7	k1_as_query	O68006_A2_cys	no_confident_result	cys	7.121	0	0
jk7	k1_as_query	EFE73313.1_484_mod1_ser	no_confident_result	dpr	0.389	0.8444	0.844
jk7	k1_as_query	Q70AZ9a_A1_hpg|hpg2cl	hpg|hpg2cl	no_force_needed	0.001	0.9996	1.000
jk7	k1_as_query	BGC0000371_BAH31686.1_4563_mod4_horn	no_confident_result	no_confident_result	4.079	0	0
jk7	k1_as_query	Q9Z5F4_A1_gly	gly	no_force_needed	4.434	0	0
jk7	k1_as_query	BGC0000382_AIT38302.1_845_mod1_leu	no_confident_result	asn	5.745	0	0
jk7	k1_as_query	CCJ67640.1_566_mod1_dhabu	no_confident_result	d-athr	0.214	0.9144	0.914
jk7	k1_as_query	Q84BQ4_A4(10)_ile	no_confident_result	ile	1.523	0.3908	0.391
jk7	k1_as_query	Q83VS0_A1(11)_val	no_confident_result	val	1.846	0.2616	0.922
jk7	k1_as_query	Q70LM5_A3(9)_trp	trp	no_force_needed	0.846	0.6616	1.214
jk7	k1_as_query	Q09164_A7_gly|sar	no_confident_result	val	3.070	0	0
jk7	k1_as_query	BGC0000369_AHZ20774.1_1541_mod2_gln	gln	no_force_needed	0.001	0.9996	1.000
jk7	k1_as_query	BGC0000425_AFH75320.1_3727_mod4_d-leu	no_confident_result	leu	1.002	0.5992	0.599
jk7	k1_as_query	Q9RLP6v1_A2_thr	no_confident_result	ala	2.649	0	0
jk7	k1_as_query	BGC0000425_AFH75322.1_4831_mod5_dab	no_confident_result	d-dab	0.352	0.8592	0.859
jk7	k1_as_query	BGC0000398_AFH75330.1_584_mod1_leu	leu	no_force_needed	1.632	0.3472	1.371
jk7	k1_as_query	P27206_A2_leu	leu	no_force_needed	0.880	0.648	0.814
jk7	k1_as_query	Q5MD35_A1_cys	cys	no_force_needed	0.556	0.7776	1.224
jk7	k1_as_query	Q9FB23_A1_ser	no_confident_result	ser	4.471	0	0
jk7	k1_as_query	AGM16412.1_5576_mod5_ser	no_confident_result	ser	0.563	0.7748	2.082
jk7	k1_as_query	AGC65517.1_453_mod1_tyr	no_confident_result	tyr	3.865	0	0
jk7	k1_as_query	Q5DIS9_A1(5)_gln	no_confident_result	gln	4.466	0	0
jk7	k1_as_query	AHF21228.1_3575_mod3_gly	gly	no_force_needed	0.001	0.9996	0.999
jk7	k1_as_query	Q7WRJ0/31616733_ALod_phe-ac	no_confident_result	phe-ac	1.171	0.5316	1.015
jk7	k1_as_query	Q9C1G0v2_A2_cys	cys	no_force_needed	0.001	0.9996	2.443
jk7	k1_as_query	Q70AZ7_A2_hpg|hpg2cl	hpg|hpg2cl	no_force_needed	0.001	0.9996	1.000
jk7	k1_as_query	BGC0000456_BAO73252.1_996_mod1_athr|ser	no_confident_result	tyr	2.404	0.0384	0.038
jk7	k1_as_query	YP_631961.1_12373_mod9_ala	no_confident_result	tyr	1.265	0.494	0.494
jk7	k1_as_query	Q65NK5_A1_gln	no_confident_result	gln	0.294	0.8824	1.747
jk7	k1_as_query	BGC0000425_AFH75320.1_5859_mod6_d-gln	no_confident_result	d-leu	0.124	0.9504	0.950
jk7	k1_as_query	XP_754329.2_55_mod1_trp	no_confident_result	ser	6.033	0	0
jk7	k1_as_query	P19787_A3_val	val	no_force_needed	0.001	0.9996	1.235
jk7	k1_as_query	BGC0000414_BAO84864.1_768_mod1_glycolic-acid	b-ala	no_force_needed	8.099	0	0
jk7	k1_as_query	Q70JZ9_A3_pro	pro	no_force_needed	0.065	0.974	0.988
jk7	k1_as_query	Q939Z1_A3_asn	no_confident_result	asn	0.568	0.7728	0.773
jk7	k1_as_query	AGZ15458.1_478_mod1_pip	piperazic	no_force_needed	0.001	0.9996	1.000
jk7	k1_as_query	YP_631961.1_2650_mod2_leu	no_confident_result	goh-val	2.863	0	0
jk7	k1_as_query	Q70LM4_A4(16)_gly	ala	no_force_needed	2.409	0.0364000000000001	0.036
jk7	k1_as_query	Q70AZ6_A1(7)_dpg	dpg	no_force_needed	0.001	0.9996	3.346
jk7	k1_as_query	Q93TX2/14210837_A1(8)_ala	ala	no_force_needed	3.049	0	0
jk7	k1_as_query	BGC0001133_XBJ1_0775_1543_mod2_ser	ser	no_force_needed	0.001	0.9996	1.000
jk7	k1_as_query	Q83VS0/81321400_A9(19)_ala	ala	no_force_needed	0.240	0.904	5.553
jk7	k1_as_query	BGC0000431_EFE73313.1_484_mod1_ser	no_confident_result	dpr	0.389	0.8444	0.844
jk7	k1_as_query	Q01886v1_A2_ala	ala	no_force_needed	0.001	0.9996	1.788
jk7	k1_as_query	BGC0000425_AFH75322.1_2740_mod3_ile	no_confident_result	ile	1.635	0.346	0.346
jk7	k1_as_query	Q9R9J0_A4_pro	pro	no_force_needed	1.003	0.5988	0.599
jk7	k1_as_query	Q54959_A1_athr|thr	no_confident_result	thr	2.500	0	0
jk7	k1_as_query	BGC0001166_AGQ43600.1_4142_mod4_aeo	no_confident_result	aeo	0.616	0.7536	0.753
jk7	k1_as_query	BGC0000463_AGM14934.1_3713_mod4_ile|val	no_confident_result	val	2.145	0.142	0.142
jk7	k1_as_query	BGC0001125_AIW82284.1_295_mod1_deoxy-thr	no_confident_result	deoxy-thr	0.112	0.9552	0.955
jk7	k1_as_query	AEC14346.1_1080_mod2_leu	no_confident_result	phe	5.386	0	0
jk7	k1_as_query	O85168_A8_asp	no_confident_result	dab	4.459	0	0
jk7	k1_as_query	P40976_A1_aad	no_confident_result	aad	2.213	0.1148	0.115
jk7	k1_as_query	AFZ61526.1_575_mod1_leu	leu	no_force_needed	1.074	0.5704	1.768
jk7	k1_as_query	Q70LM5_A6(12)_leu	leu	no_force_needed	1.724	0.3104	0.718
jk7	k1_as_query	AHH53508.1_483_mod1_glu	glu	no_force_needed	0.001	0.9996	1.000
jk7	k1_as_query	Q83VS0_A7(17)_ala	ala	no_force_needed	0.234	0.9064	5.601
jk7	k1_as_query	BGC0000398_AFH75329.1_566_mod1_thr	no_confident_result	thr	1.138	0.5448	0.545
jk7	k1_as_query	simA_mod2_leu	no_confident_result	val-vol	4.084	0	0
jk7	k1_as_query	Q70AZ8_A1(3)_dpg	dpg	no_force_needed	0.680	0.728	3.524
jk7	k1_as_query	simA_mod3_leu	no_confident_result	pro	2.663	0	0
jk7	k1_as_query	Q333U7_A2(4)_cys	no_confident_result	val	4.472	0	0
jk7	k1_as_query	Q8G983/24744797_A2(7)_ala	ala	no_force_needed	2.053	0.1788	0.179
jk7	k1_as_query	O87313_A1_orn	no_confident_result	fhorn	2.053	0.1788	0.179
jk7	k1_as_query	Q2N3S9_A1(9)_ser	no_confident_result	ser	4.293	0	0
jk7	k1_as_query	BGC0001133_XBJ1_0775_477_mod1_thr	no_confident_result	ser	2.330	0.068	0.068
jk7	k1_as_query	Q01757_A1_aad	aad	no_force_needed	1.021	0.5916	0.721
jk7	k1_as_query	EFE73312.1_2615_mod3_ser	dpr	no_force_needed	0.000	1	1.000
jk7	k1_as_query	O30980_A2_glu	gln	no_force_needed	0.001	0.9996	1.000
jk7	k1_as_query	BGC0000418_AHF20585.1_481_mod1_dpg	dpg	no_force_needed	0.059	0.9764	3.401
jk7	k1_as_query	BGC0000400_AGM16412.1_5576_mod5_ser	no_confident_result	ser	0.563	0.7748	2.082
jk7	k1_as_query	O87314_A3_orn	orn	no_force_needed	0.001	0.9996	0.999
jk7	k1_as_query	O68006_A4_glu	no_confident_result	glu	4.714	0	0
jk7	k1_as_query	O30981_A2(6)_ala|val	val	no_force_needed	1.106	0.5576	0.558
jk7	k1_as_query	BGC0000456_BAO73252.1_5226_mod4_gln	no_confident_result	val	3.205	0	0
jk7	k1_as_query	P0C063_A4_leu	leu	no_force_needed	0.034	0.9864	1.270
jk7	k1_as_query	Q939Y9_A1_dpg	dpg	no_force_needed	0.001	0.9996	3.509
jk7	k1_as_query	BGC0000423_CBG75492.1_2792_mod3_horn	nme-fhorn	no_force_needed	0.000	1	1.000
jk7	k1_as_query	Q84BQ4_A3(9)_ile	no_confident_result	ile	1.660	0.336	0.336
jk7	k1_as_query	Q83Y48_A1_lys	no_confident_result	6cl-4hydroxyindole-3-carboxylic	6.935	0	0
jk7	k1_as_query	BGC0000299_ERG36783.1_544_mod1_val	val	no_force_needed	0.001	0.9996	1.000
jk7	k1_as_query	BGC0000335_AID65225.1_1648_mod1_tyr	no_confident_result	phe	1.457	0.4172	0.417
jk7	k1_as_query	Q9RAH2_A1_leu	leu	no_force_needed	0.972	0.6112	0.611
jk7	k1_as_query	BGC0001036_AGZ15460.1_476_mod1_noh-val	noh-val	no_force_needed	0.000	1	1.000
jk7	k1_as_query	Q45R82_A2(13)_ile|val	no_confident_result	boh-phe	4.046	0	0
jk7	k1_as_query	AHH53506.1_1527_mod2_asp	asp	no_force_needed	0.000	1	1.000
jk7	k1_as_query	BGC0000449_AHF21228.1_9291_mod7_dab	dab	no_force_needed	0.001	0.9996	3.767
jk7	k1_as_query	O30980_A3_tyr	tyr	no_force_needed	0.001	0.9996	1.559
jk7	k1_as_query	P39581_A1_ala	ala	no_force_needed	4.289	0	0
jk7	k1_as_query	P10378/2506183_A1_dhb|sal	no_confident_result	dhb|sal	0.644	0.7424	0.742
jk7	k1_as_query	Q50E73_A6(11)_ser	no_confident_result	ala	2.063	0.1748	0.175
jk7	k1_as_query	O33743_A5(9)_orn	no_confident_result	orn	1.711	0.3156	0.595
jk7	k10_as_query	Q93N89_A1(1)_hpg|hpg2cl	hpg|hpg2cl	no_force_needed	0.000	1	2.853
jk7	k10_as_query	Q84BQ4_A5(11)_asp	no_confident_result	asp	0.458	0.8168	1.634
jk7	k10_as_query	Q45295_A2_leu	leu	no_force_needed	0.558	0.7768	0.777
jk7	k10_as_query	AHH53507.1_6245_mod6_ala	ala	no_force_needed	0.000	1	1.000
jk7	k10_as_query	Q939Y9_A1(7)_dpg	dpg	no_force_needed	0.001	0.9996	4.725
jk7	k10_as_query	BGC0001036_AGZ15459.1_694_mod1_piperazic	pip	no_force_needed	0.000	1	1.000
jk7	k10_as_query	Q70AZ9_A2_tyr	no_confident_result	tyr	0.930	0.628	0.628
jk7	k10_as_query	YP_631961.1_10241_mod7_tyr	no_confident_result	ala	1.284	0.4864	0.486
jk7	k10_as_query	Q9RAH2_A3_asn	no_confident_result	asn|gln	2.704	0	0
jk7	k10_as_query	O68008_A2(9)_phe	no_confident_result	phe	4.577	0	0
jk7	k10_as_query	BGC0001132_xnc1_2022_3284_mod4_val	val	no_force_needed	0.156	0.9376	1.382
jk7	k10_as_query	Q93N86_A1(7)_hpg|hpg2cl	no_confident_result	hpg	2.265	0.0939999999999999	0.294
jk7	k10_as_query	P0C063_A2_val	val	no_force_needed	0.154	0.9384	1.134
jk7	k10_as_query	Q8RTG4_A1_arg	no_confident_result	arg	0.993	0.6028	0.603
jk7	k10_as_query	simA_mod11_ala	no_confident_result	abu	2.662	0	0
jk7	k10_as_query	Q8NJX1_A4_val	no_confident_result	abu|iva	3.020	0	0
jk7	k10_as_query	AEA30273.1_1527_mod2_pro	no_confident_result	pro	2.483	0.00679999999999996	0.007
jk7	k10_as_query	BGC0001125_AIW82284.1_2452_mod3_ala	ala	no_force_needed	3.240	0	0
jk7	k10_as_query	CCJ67637.1_1654_mod2_d-val	d-val	no_force_needed	0.018	0.9928	4.204
jk7	k10_as_query	Q70JZ9_A2_asn	asn	no_force_needed	0.085	0.966	3.591
jk7	k10_as_query	BGC0000418_AHF20583.1_473_mod1_dpg	dpg	no_force_needed	0.028	0.9888	2.923
jk7	k10_as_query	O68008_A1(8)_ile	ile	no_force_needed	0.408	0.8368	1.672
jk7	k10_as_query	P26046_A1_aad	aad	no_force_needed	0.001	0.9996	2.423
jk7	k10_as_query	Q939Z1_A1_leu	no_confident_result	leu	0.834	0.6664	0.666
jk7	k10_as_query	Q83VS1_A1_ala	ala	no_force_needed	0.001	0.9996	4.119
jk7	k10_as_query	BGC0001178_AGS77307.1_1045_mod2_tyr	no_confident_result	tyr	0.853	0.6588	0.659
jk7	k10_as_query	Q93N87_A1(4)_hpg|hpg2cl	hpg|hpg2cl	no_force_needed	0.001	0.9996	2.033
jk7	k10_as_query	Q93I55_A1_tyr	tyr	no_force_needed	0.031	0.9876	1.967
jk7	k10_as_query	AEA30274.1_3073_mod3_boh-d-leu	no_confident_result	d-leu	0.261	0.8956	0.896
jk7	k10_as_query	Q2XNF8_A1(2)_ala	no_confident_result	ala	2.790	0	0
jk7	k10_as_query	Q83VS1_A5(10)_ala	ala	no_force_needed	0.001	0.9996	3.493
jk7	k10_as_query	BGC0000398_AFH75330.1_2671_mod3_ser	ser	no_force_needed	0.511	0.7956	1.555
jk7	k10_as_query	AEA30272.1_2611_mod3_asp|bme-asp	no_confident_result	glu	3.280	0	0
jk7	k10_as_query	BGC0001125_AIW82277.1_525_mod1_asn	no_confident_result	asn	0.875	0.65	0.650
jk7	k10_as_query	Q93N89_A2(2)_trp	trp	no_force_needed	0.001	0.9996	1.000
jk7	k10_as_query	Q54298_A1_pip	no_confident_result	pip	1.884	0.2464	0.731
jk7	k10_as_query	Q70JZ9_A4_glu	no_confident_result	glu	0.046	0.9816	0.982
jk7	k10_as_query	Q884E5_A2_thr	thr	no_force_needed	0.184	0.9264	0.926
jk7	k10_as_query	Q6DNE7_A1(4)_cys	cys	no_force_needed	2.307	0.0772	0.077
jk7	k10_as_query	BGC0000419_AIG79241.1_3410_mod3_bht	bht	no_force_needed	0.062	0.9752	1.589
jk7	k10_as_query	Q5DIP4_A2(5)_athr	thr	no_force_needed	2.052	0.1792	0.356
jk7	k10_as_query	CCJ67639.1_1691_mod2_leu	no_confident_result	d-gln	1.160	0.536	0.536
jk7	k10_as_query	BGC0001035_EPE34341.1_685_mod1_4oh-5oh-hty	4oh-5oh-orn	no_force_needed	0.000	1	1.000
jk7	k10_as_query	AGM16412.1_3015_mod3_thr	thr	no_force_needed	0.001	0.9996	1.346
jk7	k10_as_query	AGC24265.1_37_mod1_pro	no_confident_result	pro-4p	7.467	0	0
jk7	k10_as_query	AFZ61525.1_1627_mod2_val	no_confident_result	val	1.968	0.2128	0.213
jk7	k10_as_query	Q45563_A1(10)_ile	no_confident_result	ile	0.956	0.6176	0.618
jk7	k10_as_query	O69246_A3(6)_leu	leu	no_force_needed	0.365	0.854	1.899
jk7	k10_as_query	CCJ67636.1_2656_mod3_d-ser	d-ser	no_force_needed	0.702	0.7192	1.363
jk7	k10_as_query	Q50E73_A3(8)_ala	ser	no_force_needed	2.036	0.1856	0.186
jk7	k10_as_query	BGC0001019_AHB82071.1_2004_mod2_trp	no_confident_result	tyr	4.526	0	0
jk7	k10_as_query	Q83VS1_A2_val	val	no_force_needed	0.313	0.8748	1.083
jk7	k10_as_query	BGC0000400_AGM16414.1_277_mod1_val	val	no_force_needed	0.001	0.9996	4.379
jk7	k10_as_query	Q884E4_A2_ser	ser	no_force_needed	0.422	0.8312	0.831
jk7	k10_as_query	BGC0000439_AHH53507.1_475_mod1_orn	orn	no_force_needed	0.000	1	1.000
jk7	k10_as_query	BGC0000425_AFH75321.1_4831_mod5_d-val	no_confident_result	d-gln	1.045	0.582	0.582
jk7	k10_as_query	Q9C1G0v1_A3_val	val	no_force_needed	2.365	0.0539999999999999	0.054
jk7	k10_as_query	AHF21228.1_8208_mod6_ser	ser	no_force_needed	0.001	0.9996	3.673
jk7	k10_as_query	O30980_A1_pro	pro	no_force_needed	0.541	0.7836	1.067
jk7	k10_as_query	P68876_A1_ala	ala	no_force_needed	0.035	0.986	0.986
jk7	k10_as_query	Q83VS0_A2(12)_ala	ala	no_force_needed	0.216	0.9136	3.979
jk7	k10_as_query	YP_003712466.1_562_mod1_val	val	no_force_needed	0.000	1	2.589
jk7	k10_as_query	Q8NJX1_A15_abu|iva	abu|iva	no_force_needed	2.463	0.0148	0.015
jk7	k10_as_query	CCJ67636.1_476_mod1_dhabu	no_confident_result	dhabu	0.464	0.8144	0.814
jk7	k10_as_query	O94205_A3_pro	no_confident_result	lys-erg	4.980	0	0
jk7	k10_as_query	BGC0000426_AGZ03650.1_37_mod1_phe	phe	no_force_needed	3.377	0	0
jk7	k10_as_query	BGC0000423_CBG75492.1_1712_mod2_ser	ser	no_force_needed	0.001	0.9996	1.185
jk7	k10_as_query	CCJ67636.1_1568_mod2_d-pro	no_confident_result	d-pro	0.618	0.7528	0.753
jk7	k10_as_query	CCA29202.1_393_mod1_gly	no_confident_result	gly	5.836	0	0
jk7	k10_as_query	EWS95122_476_mod1_ser	no_confident_result	ser	3.263	0	0
jk7	k10_as_query	Q01886_A3_ala	no_confident_result	ala	0.067	0.9732	0.973
jk7	k10_as_query	O85168_A4_dab	dab	no_force_needed	0.363	0.8548	2.392
jk7	k10_as_query	Q6E7J5_A1_ala	no_confident_result	ala	2.714	0	0
jk7	k10_as_query	Q9C1G0v2_A3_val	val	no_force_needed	2.388	0.0448	0.045
jk7	k10_as_query	simA_mod5_bmt	no_confident_result	leu	2.542	0	0
jk7	k10_as_query	Q83VS1_A2(7)_val	val	no_force_needed	0.308	0.8768	1.088
jk7	k10_as_query	BGC0001036_AGZ15458.1_478_mod1_piperazic	pip	no_force_needed	0.001	0.9996	1.000
jk7	k10_as_query	Q9S1A7_A1(10)_arg	no_confident_result	arg	0.200	0.92	0.920
jk7	k10_as_query	Q83VS1_A3(8)_val	val	no_force_needed	0.436	0.8256	1.091
jk7	k10_as_query	AEU11003.1_4205_mod4_pro	no_confident_result	pro	0.501	0.7996	0.800
jk7	k10_as_query	NP_216896.3_457_mod1_lys	lys	no_force_needed	0.001	0.9996	0.999
jk7	k10_as_query	Q93N88_A1(3)_hpg|hpg2cl	hpg|hpg2cl	no_force_needed	0.931	0.6276	2.146
jk7	k10_as_query	Q83VS0_A3(13)_ala	ala	no_force_needed	0.258	0.8968	3.897
jk7	k10_as_query	Q83VS1_A3_val	val	no_force_needed	0.444	0.8224	1.086
jk7	k10_as_query	AEC14347.1_567_mod1_phe	no_confident_result	phe	4.242	0	0
jk7	k10_as_query	Q9R9J0_A1_tyr	no_confident_result	tyr	0.744	0.7024	1.402
jk7	k10_as_query	AGM16412.1_456_mod1_orn	orn	no_force_needed	0.001	0.9996	2.241
jk7	k10_as_query	BGC0000464_CDG17980.1_2686_mod3_val	leu	no_force_needed	0.287	0.8852	2.292
jk7	k10_as_query	Q93I54_A1_asn	asn	no_force_needed	1.578	0.3688	0.703
jk7	k10_as_query	BGC0000449_AHF21228.1_2025_mod2_dab	dab	no_force_needed	0.001	0.9996	4.294
jk7	k10_as_query	AEA30273.1_3652_mod4_d-trp	no_confident_result	d-leu	3.433	0	0
jk7	k10_as_query	CCJ67638.1_582_mod1_d-leu	no_confident_result	d-gln	0.558	0.7768	0.777
jk7	k2_as_query	BGC0001178_AGS77309.1_471_mod1_hpg	hpg|hpg2cl	no_force_needed	0.699	0.7204	2.529
jk7	k2_as_query	Q01886v2_A2_ala	ala	no_force_needed	0.001	0.9996	1.792
jk7	k2_as_query	Q5DIP4_A3(6)_ser	ser	no_force_needed	0.154	0.9384	3.166
jk7	k2_as_query	Q8GGP3_A1(2)_cys	cys	no_force_needed	2.754	0	0
jk7	k2_as_query	BGC0000425_AFH75322.1_3790_mod4_hse	no_confident_result	hse	0.467	0.8132	0.813
jk7	k2_as_query	P26046_A3_val	val	no_force_needed	0.001	0.9996	0.999
jk7	k2_as_query	Q45R83_A3(10)_gly	no_confident_result	gly	3.095	0	0
jk7	k2_as_query	Q5DIP4_A1(4)_gly	gly	no_force_needed	2.955	0	0
jk7	k2_as_query	Q6WZ98_A1_blys	no_confident_result	asn	6.675	0	0
jk7	k2_as_query	BGC0001036_AGZ15476.1_490_mod1_3oh-leu	3oh-leu	no_force_needed	0.001	0.9996	1.000
jk7	k2_as_query	YP_631961.1_3708_mod3_goh-val	no_confident_result	leu	2.879	0	0
jk7	k2_as_query	YP_631961.1_1173_mod1_ser	ser	no_force_needed	0.309	0.8764	1.747
jk7	k2_as_query	P0C064_A4(5)_leu	leu	no_force_needed	0.041	0.9836	1.261
jk7	k2_as_query	O94205_A1_ala	no_confident_result	trp	6.524	0	0
jk7	k2_as_query	Q939Z1_A2_bht	no_confident_result	bht|tyr	0.466	0.8136	0.814
jk7	k2_as_query	removed_A2(3)_val	no_confident_result	val	0.749	0.7004	0.700
jk7	k2_as_query	AEI70245.1_445_mod1_ala	gly	no_force_needed	2.774	0	0
jk7	k2_as_query	AHH53507.1_4147_mod4_asp	asp	no_force_needed	0.001	0.9996	1.524
jk7	k2_as_query	AEA30272.1_3675_mod4_gly	no_confident_result	gly	3.391	0	0
jk7	k2_as_query	O94205_A2_phe	no_confident_result	pro	7.012	0	0
jk7	k2_as_query	EFE73313.1_1569_mod2_met	no_confident_result	thr	3.237	0	0
jk7	k2_as_query	CCJ67638.1_2717_mod3_d-val	d-val	no_force_needed	0.018	0.9928	4.150
jk7	k2_as_query	Q83VS0_A8(18)_dhab|dht	dhab|dht	no_force_needed	0.514	0.7944	2.638
jk7	k2_as_query	BGC0000376_BAP16699.1_1300_mod1_ser	no_confident_result	thr	5.259	0	0
jk7	k2_as_query	Q8NJX1_A8_ala	no_confident_result	leu|val	3.429	0	0
jk7	k2_as_query	Q9RAH4_A4_leu	leu	no_force_needed	0.982	0.6072	0.607
jk7	k2_as_query	Q50858_A1_gly	gly	no_force_needed	3.903	0	0
jk7	k2_as_query	AHH53507.1_5197_mod5_gly	gly	no_force_needed	0.000	1	1.000
jk7	k2_as_query	Q84BQ6v2_A1_leu	leu	no_force_needed	0.001	0.9996	2.510
jk7	k2_as_query	Q70LM4_A3(15)_trp	no_confident_result	trp	2.229	0.1084	0.256
jk7	k2_as_query	Q8CV01_A1_dhb|sal	no_confident_result	dhb|sal	2.585	0	0
jk7	k2_as_query	Q8NJX1_A12_abu|iva	abu|iva	no_force_needed	2.513	0	0
jk7	k2_as_query	BGC0000431_EFE73313.1_1569_mod2_lys	no_confident_result	thr	3.237	0	0
jk7	k2_as_query	Q5V8A8_A1_val	no_confident_result	val	4.845	0	0
jk7	k2_as_query	BGC0001149_CDF96614.1_1540_mod2_pro	no_confident_result	pro	5.769	0	0
jk7	k2_as_query	Q84BQ6v2_A2_asp	asp	no_force_needed	0.001	0.9996	1.812
jk7	k2_as_query	BGC0000400_AGM16414.1_1316_mod2_lys	lys	no_force_needed	0.001	0.9996	2.835
jk7	k2_as_query	Q84BC7_A2(5)_ser	no_confident_result	ser	1.023	0.5908	0.591
jk7	k2_as_query	BGC0000371_BAH33409.1_3340_mod3_horn	no_confident_result	no_confident_result	3.462	0	0
jk7	k2_as_query	Q8KLL4v2_A1_dpg	dpg	no_force_needed	0.001	0.9996	3.569
jk7	k2_as_query	BGC0000449_AHF21229.1_1387_mod2_ile	ala	no_force_needed	0.001	0.9996	1.000
jk7	k2_as_query	BGC0000431_EFE73312.1_2615_mod3_dpr	ser	no_force_needed	0.000	1	2.687
jk7	k2_as_query	Q83VS1_A4_dhab|dht	dhab|dht	no_force_needed	0.001	0.9996	2.968
jk7	k2_as_query	P27743_A2_cys	cys	no_force_needed	1.987	0.2052	0.205
jk7	k2_as_query	P27742_A3_val	val	no_force_needed	1.906	0.2376	0.238
jk7	k2_as_query	Q70JX1_A1_glu	no_confident_result	glu	1.725	0.31	0.955
jk7	k2_as_query	Q45R85_A1_trp	no_confident_result	trp	3.921	0	0
jk7	k2_as_query	O69246_A1(4)_val	no_confident_result	val	2.639	0	0
jk7	k2_as_query	BGC0001132_xnc1_2022_1149_mod2_leu	no_confident_result	leu	5.044	0	0
jk7	k2_as_query	CCA29203.1_3604_mod3_gly	no_confident_result	val	7.176	0	0
jk7	k2_as_query	AGM16413.1_4358_mod4_ile	ile	no_force_needed	0.001	0.9996	2.240
jk7	k2_as_query	P39846_A2_thr	thr	no_force_needed	0.940	0.624	0.624
jk7	k2_as_query	Q9C1G0v1_A1_aad	aad	no_force_needed	0.001	0.9996	2.183
jk7	k2_as_query	AEU11003.1_1620_mod2_phe	no_confident_result	tyr	1.670	0.332	0.332
jk7	k2_as_query	AGC65513.1_491_mod1_phe|tyr	no_confident_result	trp|6cl-trp	7.954	0	0
jk7	k2_as_query	Q8KLL5_A2(5)_hpg|hpg2cl	hpg|hpg2cl	no_force_needed	0.001	0.9996	1.000
jk7	k2_as_query	BGC0000463_AGM14933.1_3718_mod4_leu	no_confident_result	leu	1.081	0.5676	0.568
jk7	k2_as_query	Q6YK40_A4_glu	no_confident_result	glu	0.046	0.9816	0.982
jk7	k2_as_query	Q9R9J0_A2_asn	asn	no_force_needed	0.989	0.6044	2.377
jk7	k2_as_query	BGC0000376_BAP16689.1_223_mod1_6cl-4hydroxyindole-3-carboxylic	no_confident_result	lys	6.724	0	0
jk7	k2_as_query	Q2XNF8_A2(3)_ala	no_confident_result	ala	2.794	0	0
jk7	k2_as_query	BGC0000456_BAO73252.1_4122_mod3_pro	no_confident_result	gln	3.350	0	0
jk7	k2_as_query	Q83VS0_A6(16)_ser	ser	no_force_needed	0.092	0.9632	1.898
jk7	k2_as_query	BGC0000431_EFE73312.1_1526_mod2_ser	thr	no_force_needed	0.001	0.9996	1.910
jk7	k2_as_query	Q5DIS7_A2_dab	no_confident_result	dab	2.577	0	0
jk7	k2_as_query	AFZ61526.1_1614_mod2_ser	ser	no_force_needed	0.531	0.7876	1.292
jk7	k2_as_query	O85168_A5_arg	no_confident_result	dab	3.561	0	0
jk7	k2_as_query	BGC0000369_AHZ20774.1_3047_mod3_gly	gly	no_force_needed	0.001	0.9996	1.000
jk7	k2_as_query	O33743_A_blys	no_confident_result	trp|6cl-trp	8.576	0	0
jk7	k2_as_query	Q9Z4X6_A2_athr|thr	thr	no_force_needed	2.192	0.1232	0.123
jk7	k2_as_query	BGC0001045_AFR69334.1_3500_mod3_ile|val	no_confident_result	thr	6.174	0	0
jk7	k2_as_query	Q9R9I9_A2_asn	asn	no_force_needed	1.585	0.366	0.937
jk7	k2_as_query	BGC0001166_AGQ43600.1_2990_mod3_d-ala	no_confident_result	ala	0.583	0.7668	1.507
jk7	k2_as_query	BGC0000425_AFH75322.1_565_mod1_dhabu	no_confident_result	d-athr	0.522	0.7912	0.791
jk7	k2_as_query	AHF21228.1_6670_mod5_trp	trp	no_force_needed	0.001	0.9996	0.999
jk7	k2_as_query	BGC0001035_EPE34341.1_2860_mod3_3oh-pro|3oh-4me-pro	4oh-pro	no_force_needed	0.000	1	1.000
jk7	k2_as_query	Q93N87_A3(6)_tyr	tyr	no_force_needed	0.001	0.9996	1.000
jk7	k2_as_query	BGC0001133_XBJ1_0774_3102_mod3_ser	ser	no_force_needed	0.001	0.9996	1.000
jk7	k2_as_query	O87704_A1(3)_tyr	tyr	no_force_needed	0.773	0.6908	0.691
jk7	k2_as_query	BGC0000376_BAP16697.1_524_mod1_d-ala	no_confident_result	gly	5.790	0	0
jk7	k2_as_query	Q50E73_A2(7)_asp	asp	no_force_needed	0.100	0.96	0.960
jk7	k2_as_query	Q70AZ7_A1_hpg|hpg2cl	hpg|hpg2cl	no_force_needed	0.001	0.9996	1.552
jk7	k2_as_query	AGM16413.1_273_mod1_val	val	no_force_needed	0.001	0.9996	4.359
jk7	k2_as_query	EPE34341.1_6121_mod6_3oh-pro|3oh-4me-pro	4oh-pro	no_force_needed	0.000	1	1.000
jk7	k2_as_query	Q9KID8v2_A1_pip	pip	no_force_needed	0.001	0.9996	2.014
jk7	k2_as_query	P59591_A1_ala	ala	no_force_needed	1.104	0.5584	1.065
jk7	k2_as_query	O30980_A3(9)_tyr	tyr	no_force_needed	0.001	0.9996	1.563
jk7	k2_as_query	Q2XNF8_A3(4)_arg	no_confident_result	ala	4.222	0	0
jk7	k2_as_query	AEA30274.1_484_mod1_aoh-gly	gly	no_force_needed	2.762	0	0
jk7	k2_as_query	BGC0000463_AGM14933.1_5818_mod6_ser	no_confident_result	gln	0.138	0.9448	0.945
jk7	k2_as_query	Q93I54v2_A2_ser	ser	no_force_needed	0.001	0.9996	2.703
jk7	k2_as_query	P94873_A3_val	val	no_force_needed	3.046	0	0
jk7	k2_as_query	Q6YK40_A2_asn	asn	no_force_needed	0.101	0.9596	2.797
jk7	k3_as_query	Q9FDT8_ALod_phe-ac	phe-ac	no_force_needed	0.902	0.6392	1.121
jk7	k3_as_query	P45745_A1_gly	gly	no_force_needed	0.001	0.9996	1.000
jk7	k3_as_query	AGM16412.1_4054_mod4_orn	orn	no_force_needed	0.001	0.9996	1.624
jk7	k3_as_query	Q08787_A1(7)_leu	ile	no_force_needed	2.822	0	0
jk7	k3_as_query	BGC0000425_AFH75321.1_2723_mod3_d-val	no_confident_result	leu	0.178	0.9288	0.929
jk7	k3_as_query	Q45295_A1_gln	gln	no_force_needed	0.061	0.9756	1.849
jk7	k3_as_query	Q5DIV7_A1_ser	ser	no_force_needed	0.015	0.994	2.908
jk7	k3_as_query	AHF21228.1_9291_mod7_dab	dab	no_force_needed	0.001	0.9996	3.831
jk7	k3_as_query	P39847_A1_glu	glu	no_force_needed	0.180	0.928	2.364
jk7	k3_as_query	Q01886v1_A1_pro	pro	no_force_needed	0.001	0.9996	1.754
jk7	k3_as_query	Q6YK41_A1_asn	asn	no_force_needed	0.076	0.9696	3.228
jk7	k3_as_query	Q9R9I9_A1_ser	ser	no_force_needed	0.821	0.6716	2.578
jk7	k3_as_query	O52819_A2_bht|tyr	bht	no_force_needed	0.458	0.8168	1.338
jk7	k3_as_query	O30408_A2(3)_phe	no_confident_result	tyr	2.177	0.1292	0.129
jk7	k3_as_query	BGC0000425_AFH75321.1_581_mod1_d-gln	no_confident_result	d-leu	0.561	0.7756	0.776
jk7	k3_as_query	P27743_A3_val	val	no_force_needed	2.895	0	0
jk7	k3_as_query	Q939Z0_A3(6)_bht	no_confident_result	bht|tyr	0.361	0.8556	0.856
jk7	k3_as_query	Q84BQ5_A2(4)_leu	leu	no_force_needed	0.985	0.606	0.763
jk7	k3_as_query	BGC0000400_AGM16413.1_5398_mod5_pro	pro	no_force_needed	0.001	0.9996	1.000
jk7	k3_as_query	CBG75492_240_mod1_nme-fhorn	fhorn	no_force_needed	0.000	1	1.000
jk7	k3_as_query	Q9FB27_A1_asn	no_confident_result	asn	4.883	0	0
jk7	k3_as_query	AHH53506.1_4093_mod4_thr	thr	no_force_needed	0.001	0.9996	1.000
jk7	k3_as_query	Q45R83_A4(11)_asn	no_confident_result	asp	3.302	0	0
jk7	k3_as_query	BGC0000425_AFH75320.1_1563_mod2_d-pro	no_confident_result	d-pro	0.581	0.7676	0.768
jk7	k3_as_query	O68007_A2(7)_orn	no_confident_result	dab	3.503	0	0
jk7	k3_as_query	BGC0000418_AHF20582.1_1038_mod2_bht	bht	no_force_needed	0.051	0.9796	1.496
jk7	k3_as_query	O86329_A1_lys	lys	no_force_needed	0.001	0.9996	1.000
jk7	k3_as_query	Q70LM4_A2(14)_leu	leu	no_force_needed	2.005	0.198	0.532
jk7	k3_as_query	Q70AZ6_A1_dpg	dpg	no_force_needed	0.001	0.9996	4.392
jk7	k3_as_query	Q84BQ6v1_A2_asp	asp	no_force_needed	0.001	0.9996	1.817
jk7	k3_as_query	Q70AZ7_A2(5)_hpg|hpg2cl	hpg|hpg2cl	no_force_needed	0.001	0.9996	1.000
jk7	k3_as_query	AGM16414.1_277_mod1_val	val	no_force_needed	0.001	0.9996	4.398
jk7	k3_as_query	Q09164_A10_leu	leu	no_force_needed	2.223	0.1108	0.138
jk7	k3_as_query	Q50JA3_A2_leu	no_confident_result	boh-phe	5.227	0	0
jk7	k3_as_query	AGZ15458.1_2022_mod2_noh-d-ala|oh-d-ala	noh-ala	no_force_needed	0.001	0.9996	1.000
jk7	k3_as_query	AEA30272.1_474_mod1_thr	no_confident_result	thr	2.178	0.1288	0.129
jk7	k3_as_query	Q9Z4X6_A1_ser	no_confident_result	ser	2.119	0.1524	0.305
jk7	k3_as_query	Q04747_A3(6)_leu	leu	no_force_needed	0.073	0.9708	2.775
jk7	k3_as_query	AGC65516.1_2153_mod2_ser	ser	no_force_needed	3.002	0	0
jk7	k3_as_query	simA_mod1_d-ala	no_confident_result	val	2.959	0	0
jk7	k3_as_query	Q8NJX1_A10_ser	no_confident_result	ala	2.241	0.1036	0.104
jk7	k3_as_query	Q79JZ1_A1_cys	cys	no_force_needed	2.597	0	0
jk7	k3_as_query	EWS95124_2422_mod3_ala|gly	ala	no_force_needed	1.526	0.3896	0.390
jk7	k3_as_query	BGC0001125_AIW82284.1_1365_mod2_asn	no_confident_result	asn|gln	0.507	0.7972	0.797
jk7	k3_as_query	O30408_A1(2)_pro	pro	no_force_needed	1.984	0.2064	0.362
jk7	k3_as_query	BGC0000400_AGM16412.1_456_mod1_orn	orn	no_force_needed	0.001	0.9996	1.629
jk7	k3_as_query	BGC0000439_AHH53506.1_3045_mod3_asp	asp	no_force_needed	0.000	1	1.530
jk7	k3_as_query	Q93I55_A2_asn	asn	no_force_needed	0.083	0.9668	3.373
jk7	k3_as_query	P39847_A2_val	no_confident_result	ala|val	1.115	0.554	0.554
jk7	k3_as_query	Q5DIV7_A4_horn	horn	no_force_needed	0.001	0.9996	2.571
jk7	k3_as_query	AGM16414.1_2358_mod3_ile	ile	no_force_needed	0.001	0.9996	2.256
jk7	k3_as_query	BGC0000414_BAO84861.1_508_mod1_ala	no_confident_result	b-ala	6.866	0	0
jk7	k3_as_query	AEU11006.1_4186_mod2_gly	no_confident_result	gly	1.645	0.342	0.342
jk7	k3_as_query	O69246_A2(5)_asp	no_confident_result	asp	3.243	0	0
jk7	k3_as_query	Q9S1A9_A2(7)_ala	ala	no_force_needed	2.110	0.156	0.156
jk7	k3_as_query	YP_702283.1_471_mod1_thr	no_confident_result	thr	4.542	0	0
jk7	k3_as_query	Q83VS0_A11(21)_dab	dab	no_force_needed	0.322	0.8712	2.428
jk7	k3_as_query	simA_mod7_sar	no_confident_result	gln	5.224	0	0
jk7	k3_as_query	AHZ20773.1_2017_mod2_tyr	tyr	no_force_needed	0.001	0.9996	1.000
jk7	k3_as_query	Q9FDB3_A4(4)_val	val	no_force_needed	1.661	0.3356	1.727
jk7	k3_as_query	Q09164/440169_A11_ala	no_confident_result	ala	2.924	0	0
jk7	k3_as_query	Q9RFM9_A1_dhb|sal	no_confident_result	dhb|sal	3.183	0	0
jk7	k3_as_query	Q45R85_A5_gly|sar	no_confident_result	gly	3.509	0	0
jk7	k3_as_query	O68008_A4(11)_asp	no_confident_result	asp	3.995	0	0
jk7	k3_as_query	Q70LM5_A1(7)_val	val	no_force_needed	0.799	0.6804	0.824
jk7	k3_as_query	Q5J1Q7_A3_hpg|hpg2cl	no_confident_result	fhorn	6.642	0	0
jk7	k3_as_query	Q09164_A8_leu	no_confident_result	leu	2.513	0	0
jk7	k3_as_query	Q45R85_A2_glu	no_confident_result	asp	3.824	0	0
jk7	k3_as_query	Q8NJX1_A2_gly	no_confident_result	leu	2.660	0	0
jk7	k3_as_query	BGC0000451_CP001614.2_15150-22349_mod1_orn	no_confident_result	no_confident_result	5.761	0	0
jk7	k3_as_query	BGC0000451_CP001614.2_15150-22349_mod2_ser	ser	no_force_needed	3.281	0	0
jk7	k3_as_query	AFZ61525.1_2683_mod3_leu	leu	no_force_needed	1.512	0.3952	0.504
jk7	k3_as_query	AGC65514.1_4147_mod3_val	val	no_force_needed	5.968	0	0
jk7	k3_as_query	CCJ67640.1_5904_mod6_lys	no_confident_result	lys	0.386	0.8456	0.846
jk7	k3_as_query	BGC0000464_CDG17981.1_1643_mod2_leu	leu	no_force_needed	0.466	0.8136	1.361
jk7	k3_as_query	BGC0001114_AGN11881.1_528_mod1_thr	thr	no_force_needed	0.830	0.668	0.668
jk7	k3_as_query	Q8KLL4v1_A1_dpg	dpg	no_force_needed	0.001	0.9996	3.597
jk7	k3_as_query	Q5DIS7_A1_ser	ser	no_force_needed	1.422	0.4312	1.281
jk7	k3_as_query	BGC0000463_AGM14933.1_6881_mod7_val	no_confident_result	val	0.089	0.9644	0.965
jk7	k3_as_query	Q8NJX1_A9_abu|iva	no_confident_result	leu	2.400	0.04	0.040
jk7	k3_as_query	O07944_A1_pro	no_confident_result	pip	1.658	0.3368	0.337
jk7	k3_as_query	BGC0000369_AHZ20773.1_478_mod1_thr	thr	no_force_needed	0.000	1	1.000
jk7	k3_as_query	BGC0000439_AHH53507.1_6245_mod6_ala	ala	no_force_needed	0.000	1	1.000
jk7	k3_as_query	P27742_A1_aad	no_confident_result	aad	0.942	0.6232	1.832
jk7	k3_as_query	Q939Z0_A2(5)_hpg|hpg2cl	no_confident_result	hpg|hpg2cl	0.539	0.7844	0.784
jk7	k3_as_query	BGC0000400_AGM16413.1_1312_mod2_lys	lys	no_force_needed	0.001	0.9996	2.839
jk7	k3_as_query	Q9FB24_A1_thr	no_confident_result	thr	4.114	0	0
jk7	k3_as_query	Q6WZB2_A1(2)_ser	ser	no_force_needed	5.587	0	0
jk7	k3_as_query	Q9L8H4_A2(5)_gly	no_confident_result	gly	3.671	0	0
jk7	k3_as_query	P94459_A1_pro	pro	no_force_needed	1.295	0.482	0.756
jk7	k3_as_query	AHF21228.1_5129_mod4_ser	ser	no_force_needed	0.001	0.9996	3.774
jk7	k3_as_query	BGC0001166_AGQ43600.1_1838_mod2_ala	no_confident_result	ala	0.511	0.7956	1.591
jk7	k3_as_query	Q9FDB3_A5(5)_ala	ala	no_force_needed	0.576	0.7696	5.656
jk7	k4_as_query	Q84BQ6v1_A1_leu	leu	no_force_needed	0.001	0.9996	2.535
jk7	k4_as_query	Q9Z4X5_A1_asp	asp	no_force_needed	0.001	0.9996	1.837
jk7	k4_as_query	Q93N89_A2_trp	trp	no_force_needed	0.001	0.9996	1.000
jk7	k4_as_query	Q45295_A3_leu	leu	no_force_needed	0.349	0.8604	1.608
jk7	k4_as_query	O85168_A3_dab	dab	no_force_needed	0.367	0.8532	2.465
jk7	k4_as_query	P0C063_A3_orn	orn	no_force_needed	0.095	0.962	1.209
jk7	k4_as_query	BGC0001019_AHB82071.1_523_mod1_gly	gly	no_force_needed	2.856	0	0
jk7	k4_as_query	P39845_A2_orn	orn	no_force_needed	1.218	0.5128	0.513
jk7	k4_as_query	Q8KLL5_A2_hpg|hpg2cl	hpg|hpg2cl	no_force_needed	0.001	0.9996	1.000
jk7	k4_as_query	Q9I157_A1(2)_glu	ser	no_force_needed	3.499	0	0
jk7	k4_as_query	O66071_A1(7)_ile	leu	no_force_needed	2.861	0	0
jk7	k4_as_query	Q8G985/24744795_ALod_phe-ac	phe-ac	no_force_needed	0.912	0.6352	1.167
jk7	k4_as_query	BGC0000436_EJK79842.1_762_mod1_ile|val	no_confident_result	val	2.506	0	0
jk7	k4_as_query	BGC0001133_XBJ1_0775_3649_mod4_leu	leu	no_force_needed	0.128	0.9488	1.878
jk7	k4_as_query	P40871_A1_dhb|sal	no_confident_result	dhb|sal	1.678	0.3288	0.329
jk7	k4_as_query	Q9S1A8_A2(9)_me-asp	no_confident_result	me-asp	1.354	0.4584	0.892
jk7	k4_as_query	BGC0000371_BAH31686.1_3493_mod3_horn	no_confident_result	no_confident_result	1.656	0.3376	0.338
jk7	k4_as_query	Q8CJX2_A2(11)_trp	no_confident_result	trp	2.038	0.1848	0.185
jk7	k4_as_query	BGC0000335_AID65222.1_2687_mod1_asn	asn	no_force_needed	4.763	0	0
jk7	k4_as_query	Q53526_A1_ala	ala	no_force_needed	1.193	0.5228	0.523
jk7	k4_as_query	Q9I157_A3(4)_dab	no_confident_result	dab	2.568	0	0
jk7	k4_as_query	BGC0000425_AFH75320.1_2651_mod3_d-ser	d-ser	no_force_needed	0.721	0.7116	1.403
jk7	k4_as_query	YP_631961.1_4764_mod4_ser	ser	no_force_needed	0.335	0.866	1.729
jk7	k4_as_query	Q01886v2_A1_pro	pro	no_force_needed	0.001	0.9996	1.744
jk7	k4_as_query	Q00869_A2_val	no_confident_result	leu	3.989	0	0
jk7	k4_as_query	Q939Z0_A1(4)_hpg|hpg2cl	no_confident_result	hpg|hpg2cl	0.634	0.7464	0.746
jk7	k4_as_query	BGC0000425_AFH75321.1_3778_mod4_d-leu	d-gln	no_force_needed	0.126	0.9496	1.568
jk7	k4_as_query	BGC0001178_AGS77307.1_26_mod1_hpg	hpg|hpg2cl	no_force_needed	0.632	0.7472	1.408
jk7	k4_as_query	AHZ34233.1_2589_mod3_val	no_confident_result	ile	2.195	0.122	0.371
jk7	k4_as_query	Q9FDB3_A2(2)_pro	no_confident_result	d-pro	1.519	0.3924	0.779
jk7	k4_as_query	Q84BC7_A1(4)_ile	no_confident_result	aile	1.410	0.436	0.436
jk7	k4_as_query	AGM16414.1_1316_mod2_lys	lys	no_force_needed	0.001	0.9996	2.839
jk7	k4_as_query	BGC0000456_BAO73252.1_2551_mod2_ala	no_confident_result	athr|ser	2.917	0	0
jk7	k4_as_query	AEU11003.1_555_mod1_pro	no_confident_result	pro	0.497	0.8012	0.801
jk7	k4_as_query	Q6WZB2_A2(3)_ser	ser	no_force_needed	5.023	0	0
jk7	k4_as_query	Q8Z8L1_A1_dhb|sal	no_confident_result	dhb|sal	0.658	0.7368	0.737
jk7	k4_as_query	AHH53506.1_475_mod1_trp	trp	no_force_needed	0.000	1	1.000
jk7	k4_as_query	EWS95124_960_mod2_hpg	no_confident_result	hpg|hpg2cl	3.069	0	0
jk7	k4_as_query	O68008_A3(10)_his	no_confident_result	trp	4.249	0	0
jk7	k4_as_query	BGC0000418_AHF20584.1_1929_mod2_hpg	no_confident_result	hpg	0.088	0.9648	0.965
jk7	k4_as_query	P27743_A1_aad	aad	no_force_needed	1.033	0.5868	0.678
jk7	k4_as_query	Q5MP00_A1(5)_gly	gly	no_force_needed	3.689	0	0
jk7	k4_as_query	Q8G982_A2(9)_me-asp	no_confident_result	me-asp	1.166	0.5336	1.056
jk7	k4_as_query	Q2VQ15_A2(5)_val	no_confident_result	val	0.904	0.6384	0.639
jk7	k4_as_query	ZP_10287805.1_2041_mod2_ile|d-leu	ile	no_force_needed	0.001	0.9996	1.000
jk7	k4_as_query	BGC0000416_CBJ90289.1_562_mod1_val	val	no_force_needed	0.000	1	2.592
jk7	k4_as_query	P0A398_A1_ala	ala	no_force_needed	1.043	0.5828	0.583
jk7	k4_as_query	BGC0000449_AHF21228.1_5129_mod4_ser	ser	no_force_needed	0.001	0.9996	3.569
jk7	k4_as_query	Q70K00_A2_thr	thr	no_force_needed	0.085	0.966	1.367
jk7	k4_as_query	P39845_A1_glu	glu	no_force_needed	0.183	0.9268	2.465
jk7	k4_as_query	AHH53507.1_1547_mod2_asp	asp	no_force_needed	0.000	1	1.031
jk7	k4_as_query	Q93I55_A3_gln	no_confident_result	gln	1.351	0.4596	0.460
jk7	k4_as_query	AHH53506.1_3045_mod3_asp	asp	no_force_needed	0.000	1	1.568
jk7	k4_as_query	Q09164_A5_bmt	no_confident_result	leu	2.825	0	0
jk7	k4_as_query	AEC14348.1_1108_mod1_phe	no_confident_result	phe	4.128	0	0
jk7	k4_as_query	O52821_A1(7)_dpg	dpg	no_force_needed	0.552	0.7792	4.798
jk7	k4_as_query	CBG75492_1712_mod2_ser	ser	no_force_needed	0.001	0.9996	1.182
jk7	k4_as_query	O87313_A2_b-ala	no_confident_result	glycolic-acid	7.233	0	0
jk7	k4_as_query	AHZ34233.1_483_mod1_leu	leu	no_force_needed	0.220	0.912	2.787
jk7	k4_as_query	O07944_A3_pip	pro	no_force_needed	1.694	0.3224	0.386
jk7	k4_as_query	BGC0000449_AHF21229.1_280_mod1_val	val	no_force_needed	0.000	1	1.892
jk7	k4_as_query	BGC0000449_AHF21228.1_6670_mod5_trp	trp	no_force_needed	0.001	0.9996	1.000
jk7	k4_as_query	BGC0000400_AGM16413.1_2831_mod3_ser	ser	no_force_needed	0.001	0.9996	2.851
jk7	k4_as_query	Q93I54v1_A2_ser	ser	no_force_needed	0.001	0.9996	2.592
jk7	k4_as_query	NP_216895.1_486_mod1_lys	lys	no_force_needed	0.001	0.9996	1.000
jk7	k4_as_query	P94460_A1_ile	no_confident_result	ile	0.934	0.6264	0.627
jk7	k4_as_query	CCJ67640.1_2746_mod3_leu	d-leu	no_force_needed	0.998	0.6008	1.071
jk7	k4_as_query	BGC0001035_EPE34341.1_5024_mod5_thr	3oh-gln	no_force_needed	0.000	1	1.000
jk7	k4_as_query	Q7WZ65_A1_dpg	dpg	no_force_needed	0.940	0.624	3.335
jk7	k4_as_query	Q70AZ9b_A1_hpg|hpg2cl	hpg|hpg2cl	no_force_needed	0.000	1	1.659
jk7	k4_as_query	BGC0001019_AHB82072.1_552_mod1_gly	gly	no_force_needed	2.878	0	0
jk7	k4_as_query	Q8NJX1_A1_abu|iva	no_confident_result	val	2.063	0.1748	0.175
jk7	k4_as_query	BGC0000463_AGM14933.1_561_mod1_gln	no_confident_result	leu	1.449	0.4204	0.792
jk7	k4_as_query	P19787_A2_cys	cys	no_force_needed	0.008	0.9968	2.508
jk7	k4_as_query	Q9Z4X6_A4_asp	asp	no_force_needed	0.316	0.8736	1.704
jk7	k4_as_query	Q93N87_A1_hpg|hpg2cl	hpg|hpg2cl	no_force_needed	0.001	0.9996	2.768
jk7	k4_as_query	P25464_A1_aad	aad	no_force_needed	1.289	0.4844	1.782
jk7	k4_as_query	O85739_A1_cys	no_confident_result	thr	4.748	0	0
jk7	k4_as_query	ZP_10287805.1_544_mod1_d-asn	asn	no_force_needed	0.001	0.9996	3.802
jk7	k4_as_query	Q9RBY6_A1_thr	no_confident_result	dhab|dht	6.176	0	0
jk7	k4_as_query	Q09164_A1_ala	no_confident_result	abu	3.128	0	0
jk7	k4_as_query	BGC0000400_AGM16412.1_1974_mod2_val	val	no_force_needed	0.001	0.9996	4.235
jk7	k4_as_query	Q884E4_A1_thr	no_confident_result	thr	0.204	0.9184	0.918
jk7	k4_as_query	BGC0000398_AFH75329.1_1652_mod2_val	no_confident_result	val	1.062	0.5752	0.575
jk7	k4_as_query	Q70C44_A1_asn	asn	no_force_needed	6.347	0	0
jk7	k4_as_query	Q65NK5_A3_leu	leu	no_force_needed	0.433	0.8268	1.803
jk7	k4_as_query	YP_003712464.1_561_mod1_leu	leu	no_force_needed	0.000	1	1.000
jk7	k4_as_query	O85740_A1(3)_cys	no_confident_result	cys	6.226	0	0
jk7	k4_as_query	P0C063_A1_pro	pro	no_force_needed	0.129	0.9484	1.104
jk7	k4_as_query	O30408_A3(4)_phe	no_confident_result	phe	2.967	0	0
jk7	k4_as_query	P25464_A3_val	val	no_force_needed	2.316	0.0736000000000001	0.147
jk7	k4_as_query	Q9FDB3_A1_dhab|dht	dhab|dht	no_force_needed	0.001	0.9996	3.603
jk7	k4_as_query	Q333U7_A1(3)_cys	cys	no_force_needed	2.722	0	0
jk7	k5_as_query	YP_003712465.1_557_mod1_val	val	no_force_needed	0.000	1	2.589
jk7	k5_as_query	BGC0001019_AHB82069.1_1590_mod1_asn	no_confident_result	leu	6.493	0	0
jk7	k5_as_query	Q5V8A8_A2_trp	no_confident_result	tyr	4.617	0	0
jk7	k5_as_query	BGC0000414_BAO84866.1_500_mod1_4-5-dehydro-arg|me-tyr	no_confident_result	me-tyr	3.711	0	0
jk7	k5_as_query	CCJ67640.1_3780_mod4_hse	no_confident_result	hse	0.471	0.8116	0.811
jk7	k5_as_query	BGC0000439_AHH53506.1_475_mod1_trp	trp	no_force_needed	0.000	1	1.000
jk7	k5_as_query	BGC0000439_AHH53506.1_5177_mod5_gly	gly	no_force_needed	3.093	0	0
jk7	k5_as_query	simA_mod6_abu	no_confident_result	ala	2.765	0	0
jk7	k5_as_query	Q8NJX1_A17_gln	no_confident_result	gln	2.538	0	0
jk7	k5_as_query	Q83VS0_A10(20)_dab	dab	no_force_needed	0.328	0.8688	2.453
jk7	k5_as_query	BGC0000376_BAP16693.1_511_mod1_alpha-me-ser	cys	no_force_needed	4.754	0	0
jk7	k5_as_query	BGC0001132_xnc1_2022_2204_mod3_val	val	no_force_needed	0.155	0.938	1.404
jk7	k5_as_query	O87314_A1_orn	orn	no_force_needed	0.001	0.9996	1.000
jk7	k5_as_query	Q9S1A9_A1(6)_ser	ser	no_force_needed	1.713	0.3148	0.315
jk7	k5_as_query	AEU11006.1_2653_mod1_gln	no_confident_result	ser	1.871	0.2516	0.500
jk7	k5_as_query	Q83VS1_A4(9)_dhab|dht	dhab|dht	no_force_needed	0.001	0.9996	3.812
jk7	k5_as_query	BGC0000425_AFH75321.1_5900_mod6_val	no_confident_result	d-val	1.033	0.5868	2.760
jk7	k5_as_query	ZP_10287804.1_2037_mod2_asn	asn	no_force_needed	0.001	0.9996	1.993
jk7	k5_as_query	YP_631961.1_5832_mod5_val	no_confident_result	goh-val	4.186	0	0
jk7	k5_as_query	Q70AZ7_A1(4)_hpg|hpg2cl	hpg|hpg2cl	no_force_needed	0.001	0.9996	1.000
jk7	k5_as_query	BGC0000419_AIG79243.1_26_mod1_hpg	hpg	no_force_needed	0.135	0.946	1.485
jk7	k5_as_query	P71717_A1_ser|thr	thr	no_force_needed	0.001	0.9996	1.000
jk7	k5_as_query	BGC0001035_EPE34341.1_6121_mod6_4oh-pro	3oh-pro|3oh-4me-pro	no_force_needed	0.000	1	1.000
jk7	k5_as_query	P39846_A1_tyr	tyr	no_force_needed	0.772	0.6912	0.691
jk7	k5_as_query	Q6YK40_A1_tyr	tyr	no_force_needed	0.056	0.9776	1.677
jk7	k5_as_query	O30981_A1(5)_glu	glu	no_force_needed	0.823	0.6708	1.607
jk7	k5_as_query	Q01886_A4_aeo	no_confident_result	aeo	0.612	0.7552	0.755
jk7	k5_as_query	XP_754329.2_1103_mod2_ala	trp	no_force_needed	6.406	0	0
jk7	k5_as_query	CCA29203.1_2085_mod2_cys	cys	no_force_needed	3.069	0	0
jk7	k5_as_query	CCJ67639.1_2757_mod3_d-val	d-val	no_force_needed	0.224	0.9104	4.001
jk7	k5_as_query	AHZ20781.1_481_mod1_thr	thr	no_force_needed	0.001	0.9996	1.000
jk7	k5_as_query	Q8GAQ3_A1(3)_phe	no_confident_result	phe	2.582	0	0
jk7	k5_as_query	O52820_A2(5)_hpg|hpg2cl	no_confident_result	hpg|hpg2cl	0.545	0.782	0.782
jk7	k5_as_query	Q70LM6_A3(5)_ala	no_confident_result	gly	2.354	0.0584	0.059
jk7	k5_as_query	BGC0000464_CDG17980.1_7025_mod7_leu	no_confident_result	val	0.287	0.8852	0.885
jk7	k5_as_query	Q6VT95_A1(5)_gly	gly	no_force_needed	3.703	0	0
jk7	k5_as_query	YP_631961.1_9179_mod6_ser	ser	no_force_needed	0.287	0.8852	1.748
jk7	k5_as_query	P48633_A1_cys	cys	no_force_needed	2.574	0	0
jk7	k5_as_query	AHF21229.1_280_mod1_val	val	no_force_needed	0.000	1	1.883
jk7	k5_as_query	AFZ61525.1_558_mod1_athr	no_confident_result	d-athr	1.304	0.4784	0.952
jk7	k5_as_query	Q50E73_A5(10)_gly	gly	no_force_needed	2.940	0	0
jk7	k5_as_query	O05647_A1_pro	no_confident_result	pro	1.720	0.312	0.312
jk7	k5_as_query	Q70JZ9_A1_tyr	tyr	no_force_needed	0.031	0.9876	1.695
jk7	k5_as_query	BGC0000449_AHF21228.1_11933_mod9_phe	phe	no_force_needed	0.001	0.9996	1.000
jk7	k5_as_query	Q51338_A1_thr	thr	no_force_needed	0.015	0.994	0.994
jk7	k5_as_query	BGC0000369_AHZ20781.1_1540_mod2_thr	thr	no_force_needed	0.001	0.9996	1.000
jk7	k5_as_query	AHH53506.1_5177_mod5_gly	gly	no_force_needed	3.093	0	0
jk7	k5_as_query	AEA30274.1_1533_mod2_d-leu	no_confident_result	boh-d-leu	0.258	0.8968	0.897
jk7	k5_as_query	BGC0000292_XP_001212648.1_529_mod1_phe	no_confident_result	trp	8.167	0	0
jk7	k5_as_query	BGC0000335_AID65224.1_1515_mod2_phe	no_confident_result	tyr	1.449	0.4204	0.421
jk7	k5_as_query	BGC0000400_AGM16412.1_4054_mod4_orn	orn	no_force_needed	0.001	0.9996	2.241
jk7	k5_as_query	BGC0000425_AFH75321.1_1645_mod2_leu	d-val	no_force_needed	0.194	0.9224	3.850
jk7	k5_as_query	Q2VQ17_A1_bmt	thr	no_force_needed	3.559	0	0
jk7	k5_as_query	Q5DIP3_A3_orn	no_confident_result	lys	2.984	0	0
jk7	k5_as_query	BGC0001125_AIW82282.1_2490_mod1_val	no_confident_result	val	3.301	0	0
jk7	k5_as_query	Q84BQ4_A1(7)_leu	leu	no_force_needed	1.222	0.5112	2.842
jk7	k5_as_query	YP_116977.1_584_mod1_thr	no_confident_result	thr	3.706	0	0
jk7	k5_as_query	Q9Z4X6_A5_asp	asp	no_force_needed	0.312	0.8752	2.549
jk7	k5_as_query	BGC0000423_CBG75492.1_4248_mod4_orn	orn	no_force_needed	0.001	0.9996	1.000
jk7	k5_as_query	P11454_A1(2)_ser	ser	no_force_needed	0.040	0.984	0.984
jk7	k5_as_query	P94459_A3_tyr	tyr	no_force_needed	1.093	0.5628	1.126
jk7	k5_as_query	BGC0000431_EFE73308.1_231_mod1_cysa	dab|dpr	no_force_needed	0.000	1	1.000
jk7	k5_as_query	BGC0000369_AHZ20784.1_509_mod1_nme-thr	thr	no_force_needed	0.000	1	1.000
jk7	k5_as_query	Q8CJX2_A1(10)_glu|3-me-glu	no_confident_result	asp	3.442	0	0
jk7	k5_as_query	BGC0000314_WP_010369430.1_544_mod1_asn	d-asn	no_force_needed	0.001	0.9996	1.000
jk7	k5_as_query	O85168_A2_ser	ser	no_force_needed	0.280	0.888	1.792
jk7	k5_as_query	BGC0000398_AFH75328.1_482_mod1_leu	leu	no_force_needed	1.597	0.3612	0.748
jk7	k5_as_query	Q54356_A1_pro-4p	no_confident_result	pro	6.852	0	0
jk7	k5_as_query	YP_702283.1_1525_mod2_fhorn	no_confident_result	no_confident_result	3.842	0	0
jk7	k5_as_query	BGC0000464_CDG17980.1_3751_mod4_leu	no_confident_result	leu	2.590	0	0
jk7	k5_as_query	XP_002568558.1_227_mod1_trp	no_confident_result	his	5.388	0	0
jk7	k5_as_query	AHZ20784.1_1992_mod2_gln|tyr	glu|tyr	no_force_needed	0.000	1	1.000
jk7	k5_as_query	Q884E3_A2_ser	ser	no_force_needed	0.421	0.8316	0.832
jk7	k5_as_query	BGC0000398_AFH75328.1_1544_mod2_glu	no_confident_result	glu	1.540	0.384	0.384
jk7	k5_as_query	BGC0000398_AFH75329.1_2729_mod3_leu	no_confident_result	leu	2.075	0.17	0.312
jk7	k5_as_query	EFE73312.1_4373_mod4_thr	no_confident_result	no_confident_result	0.222	0.9112	0.911
jk7	k5_as_query	XP_001220460.1_3743_mod1_trp	no_confident_result	ala|leu|val	8.493	0	0
jk7	k5_as_query	BGC0000400_AGM16413.1_273_mod1_val	val	no_force_needed	0.001	0.9996	4.375
jk7	k5_as_query	O68006_A1_ile	ile	no_force_needed	0.390	0.844	1.598
jk7	k5_as_query	AHZ34232.1_2599_mod3_gln	no_confident_result	leu	2.022	0.1912	0.191
jk7	k5_as_query	BGC0000423_CBG75492.1_5304_mod5_horn	d-cyclo-horn	no_force_needed	0.000	1	1.000
jk7	k5_as_query	Q8G982_A1(8)_leu	no_confident_result	leu	1.725	0.31	0.310
jk7	k5_as_query	BGC0000314_WP_010369425.1_467_mod1_thr	thr	no_force_needed	0.001	0.9996	1.000
jk7	k5_as_query	BGC0000400_AGM16413.1_4358_mod4_ile	ile	no_force_needed	0.001	0.9996	2.252
jk7	k5_as_query	AHZ20774.1_3047_mod3_gly	gly	no_force_needed	0.001	0.9996	1.000
jk7	k5_as_query	BGC0000419_AIG79241.1_1929_mod2_hpg	no_confident_result	hpg	0.088	0.9648	0.965
jk7	k5_as_query	BGC0000418_AHF20584.1_3410_mod3_bht	bht	no_force_needed	0.061	0.9756	1.601
jk7	k5_as_query	Q50JA3_A1_thr	no_confident_result	athr|thr	4.935	0	0
jk7	k5_as_query	BGC0000464_CDG17982.1_1657_mod2_b-ala	no_confident_result	pro	3.391	0	0
jk7	k5_as_query	Q8NJX1_A14_leu|val	no_confident_result	ala	3.151	0	0
jk7	k5_as_query	Q70JZ8_A1_asn	asn	no_force_needed	0.053	0.9788	3.554
jk7	k5_as_query	O87606_A1_glu	glu	no_force_needed	0.833	0.6668	1.558
jk7	k5_as_query	EPE34341.1_685_mod1_4oh-5oh-orn	4oh-5oh-hty	no_force_needed	0.000	1	1.000
jk7	k6_as_query	P94873_A1_aad	aad	no_force_needed	2.199	0.1204	0.221
jk7	k6_as_query	Q7WRQ4_A1(8)_leu	no_confident_result	arg	1.738	0.3048	0.305
jk7	k6_as_query	Q9C1G0v1_A2_cys	cys	no_force_needed	0.001	0.9996	2.513
jk7	k6_as_query	BGC0001035_EPE34341.1_3930_mod4_4oh-5oh-orn	no_confident_result	no_confident_result	3.346	0	0
jk7	k6_as_query	BGC0000464_CDG17982.1_2738_mod3_pro	no_confident_result	pro	0.162	0.9352	0.935
jk7	k6_as_query	Q84BC7_A3(6)_pro|me-pro	no_confident_result	pro|me-pro	0.820	0.672	0.672
jk7	k6_as_query	ZP_10287804.1_544_mod1_d-val	val	no_force_needed	0.001	0.9996	1.999
jk7	k6_as_query	CCJ67637.1_576_mod1_d-leu	no_confident_result	d-val	1.290	0.484	0.484
jk7	k6_as_query	Q9RK14_A1_orn|horn	no_confident_result	fhorn	2.357	0.0571999999999999	0.057
jk7	k6_as_query	NP_216899.1_570_mod1_thr	ser|thr	no_force_needed	0.001	0.9996	1.000
jk7	k6_as_query	BGC0000299_ERG36782.1_467_mod1_thr	d-thr	no_force_needed	0.001	0.9996	1.000
jk7	k6_as_query	AHF21228.1_12993_mod10_glu	no_confident_result	glu	4.192	0	0
jk7	k6_as_query	O85168_A1_ser	ser	no_force_needed	0.092	0.9632	1.891
jk7	k6_as_query	Q9Z4X5_A3(9)_asn	asn	no_force_needed	0.001	0.9996	1.000
jk7	k6_as_query	O30980_A2(8)_gln	glu	no_force_needed	0.001	0.9996	1.000
jk7	k6_as_query	BGC0000449_AHF21228.1_12993_mod10_glu	no_confident_result	glu	4.192	0	0
jk7	k6_as_query	O85168_A7_dhab|dht|thr	no_confident_result	thr	2.738	0	0
jk7	k6_as_query	O33743_A3(7)_tyr	no_confident_result	phe	2.191	0.1236	0.123
jk7	k6_as_query	Q8KLL5_A1_hpg|hpg2cl	hpg|hpg2cl	no_force_needed	0.001	0.9996	1.000
jk7	k6_as_query	O52820_A3(6)_bht|tyr	bht	no_force_needed	0.361	0.8556	2.650
jk7	k6_as_query	AFZ61501.1_1515_mod2_glu	no_confident_result	glu	1.536	0.3856	0.386
jk7	k6_as_query	Q847C7_A2(7)_me-asp	me-asp	no_force_needed	1.034	0.5864	1.489
jk7	k6_as_query	AGZ15460.1_476_mod1_noh-val	noh-val	no_force_needed	0.000	1	1.000
jk7	k6_as_query	BGC0000425_AFH75322.1_1653_mod2_d-athr	no_confident_result	d-athr	0.546	0.7816	0.782
jk7	k6_as_query	BGC0000416_CBJ90287.1_561_mod1_leu	leu	no_force_needed	0.000	1	1.000
jk7	k6_as_query	Q50857_A1_ala	no_confident_result	phe-ac	8.665	0	0
jk7	k6_as_query	EPE34341.1_3930_mod4_4oh-5oh-hty	no_confident_result	no_confident_result	3.346	0	0
jk7	k6_as_query	AHZ20774.1_1541_mod2_gln	gln	no_force_needed	0.001	0.9996	0.999
jk7	k6_as_query	Q884E3_A1_asp	no_confident_result	asp	2.726	0	0
jk7	k6_as_query	BGC0000376_BAP16684.1_33_mod1_trp|6cl-trp	no_confident_result	pro	7.816	0	0
jk7	k6_as_query	EFE73312.1_1526_mod2_thr	ser	no_force_needed	0.001	0.9996	1.000
jk7	k6_as_query	XP_002568558.1_1292_mod2_his	no_confident_result	trp	5.529	0	0
jk7	k6_as_query	Q70KJ6_A3(6)_leu	leu	no_force_needed	0.071	0.9716	2.841
jk7	k6_as_query	AHH53507.1_2589_mod3_ala	ala	no_force_needed	0.000	1	1.000
jk7	k6_as_query	AEC14349.1_24_mod1_val	no_confident_result	leu	6.782	0	0
jk7	k6_as_query	Q70AZ7_A3(6)_bht	bht	no_force_needed	0.001	0.9996	2.684
jk7	k6_as_query	Q8KLL3_A2_tyr	no_confident_result	tyr	0.880	0.648	1.278
jk7	k6_as_query	BGC0001125_AIW82283.1_552_mod1_deoxy-thr	no_confident_result	deoxy-thr	0.108	0.9568	0.957
jk7	k6_as_query	CBG75492_4248_mod4_orn	orn	no_force_needed	0.001	0.9996	1.000
jk7	k6_as_query	P07702_A1_aad	no_confident_result	aad	2.217	0.1132	0.113
jk7	k6_as_query	EWS95124_9_mod1_gly	no_confident_result	aoh-gly	3.113	0	0
jk7	k6_as_query	AHZ20781.1_1540_mod2_thr	thr	no_force_needed	0.001	0.9996	1.000
jk7	k6_as_query	AGC65515.1_442_mod1_tyr	no_confident_result	tyr	3.851	0	0
jk7	k6_as_query	ADL64235_433_mod1_val	no_confident_result	phe	6.062	0	0
jk7	k6_as_query	P94873_A2_cys	cys	no_force_needed	1.920	0.232	0.232
jk7	k6_as_query	P0C064_A2(3)_val	val	no_force_needed	0.150	0.94	1.219
jk7	k6_as_query	Q939Y2_A1(8)_bht|tyr	no_confident_result	phe	3.364	0	0
jk7	k6_as_query	O05819_A1_lys	lys	no_force_needed	0.001	0.9996	1.000
jk7	k6_as_query	Q70LM7_A1_val	no_confident_result	leu	4.248	0	0
jk7	k6_as_query	O87606_A2_orn	orn	no_force_needed	1.237	0.5052	0.506
jk7	k6_as_query	P45745_A1(2)_gly	gly	no_force_needed	0.001	0.9996	1.000
jk7	k6_as_query	Q9RLP6v1_A3_ala	ala	no_force_needed	0.001	0.9996	1.000
jk7	k6_as_query	Q5DIV8_A2(6)_horn	horn	no_force_needed	0.001	0.9996	2.523
jk7	k6_as_query	Q70KJ7_A1_glu	no_confident_result	glu	1.495	0.402	0.402
jk7	k6_as_query	BGC0000449_AHF21228.1_8208_mod6_ser	ser	no_force_needed	0.001	0.9996	3.860
jk7	k6_as_query	P0C062_A1(1)_phe	phe	no_force_needed	2.059	0.1764	0.176
jk7	k6_as_query	BGC0000463_AGM14933.1_4773_mod5_gln	no_confident_result	ser	1.678	0.3288	1.326
jk7	k6_as_query	P94459_A2_glu	glu	no_force_needed	0.876	0.6496	0.650
jk7	k6_as_query	Q9R9J0_A3_gln	no_confident_result	gln	1.380	0.448	0.448
jk7	k6_as_query	BGC0000314_WP_010369430.1_2041_mod2_ile	ile|d-leu	no_force_needed	0.001	0.9996	1.000
jk7	k6_as_query	Q9Z4X5_A1(7)_asp	asp	no_force_needed	0.001	0.9996	2.674
jk7	k6_as_query	Q70K00_A1_ser	ser	no_force_needed	0.039	0.9844	2.645
jk7	k6_as_query	Q9FB18_A2_cys	no_confident_result	alpha-me-ser	4.383	0	0
jk7	k6_as_query	Q04747_A2(5)_asp	asp	no_force_needed	1.641	0.3436	0.344
jk7	k6_as_query	CCJ67639.1_619_mod1_d-gln	no_confident_result	d-gln	0.941	0.6236	0.623
jk7	k6_as_query	BGC0001168_509516289_4_mod1_arg	no_confident_result	arg	7.225	0	0
jk7	k6_as_query	Q8NJX1_A16_abu|iva	no_confident_result	abu|iva	2.816	0	0
jk7	k6_as_query	EWS95124_3485_mod4_tyr	no_confident_result	phe	2.915	0	0
jk7	k6_as_query	Q8KLL5_A3_bht	bht	no_force_needed	0.001	0.9996	2.387
jk7	k6_as_query	Q56950a_A1_dhb|sal	dhb|sal	no_force_needed	0.000	1	1.000
jk7	k6_as_query	Q51338_A2_thr	thr	no_force_needed	0.015	0.994	0.994
jk7	k6_as_query	Q09164_A4_val	no_confident_result	val	1.822	0.2712	0.271
jk7	k6_as_query	BGC0000439_AHH53507.1_5197_mod5_gly	gly	no_force_needed	0.000	1	1.000
jk7	k6_as_query	Q5DIV7_A3_ser	ser	no_force_needed	0.264	0.8944	3.094
jk7	k6_as_query	EFE73313.1_2638_mod3_gly	gly	no_force_needed	0.000	1	1.000
jk7	k6_as_query	Q8NJX1_A13_pro	no_confident_result	leu	2.624	0	0
jk7	k6_as_query	BGC0000419_AIG79243.1_1041_mod2_bht	no_confident_result	bht	0.051	0.9796	0.980
jk7	k6_as_query	O68006_A5_ile	ile	no_force_needed	0.407	0.8372	1.575
jk7	k6_as_query	BGC0000414_BAO84868.1_386_mod1_me-tyr	no_confident_result	4-5-dehydro-arg|me-tyr	3.807	0	0
jk7	k6_as_query	BGC0000398_AFH75330.1_1625_mod2_leu	leu	no_force_needed	1.802	0.2792	0.838
jk7	k6_as_query	Q9FDB3_A1(1)_dhab|dht	dhab|dht	no_force_needed	0.000	1	3.630
jk7	k6_as_query	Q9RAH4_A2_ser	no_confident_result	ser	1.011	0.5956	0.595
jk7	k6_as_query	O33743_A2(6)_gln	no_confident_result	gly	4.180	0	0
jk7	k6_as_query	BGC0001113_AIC32693.1_544_mod1_thr	no_confident_result	thr	0.842	0.6632	0.663
jk7	k6_as_query	Q09164_A2_leu	leu	no_force_needed	2.200	0.12	0.198
jk7	k6_as_query	P0C064_A3(4)_orn	orn	no_force_needed	0.094	0.9624	1.250
jk7	k6_as_query	AHZ34232.1_480_mod1_leu	no_confident_result	leu	1.667	0.3332	0.333
jk7	k6_as_query	Q04747_A1(4)_val	val	no_force_needed	1.206	0.5176	0.518
jk7	k6_as_query	BGC0001133_XBJ1_0774_2057_mod2_leu	leu	no_force_needed	0.131	0.9476	1.882
jk7	k6_as_query	AGC65514.1_530_mod1_val	val	no_force_needed	4.148	0	0
jk7	k6_as_query	Q9S1A8_A1(8)_leu	no_confident_result	leu	2.712	0	0
jk7	k6_as_query	P19787_A1_aad	aad	no_force_needed	0.001	0.9996	2.506
jk7	k6_as_query	BGC0000369_AHZ20781.1_481_mod1_thr	thr	no_force_needed	0.001	0.9996	1.000
jk7	k7_as_query	AHZ20784.1_509_mod1_thr	nme-thr	no_force_needed	0.000	1	1.000
jk7	k7_as_query	AEC14346.1_19_mod1_thr	no_confident_result	thr	6.273	0	0
jk7	k7_as_query	BGC0001149_CDF96614.1_480_mod1_ser	no_confident_result	ser	2.317	0.0731999999999999	0.128
jk7	k7_as_query	Q2VQ15_A4(7)_lys	no_confident_result	trp	4.398	0	0
jk7	k7_as_query	AEU11003.1_2671_mod3_aile	ile	no_force_needed	1.164	0.5344	0.966
jk7	k7_as_query	Q93N89_A1_hpg|hpg2cl	hpg|hpg2cl	no_force_needed	0.000	1	3.644
jk7	k7_as_query	Q9RLP6_A1_phe	phe	no_force_needed	0.001	0.9996	1.000
jk7	k7_as_query	O76858_A1_b-ala	no_confident_result	b-ala	8.834	0	0
jk7	k7_as_query	Q9Z4X5_A2(8)_gly	gly	no_force_needed	0.001	0.9996	0.999
jk7	k7_as_query	BGC0000419_AIG79241.1_462_mod1_hpg	no_confident_result	hpg|hpg2cl	0.808	0.6768	1.287
jk7	k7_as_query	Q9RNA9_A1_arg	arg	no_force_needed	0.198	0.9208	1.523
jk7	k7_as_query	BGC0000464_CDG17980.1_4858_mod5_ile	leu	no_force_needed	0.854	0.6584	0.900
jk7	k7_as_query	BGC0001045_AFR69334.1_544_mod1_d-ala	no_confident_result	val	6.171	0	0
jk7	k7_as_query	BGC0000425_AFH75322.1_5909_mod6_lys	no_confident_result	lys	0.377	0.8492	0.849
jk7	k7_as_query	Q70LM4_A1(13)_trp	trp	no_force_needed	0.842	0.6632	0.826
jk7	k7_as_query	Q9R9J1_A1_asn	asn	no_force_needed	0.903	0.6388	3.056
jk7	k7_as_query	Q6YK39_A2_thr	thr	no_force_needed	0.087	0.9652	1.356
jk7	k7_as_query	P68878_A1_ala	ala	no_force_needed	0.034	0.9864	0.986
jk7	k7_as_query	Q9L8H4_A1(4)_pro	pro	no_force_needed	2.459	0.0164	0.016
jk7	k7_as_query	O30980_A1(7)_pro	pro	no_force_needed	0.578	0.7688	1.253
jk7	k7_as_query	BGC0001147_AIS24862.1_37_mod1_glycy	no_confident_result	horn	5.801	0	0
jk7	k7_as_query	P27206_A1_glu	no_confident_result	glu	1.522	0.3912	0.391
jk7	k7_as_query	Q8GGN5_ADiscrete_ala	no_confident_result	asn	7.505	0	0
jk7	k7_as_query	BGC0000463_AGM14934.1_2646_mod3_gln	no_confident_result	gln	2.274	0.0904	0.090
jk7	k7_as_query	Q847C7_A1(6)_thr	no_confident_result	thr	2.318	0.0728	0.073
jk7	k7_as_query	Q83VS0_A5(15)_athr|thr	no_confident_result	athr	1.557	0.3772	0.377
jk7	k7_as_query	O33743_A6(10)_leu	no_confident_result	leu	1.802	0.2792	0.554
jk7	k7_as_query	BGC0001036_AGZ15455.1_29_mod1_ala|leu|val	no_confident_result	trp	9.102	0	0
jk7	k7_as_query	Q54959_A2_abu|iva	no_confident_result	val	3.347	0	0
jk7	k7_as_query	P09095_A1_phe	phe	no_force_needed	2.043	0.1828	0.183
jk7	k7_as_query	Q5DIS7_A3_horn	horn	no_force_needed	0.017	0.9932	1.753
jk7	k7_as_query	BGC0000418_AHF20584.1_460_mod1_hpg	no_confident_result	hpg|hpg2cl	0.811	0.6756	1.279
jk7	k7_as_query	Q9RLP6v2_A3_ala	ala	no_force_needed	0.001	0.9996	1.000
jk7	k7_as_query	BGC0000425_AFH75320.1_474_mod1_dhabu	no_confident_result	dhabu	0.574	0.7704	0.770
jk7	k7_as_query	Q9ZGA6_A1(11)_pip	pip	no_force_needed	0.538	0.7848	1.776
jk7	k7_as_query	AEI70245.1_1510_mod2_thr	athr|thr	no_force_needed	1.565	0.374	0.493
jk7	k7_as_query	O07944_A4_gly-ph	no_confident_result	hpg	3.232	0	0
jk7	k7_as_query	Q5DIP4_A4(7)_horn	horn	no_force_needed	2.202	0.1192	0.285
jk7	k7_as_query	Q6YK39_A1_ser	ser	no_force_needed	0.038	0.9848	2.627
jk7	k7_as_query	BGC0001036_AGZ15458.1_2022_mod2_noh-ala	noh-d-ala|oh-d-ala	no_force_needed	0.001	0.9996	1.000
jk7	k7_as_query	Q70LM5_A5(11)_trp	trp	no_force_needed	1.281	0.4876	0.570
jk7	k7_as_query	P27742_A2_cys	cys	no_force_needed	0.996	0.6016	1.987
jk7	k7_as_query	BGC0000439_AHH53506.1_4093_mod4_thr	thr	no_force_needed	0.001	0.9996	1.000
jk7	k7_as_query	Q9RAH2_A2_gly	no_confident_result	gly	1.662	0.3352	0.335
jk7	k7_as_query	Q5DIS9_A3(7)_gly	gly	no_force_needed	2.967	0	0
jk7	k7_as_query	Q6YK40_A3_pro	pro	no_force_needed	0.063	0.9748	0.975
jk7	k7_as_query	EWS95122_2421_mod2_ala	no_confident_result	ala|gly	1.512	0.3952	0.395
jk7	k7_as_query	Q8NJX1_A18_val-vol	no_confident_result	leu	3.910	0	0
jk7	k7_as_query	BGC0000464_CDG17980.1_5930_mod6_thr	no_confident_result	dhab|dht|thr	2.794	0	0
jk7	k7_as_query	AHF21228.1_10396_mod8_dab	dab	no_force_needed	0.001	0.9996	4.331
jk7	k7_as_query	Q9RFK9_A1_cys	no_confident_result	cys	1.408	0.4368	0.846
jk7	k7_as_query	AEF33078.1_1540_mod2_33p-l-ala	no_confident_result	trp	2.905	0	0
jk7	k7_as_query	Q2VQ15_A3(6)_val	no_confident_result	val	0.925	0.63	0.630
jk7	k7_as_query	YP_116976.1_488_mod1_lys	no_confident_result	lys	3.465	0	0
jk7	k7_as_query	Q84BQ5_A3(5)_leu	leu	no_force_needed	0.985	0.606	1.091
jk7	k7_as_query	P0C064/68845359_A1(2)_pro	pro	no_force_needed	0.131	0.9476	1.132
jk7	k7_as_query	BGC0000456_BAO73252.1_7854_mod6_val	no_confident_result	athr|ser	3.801	0	0
jk7	k7_as_query	Q884E5_A1_asp	no_confident_result	asp	2.753	0	0
jk7	k7_as_query	Q9FB27_A2_his	no_confident_result	4-5-dehydro-arg|me-tyr	5.221	0	0
jk7	k7_as_query	BGC0001019_AHB82071.1_3517_mod3_gly	gly	no_force_needed	3.105	0	0
jk7	k7_as_query	BGC0000335_AID65224.1_469_mod1_asn	asn	no_force_needed	4.922	0	0
jk7	k7_as_query	BGC0000464_CDG17982.1_3820_mod4_leu	leu	no_force_needed	0.465	0.814	1.398
jk7	k7_as_query	Q9RLP6_A4_alaninol	no_confident_result	ala	1.619	0.3524	0.352
jk7	k7_as_query	BAH22763.1_488_mod1_thr	no_confident_result	thr	1.634	0.3464	0.346
jk7	k7_as_query	EFE73312.1_5470_mod5_val	thr	no_force_needed	0.000	1	1.282
jk7	k7_as_query	Q8NJX1_A3_ala	no_confident_result	ser	2.291	0.0836	0.084
jk7	k7_as_query	YP_631961.1_11304_mod8_blys	no_confident_result	no_confident_result	5.338	0	0
jk7	k7_as_query	BGC0000456_BAO73252.1_6319_mod5_tyr	no_confident_result	athr|ser	2.411	0.0356	0.035
jk7	k7_as_query	Q83VS0_A12(22)_tyr	no_confident_result	ile	3.596	0	0
jk7	k7_as_query	AGC65514.1_1579_mod2_ser	ser	no_force_needed	3.090	0	0
jk7	k7_as_query	BGC0000463_AGM14925.1_1531_mod2_glu	no_confident_result	asp	2.114	0.1544	0.309
jk7	k7_as_query	AEA30273.1_471_mod1_boh-phe	no_confident_result	phe	2.403	0.0388	0.039
jk7	k7_as_query	O33743_A1(5)_asn	asn	no_force_needed	3.124	0	0
jk7	k7_as_query	BGC0000369_AHZ20774.1_477_mod1_thr	thr	no_force_needed	0.000	1	1.000
jk7	k7_as_query	Q7WRQ4_A2(9)_me-asp	me-asp	no_force_needed	0.991	0.6036	1.553
jk7	k7_as_query	AGM16413.1_2831_mod3_ser	ser	no_force_needed	0.001	0.9996	2.979
jk7	k7_as_query	O85168_A6_phe	no_confident_result	ile	3.536	0	0
jk7	k7_as_query	Q50E73_A1(6)_orn	no_confident_result	orn	2.619	0	0
jk7	k7_as_query	BGC0000464_CDG17982.1_523_mod1_ala	no_confident_result	ala	1.322	0.4712	0.471
jk7	k7_as_query	Q5DIP3_A2_horn	horn	no_force_needed	0.508	0.7968	2.000
jk7	k7_as_query	BGC0001132_xnc1_2022_77_mod1_val	no_confident_result	val	1.340	0.464	0.908
jk7	k7_as_query	BGC0000439_AHH53507.1_2589_mod3_ala	ala	no_force_needed	0.000	1	1.000
jk7	k7_as_query	AGZ15459.1_694_mod1_pip	piperazic	no_force_needed	0.000	1	1.000
jk7	k7_as_query	BGC0000371_BAH33409.1_2360_mod2_gly	no_confident_result	gly	4.460	0	0
jk7	k7_as_query	BGC0001125_AIW82283.1_1622_mod2_asn|gln	asn	no_force_needed	0.511	0.7956	1.423
jk7	k7_as_query	ZP_10287803.1_467_mod1_d-thr	thr	no_force_needed	0.001	0.9996	1.999
jk7	k7_as_query	Q9FB18_A1_b-ala	no_confident_result	glycolic-acid	7.234	0	0
jk7	k7_as_query	Q70LM7_A2_gly	no_confident_result	ala	2.368	0.0528	0.053
jk7	k7_as_query	BGC0000426_AGZ03651.1_480_mod1_ala	no_confident_result	ala	3.106	0	0
jk7	k7_as_query	Q5ZPB0_A1_pip	no_confident_result	pro	4.655	0	0
jk7	k7_as_query	AHZ34233.1_1522_mod2_gln	no_confident_result	gln	1.663	0.3348	0.335
jk7	k7_as_query	BGC0001035_EPE34341.1_1766_mod2_3oh-gln	thr	no_force_needed	0.000	1	1.000
jk7	k7_as_query	Q5DIV8_A1(5)_lys	no_confident_result	orn	2.980	0	0
jk7	k8_as_query	BGC0000369_AHZ20773.1_2017_mod2_tyr	tyr	no_force_needed	0.001	0.9996	1.000
jk7	k8_as_query	Q8KLL5_A3(6)_bht	bht	no_force_needed	0.001	0.9996	2.352
jk7	k8_as_query	Q8NJX1_A7_abu|iva	no_confident_result	gly	2.934	0	0
jk7	k8_as_query	Q50E73_A4(9)_asp	asp	no_force_needed	0.098	0.9608	0.961
jk7	k8_as_query	CCJ67640.1_1654_mod2_d-athr	dhabu	no_force_needed	0.216	0.9136	2.522
jk7	k8_as_query	AHF21229.1_1387_mod3_ala	ile	no_force_needed	0.001	0.9996	1.000
jk7	k8_as_query	Q9Z4X6_A3_trp	no_confident_result	trp	2.083	0.1668	0.167
jk7	k8_as_query	Q9FDB0_A1_thr	no_confident_result	d-cys	7.726	0	0
jk7	k8_as_query	P26046_A2_cys	cys	no_force_needed	0.008	0.9968	2.558
jk7	k8_as_query	BGC0000431_EFE73312.1_441_mod1_thr	no_confident_result	met	2.958	0	0
jk7	k8_as_query	BGC0001133_XBJ1_0774_563_mod1_leu	leu	no_force_needed	0.163	0.9348	1.863
jk7	k8_as_query	BGC0001036_AGZ15459.1_2235_mod2_3oh-3me-pro	3oh-3me-pro	no_force_needed	0.001	0.9996	1.000
jk7	k8_as_query	AHZ34232.1_1547_mod2_leu	no_confident_result	val	1.523	0.3908	0.755
jk7	k8_as_query	O68007_A1(6)_lys	no_confident_result	val	5.326	0	0
jk7	k8_as_query	BGC0000371_BAH31686.1_483_mod1_fhorn	no_confident_result	orn	2.052	0.1792	0.179
jk7	k8_as_query	Q9Z4X5_A2_gly	gly	no_force_needed	0.001	0.9996	0.999
jk7	k8_as_query	Q70LM6_A2(4)_leu	leu	no_force_needed	1.875	0.25	0.445
jk7	k8_as_query	Q70LM5_A2(8)_val	val	no_force_needed	0.810	0.676	0.874
jk7	k8_as_query	Q84BQ4_A2(8)_ser	ser	no_force_needed	0.248	0.9008	1.414
jk7	k8_as_query	Q9Z4X5_A3_asn	asn	no_force_needed	0.001	0.9996	1.000
jk7	k8_as_query	BGC0000314_WP_010369428.1_544_mod1_val	val	no_force_needed	0.001	0.9996	1.000
jk7	k8_as_query	Q8NJX1_A5_abu|iva	no_confident_result	leu	3.193	0	0
jk7	k8_as_query	BGC0000400_AGM16414.1_2358_mod3_ile	ile	no_force_needed	0.001	0.9996	2.261
jk7	k8_as_query	BGC0000431_EFE73312.1_5470_mod5_thr	val	no_force_needed	0.000	1	1.000
jk7	k8_as_query	BGC0000425_AFH75320.1_4799_mod5_d-val	no_confident_result	d-val	0.179	0.9284	0.928
jk7	k8_as_query	Q93I56_A1_asn	asn	no_force_needed	0.054	0.9784	3.456
jk7	k8_as_query	CCA29202.1_1497_mod2_cys	cys	no_force_needed	3.073	0	0
jk7	k8_as_query	Q93N87_A3_tyr	tyr	no_force_needed	0.001	0.9996	1.000
jk7	k8_as_query	Q56950b_A1_dhb|sal	dhb|sal	no_force_needed	0.000	1	1.000
jk7	k8_as_query	EPE34341.1_1766_mod2_thr	3oh-gln	no_force_needed	0.000	1	1.000
jk7	k8_as_query	Q83VS0_A4(14)_dhab|dht	dhab|dht	no_force_needed	0.670	0.732	3.599
jk7	k8_as_query	Q65NK5_A2_leu	leu	no_force_needed	0.554	0.7784	0.973
jk7	k8_as_query	BGC0000449_AHF21228.1_3575_mod3_gly	gly	no_force_needed	0.001	0.9996	1.000
jk7	k8_as_query	Q93N87_A2_hpg|hpg2cl	hpg|hpg2cl	no_force_needed	0.616	0.7536	2.964
jk7	k8_as_query	AGZ15476.1_490_mod1_3oh-leu	3oh-leu	no_force_needed	0.001	0.9996	1.000
jk7	k8_as_query	BGC0000449_AHF21228.1_474_mod1_val	no_confident_result	val	1.401	0.4396	0.879
jk7	k8_as_query	simA_mod4_val	no_confident_result	d-ala	3.013	0	0
jk7	k8_as_query	O52819_A3_asn	no_confident_result	asn	0.572	0.7712	0.771
jk7	k8_as_query	O52819_A1_leu	no_confident_result	leu	0.840	0.664	0.664
jk7	k8_as_query	CCJ67637.1_2717_mod3_d-ser	d-ser	no_force_needed	0.681	0.7276	1.434
jk7	k8_as_query	BGC0000974_AIR74926.1_511_mod1_gly	gly	no_force_needed	4.365	0	0
jk7	k8_as_query	BGC0000439_AHH53507.1_4147_mod4_asp	asp	no_force_needed	0.001	0.9996	1.510
jk7	k8_as_query	Q9K5L9_A1(7)_ile	no_confident_result	aile	1.160	0.536	0.536
jk7	k8_as_query	O05647_A2_phe	no_confident_result	boh-phe	2.300	0.0800000000000001	0.080
jk7	k8_as_query	AHF21228.1_474_mod1_val	no_confident_result	val	1.401	0.4396	0.879
jk7	k8_as_query	BGC0000398_AFH75329.1_3793_mod4_ser	ser	no_force_needed	0.509	0.7964	1.133
jk7	k8_as_query	Q93N87_A2(5)_hpg|hpg2cl	hpg|hpg2cl	no_force_needed	0.610	0.756	2.934
jk7	k8_as_query	AHF21229.1_474_mod2_ile	no_confident_result	ile	1.948	0.2208	0.221
jk7	k8_as_query	EPE34341.1_2860_mod3_4oh-pro	3oh-pro|3oh-4me-pro	no_force_needed	0.000	1	1.000
jk7	k8_as_query	AEA30273.1_2593_mod3_boh-ome-tyr	no_confident_result	d-leu	3.412	0	0
jk7	k8_as_query	Q09164_A9_val	no_confident_result	val	2.000	0.2	0.200
jk7	k8_as_query	O33743_A4(8)_val	no_confident_result	val	1.797	0.2812	0.503
jk7	k8_as_query	CCJ67638.1_1653_mod2_d-val	d-val	no_force_needed	0.188	0.9248	3.450
jk7	k8_as_query	Q9RLP6/5869932_A1_phe	phe	no_force_needed	0.001	0.9996	1.000
jk7	k8_as_query	O68006_A3_leu	no_confident_result	leu	3.987	0	0
jk7	k8_as_query	Q2VQ15_A1(4)_ile	no_confident_result	val	1.685	0.326	0.593
jk7	k8_as_query	Q70LM5_A4(10)_leu	leu	no_force_needed	1.616	0.3536	0.548
jk7	k8_as_query	BGC0000400_AGM16412.1_3015_mod3_thr	thr	no_force_needed	0.001	0.9996	1.382
jk7	k8_as_query	BGC0000398_AFH75330.1_3756_mod4_val	no_confident_result	val	1.066	0.5736	0.574
jk7	k8_as_query	Q45R85_A4_thr	thr	no_force_needed	2.973	0	0
jk7	k8_as_query	BGC0000974_AIR74925.1_516_mod1_gly	gly	no_force_needed	4.059	0	0
jk7	k8_as_query	BGC0000419_AIG79242.1_473_mod1_dpg	dpg	no_force_needed	0.028	0.9888	3.049
jk7	k8_as_query	AHH53508.1_1559_mod2_kyn	no_confident_result	horn	4.503	0	0
jk7	k8_as_query	AGM16412.1_1974_mod2_val	val	no_force_needed	0.001	0.9996	4.225
jk7	k8_as_query	AFZ61501.1_498_mod1_leu	leu	no_force_needed	1.244	0.5024	0.787
jk7	k8_as_query	Q70AZ7_A3_bht	bht	no_force_needed	0.001	0.9996	2.657
jk7	k8_as_query	Q83VS1_A5_ala	ala	no_force_needed	0.001	0.9996	5.314
jk7	k8_as_query	P35854_A1_ala	no_confident_result	ala	3.724	0	0
jk7	k8_as_query	Q8NJX1_A6_gln	no_confident_result	gln	2.540	0	0
jk7	k8_as_query	Q9F636_A1_lys	no_confident_result	blys	5.229	0	0
jk7	k8_as_query	Q5DIV7_A2_arg	no_confident_result	horn	4.902	0	0
jk7	k8_as_query	P45745_A2(3)_athr|thr	thr	no_force_needed	1.606	0.3576	0.358
jk7	k8_as_query	ADL64235_1458_mod2_phe	no_confident_result	leu	7.985	0	0
jk7	k8_as_query	BGC0000419_AIG79240.1_481_mod1_dpg	dpg	no_force_needed	0.058	0.9768	4.850
jk7	k8_as_query	O87704_A2(4)_thr	no_confident_result	thr	0.923	0.6308	0.631
jk7	k8_as_query	Q8NJX1_A11_leu	no_confident_result	abu|iva	3.299	0	0
jk7	k8_as_query	EFE73308.1_231_mod1_dab|dpr	cysa	no_force_needed	0.000	1	1.000
jk7	k8_as_query	BGC0000463_AGM14933.1_7925_mod8_leu	no_confident_result	leu	1.067	0.5732	0.573
jk7	k8_as_query	Q9RK14_A2_athr	no_confident_result	thr	4.497	0	0
jk7	k8_as_query	BGC0000439_AHH53508.1_1559_mod2_kyn	no_confident_result	horn	4.503	0	0
jk7	k8_as_query	EFE73312.1_441_mod1_asp	no_confident_result	met	2.958	0	0
jk7	k8_as_query	AHF21228.1_11933_mod9_phe	phe	no_force_needed	0.001	0.9996	1.000
jk7	k8_as_query	AGC65516.1_1081_mod1_val	val	no_force_needed	4.275	0	0
jk7	k8_as_query	ChaP_mod1_trp	no_confident_result	ala	6.056	0	0
jk7	k8_as_query	Q70LM6_A1(3)_ala	no_confident_result	gly	2.310	0.076	0.076
jk7	k8_as_query	Q70KJ7_A2_leu	leu	no_force_needed	0.884	0.6464	0.654
jk7	k8_as_query	BGC0000423_CBG75492.1_240_mod1_fhorn	nme-fhorn	no_force_needed	0.000	1	1.000
jk7	k8_as_query	AHZ34233.1_3643_mod4_leu	leu	no_force_needed	0.224	0.9104	2.341
jk7	k8_as_query	EPE34341.1_5024_mod5_3oh-gln	thr	no_force_needed	0.000	1	1.000
jk7	k8_as_query	Q70KJ6_A1(4)_val	val	no_force_needed	1.218	0.5128	0.513
jk7	k8_as_query	AEF33078.1_463_mod1_thr	no_confident_result	athr|thr	2.194	0.1224	0.122
jk7	k8_as_query	simA_mod8_leu	no_confident_result	abu|iva	2.744	0	0
jk7	k8_as_query	Q9Z4X6_A6_hpg|hpg2cl	no_confident_result	abu|iva	3.193	0	0
jk7	k9_as_query	BGC0000369_AHZ20784.1_1992_mod2_glu|tyr	gln|tyr	no_force_needed	0.000	1	1.000
jk7	k9_as_query	BGC0000464_CDG17980.1_525_mod1_pro	no_confident_result	pro	0.165	0.934	0.934
jk7	k9_as_query	removed_A1(2)_athr|thr	no_confident_result	thr	2.577	0	0
jk7	k9_as_query	Q9RAH4_A3_pro|me-pro	no_confident_result	pro|me-pro	0.834	0.6664	0.666
jk7	k9_as_query	BGC0001178_AGS77309.1_1972_mod2_tyr	no_confident_result	hpg|hpg2cl	0.810	0.676	2.413
jk7	k9_as_query	Q09164_A3_leu	leu	no_force_needed	2.275	0.09	0.119
jk7	k9_as_query	Q9C1G0v2_A1_aad	aad	no_force_needed	0.001	0.9996	2.134
jk7	k9_as_query	Q70KJ6_A2(5)_asp	asp	no_force_needed	1.664	0.3344	0.335
jk7	k9_as_query	BGC0000463_AGM14934.1_1604_mod2_leu	no_confident_result	leu	1.319	0.4724	0.954
jk7	k9_as_query	Q9KID8v1_A1_pip	pip	no_force_needed	0.001	0.9996	2.012
jk7	k9_as_query	AGM16413.1_5398_mod5_pro	pro	no_force_needed	0.001	0.9996	1.000
jk7	k9_as_query	O87314_A2_thr	no_confident_result	athr	3.744	0	0
jk7	k9_as_query	BGC0000431_EFE73313.1_2638_mod3_gly	gly	no_force_needed	0.000	1	1.000
jk7	k9_as_query	CBG75492_2792_mod3_nme-fhorn	horn	no_force_needed	0.000	1	1.332
jk7	k9_as_query	Q8J0L6_A1_lys-erg	no_confident_result	pro	5.097	0	0
jk7	k9_as_query	AHZ34233.1_4704_mod5_leu	no_confident_result	leu	1.398	0.4408	0.912
jk7	k9_as_query	Q5DIP3_A1_ser	ser	no_force_needed	0.016	0.9936	3.251
jk7	k9_as_query	Q70JX1_A2_orn	no_confident_result	orn	2.624	0	0
jk7	k9_as_query	BGC0001166_AGQ43600.1_228_mod1_pro	no_confident_result	pro	0.646	0.7416	1.483
jk7	k9_as_query	AFZ61526.1_2645_mod3_ile	ile	no_force_needed	1.635	0.346	0.812
jk7	k9_as_query	Q6VT93_A1(16)_arg	no_confident_result	arg	6.748	0	0
jk7	k9_as_query	Q70LM6_A4(6)_val	val	no_force_needed	2.056	0.1776	0.302
jk7	k9_as_query	YP_116975.1_508_mod1_lys	no_confident_result	lys	3.373	0	0
jk7	k9_as_query	Q09164_A6_abu	no_confident_result	ala	3.500	0	0
jk7	k9_as_query	Q93I55_A4_pro	pro	no_force_needed	1.004	0.5984	0.598
jk7	k9_as_query	BGC0000463_AGM14925.1_482_mod1_leu	no_confident_result	leu	1.991	0.2036	0.408
jk7	k9_as_query	Q9KIZ9_A1_cys	cys	no_force_needed	3.121	0	0
jk7	k9_as_query	BGC0000449_AHF21229.1_2929_mod3_ala	no_confident_result	val	2.628	0	0
jk7	k9_as_query	Q84BQ5_A1(3)_thr	no_confident_result	thr	1.139	0.5444	0.544
jk7	k9_as_query	Q9FDB3_A3(3)_val	val	no_force_needed	0.307	0.8772	3.621
jk7	k9_as_query	BGC0000371_BAH31686.1_1984_mod2_ser	no_confident_result	no_confident_result	4.130	0	0
jk7	k9_as_query	BGC0000418_AHF20582.1_26_mod1_hpg	hpg	no_force_needed	0.139	0.9444	1.487
jk7	k9_as_query	BGC0001178_AGS77308.1_476_mod1_dpg	dpg	no_force_needed	0.714	0.7144	3.182
jk7	k9_as_query	AEA30272.1_1550_mod2_ala	no_confident_result	ala	3.353	0	0
jk7	k9_as_query	BGC0000439_AHH53507.1_1547_mod2_asp	asp	no_force_needed	0.000	1	1.000
jk7	k9_as_query	P25464_A2_cys	no_confident_result	cys	0.901	0.6396	2.219
jk7	k9_as_query	Q83Y49_A1_val	no_confident_result	ile|val	2.575	0	0
jk7	k9_as_query	CCJ67640.1_4826_mod5_d-dab	dab	no_force_needed	0.343	0.8628	2.913
jk7	k9_as_query	AHH53507.1_475_mod1_orn	orn	no_force_needed	0.000	1	1.000
jk7	k9_as_query	AGZ15459.1_2235_mod2_3oh-3me-pro	3oh-3me-pro	no_force_needed	0.001	0.9996	0.999
jk7	k9_as_query	BGC0000464_CDG17980.1_1601_mod2_ala	no_confident_result	ala	1.362	0.4552	0.455
jk7	k9_as_query	Q9FB23_A2_asn	no_confident_result	leu	5.823	0	0
jk7	k9_as_query	BGC0000426_AGZ03651.1_1997_mod2_trp	no_confident_result	tyr	2.187	0.1252	0.445
jk7	k9_as_query	AHZ20773.1_478_mod1_thr	thr	no_force_needed	0.000	1	1.000
jk7	k9_as_query	simA_mod9_val	abu|iva	no_force_needed	2.107	0.1572	0.157
jk7	k9_as_query	Q5J1Q7_A1_hpg|hpg2cl	no_confident_result	hpg|hpg2cl	5.654	0	0
jk7	k9_as_query	BGC0001125_AIW82277.1_2006_mod2_pro	no_confident_result	pro	2.303	0.0788	0.151
jk7	k9_as_query	BGC0001178_AGS77310.1_492_mod1_dpg	no_confident_result	dpg	0.573	0.7708	4.088
jk7	k9_as_query	simA_mod10_leu	no_confident_result	bmt	2.699	0	0
jk7	k9_as_query	O52820_A1(4)_hpg|hpg2cl	no_confident_result	hpg|hpg2cl	0.647	0.7412	0.741
jk7	k9_as_query	O68008_A5(12)_asn	asn	no_force_needed	3.130	0	0
jk7	k9_as_query	P27206_A3_leu	leu	no_force_needed	0.074	0.9704	2.041
jk7	k9_as_query	BGC0000464_CDG17981.1_533_mod1_leu	no_confident_result	ile	0.851	0.6596	0.660
jk7	k9_as_query	Q9K5M1_A4(6)_tyr	phe	no_force_needed	1.669	0.3324	0.332
jk7	k9_as_query	BGC0000416_CBJ90288.1_557_mod1_val	val	no_force_needed	0.000	1	2.576
jk7	k9_as_query	BGC0000463_AGM14933.1_1613_mod2_gln	no_confident_result	ser	0.138	0.9448	0.945
jk7	k9_as_query	Q9F638/11127897_A_dhb	dhb|sal	no_force_needed	1.684	0.3264	0.326
jk7	k9_as_query	BGC0000371_BAH33409.1_494_mod1_arg	no_confident_result	orn	4.902	0	0
jk7	k9_as_query	Q83VS1_A1(6)_ala	ala	no_force_needed	0.001	0.9996	6.398
jk7	k9_as_query	BGC0000463_AGM14934.1_568_mod1_leu	no_confident_result	leu	1.954	0.2184	1.048
jk7	k9_as_query	BGC0001125_AIW82285.1_488_mod1_thr	no_confident_result	deoxy-thr	1.424	0.4304	0.830
jk7	k9_as_query	Q70P97_A1_cys	cys	no_force_needed	0.554	0.7784	1.175
jk7	k9_as_query	AGM16413.1_1312_mod2_lys	lys	no_force_needed	0.001	0.9996	2.837
jk7	k9_as_query	P29698_A1(2)_ser	ser	no_force_needed	0.039	0.9844	0.984
jk7	k9_as_query	BGC0001045_AFR69334.1_2032_mod2_d-cys	no_confident_result	thr	6.554	0	0
jk7	k9_as_query	Q8G983_A1(6)_ser	ser	no_force_needed	1.745	0.302	0.302
jk7	k9_as_query	Q45R83_A1(8)_lys	no_confident_result	horn	3.976	0	0
jk7	k9_as_query	O07944_A2_phe	no_confident_result	tyr	2.920	0	0
jk7	k9_as_query	Q70KJ7_A3_leu	leu	no_force_needed	0.072	0.9712	2.121
jk7	k9_as_query	Q9L8H4_A3(6)_val	no_confident_result	val	0.750	0.7	0.700
jk7	k9_as_query	CBG75492_5304_mod5_d-cyclo-horn	horn	no_force_needed	0.000	1	1.000
jk7	k9_as_query	BGC0000439_AHH53506.1_1527_mod2_asp	asp	no_force_needed	0.000	1	1.000
jk7	k9_as_query	Q8KLL5_A1(4)_hpg|hpg2cl	hpg|hpg2cl	no_force_needed	0.001	0.9996	1.000
jk7	k9_as_query	Q00869_A1_hyv	no_confident_result	ala	6.132	0	0
jk7	k9_as_query	BGC0000314_WP_010369428.1_2037_mod2_asn	asn	no_force_needed	0.001	0.9996	1.000
jk7	k9_as_query	Q9K5M1_A3(5)_thr	no_confident_result	thr	1.632	0.3472	0.347
jk7	k9_as_query	AFZ61525.1_3733_mod4_ser	ser	no_force_needed	0.532	0.7872	1.243
jk7	k9_as_query	AHZ20774.1_477_mod1_thr	thr	no_force_needed	0.000	1	1.000
jk7	k9_as_query	O66069_A1_gln	gln	no_force_needed	0.061	0.9756	1.866
jk7	k9_as_query	Q01886/62867029_A3_ala	no_confident_result	ala	0.067	0.9732	0.973
jk7	k9_as_query	Q84BQ5_A4(6)_ser	ser	no_force_needed	0.251	0.8996	1.388
jk7	k9_as_query	CCA29203.1_542_mod1_ser	no_confident_result	ser	3.851	0	0
jk7	k9_as_query	BGC0000299_ERG36783.1_2037_mod2_asn	asn	no_force_needed	0.014	0.9944	0.994
jk7	k9_as_query	BGC0000463_AGM14933.1_2676_mod3_val	no_confident_result	val	0.090	0.964	0.964
jk7	k9_as_query	ChaP_mod2_ser	no_confident_result	trp	5.882	0	0
jk7	k9_as_query	BGC0000449_AHF21228.1_10396_mod8_dab	dab	no_force_needed	0.001	0.9996	3.371
jk7	k9_as_query	AHF21228.1_2025_mod2_dab	dab	no_force_needed	0.001	0.9996	3.345
jk7	k9_as_query	Q5DIS9_A2(6)_horn	horn	no_force_needed	0.017	0.9932	2.176
jk7	k9_as_query	Q8KLL3_A1_hpg|hpg2cl	no_confident_result	hpg	0.856	0.6576	0.658
jk7	k9_as_query	Q8GAQ3_A2(4)_cys	cys	no_force_needed	2.302	0.0792	0.079
jk7	k9_as_query	BGC0000439_AHH53508.1_483_mod1_glu	glu	no_force_needed	0.001	0.9996	1.000
jk7	k9_as_query	Q9FDB2_A_dhb	no_confident_result	dhb|sal	3.896	0	0
